<?xml version="1.0" encoding="UTF-8" standalone="no"?>
<!DOCTYPE svg PUBLIC "-//W3C//DTD SVG 1.1//EN"
 "http://www.w3.org/Graphics/SVG/1.1/DTD/svg11.dtd">
<!-- Generated by graphviz version 2.43.0 (0)
 -->
<!-- Title: G Pages: 1 -->
<svg width="2879pt" height="2128pt"
 viewBox="0.00 0.00 2879.00 2128.00" xmlns="http://www.w3.org/2000/svg" xmlns:xlink="http://www.w3.org/1999/xlink">
<g id="graph0" class="graph" transform="scale(1 1) rotate(0) translate(4 2124)">
<title>G</title>
<polygon fill="white" stroke="transparent" points="-4,4 -4,-2124 2875,-2124 2875,4 -4,4"/>
<!-- 818983003 -->
<g id="node1" class="node">
<title>818983003</title>
<polygon fill="#99ccff" stroke="black" points="1215,-1339 634,-1339 634,-1251 1215,-1251 1215,-1339"/>
<text text-anchor="start" x="642" y="-1327.8" font-family="Helvetica,sans-Serif" font-size="9.00" fill="blue">818983003</text>
<text text-anchor="start" x="642" y="-1317.8" font-family="Helvetica,sans-Serif" font-size="9.00" fill="blue">Structure of abdominopelvic cavity and/or content of abdominopelvic cavity and/or anterior abdominal wall (body structure)</text>
<text text-anchor="middle" x="924.5" y="-1297.8" font-family="Helvetica,sans-Serif" font-size="9.00" fill="blue">This is considered the most commonly used clinical variant of abdomen and relates to the space and content within the</text>
<text text-anchor="middle" x="924.5" y="-1287.8" font-family="Helvetica,sans-Serif" font-size="9.00" fill="blue">abdominopelvic cavity plus the anterior and lateral abdominal wall. The volume is bounded by, but excludes: superiorly the</text>
<text text-anchor="middle" x="924.5" y="-1277.8" font-family="Helvetica,sans-Serif" font-size="9.00" fill="blue">thoracic diaphragm; inferiorly the pelvic diaphragm; and posteriorly the posterior wall of the abdomen proper: The pelvic</text>
<text text-anchor="middle" x="924.5" y="-1267.8" font-family="Helvetica,sans-Serif" font-size="9.00" fill="blue">component consists of the cavity of the true pelvis, which is bounded by, but excludes, the pelvic wall. Anteriorly this</text>
<text text-anchor="middle" x="924.5" y="-1257.8" font-family="Helvetica,sans-Serif" font-size="9.00" fill="blue">volume is bounded and includes the anterior abdominal (including the lateral abdominal wall).</text>
</g>
<!-- 63337009 -->
<g id="node2" class="node">
<title>63337009</title>
<polygon fill="#99ccff" stroke="black" points="714,-1594 409,-1594 409,-1436 714,-1436 714,-1594"/>
<text text-anchor="start" x="417" y="-1582.8" font-family="Helvetica,sans-Serif" font-size="9.00" fill="blue">63337009</text>
<text text-anchor="start" x="417" y="-1572.8" font-family="Helvetica,sans-Serif" font-size="9.00" fill="blue">Structure of abdominopelvic segment of trunk (body structure)</text>
<text text-anchor="middle" x="561.5" y="-1552.8" font-family="Helvetica,sans-Serif" font-size="9.00" fill="blue">This segment relates to the volume of the trunk that is</text>
<text text-anchor="middle" x="561.5" y="-1542.8" font-family="Helvetica,sans-Serif" font-size="9.00" fill="blue">bounded by and includes: superiorly thoracic diaphragm and</text>
<text text-anchor="middle" x="561.5" y="-1532.8" font-family="Helvetica,sans-Serif" font-size="9.00" fill="blue">inferiorly the perineum and external genitalia. The volume</text>
<text text-anchor="middle" x="561.5" y="-1522.8" font-family="Helvetica,sans-Serif" font-size="9.00" fill="blue">includes the entire transverse thickness of the body over the</text>
<text text-anchor="middle" x="561.5" y="-1512.8" font-family="Helvetica,sans-Serif" font-size="9.00" fill="blue">longitudinal extent between these upper (superior) and lower</text>
<text text-anchor="middle" x="561.5" y="-1502.8" font-family="Helvetica,sans-Serif" font-size="9.00" fill="blue">(inferior) boundaries including the overlying muscles, skin</text>
<text text-anchor="middle" x="561.5" y="-1492.8" font-family="Helvetica,sans-Serif" font-size="9.00" fill="blue">and subcutaneous tissue. The segment includes the</text>
<text text-anchor="middle" x="561.5" y="-1482.8" font-family="Helvetica,sans-Serif" font-size="9.00" fill="blue">abdominopelvic cavity, contents and wall including the</text>
<text text-anchor="middle" x="561.5" y="-1472.8" font-family="Helvetica,sans-Serif" font-size="9.00" fill="blue">posterior lumbar region, the volume of the true and false</text>
<text text-anchor="middle" x="561.5" y="-1462.8" font-family="Helvetica,sans-Serif" font-size="9.00" fill="blue">pelvic cavities including the bony pelvis and pelvic wall,</text>
<text text-anchor="middle" x="561.5" y="-1452.8" font-family="Helvetica,sans-Serif" font-size="9.00" fill="blue">the entire perineum and external genitalia including skin and</text>
<text text-anchor="middle" x="561.5" y="-1442.8" font-family="Helvetica,sans-Serif" font-size="9.00" fill="blue">subcutaneous tissue.</text>
</g>
<!-- 818983003&#45;&gt;63337009 -->
<g id="edge1" class="edge">
<title>818983003&#45;&gt;63337009</title>
<path fill="none" stroke="black" d="M674,-1339.26C674,-1339.26 674,-1425.65 674,-1425.65"/>
<polygon fill="none" stroke="black" points="670.5,-1425.65 674,-1435.65 677.5,-1425.65 670.5,-1425.65"/>
</g>
<!-- 818982008 -->
<g id="node3" class="node">
<title>818982008</title>
<polygon fill="#99ccff" stroke="black" points="1111.5,-1579 737.5,-1579 737.5,-1451 1111.5,-1451 1111.5,-1579"/>
<text text-anchor="start" x="745.5" y="-1567.8" font-family="Helvetica,sans-Serif" font-size="9.00" fill="blue">818982008</text>
<text text-anchor="start" x="745.5" y="-1557.8" font-family="Helvetica,sans-Serif" font-size="9.00" fill="blue">Structure of abdominopelvic cross&#45;sectional segment of trunk (body structure)</text>
<text text-anchor="middle" x="924.5" y="-1537.8" font-family="Helvetica,sans-Serif" font-size="9.00" fill="blue">This cross&#45;sectional segment is bounded superiorly by a virtual horizontal</text>
<text text-anchor="middle" x="924.5" y="-1527.8" font-family="Helvetica,sans-Serif" font-size="9.00" fill="blue">plane at the level of the junction between T8 and T9 (and thus also includes</text>
<text text-anchor="middle" x="924.5" y="-1517.8" font-family="Helvetica,sans-Serif" font-size="9.00" fill="blue">part of the thoracic volume below this level); and inferiorly it extends to</text>
<text text-anchor="middle" x="924.5" y="-1507.8" font-family="Helvetica,sans-Serif" font-size="9.00" fill="blue">the perineum, including the volume of the true and false pelvic cavities and</text>
<text text-anchor="middle" x="924.5" y="-1497.8" font-family="Helvetica,sans-Serif" font-size="9.00" fill="blue">part but not necessarily the entire external genitalia. The volume includes</text>
<text text-anchor="middle" x="924.5" y="-1487.8" font-family="Helvetica,sans-Serif" font-size="9.00" fill="blue">the entire transverse thickness of the body over the longitudinal extent</text>
<text text-anchor="middle" x="924.5" y="-1477.8" font-family="Helvetica,sans-Serif" font-size="9.00" fill="blue">between the superior (upper) and inferior (lower) boundaries including the</text>
<text text-anchor="middle" x="924.5" y="-1467.8" font-family="Helvetica,sans-Serif" font-size="9.00" fill="blue">skin and subcutaneous tissue. The segment relates to the cross&#45;sectional or</text>
<text text-anchor="middle" x="924.5" y="-1457.8" font-family="Helvetica,sans-Serif" font-size="9.00" fill="blue">projectional volume as perceived by transmissive or emissive imaging.</text>
</g>
<!-- 818983003&#45;&gt;818982008 -->
<g id="edge2" class="edge">
<title>818983003&#45;&gt;818982008</title>
<path fill="none" stroke="black" d="M986.83,-1339.26C986.83,-1339.26 986.83,-1440.8 986.83,-1440.8"/>
<polygon fill="none" stroke="black" points="983.33,-1440.8 986.83,-1450.8 990.33,-1440.8 983.33,-1440.8"/>
</g>
<!-- 420473002 -->
<g id="node4" class="node">
<title>420473002</title>
<polygon fill="#99ccff" stroke="black" points="1047.5,-1652 811.5,-1652 811.5,-1616 1047.5,-1616 1047.5,-1652"/>
<text text-anchor="start" x="819.5" y="-1636.8" font-family="Helvetica,sans-Serif" font-size="9.00">420473002</text>
<text text-anchor="start" x="819.5" y="-1626.8" font-family="Helvetica,sans-Serif" font-size="9.00">Structure of subregion of trunk (body structure)</text>
</g>
<!-- 63337009&#45;&gt;420473002 -->
<g id="edge4" class="edge">
<title>63337009&#45;&gt;420473002</title>
<path fill="none" stroke="black" d="M714.29,-1587C800.12,-1587 890.17,-1587 890.17,-1587 890.17,-1587 890.17,-1605.96 890.17,-1605.96"/>
<polygon fill="none" stroke="black" points="886.67,-1605.96 890.17,-1615.96 893.67,-1605.96 886.67,-1605.96"/>
</g>
<!-- 69548008 -->
<g id="node5" class="node">
<title>69548008</title>
<polygon fill="#99ccff" stroke="black" points="793,-1652 580,-1652 580,-1616 793,-1616 793,-1652"/>
<text text-anchor="start" x="588" y="-1636.8" font-family="Helvetica,sans-Serif" font-size="9.00">69548008</text>
<text text-anchor="start" x="588" y="-1626.8" font-family="Helvetica,sans-Serif" font-size="9.00">Lower body part structure (body structure)</text>
</g>
<!-- 63337009&#45;&gt;69548008 -->
<g id="edge5" class="edge">
<title>63337009&#45;&gt;69548008</title>
<path fill="none" stroke="black" d="M647,-1594.04C647,-1594.04 647,-1605.94 647,-1605.94"/>
<polygon fill="none" stroke="black" points="643.5,-1605.94 647,-1615.94 650.5,-1605.94 643.5,-1605.94"/>
</g>
<!-- 416775004 -->
<g id="node6" class="node">
<title>416775004</title>
<polygon fill="#99ccff" stroke="black" points="732.5,-1768 428.5,-1768 428.5,-1732 732.5,-1732 732.5,-1768"/>
<text text-anchor="start" x="436.5" y="-1752.8" font-family="Helvetica,sans-Serif" font-size="9.00">416775004</text>
<text text-anchor="start" x="436.5" y="-1742.8" font-family="Helvetica,sans-Serif" font-size="9.00">Chest and/or abdomen and/or pelvis structure (body structure)</text>
</g>
<!-- 63337009&#45;&gt;416775004 -->
<g id="edge6" class="edge">
<title>63337009&#45;&gt;416775004</title>
<path fill="none" stroke="black" d="M504.25,-1594.23C504.25,-1594.23 504.25,-1721.6 504.25,-1721.6"/>
<polygon fill="none" stroke="black" points="500.75,-1721.6 504.25,-1731.6 507.75,-1721.6 500.75,-1721.6"/>
</g>
<!-- 818982008&#45;&gt;420473002 -->
<g id="edge3" class="edge">
<title>818982008&#45;&gt;420473002</title>
<path fill="none" stroke="black" d="M968.83,-1579.03C968.83,-1579.03 968.83,-1605.62 968.83,-1605.62"/>
<polygon fill="none" stroke="black" points="965.33,-1605.62 968.83,-1615.62 972.33,-1605.62 965.33,-1605.62"/>
</g>
<!-- 22943007 -->
<g id="node60" class="node">
<title>22943007</title>
<polygon fill="#99ccff" stroke="black" points="1012,-1710 847,-1710 847,-1674 1012,-1674 1012,-1710"/>
<text text-anchor="start" x="855" y="-1694.8" font-family="Helvetica,sans-Serif" font-size="9.00">22943007</text>
<text text-anchor="start" x="855" y="-1684.8" font-family="Helvetica,sans-Serif" font-size="9.00">Trunk structure (body structure)</text>
</g>
<!-- 420473002&#45;&gt;22943007 -->
<g id="edge91" class="edge">
<title>420473002&#45;&gt;22943007</title>
<path fill="none" stroke="black" d="M929.5,-1652.03C929.5,-1652.03 929.5,-1663.78 929.5,-1663.78"/>
<polygon fill="none" stroke="black" points="926,-1663.78 929.5,-1673.78 933,-1663.78 926,-1663.78"/>
</g>
<!-- 128263001 -->
<g id="node40" class="node">
<title>128263001</title>
<polygon fill="#99ccff" stroke="black" points="805,-1710 614,-1710 614,-1674 805,-1674 805,-1710"/>
<text text-anchor="start" x="622" y="-1694.8" font-family="Helvetica,sans-Serif" font-size="9.00">128263001</text>
<text text-anchor="start" x="622" y="-1684.8" font-family="Helvetica,sans-Serif" font-size="9.00">Lower body structure (body structure)</text>
</g>
<!-- 69548008&#45;&gt;128263001 -->
<g id="edge39" class="edge">
<title>69548008&#45;&gt;128263001</title>
<path fill="none" stroke="black" d="M703.5,-1652.03C703.5,-1652.03 703.5,-1663.78 703.5,-1663.78"/>
<polygon fill="none" stroke="black" points="700,-1663.78 703.5,-1673.78 707,-1663.78 700,-1663.78"/>
</g>
<!-- 52530000 -->
<g id="node15" class="node">
<title>52530000</title>
<polygon fill="#99ccff" stroke="black" points="997.5,-1857 803.5,-1857 803.5,-1821 997.5,-1821 997.5,-1857"/>
<text text-anchor="start" x="811.5" y="-1841.8" font-family="Helvetica,sans-Serif" font-size="9.00">52530000</text>
<text text-anchor="start" x="811.5" y="-1831.8" font-family="Helvetica,sans-Serif" font-size="9.00">Body region structure (body structure)</text>
</g>
<!-- 416775004&#45;&gt;52530000 -->
<g id="edge16" class="edge">
<title>416775004&#45;&gt;52530000</title>
<path fill="none" stroke="black" d="M580.5,-1768.01C580.5,-1794.02 580.5,-1839 580.5,-1839 580.5,-1839 793.19,-1839 793.19,-1839"/>
<polygon fill="none" stroke="black" points="793.19,-1842.5 803.19,-1839 793.19,-1835.5 793.19,-1842.5"/>
</g>
<!-- 442083009 -->
<g id="node7" class="node">
<title>442083009</title>
<polygon fill="#99ccff" stroke="black" points="1632.5,-2004 1362.5,-2004 1362.5,-1968 1632.5,-1968 1632.5,-2004"/>
<text text-anchor="start" x="1370.5" y="-1988.8" font-family="Helvetica,sans-Serif" font-size="9.00">442083009</text>
<text text-anchor="start" x="1370.5" y="-1978.8" font-family="Helvetica,sans-Serif" font-size="9.00">Anatomical or acquired body structure (body structure)</text>
</g>
<!-- 123037004 -->
<g id="node8" class="node">
<title>123037004</title>
<polygon fill="#99ccff" stroke="black" points="1578.5,-2062 1416.5,-2062 1416.5,-2026 1578.5,-2026 1578.5,-2062"/>
<text text-anchor="start" x="1424.5" y="-2046.8" font-family="Helvetica,sans-Serif" font-size="9.00">123037004</text>
<text text-anchor="start" x="1424.5" y="-2036.8" font-family="Helvetica,sans-Serif" font-size="9.00">Body structure (body structure)</text>
</g>
<!-- 442083009&#45;&gt;123037004 -->
<g id="edge7" class="edge">
<title>442083009&#45;&gt;123037004</title>
<path fill="none" stroke="black" d="M1497.5,-2004.03C1497.5,-2004.03 1497.5,-2015.78 1497.5,-2015.78"/>
<polygon fill="none" stroke="black" points="1494,-2015.78 1497.5,-2025.78 1501,-2015.78 1494,-2015.78"/>
</g>
<!-- 138875005 -->
<g id="node62" class="node">
<title>138875005</title>
<polygon fill="#99ccff" stroke="black" points="1600.5,-2120 1394.5,-2120 1394.5,-2084 1600.5,-2084 1600.5,-2120"/>
<text text-anchor="start" x="1402.5" y="-2104.8" font-family="Helvetica,sans-Serif" font-size="9.00">138875005</text>
<text text-anchor="start" x="1402.5" y="-2094.8" font-family="Helvetica,sans-Serif" font-size="9.00">SNOMED CT Concept (SNOMED RT+CTV3)</text>
</g>
<!-- 123037004&#45;&gt;138875005 -->
<g id="edge95" class="edge">
<title>123037004&#45;&gt;138875005</title>
<path fill="none" stroke="black" d="M1497.5,-2062.03C1497.5,-2062.03 1497.5,-2073.78 1497.5,-2073.78"/>
<polygon fill="none" stroke="black" points="1494,-2073.78 1497.5,-2083.78 1501,-2073.78 1494,-2073.78"/>
</g>
<!-- 91723000 -->
<g id="node9" class="node">
<title>91723000</title>
<polygon fill="#99ccff" stroke="black" points="1592.5,-1946 1402.5,-1946 1402.5,-1910 1592.5,-1910 1592.5,-1946"/>
<text text-anchor="start" x="1410.5" y="-1930.8" font-family="Helvetica,sans-Serif" font-size="9.00">91723000</text>
<text text-anchor="start" x="1410.5" y="-1920.8" font-family="Helvetica,sans-Serif" font-size="9.00">Anatomical structure (body structure)</text>
</g>
<!-- 91723000&#45;&gt;442083009 -->
<g id="edge8" class="edge">
<title>91723000&#45;&gt;442083009</title>
<path fill="none" stroke="black" d="M1497.5,-1946.03C1497.5,-1946.03 1497.5,-1957.78 1497.5,-1957.78"/>
<polygon fill="none" stroke="black" points="1494,-1957.78 1497.5,-1967.78 1501,-1957.78 1494,-1957.78"/>
</g>
<!-- 281088000 -->
<g id="node10" class="node">
<title>281088000</title>
<polygon fill="#99ccff" stroke="black" points="447.5,-553 205.5,-553 205.5,-517 447.5,-517 447.5,-553"/>
<text text-anchor="start" x="213.5" y="-537.8" font-family="Helvetica,sans-Serif" font-size="9.00">281088000</text>
<text text-anchor="start" x="213.5" y="-527.8" font-family="Helvetica,sans-Serif" font-size="9.00">Structure of anus and/or rectum (body structure)</text>
</g>
<!-- 609617007 -->
<g id="node11" class="node">
<title>609617007</title>
<polygon fill="#99ccff" stroke="black" points="269,-1414 0,-1414 0,-1176 269,-1176 269,-1414"/>
<text text-anchor="start" x="8" y="-1402.8" font-family="Helvetica,sans-Serif" font-size="9.00" fill="blue">609617007</text>
<text text-anchor="start" x="8" y="-1392.8" font-family="Helvetica,sans-Serif" font-size="9.00" fill="blue">Structure of pelvic segment of trunk (body structure)</text>
<text text-anchor="middle" x="134.5" y="-1372.8" font-family="Helvetica,sans-Serif" font-size="9.00" fill="blue">This segment relates to the volume of the trunk that</text>
<text text-anchor="middle" x="134.5" y="-1362.8" font-family="Helvetica,sans-Serif" font-size="9.00" fill="blue">is bounded superiorly by and includes: superiorly the</text>
<text text-anchor="middle" x="134.5" y="-1352.8" font-family="Helvetica,sans-Serif" font-size="9.00" fill="blue">boundary of the false pelvis, which is an artificial</text>
<text text-anchor="middle" x="134.5" y="-1342.8" font-family="Helvetica,sans-Serif" font-size="9.00" fill="blue">plane from the symphysis pubis to the superior iliac</text>
<text text-anchor="middle" x="134.5" y="-1332.8" font-family="Helvetica,sans-Serif" font-size="9.00" fill="blue">crests (in front it is incomplete, presenting a wide</text>
<text text-anchor="middle" x="134.5" y="-1322.8" font-family="Helvetica,sans-Serif" font-size="9.00" fill="blue">interval between the anterior borders of the ilia);</text>
<text text-anchor="middle" x="134.5" y="-1312.8" font-family="Helvetica,sans-Serif" font-size="9.00" fill="blue">and inferiorly the perineum and external genitalia.</text>
<text text-anchor="middle" x="134.5" y="-1302.8" font-family="Helvetica,sans-Serif" font-size="9.00" fill="blue">The volume includes the entire transverse thickness</text>
<text text-anchor="middle" x="134.5" y="-1292.8" font-family="Helvetica,sans-Serif" font-size="9.00" fill="blue">of the body over the longitudinal extent between</text>
<text text-anchor="middle" x="134.5" y="-1282.8" font-family="Helvetica,sans-Serif" font-size="9.00" fill="blue">these upper (superior) and lower (inferior)</text>
<text text-anchor="middle" x="134.5" y="-1272.8" font-family="Helvetica,sans-Serif" font-size="9.00" fill="blue">boundaries including the overlying muscles, skin and</text>
<text text-anchor="middle" x="134.5" y="-1262.8" font-family="Helvetica,sans-Serif" font-size="9.00" fill="blue">subcutaneous tissue. The segment includes the volume</text>
<text text-anchor="middle" x="134.5" y="-1252.8" font-family="Helvetica,sans-Serif" font-size="9.00" fill="blue">of the true and false pelvic cavities including the</text>
<text text-anchor="middle" x="134.5" y="-1242.8" font-family="Helvetica,sans-Serif" font-size="9.00" fill="blue">bony pelvis and pelvic wall and the entire perineum</text>
<text text-anchor="middle" x="134.5" y="-1232.8" font-family="Helvetica,sans-Serif" font-size="9.00" fill="blue">and external genitalia. Note, the entire bony pelvis</text>
<text text-anchor="middle" x="134.5" y="-1222.8" font-family="Helvetica,sans-Serif" font-size="9.00" fill="blue">is included within the pelvic segment (but is</text>
<text text-anchor="middle" x="134.5" y="-1212.8" font-family="Helvetica,sans-Serif" font-size="9.00" fill="blue">excluded from the abdomen proper segment of trunk);</text>
<text text-anchor="middle" x="134.5" y="-1202.8" font-family="Helvetica,sans-Serif" font-size="9.00" fill="blue">however the pelvic segment of trunk and the abdomen</text>
<text text-anchor="middle" x="134.5" y="-1192.8" font-family="Helvetica,sans-Serif" font-size="9.00" fill="blue">proper segment of trunk both include the volume of</text>
<text text-anchor="middle" x="134.5" y="-1182.8" font-family="Helvetica,sans-Serif" font-size="9.00" fill="blue">the false pelvis.</text>
</g>
<!-- 281088000&#45;&gt;609617007 -->
<g id="edge9" class="edge">
<title>281088000&#45;&gt;609617007</title>
<path fill="none" stroke="black" d="M205.31,-535C143.52,-535 81.25,-535 81.25,-535 81.25,-535 81.25,-1165.83 81.25,-1165.83"/>
<polygon fill="none" stroke="black" points="77.75,-1165.83 81.25,-1175.83 84.75,-1165.83 77.75,-1165.83"/>
</g>
<!-- 122865005 -->
<g id="node12" class="node">
<title>122865005</title>
<polygon fill="#99ccff" stroke="black" points="1708,-844 1473,-844 1473,-786 1708,-786 1708,-844"/>
<text text-anchor="start" x="1481" y="-832.8" font-family="Helvetica,sans-Serif" font-size="9.00" fill="blue">122865005</text>
<text text-anchor="start" x="1481" y="-822.8" font-family="Helvetica,sans-Serif" font-size="9.00" fill="blue">Gastrointestinal tract structure (body structure)</text>
<text text-anchor="middle" x="1590.5" y="-802.8" font-family="Helvetica,sans-Serif" font-size="9.00" fill="blue">Oesophagus, stomach, small intestine and large</text>
<text text-anchor="middle" x="1590.5" y="-792.8" font-family="Helvetica,sans-Serif" font-size="9.00" fill="blue">intestine together as a single entity.</text>
</g>
<!-- 281088000&#45;&gt;122865005 -->
<g id="edge10" class="edge">
<title>281088000&#45;&gt;122865005</title>
<path fill="none" stroke="black" d="M437,-553.34C437,-611.81 437,-790 437,-790 437,-790 1462.74,-790 1462.74,-790"/>
<polygon fill="none" stroke="black" points="1462.74,-793.5 1472.74,-790 1462.74,-786.5 1462.74,-793.5"/>
</g>
<!-- 609617007&#45;&gt;63337009 -->
<g id="edge90" class="edge">
<title>609617007&#45;&gt;63337009</title>
<path fill="none" stroke="black" d="M269.27,-1394C365.51,-1394 478,-1394 478,-1394 478,-1394 478,-1425.98 478,-1425.98"/>
<polygon fill="none" stroke="black" points="474.5,-1425.98 478,-1435.98 481.5,-1425.98 474.5,-1425.98"/>
</g>
<!-- 709519000 -->
<g id="node23" class="node">
<title>709519000</title>
<polygon fill="#99ccff" stroke="black" points="1817.5,-1078 1635.5,-1078 1635.5,-1042 1817.5,-1042 1817.5,-1078"/>
<text text-anchor="start" x="1643.5" y="-1062.8" font-family="Helvetica,sans-Serif" font-size="9.00">709519000</text>
<text text-anchor="start" x="1643.5" y="-1052.8" font-family="Helvetica,sans-Serif" font-size="9.00">Digestive tract part (body structure)</text>
</g>
<!-- 122865005&#45;&gt;709519000 -->
<g id="edge25" class="edge">
<title>122865005&#45;&gt;709519000</title>
<path fill="none" stroke="black" d="M1671.75,-844.07C1671.75,-844.07 1671.75,-1031.75 1671.75,-1031.75"/>
<polygon fill="none" stroke="black" points="1668.25,-1031.75 1671.75,-1041.75 1675.25,-1031.75 1668.25,-1031.75"/>
</g>
<!-- 113343008 -->
<g id="node13" class="node">
<title>113343008</title>
<polygon fill="#99ccff" stroke="black" points="1617,-1129 1378,-1129 1378,-991 1617,-991 1617,-1129"/>
<text text-anchor="start" x="1386" y="-1117.8" font-family="Helvetica,sans-Serif" font-size="9.00" fill="blue">113343008</text>
<text text-anchor="start" x="1386" y="-1107.8" font-family="Helvetica,sans-Serif" font-size="9.00" fill="blue">Body organ structure (body structure)</text>
<text text-anchor="middle" x="1497.5" y="-1087.8" font-family="Helvetica,sans-Serif" font-size="9.00" fill="blue">An anatomical structure that consists of the</text>
<text text-anchor="middle" x="1497.5" y="-1077.8" font-family="Helvetica,sans-Serif" font-size="9.00" fill="blue">maximal set of organ parts so connected to one</text>
<text text-anchor="middle" x="1497.5" y="-1067.8" font-family="Helvetica,sans-Serif" font-size="9.00" fill="blue">another that together they constitute a self&#45;</text>
<text text-anchor="middle" x="1497.5" y="-1057.8" font-family="Helvetica,sans-Serif" font-size="9.00" fill="blue">contained unit of macroscopic anatomy, distinct</text>
<text text-anchor="middle" x="1497.5" y="-1047.8" font-family="Helvetica,sans-Serif" font-size="9.00" fill="blue">both morphologically and functionally from other</text>
<text text-anchor="middle" x="1497.5" y="-1037.8" font-family="Helvetica,sans-Serif" font-size="9.00" fill="blue">such units. Together with other organs, an organ</text>
<text text-anchor="middle" x="1497.5" y="-1027.8" font-family="Helvetica,sans-Serif" font-size="9.00" fill="blue">constitutes an organ system or a body part. An</text>
<text text-anchor="middle" x="1497.5" y="-1017.8" font-family="Helvetica,sans-Serif" font-size="9.00" fill="blue">organ is divisible into organ parts but not organs</text>
<text text-anchor="middle" x="1497.5" y="-1007.8" font-family="Helvetica,sans-Serif" font-size="9.00" fill="blue">(examples: femur, biceps, liver, heart, aorta,</text>
<text text-anchor="middle" x="1497.5" y="-997.8" font-family="Helvetica,sans-Serif" font-size="9.00" fill="blue">sciatic nerve, ovary).</text>
</g>
<!-- 113343008&#45;&gt;91723000 -->
<g id="edge11" class="edge">
<title>113343008&#45;&gt;91723000</title>
<path fill="none" stroke="black" d="M1488.25,-1129.2C1488.25,-1129.2 1488.25,-1899.69 1488.25,-1899.69"/>
<polygon fill="none" stroke="black" points="1484.75,-1899.69 1488.25,-1909.69 1491.75,-1899.69 1484.75,-1899.69"/>
</g>
<!-- 38866009 -->
<g id="node14" class="node">
<title>38866009</title>
<polygon fill="#99ccff" stroke="black" points="992.5,-1768 808.5,-1768 808.5,-1732 992.5,-1732 992.5,-1768"/>
<text text-anchor="start" x="816.5" y="-1752.8" font-family="Helvetica,sans-Serif" font-size="9.00">38866009</text>
<text text-anchor="start" x="816.5" y="-1742.8" font-family="Helvetica,sans-Serif" font-size="9.00">Body part structure (body structure)</text>
</g>
<!-- 38866009&#45;&gt;52530000 -->
<g id="edge12" class="edge">
<title>38866009&#45;&gt;52530000</title>
<path fill="none" stroke="black" d="M900.5,-1768.01C900.5,-1768.01 900.5,-1810.71 900.5,-1810.71"/>
<polygon fill="none" stroke="black" points="897,-1810.71 900.5,-1820.71 904,-1810.71 897,-1810.71"/>
</g>
<!-- 52530000&#45;&gt;91723000 -->
<g id="edge13" class="edge">
<title>52530000&#45;&gt;91723000</title>
<path fill="none" stroke="black" d="M900.5,-1857.01C900.5,-1883.02 900.5,-1928 900.5,-1928 900.5,-1928 1392.24,-1928 1392.24,-1928"/>
<polygon fill="none" stroke="black" points="1392.24,-1931.5 1402.24,-1928 1392.24,-1924.5 1392.24,-1931.5"/>
</g>
<!-- 91689009 -->
<g id="node16" class="node">
<title>91689009</title>
<polygon fill="#99ccff" stroke="black" points="2216,-1652 2019,-1652 2019,-1616 2216,-1616 2216,-1652"/>
<text text-anchor="start" x="2027" y="-1636.8" font-family="Helvetica,sans-Serif" font-size="9.00">91689009</text>
<text text-anchor="start" x="2027" y="-1626.8" font-family="Helvetica,sans-Serif" font-size="9.00">Body system structure (body structure)</text>
</g>
<!-- 91689009&#45;&gt;91723000 -->
<g id="edge14" class="edge">
<title>91689009&#45;&gt;91723000</title>
<path fill="none" stroke="black" d="M2019,-1634C1850.04,-1634 1523,-1634 1523,-1634 1523,-1634 1523,-1899.61 1523,-1899.61"/>
<polygon fill="none" stroke="black" points="1519.5,-1899.61 1523,-1909.61 1526.5,-1899.61 1519.5,-1899.61"/>
</g>
<!-- 85756007 -->
<g id="node17" class="node">
<title>85756007</title>
<polygon fill="#99ccff" stroke="black" points="1909,-1857 1718,-1857 1718,-1821 1909,-1821 1909,-1857"/>
<text text-anchor="start" x="1726" y="-1841.8" font-family="Helvetica,sans-Serif" font-size="9.00">85756007</text>
<text text-anchor="start" x="1726" y="-1831.8" font-family="Helvetica,sans-Serif" font-size="9.00">Body tissue structure (body structure)</text>
</g>
<!-- 85756007&#45;&gt;91723000 -->
<g id="edge15" class="edge">
<title>85756007&#45;&gt;91723000</title>
<path fill="none" stroke="black" d="M1717.9,-1839C1645.26,-1839 1557.75,-1839 1557.75,-1839 1557.75,-1839 1557.75,-1899.99 1557.75,-1899.99"/>
<polygon fill="none" stroke="black" points="1554.25,-1899.99 1557.75,-1909.99 1561.25,-1899.99 1554.25,-1899.99"/>
</g>
<!-- 816092008 -->
<g id="node18" class="node">
<title>816092008</title>
<polygon fill="#99ccff" stroke="black" points="616,-1374 287,-1374 287,-1216 616,-1216 616,-1374"/>
<text text-anchor="start" x="295" y="-1362.8" font-family="Helvetica,sans-Serif" font-size="9.00" fill="blue">816092008</text>
<text text-anchor="start" x="295" y="-1352.8" font-family="Helvetica,sans-Serif" font-size="9.00" fill="blue">Structure of pelvic cross&#45;sectional segment of trunk (body structure)</text>
<text text-anchor="middle" x="451.5" y="-1332.8" font-family="Helvetica,sans-Serif" font-size="9.00" fill="blue">This cross&#45;sectional segment is bounded superiorly by a virtual</text>
<text text-anchor="middle" x="451.5" y="-1322.8" font-family="Helvetica,sans-Serif" font-size="9.00" fill="blue">horizontal plane at the level of the plane traversing the superior</text>
<text text-anchor="middle" x="451.5" y="-1312.8" font-family="Helvetica,sans-Serif" font-size="9.00" fill="blue">boundary of the iliac crest; and inferiorly it extends to the</text>
<text text-anchor="middle" x="451.5" y="-1302.8" font-family="Helvetica,sans-Serif" font-size="9.00" fill="blue">perineum and includes part but not necessarily the entire external</text>
<text text-anchor="middle" x="451.5" y="-1292.8" font-family="Helvetica,sans-Serif" font-size="9.00" fill="blue">genitalia. The segment includes the volume of the true and false</text>
<text text-anchor="middle" x="451.5" y="-1282.8" font-family="Helvetica,sans-Serif" font-size="9.00" fill="blue">pelvic cavities (and also part of the lower abdominal volume below</text>
<text text-anchor="middle" x="451.5" y="-1272.8" font-family="Helvetica,sans-Serif" font-size="9.00" fill="blue">the level of the virtual superior boundary). The volume includes the</text>
<text text-anchor="middle" x="451.5" y="-1262.8" font-family="Helvetica,sans-Serif" font-size="9.00" fill="blue">entire transverse thickness of the body over the longitudinal extent</text>
<text text-anchor="middle" x="451.5" y="-1252.8" font-family="Helvetica,sans-Serif" font-size="9.00" fill="blue">between the superior (upper) and inferior (lower) boundaries</text>
<text text-anchor="middle" x="451.5" y="-1242.8" font-family="Helvetica,sans-Serif" font-size="9.00" fill="blue">including the skin and subcutaneous tissue. The segment relates to</text>
<text text-anchor="middle" x="451.5" y="-1232.8" font-family="Helvetica,sans-Serif" font-size="9.00" fill="blue">the cross&#45;sectional or projectional volume as perceived by</text>
<text text-anchor="middle" x="451.5" y="-1222.8" font-family="Helvetica,sans-Serif" font-size="9.00" fill="blue">transmissive or emissive imaging.</text>
</g>
<!-- 816092008&#45;&gt;63337009 -->
<g id="edge17" class="edge">
<title>816092008&#45;&gt;63337009</title>
<path fill="none" stroke="black" d="M547,-1374.11C547,-1374.11 547,-1425.85 547,-1425.85"/>
<polygon fill="none" stroke="black" points="543.5,-1425.85 547,-1435.85 550.5,-1425.85 543.5,-1425.85"/>
</g>
<!-- 816092008&#45;&gt;818982008 -->
<g id="edge18" class="edge">
<title>816092008&#45;&gt;818982008</title>
<path fill="none" stroke="black" d="M616.17,-1357C730.42,-1357 862.17,-1357 862.17,-1357 862.17,-1357 862.17,-1440.74 862.17,-1440.74"/>
<polygon fill="none" stroke="black" points="858.67,-1440.74 862.17,-1450.74 865.67,-1440.74 858.67,-1440.74"/>
</g>
<!-- 119210004 -->
<g id="node19" class="node">
<title>119210004</title>
<polygon fill="#99ccff" stroke="black" points="1722,-553 1535,-553 1535,-517 1722,-517 1722,-553"/>
<text text-anchor="start" x="1543" y="-537.8" font-family="Helvetica,sans-Serif" font-size="9.00">119210004</text>
<text text-anchor="start" x="1543" y="-527.8" font-family="Helvetica,sans-Serif" font-size="9.00">Digestive organ part (body structure)</text>
</g>
<!-- 49596003 -->
<g id="node20" class="node">
<title>49596003</title>
<polygon fill="#99ccff" stroke="black" points="1454.5,-833 1244.5,-833 1244.5,-797 1454.5,-797 1454.5,-833"/>
<text text-anchor="start" x="1252.5" y="-817.8" font-family="Helvetica,sans-Serif" font-size="9.00">49596003</text>
<text text-anchor="start" x="1252.5" y="-807.8" font-family="Helvetica,sans-Serif" font-size="9.00">Digestive organ structure (body structure)</text>
</g>
<!-- 119210004&#45;&gt;49596003 -->
<g id="edge19" class="edge">
<title>119210004&#45;&gt;49596003</title>
<path fill="none" stroke="black" d="M1621.5,-553.49C1621.5,-565.14 1621.5,-578 1621.5,-578 1621.5,-578 1387.67,-578 1387.67,-578 1387.67,-578 1387.67,-786.8 1387.67,-786.8"/>
<polygon fill="none" stroke="black" points="1384.17,-786.8 1387.67,-796.8 1391.17,-786.8 1384.17,-786.8"/>
</g>
<!-- 91717005 -->
<g id="node21" class="node">
<title>91717005</title>
<polygon fill="#99ccff" stroke="black" points="1870.5,-833 1726.5,-833 1726.5,-797 1870.5,-797 1870.5,-833"/>
<text text-anchor="start" x="1734.5" y="-817.8" font-family="Helvetica,sans-Serif" font-size="9.00">91717005</text>
<text text-anchor="start" x="1734.5" y="-807.8" font-family="Helvetica,sans-Serif" font-size="9.00">Organ part (body structure)</text>
</g>
<!-- 119210004&#45;&gt;91717005 -->
<g id="edge20" class="edge">
<title>119210004&#45;&gt;91717005</title>
<path fill="none" stroke="black" d="M1715,-553.37C1715,-615.66 1715,-815 1715,-815 1715,-815 1716.26,-815 1716.26,-815"/>
<polygon fill="none" stroke="black" points="1716.26,-818.5 1726.26,-815 1716.26,-811.5 1716.26,-818.5"/>
</g>
<!-- 49596003&#45;&gt;113343008 -->
<g id="edge21" class="edge">
<title>49596003&#45;&gt;113343008</title>
<path fill="none" stroke="black" d="M1416.25,-833.02C1416.25,-833.02 1416.25,-980.9 1416.25,-980.9"/>
<polygon fill="none" stroke="black" points="1412.75,-980.9 1416.25,-990.9 1419.75,-980.9 1412.75,-980.9"/>
</g>
<!-- 86762007 -->
<g id="node22" class="node">
<title>86762007</title>
<polygon fill="#99ccff" stroke="black" points="1840.5,-1533 1612.5,-1533 1612.5,-1497 1840.5,-1497 1840.5,-1533"/>
<text text-anchor="start" x="1620.5" y="-1517.8" font-family="Helvetica,sans-Serif" font-size="9.00">86762007</text>
<text text-anchor="start" x="1620.5" y="-1507.8" font-family="Helvetica,sans-Serif" font-size="9.00">Structure of digestive system (body structure)</text>
</g>
<!-- 49596003&#45;&gt;86762007 -->
<g id="edge22" class="edge">
<title>49596003&#45;&gt;86762007</title>
<path fill="none" stroke="black" d="M1311.25,-833.01C1311.25,-942.57 1311.25,-1515 1311.25,-1515 1311.25,-1515 1602.48,-1515 1602.48,-1515"/>
<polygon fill="none" stroke="black" points="1602.48,-1518.5 1612.48,-1515 1602.48,-1511.5 1602.48,-1518.5"/>
</g>
<!-- 91717005&#45;&gt;113343008 -->
<g id="edge61" class="edge">
<title>91717005&#45;&gt;113343008</title>
<path fill="none" stroke="black" d="M1772,-833.03C1772,-880.08 1772,-1003 1772,-1003 1772,-1003 1627.1,-1003 1627.1,-1003"/>
<polygon fill="none" stroke="black" points="1627.1,-999.5 1617.1,-1003 1627.1,-1006.5 1627.1,-999.5"/>
</g>
<!-- 86762007&#45;&gt;91689009 -->
<g id="edge77" class="edge">
<title>86762007&#45;&gt;91689009</title>
<path fill="none" stroke="black" d="M1840.88,-1521C1931.64,-1521 2043.33,-1521 2043.33,-1521 2043.33,-1521 2043.33,-1605.84 2043.33,-1605.84"/>
<polygon fill="none" stroke="black" points="2039.83,-1605.84 2043.33,-1615.84 2046.83,-1605.84 2039.83,-1605.84"/>
</g>
<!-- 51289009 -->
<g id="node24" class="node">
<title>51289009</title>
<polygon fill="#99ccff" stroke="black" points="1829.5,-1324 1623.5,-1324 1623.5,-1266 1829.5,-1266 1829.5,-1324"/>
<text text-anchor="start" x="1631.5" y="-1312.8" font-family="Helvetica,sans-Serif" font-size="9.00" fill="blue">51289009</text>
<text text-anchor="start" x="1631.5" y="-1302.8" font-family="Helvetica,sans-Serif" font-size="9.00" fill="blue">Digestive tract structure (body structure)</text>
<text text-anchor="middle" x="1726.5" y="-1282.8" font-family="Helvetica,sans-Serif" font-size="9.00" fill="blue">Entire digestive tract including mouth,</text>
<text text-anchor="middle" x="1726.5" y="-1272.8" font-family="Helvetica,sans-Serif" font-size="9.00" fill="blue">oesophagus, stomach and intestines</text>
</g>
<!-- 709519000&#45;&gt;51289009 -->
<g id="edge23" class="edge">
<title>709519000&#45;&gt;51289009</title>
<path fill="none" stroke="black" d="M1726.5,-1078.05C1726.5,-1078.05 1726.5,-1255.76 1726.5,-1255.76"/>
<polygon fill="none" stroke="black" points="1723,-1255.76 1726.5,-1265.76 1730,-1255.76 1723,-1255.76"/>
</g>
<!-- 51289009&#45;&gt;86762007 -->
<g id="edge24" class="edge">
<title>51289009&#45;&gt;86762007</title>
<path fill="none" stroke="black" d="M1726.5,-1324.21C1726.5,-1324.21 1726.5,-1486.9 1726.5,-1486.9"/>
<polygon fill="none" stroke="black" points="1723,-1486.9 1726.5,-1496.9 1730,-1486.9 1723,-1486.9"/>
</g>
<!-- 57171008 -->
<g id="node25" class="node">
<title>57171008</title>
<polygon fill="#99ccff" stroke="black" points="2446.5,-1313 2206.5,-1313 2206.5,-1277 2446.5,-1277 2446.5,-1313"/>
<text text-anchor="start" x="2214.5" y="-1297.8" font-family="Helvetica,sans-Serif" font-size="9.00">57171008</text>
<text text-anchor="start" x="2214.5" y="-1287.8" font-family="Helvetica,sans-Serif" font-size="9.00">Hematopoietic system structure (body structure)</text>
</g>
<!-- 414387006 -->
<g id="node26" class="node">
<title>414387006</title>
<polygon fill="#99ccff" stroke="black" points="2343,-1533 2092,-1533 2092,-1497 2343,-1497 2343,-1533"/>
<text text-anchor="start" x="2100" y="-1517.8" font-family="Helvetica,sans-Serif" font-size="9.00">414387006</text>
<text text-anchor="start" x="2100" y="-1507.8" font-family="Helvetica,sans-Serif" font-size="9.00">Structure of hematological system (body structure)</text>
</g>
<!-- 57171008&#45;&gt;414387006 -->
<g id="edge26" class="edge">
<title>57171008&#45;&gt;414387006</title>
<path fill="none" stroke="black" d="M2274.75,-1313C2274.75,-1313 2274.75,-1486.75 2274.75,-1486.75"/>
<polygon fill="none" stroke="black" points="2271.25,-1486.75 2274.75,-1496.75 2278.25,-1486.75 2271.25,-1486.75"/>
</g>
<!-- 414387006&#45;&gt;91689009 -->
<g id="edge78" class="edge">
<title>414387006&#45;&gt;91689009</title>
<path fill="none" stroke="black" d="M2133.33,-1533.07C2133.33,-1533.07 2133.33,-1605.76 2133.33,-1605.76"/>
<polygon fill="none" stroke="black" points="2129.83,-1605.76 2133.33,-1615.76 2136.83,-1605.76 2129.83,-1605.76"/>
</g>
<!-- 113276009 -->
<g id="node27" class="node">
<title>113276009</title>
<polygon fill="#99ccff" stroke="black" points="1402.5,-326 1220.5,-326 1220.5,-290 1402.5,-290 1402.5,-326"/>
<text text-anchor="start" x="1228.5" y="-310.8" font-family="Helvetica,sans-Serif" font-size="9.00">113276009</text>
<text text-anchor="start" x="1228.5" y="-300.8" font-family="Helvetica,sans-Serif" font-size="9.00">Intestinal structure (body structure)</text>
</g>
<!-- 372198002 -->
<g id="node28" class="node">
<title>372198002</title>
<polygon fill="#99ccff" stroke="black" points="1505.5,-384 1265.5,-384 1265.5,-348 1505.5,-348 1505.5,-384"/>
<text text-anchor="start" x="1273.5" y="-368.8" font-family="Helvetica,sans-Serif" font-size="9.00">372198002</text>
<text text-anchor="start" x="1273.5" y="-358.8" font-family="Helvetica,sans-Serif" font-size="9.00">Lower gastrointestinal tract part (body structure)</text>
</g>
<!-- 113276009&#45;&gt;372198002 -->
<g id="edge27" class="edge">
<title>113276009&#45;&gt;372198002</title>
<path fill="none" stroke="black" d="M1334,-326.03C1334,-326.03 1334,-337.78 1334,-337.78"/>
<polygon fill="none" stroke="black" points="1330.5,-337.78 1334,-347.78 1337.5,-337.78 1330.5,-337.78"/>
</g>
<!-- 786857006 -->
<g id="node29" class="node">
<title>786857006</title>
<polygon fill="#99ccff" stroke="black" points="1899,-384 1624,-384 1624,-348 1899,-348 1899,-384"/>
<text text-anchor="start" x="1632" y="-368.8" font-family="Helvetica,sans-Serif" font-size="9.00">786857006</text>
<text text-anchor="start" x="1632" y="-358.8" font-family="Helvetica,sans-Serif" font-size="9.00">Structure of intestine and/or mesentery (body structure)</text>
</g>
<!-- 113276009&#45;&gt;786857006 -->
<g id="edge28" class="edge">
<title>113276009&#45;&gt;786857006</title>
<path fill="none" stroke="black" d="M1402.6,-308C1505.34,-308 1658.25,-308 1658.25,-308 1658.25,-308 1658.25,-337.97 1658.25,-337.97"/>
<polygon fill="none" stroke="black" points="1654.75,-337.97 1658.25,-347.97 1661.75,-337.97 1654.75,-337.97"/>
</g>
<!-- 818993005 -->
<g id="node30" class="node">
<title>818993005</title>
<polygon fill="#99ccff" stroke="black" points="1235.5,-584 921.5,-584 921.5,-486 1235.5,-486 1235.5,-584"/>
<text text-anchor="start" x="929.5" y="-572.8" font-family="Helvetica,sans-Serif" font-size="9.00" fill="blue">818993005</text>
<text text-anchor="start" x="929.5" y="-562.8" font-family="Helvetica,sans-Serif" font-size="9.00" fill="blue">Structure of organ within abdominopelvic cavity (body structure)</text>
<text text-anchor="middle" x="1078.5" y="-542.8" font-family="Helvetica,sans-Serif" font-size="9.00" fill="blue">Any organ (viscera) contained within the abdominopelvic cavity.</text>
<text text-anchor="middle" x="1078.5" y="-532.8" font-family="Helvetica,sans-Serif" font-size="9.00" fill="blue">The abdominopelvic viscera includes stomach, small intestine,</text>
<text text-anchor="middle" x="1078.5" y="-522.8" font-family="Helvetica,sans-Serif" font-size="9.00" fill="blue">large intestine, spleen, kidneys, adrenal glands, pancreas,</text>
<text text-anchor="middle" x="1078.5" y="-512.8" font-family="Helvetica,sans-Serif" font-size="9.00" fill="blue">liver and gallbladder and the viscera within the true pelvic</text>
<text text-anchor="middle" x="1078.5" y="-502.8" font-family="Helvetica,sans-Serif" font-size="9.00" fill="blue">cavity including ovaries, uterus, prostate, urinary bladder and</text>
<text text-anchor="middle" x="1078.5" y="-492.8" font-family="Helvetica,sans-Serif" font-size="9.00" fill="blue">anal canal.</text>
</g>
<!-- 113276009&#45;&gt;818993005 -->
<g id="edge29" class="edge">
<title>113276009&#45;&gt;818993005</title>
<path fill="none" stroke="black" d="M1228,-326.19C1228,-326.19 1228,-475.93 1228,-475.93"/>
<polygon fill="none" stroke="black" points="1224.5,-475.93 1228,-485.93 1231.5,-475.93 1224.5,-475.93"/>
</g>
<!-- 372198002&#45;&gt;119210004 -->
<g id="edge43" class="edge">
<title>372198002&#45;&gt;119210004</title>
<path fill="none" stroke="black" d="M1505.6,-366C1552.91,-366 1596.17,-366 1596.17,-366 1596.17,-366 1596.17,-506.91 1596.17,-506.91"/>
<polygon fill="none" stroke="black" points="1592.67,-506.91 1596.17,-516.91 1599.67,-506.91 1592.67,-506.91"/>
</g>
<!-- 5668004 -->
<g id="node42" class="node">
<title>5668004</title>
<polygon fill="#99ccff" stroke="black" points="1517,-559 1254,-559 1254,-511 1517,-511 1517,-559"/>
<text text-anchor="start" x="1262" y="-547.8" font-family="Helvetica,sans-Serif" font-size="9.00" fill="blue">5668004</text>
<text text-anchor="start" x="1262" y="-537.8" font-family="Helvetica,sans-Serif" font-size="9.00" fill="blue">Lower gastrointestinal tract structure (body structure)</text>
<text text-anchor="middle" x="1385.5" y="-517.8" font-family="Helvetica,sans-Serif" font-size="9.00" fill="blue">Jejunum, ileum, colon, rectum, and anal canal</text>
</g>
<!-- 372198002&#45;&gt;5668004 -->
<g id="edge44" class="edge">
<title>372198002&#45;&gt;5668004</title>
<path fill="none" stroke="black" d="M1385.5,-384.09C1385.5,-384.09 1385.5,-500.81 1385.5,-500.81"/>
<polygon fill="none" stroke="black" points="1382,-500.81 1385.5,-510.81 1389,-500.81 1382,-500.81"/>
</g>
<!-- 786857006&#45;&gt;86762007 -->
<g id="edge80" class="edge">
<title>786857006&#45;&gt;86762007</title>
<path fill="none" stroke="black" d="M1780,-384.1C1780,-433.33 1780,-566 1780,-566 1780,-566 1889.75,-566 1889.75,-566 1889.75,-566 1889.75,-1509 1889.75,-1509 1889.75,-1509 1850.77,-1509 1850.77,-1509"/>
<polygon fill="none" stroke="black" points="1850.77,-1505.5 1840.77,-1509 1850.77,-1512.5 1850.77,-1505.5"/>
</g>
<!-- 818986006 -->
<g id="node32" class="node">
<title>818986006</title>
<polygon fill="#99ccff" stroke="black" points="1065,-1154 736,-1154 736,-966 1065,-966 1065,-1154"/>
<text text-anchor="start" x="744" y="-1142.8" font-family="Helvetica,sans-Serif" font-size="9.00" fill="blue">818986006</text>
<text text-anchor="start" x="744" y="-1132.8" font-family="Helvetica,sans-Serif" font-size="9.00" fill="blue">Structure of abdominopelvic cavity and/or content (body structure)</text>
<text text-anchor="middle" x="900.5" y="-1112.8" font-family="Helvetica,sans-Serif" font-size="9.00" fill="blue">This structure comprises the space and content within the</text>
<text text-anchor="middle" x="900.5" y="-1102.8" font-family="Helvetica,sans-Serif" font-size="9.00" fill="blue">boundaries of the abdominopelvic cavity but excludes the walls</text>
<text text-anchor="middle" x="900.5" y="-1092.8" font-family="Helvetica,sans-Serif" font-size="9.00" fill="blue">that define and enclose the space. Previously SNOMED CT used the</text>
<text text-anchor="middle" x="900.5" y="-1082.8" font-family="Helvetica,sans-Serif" font-size="9.00" fill="blue">word compartment to describe structures comprising the cavity and</text>
<text text-anchor="middle" x="900.5" y="-1072.8" font-family="Helvetica,sans-Serif" font-size="9.00" fill="blue">content but FMA has used the same word to include cavity, content</text>
<text text-anchor="middle" x="900.5" y="-1062.8" font-family="Helvetica,sans-Serif" font-size="9.00" fill="blue">and wall. As a consequence, the preferred notation is intra&#45;</text>
<text text-anchor="middle" x="900.5" y="-1052.8" font-family="Helvetica,sans-Serif" font-size="9.00" fill="blue">abdominopelvic structure as this more clearly excludes the wall</text>
<text text-anchor="middle" x="900.5" y="-1042.8" font-family="Helvetica,sans-Serif" font-size="9.00" fill="blue">structures. The intra&#45;abdominopelvic structure is bounded by, but</text>
<text text-anchor="middle" x="900.5" y="-1032.8" font-family="Helvetica,sans-Serif" font-size="9.00" fill="blue">excludes the following wall structures: superiorly the thoracic</text>
<text text-anchor="middle" x="900.5" y="-1022.8" font-family="Helvetica,sans-Serif" font-size="9.00" fill="blue">diaphragm; inferiorly the pelvic diaphragm; anteriorly the</text>
<text text-anchor="middle" x="900.5" y="-1012.8" font-family="Helvetica,sans-Serif" font-size="9.00" fill="blue">anterior abdominal wall (including the lateral abdominal wall);</text>
<text text-anchor="middle" x="900.5" y="-1002.8" font-family="Helvetica,sans-Serif" font-size="9.00" fill="blue">and posteriorly the wall of the abdominal proper segment of trunk.</text>
<text text-anchor="middle" x="900.5" y="-992.8" font-family="Helvetica,sans-Serif" font-size="9.00" fill="blue">The pelvic component consists of the cavity and content of the</text>
<text text-anchor="middle" x="900.5" y="-982.8" font-family="Helvetica,sans-Serif" font-size="9.00" fill="blue">true pelvis, which is bounded by the pelvic wall. Note, the</text>
<text text-anchor="middle" x="900.5" y="-972.8" font-family="Helvetica,sans-Serif" font-size="9.00" fill="blue">structures that form the boundaries are excluded.</text>
</g>
<!-- 818993005&#45;&gt;818986006 -->
<g id="edge63" class="edge">
<title>818993005&#45;&gt;818986006</title>
<path fill="none" stroke="black" d="M1037.25,-584.39C1037.25,-584.39 1037.25,-955.9 1037.25,-955.9"/>
<polygon fill="none" stroke="black" points="1033.75,-955.9 1037.25,-965.9 1040.75,-955.9 1033.75,-955.9"/>
</g>
<!-- 362937008 -->
<g id="node53" class="node">
<title>362937008</title>
<polygon fill="#99ccff" stroke="black" points="1226.5,-833 1046.5,-833 1046.5,-797 1226.5,-797 1226.5,-833"/>
<text text-anchor="start" x="1054.5" y="-817.8" font-family="Helvetica,sans-Serif" font-size="9.00">362937008</text>
<text text-anchor="start" x="1054.5" y="-807.8" font-family="Helvetica,sans-Serif" font-size="9.00">Structure of viscus (body structure)</text>
</g>
<!-- 818993005&#45;&gt;362937008 -->
<g id="edge62" class="edge">
<title>818993005&#45;&gt;362937008</title>
<path fill="none" stroke="black" d="M1136.5,-584.09C1136.5,-584.09 1136.5,-786.97 1136.5,-786.97"/>
<polygon fill="none" stroke="black" points="1133,-786.97 1136.5,-796.97 1140,-786.97 1133,-786.97"/>
</g>
<!-- 281501002 -->
<g id="node31" class="node">
<title>281501002</title>
<polygon fill="#99ccff" stroke="black" points="1028,-833 773,-833 773,-797 1028,-797 1028,-833"/>
<text text-anchor="start" x="781" y="-817.8" font-family="Helvetica,sans-Serif" font-size="9.00">281501002</text>
<text text-anchor="start" x="781" y="-807.8" font-family="Helvetica,sans-Serif" font-size="9.00">Intra&#45;abdominal digestive structure (body structure)</text>
</g>
<!-- 281501002&#45;&gt;86762007 -->
<g id="edge30" class="edge">
<title>281501002&#45;&gt;86762007</title>
<path fill="none" stroke="black" d="M943,-833.32C943,-856.66 943,-894 943,-894 943,-894 1835,-894 1835,-894 1835,-894 1835,-1486.75 1835,-1486.75"/>
<polygon fill="none" stroke="black" points="1831.5,-1486.75 1835,-1496.75 1838.5,-1486.75 1831.5,-1486.75"/>
</g>
<!-- 281501002&#45;&gt;818986006 -->
<g id="edge31" class="edge">
<title>281501002&#45;&gt;818986006</title>
<path fill="none" stroke="black" d="M858,-833.02C858,-833.02 858,-955.98 858,-955.98"/>
<polygon fill="none" stroke="black" points="854.5,-955.98 858,-965.98 861.5,-955.98 854.5,-955.98"/>
</g>
<!-- 818986006&#45;&gt;818983003 -->
<g id="edge32" class="edge">
<title>818986006&#45;&gt;818983003</title>
<path fill="none" stroke="black" d="M900.5,-1154.23C900.5,-1154.23 900.5,-1240.71 900.5,-1240.71"/>
<polygon fill="none" stroke="black" points="897,-1240.71 900.5,-1250.71 904,-1240.71 897,-1240.71"/>
</g>
<!-- 91829005 -->
<g id="node33" class="node">
<title>91829005</title>
<polygon fill="#99ccff" stroke="black" points="1381,-1652 1106,-1652 1106,-1616 1381,-1616 1381,-1652"/>
<text text-anchor="start" x="1114" y="-1636.8" font-family="Helvetica,sans-Serif" font-size="9.00">91829005</text>
<text text-anchor="start" x="1114" y="-1626.8" font-family="Helvetica,sans-Serif" font-size="9.00">Structure of body cavity and/or content (body structure)</text>
</g>
<!-- 818986006&#45;&gt;91829005 -->
<g id="edge33" class="edge">
<title>818986006&#45;&gt;91829005</title>
<path fill="none" stroke="black" d="M1065.26,-1142C1142.94,-1142 1218.83,-1142 1218.83,-1142 1218.83,-1142 1218.83,-1605.91 1218.83,-1605.91"/>
<polygon fill="none" stroke="black" points="1215.33,-1605.91 1218.83,-1615.91 1222.33,-1605.91 1215.33,-1605.91"/>
</g>
<!-- 699590003 -->
<g id="node59" class="node">
<title>699590003</title>
<polygon fill="#99ccff" stroke="black" points="1423,-1710 1156,-1710 1156,-1674 1423,-1674 1423,-1710"/>
<text text-anchor="start" x="1164" y="-1694.8" font-family="Helvetica,sans-Serif" font-size="9.00">699590003</text>
<text text-anchor="start" x="1164" y="-1684.8" font-family="Helvetica,sans-Serif" font-size="9.00">Structure of anatomical compartment (body structure)</text>
</g>
<!-- 91829005&#45;&gt;699590003 -->
<g id="edge76" class="edge">
<title>91829005&#45;&gt;699590003</title>
<path fill="none" stroke="black" d="M1268.5,-1652.03C1268.5,-1652.03 1268.5,-1663.78 1268.5,-1663.78"/>
<polygon fill="none" stroke="black" points="1265,-1663.78 1268.5,-1673.78 1272,-1663.78 1265,-1663.78"/>
</g>
<!-- 91829005&#45;&gt;22943007 -->
<g id="edge75" class="edge">
<title>91829005&#45;&gt;22943007</title>
<path fill="none" stroke="black" d="M1131,-1652.03C1131,-1669.06 1131,-1692 1131,-1692 1131,-1692 1022.04,-1692 1022.04,-1692"/>
<polygon fill="none" stroke="black" points="1022.04,-1688.5 1012.04,-1692 1022.04,-1695.5 1022.04,-1688.5"/>
</g>
<!-- 1172989009 -->
<g id="node34" class="node">
<title>1172989009</title>
<polygon fill="#99ccff" stroke="black" points="716.5,-833 426.5,-833 426.5,-797 716.5,-797 716.5,-833"/>
<text text-anchor="start" x="434.5" y="-817.8" font-family="Helvetica,sans-Serif" font-size="9.00">1172989009</text>
<text text-anchor="start" x="434.5" y="-807.8" font-family="Helvetica,sans-Serif" font-size="9.00">Structure of cavity and/or content of pelvis (body structure)</text>
</g>
<!-- 1172989009&#45;&gt;818986006 -->
<g id="edge35" class="edge">
<title>1172989009&#45;&gt;818986006</title>
<path fill="none" stroke="black" d="M716.58,-815C738.79,-815 754.5,-815 754.5,-815 754.5,-815 754.5,-955.98 754.5,-955.98"/>
<polygon fill="none" stroke="black" points="751,-955.98 754.5,-965.98 758,-955.98 751,-955.98"/>
</g>
<!-- 12921003 -->
<g id="node35" class="node">
<title>12921003</title>
<polygon fill="#99ccff" stroke="black" points="499.5,-1134 243.5,-1134 243.5,-986 499.5,-986 499.5,-1134"/>
<text text-anchor="start" x="251.5" y="-1122.8" font-family="Helvetica,sans-Serif" font-size="9.00" fill="blue">12921003</text>
<text text-anchor="start" x="251.5" y="-1112.8" font-family="Helvetica,sans-Serif" font-size="9.00" fill="blue">Structure of pelvis (body structure)</text>
<text text-anchor="middle" x="371.5" y="-1092.8" font-family="Helvetica,sans-Serif" font-size="9.00" fill="blue">This structure, also termed the pelvic region,</text>
<text text-anchor="middle" x="371.5" y="-1082.8" font-family="Helvetica,sans-Serif" font-size="9.00" fill="blue">includes the wall, cavity and content of both the</text>
<text text-anchor="middle" x="371.5" y="-1072.8" font-family="Helvetica,sans-Serif" font-size="9.00" fill="blue">true and false pelvis; it consequently</text>
<text text-anchor="middle" x="371.5" y="-1062.8" font-family="Helvetica,sans-Serif" font-size="9.00" fill="blue">incorporates the entire bony pelvis; and</text>
<text text-anchor="middle" x="371.5" y="-1052.8" font-family="Helvetica,sans-Serif" font-size="9.00" fill="blue">inferiorly it is bounded and includes the pelvic</text>
<text text-anchor="middle" x="371.5" y="-1042.8" font-family="Helvetica,sans-Serif" font-size="9.00" fill="blue">diaphragm. The structure incorporates the complete</text>
<text text-anchor="middle" x="371.5" y="-1032.8" font-family="Helvetica,sans-Serif" font-size="9.00" fill="blue">pelvic wall; sacrococcygeal region (including the</text>
<text text-anchor="middle" x="371.5" y="-1022.8" font-family="Helvetica,sans-Serif" font-size="9.00" fill="blue">overlying skin and subcutaneous tissue); the</text>
<text text-anchor="middle" x="371.5" y="-1012.8" font-family="Helvetica,sans-Serif" font-size="9.00" fill="blue">contents of the false pelvic cavity; but in</text>
<text text-anchor="middle" x="371.5" y="-1002.8" font-family="Helvetica,sans-Serif" font-size="9.00" fill="blue">contrast to the pelvic segment of trunk excludes</text>
<text text-anchor="middle" x="371.5" y="-992.8" font-family="Helvetica,sans-Serif" font-size="9.00" fill="blue">the perineum, external genitalia.</text>
</g>
<!-- 1172989009&#45;&gt;12921003 -->
<g id="edge34" class="edge">
<title>1172989009&#45;&gt;12921003</title>
<path fill="none" stroke="black" d="M463,-833.02C463,-833.02 463,-975.95 463,-975.95"/>
<polygon fill="none" stroke="black" points="459.5,-975.95 463,-985.95 466.5,-975.95 459.5,-975.95"/>
</g>
<!-- 12921003&#45;&gt;609617007 -->
<g id="edge64" class="edge">
<title>12921003&#45;&gt;609617007</title>
<path fill="none" stroke="black" d="M256.25,-1134.03C256.25,-1134.03 256.25,-1165.76 256.25,-1165.76"/>
<polygon fill="none" stroke="black" points="252.75,-1165.76 256.25,-1175.76 259.75,-1165.76 252.75,-1165.76"/>
</g>
<!-- 12921003&#45;&gt;816092008 -->
<g id="edge65" class="edge">
<title>12921003&#45;&gt;816092008</title>
<path fill="none" stroke="black" d="M393.25,-1134.03C393.25,-1134.03 393.25,-1205.65 393.25,-1205.65"/>
<polygon fill="none" stroke="black" points="389.75,-1205.65 393.25,-1215.65 396.75,-1205.65 389.75,-1205.65"/>
</g>
<!-- 826984001 -->
<g id="node36" class="node">
<title>826984001</title>
<polygon fill="#99ccff" stroke="black" points="791.5,-664 465.5,-664 465.5,-406 791.5,-406 791.5,-664"/>
<text text-anchor="start" x="473.5" y="-652.8" font-family="Helvetica,sans-Serif" font-size="9.00" fill="blue">826984001</text>
<text text-anchor="start" x="473.5" y="-642.8" font-family="Helvetica,sans-Serif" font-size="9.00" fill="blue">Structure of cavity and/or content of true pelvis (body structure)</text>
<text text-anchor="middle" x="628.5" y="-622.8" font-family="Helvetica,sans-Serif" font-size="9.00" fill="blue">This structure comprises the space and content within the</text>
<text text-anchor="middle" x="628.5" y="-612.8" font-family="Helvetica,sans-Serif" font-size="9.00" fill="blue">boundaries of the cavity of the true pelvis (also known as the</text>
<text text-anchor="middle" x="628.5" y="-602.8" font-family="Helvetica,sans-Serif" font-size="9.00" fill="blue">cavity of the minor or lesser pelvis) but excludes the walls that</text>
<text text-anchor="middle" x="628.5" y="-592.8" font-family="Helvetica,sans-Serif" font-size="9.00" fill="blue">define and enclose the space. Previously SNOMED CT used the word</text>
<text text-anchor="middle" x="628.5" y="-582.8" font-family="Helvetica,sans-Serif" font-size="9.00" fill="blue">compartment to describe structures comprising the cavity and</text>
<text text-anchor="middle" x="628.5" y="-572.8" font-family="Helvetica,sans-Serif" font-size="9.00" fill="blue">content but FMA has used the same word to include cavity, content</text>
<text text-anchor="middle" x="628.5" y="-562.8" font-family="Helvetica,sans-Serif" font-size="9.00" fill="blue">and wall. As a consequence, the preferred notation is intra&#45;</text>
<text text-anchor="middle" x="628.5" y="-552.8" font-family="Helvetica,sans-Serif" font-size="9.00" fill="blue">abdominopelvic structure as this more clearly excludes the wall</text>
<text text-anchor="middle" x="628.5" y="-542.8" font-family="Helvetica,sans-Serif" font-size="9.00" fill="blue">structures. The intra&#45;pelvic structure is bounded by, but excludes</text>
<text text-anchor="middle" x="628.5" y="-532.8" font-family="Helvetica,sans-Serif" font-size="9.00" fill="blue">the following wall structures: superiorly the superior pelvic</text>
<text text-anchor="middle" x="628.5" y="-522.8" font-family="Helvetica,sans-Serif" font-size="9.00" fill="blue">aperture; inferiorly the inferior aperture of true pelvis and</text>
<text text-anchor="middle" x="628.5" y="-512.8" font-family="Helvetica,sans-Serif" font-size="9.00" fill="blue">pelvic diaphragm; and laterally the pelvic wall. Note, the</text>
<text text-anchor="middle" x="628.5" y="-502.8" font-family="Helvetica,sans-Serif" font-size="9.00" fill="blue">structures that form the boundaries are excluded. The content</text>
<text text-anchor="middle" x="628.5" y="-492.8" font-family="Helvetica,sans-Serif" font-size="9.00" fill="blue">includes the urinary bladder, sigmoid colon (although it is</text>
<text text-anchor="middle" x="628.5" y="-482.8" font-family="Helvetica,sans-Serif" font-size="9.00" fill="blue">acknowledged that this is mobile and sits in a variable location),</text>
<text text-anchor="middle" x="628.5" y="-472.8" font-family="Helvetica,sans-Serif" font-size="9.00" fill="blue">rectum, anal canal, pelvic segment of ureter and the retropubic</text>
<text text-anchor="middle" x="628.5" y="-462.8" font-family="Helvetica,sans-Serif" font-size="9.00" fill="blue">and presacral space; the female pelvis also includes the ovaries,</text>
<text text-anchor="middle" x="628.5" y="-452.8" font-family="Helvetica,sans-Serif" font-size="9.00" fill="blue">fallopian tubes, uterus, vagina, female urethra, soft tissues</text>
<text text-anchor="middle" x="628.5" y="-442.8" font-family="Helvetica,sans-Serif" font-size="9.00" fill="blue">including the broad ligament and the retrouterine pouch of</text>
<text text-anchor="middle" x="628.5" y="-432.8" font-family="Helvetica,sans-Serif" font-size="9.00" fill="blue">Douglas.; the male true pelvis also includes the prostate, male</text>
<text text-anchor="middle" x="628.5" y="-422.8" font-family="Helvetica,sans-Serif" font-size="9.00" fill="blue">urethra, seminal vesicles, soft tissues including the pubovesical</text>
<text text-anchor="middle" x="628.5" y="-412.8" font-family="Helvetica,sans-Serif" font-size="9.00" fill="blue">and puboprostatic ligaments and the retrovesical space.</text>
</g>
<!-- 826984001&#45;&gt;1172989009 -->
<g id="edge37" class="edge">
<title>826984001&#45;&gt;1172989009</title>
<path fill="none" stroke="black" d="M591,-664.35C591,-664.35 591,-786.69 591,-786.69"/>
<polygon fill="none" stroke="black" points="587.5,-786.69 591,-796.69 594.5,-786.69 587.5,-786.69"/>
</g>
<!-- 80266002 -->
<g id="node37" class="node">
<title>80266002</title>
<polygon fill="#99ccff" stroke="black" points="408.5,-944 162.5,-944 162.5,-686 408.5,-686 408.5,-944"/>
<text text-anchor="start" x="170.5" y="-932.8" font-family="Helvetica,sans-Serif" font-size="9.00" fill="blue">80266002</text>
<text text-anchor="start" x="170.5" y="-922.8" font-family="Helvetica,sans-Serif" font-size="9.00" fill="blue">Structure of true pelvis (body structure)</text>
<text text-anchor="middle" x="285.5" y="-902.8" font-family="Helvetica,sans-Serif" font-size="9.00" fill="blue">The true pelvis, also known as the minor or lesser</text>
<text text-anchor="middle" x="285.5" y="-892.8" font-family="Helvetica,sans-Serif" font-size="9.00" fill="blue">pelvis, consists of structures comprising the</text>
<text text-anchor="middle" x="285.5" y="-882.8" font-family="Helvetica,sans-Serif" font-size="9.00" fill="blue">wall, space and contents and is bounded by, and</text>
<text text-anchor="middle" x="285.5" y="-872.8" font-family="Helvetica,sans-Serif" font-size="9.00" fill="blue">includes: superiorly the superior pelvic aperture;</text>
<text text-anchor="middle" x="285.5" y="-862.8" font-family="Helvetica,sans-Serif" font-size="9.00" fill="blue">inferiorly the inferior aperture of true pelvis</text>
<text text-anchor="middle" x="285.5" y="-852.8" font-family="Helvetica,sans-Serif" font-size="9.00" fill="blue">and pelvic diaphragm; and laterally the skeletal</text>
<text text-anchor="middle" x="285.5" y="-842.8" font-family="Helvetica,sans-Serif" font-size="9.00" fill="blue">pelvic wall comprised of the bones, joints,</text>
<text text-anchor="middle" x="285.5" y="-832.8" font-family="Helvetica,sans-Serif" font-size="9.00" fill="blue">ligaments of the pelvis and associated muscles</text>
<text text-anchor="middle" x="285.5" y="-822.8" font-family="Helvetica,sans-Serif" font-size="9.00" fill="blue">(piriformis and obturator internus). The content</text>
<text text-anchor="middle" x="285.5" y="-812.8" font-family="Helvetica,sans-Serif" font-size="9.00" fill="blue">includes the urinary bladder, sigmoid colon</text>
<text text-anchor="middle" x="285.5" y="-802.8" font-family="Helvetica,sans-Serif" font-size="9.00" fill="blue">(although it is acknowledged that this is mobile</text>
<text text-anchor="middle" x="285.5" y="-792.8" font-family="Helvetica,sans-Serif" font-size="9.00" fill="blue">and sits in a variable location), rectum, anal</text>
<text text-anchor="middle" x="285.5" y="-782.8" font-family="Helvetica,sans-Serif" font-size="9.00" fill="blue">canal, pelvic segment of ureter and the retropubic</text>
<text text-anchor="middle" x="285.5" y="-772.8" font-family="Helvetica,sans-Serif" font-size="9.00" fill="blue">and presacral space; the female pelvis also</text>
<text text-anchor="middle" x="285.5" y="-762.8" font-family="Helvetica,sans-Serif" font-size="9.00" fill="blue">includes the ovaries, fallopian tubes, uterus,</text>
<text text-anchor="middle" x="285.5" y="-752.8" font-family="Helvetica,sans-Serif" font-size="9.00" fill="blue">vagina, female urethra, soft tissues including the</text>
<text text-anchor="middle" x="285.5" y="-742.8" font-family="Helvetica,sans-Serif" font-size="9.00" fill="blue">broad ligament and the retrouterine pouch of</text>
<text text-anchor="middle" x="285.5" y="-732.8" font-family="Helvetica,sans-Serif" font-size="9.00" fill="blue">Douglas; the male true pelvis also contains the</text>
<text text-anchor="middle" x="285.5" y="-722.8" font-family="Helvetica,sans-Serif" font-size="9.00" fill="blue">prostate, male urethra, seminal vesicles, soft</text>
<text text-anchor="middle" x="285.5" y="-712.8" font-family="Helvetica,sans-Serif" font-size="9.00" fill="blue">tissues including the pubovesical and</text>
<text text-anchor="middle" x="285.5" y="-702.8" font-family="Helvetica,sans-Serif" font-size="9.00" fill="blue">puboprostatic ligaments and the retrovesical</text>
<text text-anchor="middle" x="285.5" y="-692.8" font-family="Helvetica,sans-Serif" font-size="9.00" fill="blue">space.</text>
</g>
<!-- 826984001&#45;&gt;80266002 -->
<g id="edge36" class="edge">
<title>826984001&#45;&gt;80266002</title>
<path fill="none" stroke="black" d="M465.4,-609C385.81,-609 307,-609 307,-609 307,-609 307,-676 307,-676"/>
<polygon fill="none" stroke="black" points="303.5,-676 307,-686 310.5,-676 303.5,-676"/>
</g>
<!-- 80266002&#45;&gt;12921003 -->
<g id="edge93" class="edge">
<title>80266002&#45;&gt;12921003</title>
<path fill="none" stroke="black" d="M326,-944.32C326,-944.32 326,-975.96 326,-975.96"/>
<polygon fill="none" stroke="black" points="322.5,-975.96 326,-985.96 329.5,-975.96 322.5,-975.96"/>
</g>
<!-- 119214008 -->
<g id="node38" class="node">
<title>119214008</title>
<polygon fill="#99ccff" stroke="black" points="1257.5,-210 1073.5,-210 1073.5,-174 1257.5,-174 1257.5,-210"/>
<text text-anchor="start" x="1081.5" y="-194.8" font-family="Helvetica,sans-Serif" font-size="9.00">119214008</text>
<text text-anchor="start" x="1081.5" y="-184.8" font-family="Helvetica,sans-Serif" font-size="9.00">Large intestine part (body structure)</text>
</g>
<!-- 14742008 -->
<g id="node39" class="node">
<title>14742008</title>
<polygon fill="#99ccff" stroke="black" points="1274,-268 1057,-268 1057,-232 1274,-232 1274,-268"/>
<text text-anchor="start" x="1065" y="-252.8" font-family="Helvetica,sans-Serif" font-size="9.00">14742008</text>
<text text-anchor="start" x="1065" y="-242.8" font-family="Helvetica,sans-Serif" font-size="9.00">Structure of large intestine (body structure)</text>
</g>
<!-- 119214008&#45;&gt;14742008 -->
<g id="edge38" class="edge">
<title>119214008&#45;&gt;14742008</title>
<path fill="none" stroke="black" d="M1165.5,-210.03C1165.5,-210.03 1165.5,-221.78 1165.5,-221.78"/>
<polygon fill="none" stroke="black" points="1162,-221.78 1165.5,-231.78 1169,-221.78 1162,-221.78"/>
</g>
<!-- 14742008&#45;&gt;113276009 -->
<g id="edge81" class="edge">
<title>14742008&#45;&gt;113276009</title>
<path fill="none" stroke="black" d="M1247.25,-268.03C1247.25,-268.03 1247.25,-279.78 1247.25,-279.78"/>
<polygon fill="none" stroke="black" points="1243.75,-279.78 1247.25,-289.78 1250.75,-279.78 1243.75,-279.78"/>
</g>
<!-- 128263001&#45;&gt;38866009 -->
<g id="edge40" class="edge">
<title>128263001&#45;&gt;38866009</title>
<path fill="none" stroke="black" d="M805.02,-1692C819.24,-1692 829.25,-1692 829.25,-1692 829.25,-1692 829.25,-1721.97 829.25,-1721.97"/>
<polygon fill="none" stroke="black" points="825.75,-1721.97 829.25,-1731.97 832.75,-1721.97 825.75,-1721.97"/>
</g>
<!-- 306687008 -->
<g id="node41" class="node">
<title>306687008</title>
<polygon fill="#99ccff" stroke="black" points="1055.5,-210 855.5,-210 855.5,-174 1055.5,-174 1055.5,-210"/>
<text text-anchor="start" x="863.5" y="-194.8" font-family="Helvetica,sans-Serif" font-size="9.00">306687008</text>
<text text-anchor="start" x="863.5" y="-184.8" font-family="Helvetica,sans-Serif" font-size="9.00">Lower bowel structures (body structure)</text>
</g>
<!-- 306687008&#45;&gt;826984001 -->
<g id="edge42" class="edge">
<title>306687008&#45;&gt;826984001</title>
<path fill="none" stroke="black" d="M888.5,-210.27C888.5,-268.51 888.5,-446 888.5,-446 888.5,-446 801.69,-446 801.69,-446"/>
<polygon fill="none" stroke="black" points="801.69,-442.5 791.69,-446 801.69,-449.5 801.69,-442.5"/>
</g>
<!-- 306687008&#45;&gt;14742008 -->
<g id="edge41" class="edge">
<title>306687008&#45;&gt;14742008</title>
<path fill="none" stroke="black" d="M1055.51,-192C1061.55,-192 1065.25,-192 1065.25,-192 1065.25,-192 1065.25,-221.97 1065.25,-221.97"/>
<polygon fill="none" stroke="black" points="1061.75,-221.97 1065.25,-231.97 1068.75,-221.97 1061.75,-221.97"/>
</g>
<!-- 5668004&#45;&gt;122865005 -->
<g id="edge45" class="edge">
<title>5668004&#45;&gt;122865005</title>
<path fill="none" stroke="black" d="M1495,-559.36C1495,-559.36 1495,-775.94 1495,-775.94"/>
<polygon fill="none" stroke="black" points="1491.5,-775.94 1495,-785.94 1498.5,-775.94 1491.5,-775.94"/>
</g>
<!-- 5668004&#45;&gt;281501002 -->
<g id="edge46" class="edge">
<title>5668004&#45;&gt;281501002</title>
<path fill="none" stroke="black" d="M1320.83,-559.37C1320.83,-623.84 1320.83,-794 1320.83,-794 1320.83,-794 974.75,-794 974.75,-794 974.75,-794 974.75,-794.29 974.75,-794.29"/>
<polygon fill="none" stroke="black" points="971.25,-786.92 974.75,-796.92 978.25,-786.92 971.25,-786.92"/>
</g>
<!-- 60315003 -->
<g id="node43" class="node">
<title>60315003</title>
<polygon fill="#99ccff" stroke="black" points="2448.5,-384 2230.5,-384 2230.5,-348 2448.5,-348 2448.5,-384"/>
<text text-anchor="start" x="2238.5" y="-368.8" font-family="Helvetica,sans-Serif" font-size="9.00">60315003</text>
<text text-anchor="start" x="2238.5" y="-358.8" font-family="Helvetica,sans-Serif" font-size="9.00">Lymphatic follicle structure (body structure)</text>
</g>
<!-- 59441001 -->
<g id="node44" class="node">
<title>59441001</title>
<polygon fill="#99ccff" stroke="black" points="2635.5,-553 2429.5,-553 2429.5,-517 2635.5,-517 2635.5,-553"/>
<text text-anchor="start" x="2437.5" y="-537.8" font-family="Helvetica,sans-Serif" font-size="9.00">59441001</text>
<text text-anchor="start" x="2437.5" y="-527.8" font-family="Helvetica,sans-Serif" font-size="9.00">Structure of lymph node (body structure)</text>
</g>
<!-- 60315003&#45;&gt;59441001 -->
<g id="edge47" class="edge">
<title>60315003&#45;&gt;59441001</title>
<path fill="none" stroke="black" d="M2439,-384.09C2439,-384.09 2439,-506.79 2439,-506.79"/>
<polygon fill="none" stroke="black" points="2435.5,-506.79 2439,-516.79 2442.5,-506.79 2435.5,-506.79"/>
</g>
<!-- 6969002 -->
<g id="node45" class="node">
<title>6969002</title>
<polygon fill="#99ccff" stroke="black" points="2154,-833 1927,-833 1927,-797 2154,-797 2154,-833"/>
<text text-anchor="start" x="1935" y="-817.8" font-family="Helvetica,sans-Serif" font-size="9.00">6969002</text>
<text text-anchor="start" x="1935" y="-807.8" font-family="Helvetica,sans-Serif" font-size="9.00">Lymphocytic tissue structure (body structure)</text>
</g>
<!-- 60315003&#45;&gt;6969002 -->
<g id="edge48" class="edge">
<title>60315003&#45;&gt;6969002</title>
<path fill="none" stroke="black" d="M2377.33,-384.14C2377.33,-442.87 2377.33,-624 2377.33,-624 2377.33,-624 2078.33,-624 2078.33,-624 2078.33,-624 2078.33,-786.69 2078.33,-786.69"/>
<polygon fill="none" stroke="black" points="2074.83,-786.69 2078.33,-796.69 2081.83,-786.69 2074.83,-786.69"/>
</g>
<!-- 119569007 -->
<g id="node46" class="node">
<title>119569007</title>
<polygon fill="#99ccff" stroke="black" points="2373.5,-553 2183.5,-553 2183.5,-517 2373.5,-517 2373.5,-553"/>
<text text-anchor="start" x="2191.5" y="-537.8" font-family="Helvetica,sans-Serif" font-size="9.00">119569007</text>
<text text-anchor="start" x="2191.5" y="-527.8" font-family="Helvetica,sans-Serif" font-size="9.00">Lymphoid organ part (body structure)</text>
</g>
<!-- 60315003&#45;&gt;119569007 -->
<g id="edge49" class="edge">
<title>60315003&#45;&gt;119569007</title>
<path fill="none" stroke="black" d="M2302,-384.09C2302,-384.09 2302,-506.79 2302,-506.79"/>
<polygon fill="none" stroke="black" points="2298.5,-506.79 2302,-516.79 2305.5,-506.79 2298.5,-506.79"/>
</g>
<!-- 181768009 -->
<g id="node47" class="node">
<title>181768009</title>
<polygon fill="#99ccff" stroke="black" points="2821,-833 2594,-833 2594,-797 2821,-797 2821,-833"/>
<text text-anchor="start" x="2602" y="-817.8" font-family="Helvetica,sans-Serif" font-size="9.00">181768009</text>
<text text-anchor="start" x="2602" y="-807.8" font-family="Helvetica,sans-Serif" font-size="9.00">Structure of lymphatic tissue (body structure)</text>
</g>
<!-- 59441001&#45;&gt;181768009 -->
<g id="edge83" class="edge">
<title>59441001&#45;&gt;181768009</title>
<path fill="none" stroke="black" d="M2614.75,-553.37C2614.75,-553.37 2614.75,-786.92 2614.75,-786.92"/>
<polygon fill="none" stroke="black" points="2611.25,-786.92 2614.75,-796.92 2618.25,-786.92 2611.25,-786.92"/>
</g>
<!-- 91688001 -->
<g id="node50" class="node">
<title>91688001</title>
<polygon fill="#99ccff" stroke="black" points="2385,-833 2172,-833 2172,-797 2385,-797 2385,-833"/>
<text text-anchor="start" x="2180" y="-817.8" font-family="Helvetica,sans-Serif" font-size="9.00">91688001</text>
<text text-anchor="start" x="2180" y="-807.8" font-family="Helvetica,sans-Serif" font-size="9.00">Lymphoid organ structure (body structure)</text>
</g>
<!-- 59441001&#45;&gt;91688001 -->
<g id="edge82" class="edge">
<title>59441001&#45;&gt;91688001</title>
<path fill="none" stroke="black" d="M2429.47,-535C2402.67,-535 2381.17,-535 2381.17,-535 2381.17,-535 2381.17,-786.63 2381.17,-786.63"/>
<polygon fill="none" stroke="black" points="2377.67,-786.63 2381.17,-796.63 2384.67,-786.63 2377.67,-786.63"/>
</g>
<!-- 127908000 -->
<g id="node52" class="node">
<title>127908000</title>
<polygon fill="#99ccff" stroke="black" points="2515.5,-1078 2231.5,-1078 2231.5,-1042 2515.5,-1042 2515.5,-1078"/>
<text text-anchor="start" x="2239.5" y="-1062.8" font-family="Helvetica,sans-Serif" font-size="9.00">127908000</text>
<text text-anchor="start" x="2239.5" y="-1052.8" font-family="Helvetica,sans-Serif" font-size="9.00">Mononuclear phagocyte system structure (body structure)</text>
</g>
<!-- 59441001&#45;&gt;127908000 -->
<g id="edge85" class="edge">
<title>59441001&#45;&gt;127908000</title>
<path fill="none" stroke="black" d="M2472.5,-553.07C2472.5,-553.07 2472.5,-1031.73 2472.5,-1031.73"/>
<polygon fill="none" stroke="black" points="2469,-1031.73 2472.5,-1041.73 2476,-1031.73 2469,-1031.73"/>
</g>
<!-- 89890002 -->
<g id="node61" class="node">
<title>89890002</title>
<polygon fill="#99ccff" stroke="black" points="2594,-1544 2361,-1544 2361,-1486 2594,-1486 2594,-1544"/>
<text text-anchor="start" x="2369" y="-1532.8" font-family="Helvetica,sans-Serif" font-size="9.00" fill="blue">89890002</text>
<text text-anchor="start" x="2369" y="-1522.8" font-family="Helvetica,sans-Serif" font-size="9.00" fill="blue">Structure of lymphatic system (body structure)</text>
<text text-anchor="middle" x="2477.5" y="-1502.8" font-family="Helvetica,sans-Serif" font-size="9.00" fill="blue">Lymphatic system consists of lymph nodes and</text>
<text text-anchor="middle" x="2477.5" y="-1492.8" font-family="Helvetica,sans-Serif" font-size="9.00" fill="blue">lymphatic vessels.</text>
</g>
<!-- 59441001&#45;&gt;89890002 -->
<g id="edge84" class="edge">
<title>59441001&#45;&gt;89890002</title>
<path fill="none" stroke="black" d="M2554.75,-553.27C2554.75,-553.27 2554.75,-1475.84 2554.75,-1475.84"/>
<polygon fill="none" stroke="black" points="2551.25,-1475.84 2554.75,-1485.84 2558.25,-1475.84 2551.25,-1475.84"/>
</g>
<!-- 6969002&#45;&gt;85756007 -->
<g id="edge51" class="edge">
<title>6969002&#45;&gt;85756007</title>
<path fill="none" stroke="black" d="M1940.5,-833.21C1940.5,-970.59 1940.5,-1839 1940.5,-1839 1940.5,-1839 1919.11,-1839 1919.11,-1839"/>
<polygon fill="none" stroke="black" points="1919.11,-1835.5 1909.11,-1839 1919.11,-1842.5 1919.11,-1835.5"/>
</g>
<!-- 122490001 -->
<g id="node49" class="node">
<title>122490001</title>
<polygon fill="#99ccff" stroke="black" points="2213,-1094 1954,-1094 1954,-1026 2213,-1026 2213,-1094"/>
<text text-anchor="start" x="1962" y="-1082.8" font-family="Helvetica,sans-Serif" font-size="9.00" fill="blue">122490001</text>
<text text-anchor="start" x="1962" y="-1072.8" font-family="Helvetica,sans-Serif" font-size="9.00" fill="blue">Lymphoid system structure (body structure)</text>
<text text-anchor="middle" x="2083.5" y="-1052.8" font-family="Helvetica,sans-Serif" font-size="9.00" fill="blue">Lymphoid system consists of lymph nodes, lymphatic</text>
<text text-anchor="middle" x="2083.5" y="-1042.8" font-family="Helvetica,sans-Serif" font-size="9.00" fill="blue">vessels and organs that contain lymphoid tissue,</text>
<text text-anchor="middle" x="2083.5" y="-1032.8" font-family="Helvetica,sans-Serif" font-size="9.00" fill="blue">e.g. thymus, spleen.</text>
</g>
<!-- 6969002&#45;&gt;122490001 -->
<g id="edge52" class="edge">
<title>6969002&#45;&gt;122490001</title>
<path fill="none" stroke="black" d="M2054,-833.02C2054,-833.02 2054,-1015.89 2054,-1015.89"/>
<polygon fill="none" stroke="black" points="2050.5,-1015.89 2054,-1025.89 2057.5,-1015.89 2050.5,-1015.89"/>
</g>
<!-- 119569007&#45;&gt;91717005 -->
<g id="edge54" class="edge">
<title>119569007&#45;&gt;91717005</title>
<path fill="none" stroke="black" d="M2246.83,-553.07C2246.83,-562.46 2246.83,-572 2246.83,-572 2246.83,-572 1858.17,-572 1858.17,-572 1858.17,-572 1858.17,-786.74 1858.17,-786.74"/>
<polygon fill="none" stroke="black" points="1854.67,-786.74 1858.17,-796.74 1861.67,-786.74 1854.67,-786.74"/>
</g>
<!-- 119569007&#45;&gt;91688001 -->
<g id="edge53" class="edge">
<title>119569007&#45;&gt;91688001</title>
<path fill="none" stroke="black" d="M2310.17,-553.37C2310.17,-553.37 2310.17,-786.92 2310.17,-786.92"/>
<polygon fill="none" stroke="black" points="2306.67,-786.92 2310.17,-796.92 2313.67,-786.92 2306.67,-786.92"/>
</g>
<!-- 245255009 -->
<g id="node48" class="node">
<title>245255009</title>
<polygon fill="#99ccff" stroke="black" points="2871,-1533 2612,-1533 2612,-1497 2871,-1497 2871,-1533"/>
<text text-anchor="start" x="2620" y="-1517.8" font-family="Helvetica,sans-Serif" font-size="9.00">245255009</text>
<text text-anchor="start" x="2620" y="-1507.8" font-family="Helvetica,sans-Serif" font-size="9.00">Structure of lymphoreticular system (body structure)</text>
</g>
<!-- 181768009&#45;&gt;245255009 -->
<g id="edge50" class="edge">
<title>181768009&#45;&gt;245255009</title>
<path fill="none" stroke="black" d="M2716.5,-833.01C2716.5,-833.01 2716.5,-1486.79 2716.5,-1486.79"/>
<polygon fill="none" stroke="black" points="2713,-1486.79 2716.5,-1496.79 2720,-1486.79 2713,-1486.79"/>
</g>
<!-- 245255009&#45;&gt;91689009 -->
<g id="edge89" class="edge">
<title>245255009&#45;&gt;91689009</title>
<path fill="none" stroke="black" d="M2741.5,-1533.07C2741.5,-1566.36 2741.5,-1634 2741.5,-1634 2741.5,-1634 2226.03,-1634 2226.03,-1634"/>
<polygon fill="none" stroke="black" points="2226.03,-1630.5 2216.03,-1634 2226.03,-1637.5 2226.03,-1630.5"/>
</g>
<!-- 122490001&#45;&gt;57171008 -->
<g id="edge58" class="edge">
<title>122490001&#45;&gt;57171008</title>
<path fill="none" stroke="black" d="M2213.15,-1086C2218.86,-1086 2222.25,-1086 2222.25,-1086 2222.25,-1086 2222.25,-1266.82 2222.25,-1266.82"/>
<polygon fill="none" stroke="black" points="2218.75,-1266.82 2222.25,-1276.82 2225.75,-1266.82 2218.75,-1266.82"/>
</g>
<!-- 116003000 -->
<g id="node51" class="node">
<title>116003000</title>
<polygon fill="#99ccff" stroke="black" points="2188,-1313 1963,-1313 1963,-1277 2188,-1277 2188,-1313"/>
<text text-anchor="start" x="1971" y="-1297.8" font-family="Helvetica,sans-Serif" font-size="9.00">116003000</text>
<text text-anchor="start" x="1971" y="-1287.8" font-family="Helvetica,sans-Serif" font-size="9.00">Structure of immune system (body structure)</text>
</g>
<!-- 122490001&#45;&gt;116003000 -->
<g id="edge57" class="edge">
<title>122490001&#45;&gt;116003000</title>
<path fill="none" stroke="black" d="M2038,-1094.17C2038,-1094.17 2038,-1266.8 2038,-1266.8"/>
<polygon fill="none" stroke="black" points="2034.5,-1266.8 2038,-1276.8 2041.5,-1266.81 2034.5,-1266.8"/>
</g>
<!-- 91688001&#45;&gt;113343008 -->
<g id="edge55" class="edge">
<title>91688001&#45;&gt;113343008</title>
<path fill="none" stroke="black" d="M2185.67,-833.1C2185.67,-882.33 2185.67,-1015 2185.67,-1015 2185.67,-1015 1627.37,-1015 1627.37,-1015"/>
<polygon fill="none" stroke="black" points="1627.37,-1011.5 1617.37,-1015 1627.37,-1018.5 1627.37,-1011.5"/>
</g>
<!-- 91688001&#45;&gt;122490001 -->
<g id="edge56" class="edge">
<title>91688001&#45;&gt;122490001</title>
<path fill="none" stroke="black" d="M2199.33,-833.02C2199.33,-833.02 2199.33,-1015.89 2199.33,-1015.89"/>
<polygon fill="none" stroke="black" points="2195.83,-1015.89 2199.33,-1025.89 2202.83,-1015.89 2195.83,-1015.89"/>
</g>
<!-- 116003000&#45;&gt;91689009 -->
<g id="edge79" class="edge">
<title>116003000&#45;&gt;91689009</title>
<path fill="none" stroke="black" d="M2067.67,-1313.23C2067.67,-1313.23 2067.67,-1605.68 2067.67,-1605.68"/>
<polygon fill="none" stroke="black" points="2064.17,-1605.68 2067.67,-1615.68 2071.17,-1605.68 2064.17,-1605.68"/>
</g>
<!-- 127908000&#45;&gt;57171008 -->
<g id="edge60" class="edge">
<title>127908000&#45;&gt;57171008</title>
<path fill="none" stroke="black" d="M2374.83,-1078.05C2374.83,-1078.05 2374.83,-1266.89 2374.83,-1266.89"/>
<polygon fill="none" stroke="black" points="2371.33,-1266.89 2374.83,-1276.89 2378.33,-1266.89 2371.33,-1266.89"/>
</g>
<!-- 127908000&#45;&gt;116003000 -->
<g id="edge59" class="edge">
<title>127908000&#45;&gt;116003000</title>
<path fill="none" stroke="black" d="M2303.17,-1078.29C2303.17,-1108.37 2303.17,-1165 2303.17,-1165 2303.17,-1165 2113,-1165 2113,-1165 2113,-1165 2113,-1266.92 2113,-1266.92"/>
<polygon fill="none" stroke="black" points="2109.5,-1266.92 2113,-1276.92 2116.5,-1266.92 2109.5,-1266.92"/>
</g>
<!-- 362937008&#45;&gt;113343008 -->
<g id="edge92" class="edge">
<title>362937008&#45;&gt;113343008</title>
<path fill="none" stroke="black" d="M1222.67,-833.02C1222.67,-889.6 1222.67,-1060 1222.67,-1060 1222.67,-1060 1367.75,-1060 1367.75,-1060"/>
<polygon fill="none" stroke="black" points="1367.75,-1063.5 1377.75,-1060 1367.75,-1056.5 1367.75,-1063.5"/>
</g>
<!-- 57972002 -->
<g id="node54" class="node">
<title>57972002</title>
<polygon fill="#99ccff" stroke="black" points="2144,-36 1855,-36 1855,0 2144,0 2144,-36"/>
<text text-anchor="start" x="1863" y="-20.8" font-family="Helvetica,sans-Serif" font-size="9.00">57972002</text>
<text text-anchor="start" x="1863" y="-10.8" font-family="Helvetica,sans-Serif" font-size="9.00">Structure of rectal solitary lymphoid follicle (body structure)</text>
</g>
<!-- 57972002&#45;&gt;60315003 -->
<g id="edge68" class="edge">
<title>57972002&#45;&gt;60315003</title>
<path fill="none" stroke="black" d="M2144.18,-18C2236.72,-18 2339.5,-18 2339.5,-18 2339.5,-18 2339.5,-337.78 2339.5,-337.78"/>
<polygon fill="none" stroke="black" points="2336,-337.78 2339.5,-347.78 2343,-337.78 2336,-337.78"/>
</g>
<!-- 19655003 -->
<g id="node55" class="node">
<title>19655003</title>
<polygon fill="#99ccff" stroke="black" points="2165.5,-553 1833.5,-553 1833.5,-517 2165.5,-517 2165.5,-553"/>
<text text-anchor="start" x="1841.5" y="-537.8" font-family="Helvetica,sans-Serif" font-size="9.00">19655003</text>
<text text-anchor="start" x="1841.5" y="-527.8" font-family="Helvetica,sans-Serif" font-size="9.00">Structure of lymphoid tissue of gastrointestinal tract (body structure)</text>
</g>
<!-- 57972002&#45;&gt;19655003 -->
<g id="edge66" class="edge">
<title>57972002&#45;&gt;19655003</title>
<path fill="none" stroke="black" d="M2021.5,-36.1C2021.5,-36.1 2021.5,-506.78 2021.5,-506.78"/>
<polygon fill="none" stroke="black" points="2018,-506.78 2021.5,-516.78 2025,-506.78 2018,-506.78"/>
</g>
<!-- 372237002 -->
<g id="node56" class="node">
<title>372237002</title>
<polygon fill="#99ccff" stroke="black" points="1692.5,-94 1540.5,-94 1540.5,-58 1692.5,-58 1692.5,-94"/>
<text text-anchor="start" x="1548.5" y="-78.8" font-family="Helvetica,sans-Serif" font-size="9.00">372237002</text>
<text text-anchor="start" x="1548.5" y="-68.8" font-family="Helvetica,sans-Serif" font-size="9.00">Rectum part (body structure)</text>
</g>
<!-- 57972002&#45;&gt;372237002 -->
<g id="edge67" class="edge">
<title>57972002&#45;&gt;372237002</title>
<path fill="none" stroke="black" d="M1877,-36.03C1877,-53.06 1877,-76 1877,-76 1877,-76 1702.55,-76 1702.55,-76"/>
<polygon fill="none" stroke="black" points="1702.55,-72.5 1692.55,-76 1702.55,-79.5 1702.55,-72.5"/>
</g>
<!-- 19655003&#45;&gt;122865005 -->
<g id="edge87" class="edge">
<title>19655003&#45;&gt;122865005</title>
<path fill="none" stroke="black" d="M1845.83,-553.07C1845.83,-611.57 1845.83,-792 1845.83,-792 1845.83,-792 1718.08,-792 1718.08,-792"/>
<polygon fill="none" stroke="black" points="1718.08,-788.5 1708.08,-792 1718.08,-795.5 1718.08,-788.5"/>
</g>
<!-- 19655003&#45;&gt;6969002 -->
<g id="edge88" class="edge">
<title>19655003&#45;&gt;6969002</title>
<path fill="none" stroke="black" d="M2002.67,-553.37C2002.67,-553.37 2002.67,-786.92 2002.67,-786.92"/>
<polygon fill="none" stroke="black" points="1999.17,-786.92 2002.67,-796.92 2006.17,-786.92 1999.17,-786.92"/>
</g>
<!-- 34402009 -->
<g id="node57" class="node">
<title>34402009</title>
<polygon fill="#99ccff" stroke="black" points="1148,-152 973,-152 973,-116 1148,-116 1148,-152"/>
<text text-anchor="start" x="981" y="-136.8" font-family="Helvetica,sans-Serif" font-size="9.00">34402009</text>
<text text-anchor="start" x="981" y="-126.8" font-family="Helvetica,sans-Serif" font-size="9.00">Rectum structure (body structure)</text>
</g>
<!-- 372237002&#45;&gt;34402009 -->
<g id="edge69" class="edge">
<title>372237002&#45;&gt;34402009</title>
<path fill="none" stroke="black" d="M1568.33,-94.03C1568.33,-111.06 1568.33,-134 1568.33,-134 1568.33,-134 1158.09,-134 1158.09,-134"/>
<polygon fill="none" stroke="black" points="1158.09,-130.5 1148.09,-134 1158.09,-137.5 1158.09,-130.5"/>
</g>
<!-- 34402009&#45;&gt;281088000 -->
<g id="edge71" class="edge">
<title>34402009&#45;&gt;281088000</title>
<path fill="none" stroke="black" d="M972.69,-134C777.86,-134 326.5,-134 326.5,-134 326.5,-134 326.5,-506.99 326.5,-506.99"/>
<polygon fill="none" stroke="black" points="323,-506.99 326.5,-516.99 330,-506.99 323,-506.99"/>
</g>
<!-- 34402009&#45;&gt;119214008 -->
<g id="edge70" class="edge">
<title>34402009&#45;&gt;119214008</title>
<path fill="none" stroke="black" d="M1110.75,-152.03C1110.75,-152.03 1110.75,-163.78 1110.75,-163.78"/>
<polygon fill="none" stroke="black" points="1107.25,-163.78 1110.75,-173.78 1114.25,-163.78 1107.25,-163.78"/>
</g>
<!-- 34402009&#45;&gt;306687008 -->
<g id="edge72" class="edge">
<title>34402009&#45;&gt;306687008</title>
<path fill="none" stroke="black" d="M1014.25,-152.03C1014.25,-152.03 1014.25,-163.78 1014.25,-163.78"/>
<polygon fill="none" stroke="black" points="1010.75,-163.78 1014.25,-173.78 1017.75,-163.78 1010.75,-163.78"/>
</g>
<!-- 699589007 -->
<g id="node58" class="node">
<title>699589007</title>
<polygon fill="#99ccff" stroke="black" points="1453.5,-1888 1217.5,-1888 1217.5,-1790 1453.5,-1790 1453.5,-1888"/>
<text text-anchor="start" x="1225.5" y="-1876.8" font-family="Helvetica,sans-Serif" font-size="9.00" fill="blue">699589007</text>
<text text-anchor="start" x="1225.5" y="-1866.8" font-family="Helvetica,sans-Serif" font-size="9.00" fill="blue">Structure of anatomical cluster (body structure)</text>
<text text-anchor="middle" x="1335.5" y="-1846.8" font-family="Helvetica,sans-Serif" font-size="9.00" fill="blue">Anatomical structure which has as its parts a</text>
<text text-anchor="middle" x="1335.5" y="-1836.8" font-family="Helvetica,sans-Serif" font-size="9.00" fill="blue">heterogeneous collection of organs, organ parts,</text>
<text text-anchor="middle" x="1335.5" y="-1826.8" font-family="Helvetica,sans-Serif" font-size="9.00" fill="blue">cells, cell parts or body part subdivisions that</text>
<text text-anchor="middle" x="1335.5" y="-1816.8" font-family="Helvetica,sans-Serif" font-size="9.00" fill="blue">are adjacent to, or continuous with one another;</text>
<text text-anchor="middle" x="1335.5" y="-1806.8" font-family="Helvetica,sans-Serif" font-size="9.00" fill="blue">does not constitute a cell part, cell, tissue,</text>
<text text-anchor="middle" x="1335.5" y="-1796.8" font-family="Helvetica,sans-Serif" font-size="9.00" fill="blue">organ, or body part subdivision.</text>
</g>
<!-- 699589007&#45;&gt;91723000 -->
<g id="edge73" class="edge">
<title>699589007&#45;&gt;91723000</title>
<path fill="none" stroke="black" d="M1428,-1888.19C1428,-1888.19 1428,-1899.83 1428,-1899.83"/>
<polygon fill="none" stroke="black" points="1424.5,-1899.83 1428,-1909.83 1431.5,-1899.83 1424.5,-1899.83"/>
</g>
<!-- 699590003&#45;&gt;699589007 -->
<g id="edge74" class="edge">
<title>699590003&#45;&gt;699589007</title>
<path fill="none" stroke="black" d="M1320.25,-1710.03C1320.25,-1710.03 1320.25,-1779.87 1320.25,-1779.87"/>
<polygon fill="none" stroke="black" points="1316.75,-1779.87 1320.25,-1789.87 1323.75,-1779.87 1316.75,-1779.87"/>
</g>
<!-- 22943007&#45;&gt;38866009 -->
<g id="edge94" class="edge">
<title>22943007&#45;&gt;38866009</title>
<path fill="none" stroke="black" d="M919.75,-1710.03C919.75,-1710.03 919.75,-1721.78 919.75,-1721.78"/>
<polygon fill="none" stroke="black" points="916.25,-1721.78 919.75,-1731.78 923.25,-1721.78 916.25,-1721.78"/>
</g>
<!-- 89890002&#45;&gt;91689009 -->
<g id="edge86" class="edge">
<title>89890002&#45;&gt;91689009</title>
<path fill="none" stroke="black" d="M2360.85,-1539C2275.54,-1539 2174.67,-1539 2174.67,-1539 2174.67,-1539 2174.67,-1605.68 2174.67,-1605.68"/>
<polygon fill="none" stroke="black" points="2171.17,-1605.68 2174.67,-1615.68 2178.17,-1605.68 2171.17,-1605.68"/>
</g>
</g>
</svg>
