strict digraph G { rankdir=RL; ranksep=.3; node [shape=box, fontsize=9, fontname=Helvetica, style=filled, fillcolor=white];
"708578007"->"49755003" [arrowhead=onormal];
"708581002"->"123037004" [arrowhead=onormal];
"708580001"->"123037004" [arrowhead=onormal];
"708579004"->"123037004" [arrowhead=onormal];
"708585006"->"123037004" [arrowhead=onormal];
"708573003"->"49755003" [arrowhead=onormal];
"708574009"->"49755003" [arrowhead=onormal];
"26671000"->"123037004" [arrowhead=onormal];
"708577002"->"49755003" [arrowhead=onormal];
"71379006"->"49755003" [arrowhead=onormal];
"129263008"->"49755003" [arrowhead=onormal];
"708584005"->"123037004" [arrowhead=onormal];
"49755003"->"123037004" [arrowhead=onormal];
"123037004"->"138875005" [arrowhead=onormal];
"87715008"->"64572001" [arrowhead=onormal];
"699709007"->"404684003" [arrowhead=onormal];
"405258007"->"81256000" [arrowhead=onormal];
"405258007"->"371136004" [arrowhead=onormal];
"43144004"->"64572001" [arrowhead=onormal];
"43144004"->"300848003" [arrowhead=onormal];
"10017004"->"64572001" [arrowhead=onormal];
"278631002"->"404684003" [arrowhead=onormal];
"54711002"->"18718003" [arrowhead=onormal];
"47222000"->"417746004" [arrowhead=onormal];
"47222000"->"65759007" [arrowhead=onormal];
"703401001"->"928000" [arrowhead=onormal];
"713879003"->"713245008" [arrowhead=onormal];
"234983007"->"64572001" [arrowhead=onormal];
"711641004"->"363044007" [arrowhead=onormal];
"711641004"->"714750008" [arrowhead=onormal];
"711175004"->"80967001" [arrowhead=onormal];
"91950000"->"928000" [arrowhead=onormal];
"91950000"->"362975008" [arrowhead=onormal];
"91950000"->"300233000" [arrowhead=onormal];
"91950000"->"37320007" [arrowhead=onormal];
"22240003"->"66383009" [arrowhead=onormal];
"38285004"->"2556008" [arrowhead=onormal];
"38285004"->"928000" [arrowhead=onormal];
"713245008"->"66383009" [arrowhead=onormal];
"109794004"->"64572001" [arrowhead=onormal];
"67787004"->"95351003" [arrowhead=onormal];
"57650002"->"234972003" [arrowhead=onormal];
"60476005"->"300233000" [arrowhead=onormal];
"60476005"->"81256000" [arrowhead=onormal];
"109649003"->"109647001" [arrowhead=onormal];
"718064007"->"2704003" [arrowhead=onormal];
"718064007"->"41565005" [arrowhead=onormal];
"278528006"->"301310005" [arrowhead=onormal];
"386207004"->"41888000" [arrowhead=onormal];
"274950005"->"64572001" [arrowhead=onormal];
"18718003"->"249410009" [arrowhead=onormal];
"18718003"->"64572001" [arrowhead=onormal];
"234973008"->"234972003" [arrowhead=onormal];
"235010005"->"2704003" [arrowhead=onormal];
"235010005"->"41565005" [arrowhead=onormal];
"235010005"->"65759007" [arrowhead=onormal];
"711173006"->"80353004" [arrowhead=onormal];
"109734002"->"109728009" [arrowhead=onormal];
"247805009"->"384821006" [arrowhead=onormal];
"707219007"->"18718003" [arrowhead=onormal];
"426965005"->"247440002" [arrowhead=onormal];
"426965005"->"249400000" [arrowhead=onormal];
"426965005"->"95351003" [arrowhead=onormal];
"110302009"->"384821006" [arrowhead=onormal];
"213299007"->"404684003" [arrowhead=onormal];
"111347003"->"300848003" [arrowhead=onormal];
"111347003"->"928000" [arrowhead=onormal];
"699274002"->"300233000" [arrowhead=onormal];
"699274002"->"81256000" [arrowhead=onormal];
"699828007"->"404684003" [arrowhead=onormal];
"278630001"->"404684003" [arrowhead=onormal];
"703132007"->"928000" [arrowhead=onormal];
"703132007"->"371136004" [arrowhead=onormal];
"109603007"->"128284006" [arrowhead=onormal];
"109603007"->"300848003" [arrowhead=onormal];
"109741008"->"109728009" [arrowhead=onormal];
"718070001"->"249400000" [arrowhead=onormal];
"109495004"->"300233000" [arrowhead=onormal];
"109495004"->"81256000" [arrowhead=onormal];
"109736000"->"109728009" [arrowhead=onormal];
"716362006"->"18718003" [arrowhead=onormal];
"702402003"->"80967001" [arrowhead=onormal];
"702402003"->"108111000119103" [arrowhead=onormal];
"699777008"->"64572001" [arrowhead=onormal];
"110321001"->"404684003" [arrowhead=onormal];
"109500001"->"300233000" [arrowhead=onormal];
"109500001"->"81256000" [arrowhead=onormal];
"698039001"->"36202009" [arrowhead=onormal];
"718053009"->"128284006" [arrowhead=onormal];
"718053009"->"41565005" [arrowhead=onormal];
"109709002"->"928000" [arrowhead=onormal];
"29553002"->"266415009" [arrowhead=onormal];
"53963006"->"64572001" [arrowhead=onormal];
"234974002"->"234972003" [arrowhead=onormal];
"109758003"->"36202009" [arrowhead=onormal];
"83412009"->"2556008" [arrowhead=onormal];
"83412009"->"300848003" [arrowhead=onormal];
"41565005"->"2556008" [arrowhead=onormal];
"41565005"->"714750008" [arrowhead=onormal];
"109743006"->"109728009" [arrowhead=onormal];
"79740000"->"40733004" [arrowhead=onormal];
"52994003"->"362975008" [arrowhead=onormal];
"442437005"->"473023007" [arrowhead=onormal];
"109730006"->"109728009" [arrowhead=onormal];
"699684005"->"61170000" [arrowhead=onormal];
"699684005"->"40733004" [arrowhead=onormal];
"699684005"->"473023007" [arrowhead=onormal];
"36202009"->"417746004" [arrowhead=onormal];
"36202009"->"65759007" [arrowhead=onormal];
"714635005"->"18718003" [arrowhead=onormal];
"109787002"->"249400000" [arrowhead=onormal];
"109787002"->"95351003" [arrowhead=onormal];
"109501002"->"300233000" [arrowhead=onormal];
"109501002"->"81256000" [arrowhead=onormal];
"11625007"->"111347003" [arrowhead=onormal];
"66383009"->"18718003" [arrowhead=onormal];
"66383009"->"714750008" [arrowhead=onormal];
"109798001"->"64572001" [arrowhead=onormal];
"699423008"->"300233000" [arrowhead=onormal];
"699423008"->"81256000" [arrowhead=onormal];
"711635006"->"404684003" [arrowhead=onormal];
"16958000"->"64969001" [arrowhead=onormal];
"5639000"->"234972003" [arrowhead=onormal];
"66569006"->"64572001" [arrowhead=onormal];
"711639000"->"363044007" [arrowhead=onormal];
"711639000"->"714750008" [arrowhead=onormal];
"699710002"->"404684003" [arrowhead=onormal];
"702745006"->"109728009" [arrowhead=onormal];
"4264000"->"22240003" [arrowhead=onormal];
"4264000"->"128284006" [arrowhead=onormal];
"716292004"->"118247008" [arrowhead=onormal];
"702645001"->"109728009" [arrowhead=onormal];
"718061004"->"128284006" [arrowhead=onormal];
"718061004"->"41565005" [arrowhead=onormal];
"609403008"->"365860008" [arrowhead=onormal];
"235001002"->"300848003" [arrowhead=onormal];
"235001002"->"18718003" [arrowhead=onormal];
"109729001"->"109728009" [arrowhead=onormal];
"41918006"->"362975008" [arrowhead=onormal];
"18755003"->"33334006" [arrowhead=onormal];
"61804006"->"928000" [arrowhead=onormal];
"61804006"->"714750008" [arrowhead=onormal];
"109751009"->"36202009" [arrowhead=onormal];
"109751009"->"46557008" [arrowhead=onormal];
"109747007"->"36202009" [arrowhead=onormal];
"718066009"->"2704003" [arrowhead=onormal];
"718066009"->"41565005" [arrowhead=onormal];
"109735001"->"109728009" [arrowhead=onormal];
"109504005"->"300233000" [arrowhead=onormal];
"109504005"->"81256000" [arrowhead=onormal];
"715843008"->"2704003" [arrowhead=onormal];
"715843008"->"41565005" [arrowhead=onormal];
"109644008"->"234972003" [arrowhead=onormal];
"110313007"->"404684003" [arrowhead=onormal];
"716299008"->"64572001" [arrowhead=onormal];
"699711003"->"404684003" [arrowhead=onormal];
"711469000"->"109728009" [arrowhead=onormal];
"716296001"->"109728009" [arrowhead=onormal];
"373588006"->"36202009" [arrowhead=onormal];
"373588006"->"46557008" [arrowhead=onormal];
"91863007"->"22240003" [arrowhead=onormal];
"91863007"->"2704003" [arrowhead=onormal];
"4776004"->"64572001" [arrowhead=onormal];
"4776004"->"247440002" [arrowhead=onormal];
"234972003"->"371136004" [arrowhead=onormal];
"80353004"->"80967001" [arrowhead=onormal];
"714478005"->"66383009" [arrowhead=onormal];
"109753007"->"373588006" [arrowhead=onormal];
"109753007"->"363044007" [arrowhead=onormal];
"266415009"->"371136004" [arrowhead=onormal];
"414603003"->"247440002" [arrowhead=onormal];
"414603003"->"249400000" [arrowhead=onormal];
"414603003"->"95351003" [arrowhead=onormal];
"699712005"->"404684003" [arrowhead=onormal];
"718375003"->"404684003" [arrowhead=onormal];
"278549007"->"109728009" [arrowhead=onormal];
"397869004"->"65759007" [arrowhead=onormal];
"397869004"->"417746004" [arrowhead=onormal];
"50882004"->"247440002" [arrowhead=onormal];
"50882004"->"249400000" [arrowhead=onormal];
"50882004"->"95351003" [arrowhead=onormal];
"50882004"->"417746004" [arrowhead=onormal];
"14901003"->"64572001" [arrowhead=onormal];
"716364007"->"80353004" [arrowhead=onormal];
"699856002"->"366248005" [arrowhead=onormal];
"109762009"->"36202009" [arrowhead=onormal];
"711638008"->"363044007" [arrowhead=onormal];
"711638008"->"714750008" [arrowhead=onormal];
"12351004"->"81256000" [arrowhead=onormal];
"12351004"->"371136004" [arrowhead=onormal];
"80967001"->"46557008" [arrowhead=onormal];
"80967001"->"40733004" [arrowhead=onormal];
"80967001"->"65759007" [arrowhead=onormal];
"278616006"->"109741008" [arrowhead=onormal];
"13468005"->"46557008" [arrowhead=onormal];
"109671008"->"210366009" [arrowhead=onormal];
"234979007"->"64572001" [arrowhead=onormal];
"235104008"->"81256000" [arrowhead=onormal];
"235104008"->"371136004" [arrowhead=onormal];
"278617002"->"278616006" [arrowhead=onormal];
"42711005"->"65759007" [arrowhead=onormal];
"42711005"->"363044007" [arrowhead=onormal];
"8004003"->"404684003" [arrowhead=onormal];
"95212006"->"18718003" [arrowhead=onormal];
"20674003"->"735426009" [arrowhead=onormal];
"235006007"->"2556008" [arrowhead=onormal];
"718065008"->"2704003" [arrowhead=onormal];
"718065008"->"41565005" [arrowhead=onormal];
"74598008"->"20674003" [arrowhead=onormal];
"74598008"->"2556008" [arrowhead=onormal];
"74598008"->"300848003" [arrowhead=onormal];
"37320007"->"108111000119103" [arrowhead=onormal];
"61170000"->"249400000" [arrowhead=onormal];
"61170000"->"95351003" [arrowhead=onormal];
"235014001"->"928000" [arrowhead=onormal];
"41366005"->"33334006" [arrowhead=onormal];
"109679005"->"210366009" [arrowhead=onormal];
"109754001"->"36202009" [arrowhead=onormal];
"109754001"->"46557008" [arrowhead=onormal];
"714477000"->"66383009" [arrowhead=onormal];
"210366009"->"417746004" [arrowhead=onormal];
"4356008"->"18718003" [arrowhead=onormal];
"711640003"->"363044007" [arrowhead=onormal];
"711640003"->"714750008" [arrowhead=onormal];
"711636007"->"404684003" [arrowhead=onormal];
"69254008"->"61170000" [arrowhead=onormal];
"715287007"->"128284006" [arrowhead=onormal];
"715287007"->"41565005" [arrowhead=onormal];
"699853005"->"371136004" [arrowhead=onormal];
"699685006"->"404684003" [arrowhead=onormal];
"718062006"->"128284006" [arrowhead=onormal];
"718062006"->"41565005" [arrowhead=onormal];
"109647001"->"417746004" [arrowhead=onormal];
"109647001"->"65759007" [arrowhead=onormal];
"718060003"->"128284006" [arrowhead=onormal];
"718060003"->"41565005" [arrowhead=onormal];
"109648006"->"109647001" [arrowhead=onormal];
"8666004"->"367534004" [arrowhead=onormal];
"234975001"->"65759007" [arrowhead=onormal];
"235017008"->"300848003" [arrowhead=onormal];
"235017008"->"247440002" [arrowhead=onormal];
"235017008"->"249400000" [arrowhead=onormal];
"235017008"->"95351003" [arrowhead=onormal];
"109728009"->"404684003" [arrowhead=onormal];
"699713000"->"404684003" [arrowhead=onormal];
"109710007"->"928000" [arrowhead=onormal];
"109602002"->"2704003" [arrowhead=onormal];
"109602002"->"83412009" [arrowhead=onormal];
"699857006"->"366248005" [arrowhead=onormal];
"714482007"->"404684003" [arrowhead=onormal];
"716363001"->"365860008" [arrowhead=onormal];
"699714006"->"404684003" [arrowhead=onormal];
"109750005"->"64572001" [arrowhead=onormal];
"715860003"->"2704003" [arrowhead=onormal];
"715860003"->"41565005" [arrowhead=onormal];
"441935006"->"300233000" [arrowhead=onormal];
"441935006"->"37320007" [arrowhead=onormal];
"109610001"->"18718003" [arrowhead=onormal];
"109610001"->"300848003" [arrowhead=onormal];
"609402003"->"365860008" [arrowhead=onormal];
"67289000"->"300233000" [arrowhead=onormal];
"67289000"->"81256000" [arrowhead=onormal];
"715842003"->"714482007" [arrowhead=onormal];
"734009000"->"404684003" [arrowhead=onormal];
"82212003"->"64572001" [arrowhead=onormal];
"710783007"->"404684003" [arrowhead=onormal];
"609400006"->"365860008" [arrowhead=onormal];
"367534004"->"64572001" [arrowhead=onormal];
"416673002"->"109728009" [arrowhead=onormal];
"8954007"->"928000" [arrowhead=onormal];
"42323001"->"43144004" [arrowhead=onormal];
"609401005"->"365860008" [arrowhead=onormal];
"278618007"->"278616006" [arrowhead=onormal];
"41888000"->"301310005" [arrowhead=onormal];
"41888000"->"928000" [arrowhead=onormal];
"715286003"->"128284006" [arrowhead=onormal];
"715286003"->"41565005" [arrowhead=onormal];
"716294003"->"109728009" [arrowhead=onormal];
"715859008"->"2704003" [arrowhead=onormal];
"715859008"->"41565005" [arrowhead=onormal];
"699422003"->"61170000" [arrowhead=onormal];
"699422003"->"473023007" [arrowhead=onormal];
"234976000"->"80967001" [arrowhead=onormal];
"716293009"->"118247008" [arrowhead=onormal];
"64969001"->"371136004" [arrowhead=onormal];
"714249007"->"66383009" [arrowhead=onormal];
"46752004"->"300848003" [arrowhead=onormal];
"46752004"->"928000" [arrowhead=onormal];
"46752004"->"301310005" [arrowhead=onormal];
"699683004"->"80967001" [arrowhead=onormal];
"235002009"->"300848003" [arrowhead=onormal];
"235002009"->"18718003" [arrowhead=onormal];
"715285004"->"128284006" [arrowhead=onormal];
"715285004"->"41565005" [arrowhead=onormal];
"110483000"->"384821006" [arrowhead=onormal];
"718052004"->"128284006" [arrowhead=onormal];
"718052004"->"41565005" [arrowhead=onormal];
"399050001"->"2704003" [arrowhead=onormal];
"399050001"->"66383009" [arrowhead=onormal];
"399050001"->"65759007" [arrowhead=onormal];
"442551007"->"80967001" [arrowhead=onormal];
"699701005"->"362975008" [arrowhead=onormal];
"699701005"->"363044007" [arrowhead=onormal];
"108111000119103"->"64572001" [arrowhead=onormal];
"2704003"->"64572001" [arrowhead=onormal];
"81256000"->"64572001" [arrowhead=onormal];
"366248005"->"404684003" [arrowhead=onormal];
"128284006"->"64572001" [arrowhead=onormal];
"473023007"->"64572001" [arrowhead=onormal];
"363044007"->"64572001" [arrowhead=onormal];
"362975008"->"64572001" [arrowhead=onormal];
"64572001"->"404684003" [arrowhead=onormal];
"40733004"->"64572001" [arrowhead=onormal];
"46557008"->"64572001" [arrowhead=onormal];
"95351003"->"64572001" [arrowhead=onormal];
"928000"->"64572001" [arrowhead=onormal];
"371136004"->"64572001" [arrowhead=onormal];
"300233000"->"404684003" [arrowhead=onormal];
"301310005"->"404684003" [arrowhead=onormal];
"735426009"->"64572001" [arrowhead=onormal];
"33334006"->"64572001" [arrowhead=onormal];
"365860008"->"404684003" [arrowhead=onormal];
"249410009"->"404684003" [arrowhead=onormal];
"714750008"->"64572001" [arrowhead=onormal];
"65759007"->"64572001" [arrowhead=onormal];
"300848003"->"404684003" [arrowhead=onormal];
"384821006"->"404684003" [arrowhead=onormal];
"249400000"->"404684003" [arrowhead=onormal];
"2556008"->"64572001" [arrowhead=onormal];
"118247008"->"404684003" [arrowhead=onormal];
"247440002"->"404684003" [arrowhead=onormal];
"417746004"->"64572001" [arrowhead=onormal];
"404684003"->"138875005" [arrowhead=onormal];
"248140009"->"363787002" [arrowhead=onormal];
"363787002"->"138875005" [arrowhead=onormal];
"38592005"->"71388002" [arrowhead=onormal];
"37743000"->"71388002" [arrowhead=onormal];
"71388002"->"138875005" [arrowhead=onormal];
"255227004"->"362981000" [arrowhead=onormal];
"63161005"->"362981000" [arrowhead=onormal];
"362981000"->"138875005" [arrowhead=onormal];
"162005007"->"373572006" [arrowhead=onormal];
"718392007"->"718356008" [arrowhead=onormal];
"373573001"->"413350009" [arrowhead=onormal];
"168496002"->"443938003" [arrowhead=onormal];
"443859009"->"413350009" [arrowhead=onormal];
"373572006"->"413350009" [arrowhead=onormal];
"718356008"->"443938003" [arrowhead=onormal];
"413350009"->"243796009" [arrowhead=onormal];
"443938003"->"243796009" [arrowhead=onormal];
"243796009"->"138875005" [arrowhead=onormal];
"363787002" [label="363787002\nObservable entity", shape=box, peripheries=2, style=filled, fillcolor=pink];
"366248005" [label="366248005\nAppearance of denture - finding", shape=box, peripheries=2, style=filled, fillcolor=pink];
"362981000" [label="362981000\nQualifier value", shape=box, peripheries=2, style=filled, fillcolor=pink];
"735426009" [label="735426009\nFistula of digestive system", shape=box, peripheries=2, style=filled, fillcolor=pink];
"118247008" [label="118247008\nRadiologic finding", shape=box, peripheries=2, style=filled, fillcolor=pink];
"928000" [label="928000\nDisorder of musculoskeletal system", shape=box, peripheries=2, style=filled, fillcolor=pink];
"371136004" [label="371136004\nDisorder of tooth development", shape=box, peripheries=2, style=filled, fillcolor=pink];
"95351003" [label="95351003\nDisorder of mucous membrane", shape=box, peripheries=2, style=filled, fillcolor=pink];
"247440002" [label="247440002\nSkin or mucosa lesion", shape=box, peripheries=2, style=filled, fillcolor=pink];
"473023007" [label="473023007\nComplication associated with device", shape=box, peripheries=2, style=filled, fillcolor=pink];
"81256000" [label="81256000\nAnomaly of tooth position", shape=box, peripheries=2, style=filled, fillcolor=pink];
"40733004" [label="40733004\nDisorder due to infection", shape=box, peripheries=2, style=filled, fillcolor=pink];
"714750008" [label="714750008\nInflammatory disorder of jaw region", shape=box, peripheries=2, style=filled, fillcolor=pink];
"300848003" [label="300848003\nMass of body structure", shape=box, peripheries=2, style=filled, fillcolor=pink];
"123037004" [label="123037004\nBody structure", shape=box, peripheries=2, style=filled, fillcolor=pink];
"33334006" [label="33334006\nForeign body in digestive tract", shape=box, peripheries=2, style=filled, fillcolor=pink];
"417746004" [label="417746004\nTraumatic injury", shape=box, peripheries=2, style=filled, fillcolor=pink];
"443938003" [label="443938003\nProcedure carried out on subject", shape=box, peripheries=2, style=filled, fillcolor=pink];
"2556008" [label="2556008\nPeriodontal disease", shape=box, peripheries=2, style=filled, fillcolor=pink];
"249410009" [label="249410009\nGingivae finding", shape=box, peripheries=2, style=filled, fillcolor=pink];
"363044007" [label="363044007\nConnective tissue disorder by body site", shape=box, peripheries=2, style=filled, fillcolor=pink];
"243796009" [label="243796009\nSituation with explicit context", shape=box, peripheries=2, style=filled, fillcolor=pink];
"2704003" [label="2704003\nAcute disease", shape=box, peripheries=2, style=filled, fillcolor=pink];
"64572001" [label="64572001\nDisease", shape=box, peripheries=2, style=filled, fillcolor=pink];
"49755003" [label="49755003\nMorphologically abnormal structure", shape=box, peripheries=2, style=filled, fillcolor=pink];
"404684003" [label="404684003\nClinical finding", shape=box, peripheries=2, style=filled, fillcolor=pink];
"249400000" [label="249400000\nOral mucosa finding", shape=box, peripheries=2, style=filled, fillcolor=pink];
"301310005" [label="301310005\nFinding of face", shape=box, peripheries=2, style=filled, fillcolor=pink];
"362975008" [label="362975008\nDegenerative disorder", shape=box, peripheries=2, style=filled, fillcolor=pink];
"108111000119103" [label="108111000119103\nAcquired anomaly of mouth", shape=box, peripheries=2, style=filled, fillcolor=pink];
"128284006" [label="128284006\nChronic digestive system disorder", shape=box, peripheries=2, style=filled, fillcolor=pink];
"46557008" [label="46557008\nDisorder of hard tissues of teeth", shape=box, peripheries=2, style=filled, fillcolor=pink];
"384821006" [label="384821006\nMental state, behaviour and/or psychosocial function finding", shape=box, peripheries=2, style=filled, fillcolor=pink];
"65759007" [label="65759007\nInjury of mouth", shape=box, peripheries=2, style=filled, fillcolor=pink];
"413350009" [label="413350009\nFinding with explicit context", shape=box, peripheries=2, style=filled, fillcolor=pink];
"300233000" [label="300233000\nFinding of dentition", shape=box, peripheries=2, style=filled, fillcolor=pink];
"138875005" [label="138875005\nSNOMED CT Concept", shape=box, peripheries=2, style=filled, fillcolor=pink];
"365860008" [label="365860008\nGeneral clinical state finding", shape=box, peripheries=2, style=filled, fillcolor=pink];
"71388002" [label="71388002\nProcedure", shape=box, peripheries=2, style=filled, fillcolor=pink];
"87715008" [label="87715008\lXerostomia", shape=box, peripheries=1, style=filled, fillcolor="#99CCFF"];
"699709007" [label="699709007\lDefective maxillary overdenture", shape=box, peripheries=1, style=filled, fillcolor="#99CCFF"];
"405258007" [label="405258007\lDisplacement of tooth", shape=box, peripheries=1, style=filled, fillcolor="#99CCFF"];
"43144004" [label="43144004\lCyst of jaw", shape=box, peripheries=2, style=filled, fillcolor="#CCCCFF"];
"10017004" [label="10017004\lOcclusal wear of teeth", shape=box, peripheries=1, style=filled, fillcolor="#99CCFF"];
"278631002" [label="278631002\lDenture loose", shape=box, peripheries=1, style=filled, fillcolor="#99CCFF"];
"54711002" [label="54711002\lGingival enlargement", shape=box, peripheries=2, style=filled, fillcolor="#CCCCFF"];
"47222000" [label="47222000\lAbrasion of tooth", shape=box, peripheries=2, style=filled, fillcolor="#CCCCFF"];
"162005007" [label="162005007\lNo tooth problem", shape=box, peripheries=2, style=filled, fillcolor="#CCCCFF"];
"703401001" [label="703401001\lInsufficient biological width", shape=box, peripheries=1, style=filled, fillcolor="#99CCFF"];
"718392007" [label="718392007\lPreviously initiated endodontic therapy completed", shape=box, peripheries=2, style=filled, fillcolor="#CCCCFF"];
"713879003" [label="713879003\lGingivitis due to dental plaque with local contributing factor", shape=box, peripheries=1, style=filled, fillcolor="#99CCFF"];
"234983007" [label="234983007\lIntrinsic staining of tooth", shape=box, peripheries=1, style=filled, fillcolor="#99CCFF"];
"711641004" [label="711641004\lSymptomatic reversible pulpitis", shape=box, peripheries=1, style=filled, fillcolor="#99CCFF"];
"711175004" [label="711175004\lCaries of smooth surface of tooth", shape=box, peripheries=1, style=filled, fillcolor="#99CCFF"];
"91950000" [label="91950000\lAtrophy of edentulous alveolar ridge", shape=box, peripheries=2, style=filled, fillcolor="#CCCCFF"];
"22240003" [label="22240003\lPericoronitis", shape=box, peripheries=2, style=filled, fillcolor="#CCCCFF"];
"38285004" [label="38285004\lIrregular alveolar process", shape=box, peripheries=1, style=filled, fillcolor="#99CCFF"];
"713245008" [label="713245008\lDental plaque induced gingivitis", shape=box, peripheries=2, style=filled, fillcolor="#CCCCFF"];
"109794004" [label="109794004\lInadequate vestibular depth after teeth loss", shape=box, peripheries=1, style=filled, fillcolor="#99CCFF"];
"67787004" [label="67787004\lTongue tie", shape=box, peripheries=2, style=filled, fillcolor="#CCCCFF"];
"57650002" [label="57650002\lFailure of exfoliation of primary tooth", shape=box, peripheries=2, style=filled, fillcolor="#CCCCFF"];
"60476005" [label="60476005\lDeep overbite", shape=box, peripheries=1, style=filled, fillcolor="#99CCFF"];
"109649003" [label="109649003\lSecondary occlusal trauma", shape=box, peripheries=1, style=filled, fillcolor="#99CCFF"];
"708578007" [label="708578007\lActive caries", shape=box, peripheries=1, style=filled, fillcolor="#99CCFF"];
"718064007" [label="718064007\lGeneralised slight aggressive periodontitis", shape=box, peripheries=1, style=filled, fillcolor="#99CCFF"];
"373573001" [label="373573001\lClinical finding present", shape=box, peripheries=2, style=filled, fillcolor="#CCCCFF"];
"278528006" [label="278528006\lFacial swelling", shape=box, peripheries=2, style=filled, fillcolor="#CCCCFF"];
"386207004" [label="386207004\lTemporomandibular joint-pain-dysfunction syndrome", shape=box, peripheries=1, style=filled, fillcolor="#99CCFF"];
"274950005" [label="274950005\lSleep related bruxism", shape=box, peripheries=1, style=filled, fillcolor="#99CCFF"];
"18718003" [label="18718003\lGingival disease", shape=box, peripheries=2, style=filled, fillcolor="#CCCCFF"];
"234973008" [label="234973008\lSubmerging tooth", shape=box, peripheries=1, style=filled, fillcolor="#99CCFF"];
"235010005" [label="235010005\lAcute necrotising ulcerative periodontitis", shape=box, peripheries=2, style=filled, fillcolor="#CCCCFF"];
"711173006" [label="711173006\lPit and fissure caries", shape=box, peripheries=1, style=filled, fillcolor="#99CCFF"];
"109734002" [label="109734002\lDental restoration failure of anatomical integrity regarding adjacent teeth", shape=box, peripheries=1, style=filled, fillcolor="#99CCFF"];
"255227004" [label="255227004\lRecurrent", shape=box, peripheries=1, style=filled, fillcolor="#99CCFF"];
"247805009" [label="247805009\lAnxiety and fear", shape=box, peripheries=1, style=filled, fillcolor="#99CCFF"];
"707219007" [label="707219007\lLack of keratinized gingiva", shape=box, peripheries=1, style=filled, fillcolor="#99CCFF"];
"426965005" [label="426965005\lAphthous ulcer of mouth", shape=box, peripheries=2, style=filled, fillcolor="#CCCCFF"];
"110302009" [label="110302009\lClenching teeth", shape=box, peripheries=1, style=filled, fillcolor="#99CCFF"];
"213299007" [label="213299007\lPostoperative pain", shape=box, peripheries=2, style=filled, fillcolor="#CCCCFF"];
"111347003" [label="111347003\lExostosis of jaw", shape=box, peripheries=2, style=filled, fillcolor="#CCCCFF"];
"699274002" [label="699274002\lIncreased overjet", shape=box, peripheries=1, style=filled, fillcolor="#99CCFF"];
"699828007" [label="699828007\lLoss of occlusal relationship with complete denture", shape=box, peripheries=1, style=filled, fillcolor="#99CCFF"];
"278630001" [label="278630001\lDenture unstable", shape=box, peripheries=1, style=filled, fillcolor="#99CCFF"];
"703132007" [label="703132007\lLingual ectopic tooth", shape=box, peripheries=1, style=filled, fillcolor="#99CCFF"];
"109603007" [label="109603007\lChronic apical abscess", shape=box, peripheries=2, style=filled, fillcolor="#CCCCFF"];
"109741008" [label="109741008\lFractured dental restoration", shape=box, peripheries=2, style=filled, fillcolor="#CCCCFF"];
"718070001" [label="718070001\lNormal oral mucous membrane and osseointegrated bone tissue surrounding dental implant", shape=box, peripheries=1, style=filled, fillcolor="#99CCFF"];
"109495004" [label="109495004\lCrossbite", shape=box, peripheries=1, style=filled, fillcolor="#99CCFF"];
"109736000" [label="109736000\lDental restoration failure of periodontal anatomical integrity", shape=box, peripheries=1, style=filled, fillcolor="#99CCFF"];
"716362006" [label="716362006\lGingival disease co-occurrent with diabetes mellitus", shape=box, peripheries=2, style=filled, fillcolor="#CCCCFF"];
"702402003" [label="702402003\lEarly childhood caries", shape=box, peripheries=2, style=filled, fillcolor="#CCCCFF"];
"699777008" [label="699777008\lCentric occlusion - Centric relation discrepancy", shape=box, peripheries=1, style=filled, fillcolor="#99CCFF"];
"110321001" [label="110321001\lEdge to edge occlusion of teeth", shape=box, peripheries=1, style=filled, fillcolor="#99CCFF"];
"109500001" [label="109500001\lMalocclusion, Angle class I", shape=box, peripheries=1, style=filled, fillcolor="#99CCFF"];
"698039001" [label="698039001\lIncomplete fracture of tooth", shape=box, peripheries=2, style=filled, fillcolor="#CCCCFF"];
"718053009" [label="718053009\lSymptomatic periapical periodontitis", shape=box, peripheries=1, style=filled, fillcolor="#99CCFF"];
"109709002" [label="109709002\lHorizontal alveolar bone loss", shape=box, peripheries=1, style=filled, fillcolor="#99CCFF"];
"29553002" [label="29553002\lPeg-shaped teeth", shape=box, peripheries=1, style=filled, fillcolor="#99CCFF"];
"53963006" [label="53963006\lExcessive attrition of teeth", shape=box, peripheries=1, style=filled, fillcolor="#99CCFF"];
"234974002" [label="234974002\lEarly tooth exfoliation", shape=box, peripheries=1, style=filled, fillcolor="#99CCFF"];
"708581002" [label="708581002\lOuter third of dentin", shape=box, peripheries=1, style=filled, fillcolor="#99CCFF"];
"109758003" [label="109758003\lHorizontal fracture of cervical third of root of tooth", shape=box, peripheries=1, style=filled, fillcolor="#99CCFF"];
"83412009" [label="83412009\lPeriodontal abscess", shape=box, peripheries=2, style=filled, fillcolor="#CCCCFF"];
"41565005" [label="41565005\lPeriodontitis", shape=box, peripheries=2, style=filled, fillcolor="#CCCCFF"];
"109743006" [label="109743006\lDental restoration can not be expected to continue to be serviceable", shape=box, peripheries=1, style=filled, fillcolor="#99CCFF"];
"79740000" [label="79740000\lCandidiasis of mouth", shape=box, peripheries=2, style=filled, fillcolor="#CCCCFF"];
"708580001" [label="708580001\lMiddle third of dentin", shape=box, peripheries=1, style=filled, fillcolor="#99CCFF"];
"52994003" [label="52994003\lInternal resorption of tooth", shape=box, peripheries=1, style=filled, fillcolor="#99CCFF"];
"442437005" [label="442437005\lFailure of osseointegration of dental implant", shape=box, peripheries=1, style=filled, fillcolor="#99CCFF"];
"168496002" [label="168496002\lRadiographic imaging procedure carried out", shape=box, peripheries=2, style=filled, fillcolor="#CCCCFF"];
"109730006" [label="109730006\lDental restoration aesthetically inadequate or displeasing", shape=box, peripheries=1, style=filled, fillcolor="#99CCFF"];
"699684005" [label="699684005\lPeri-implant mucositis", shape=box, peripheries=1, style=filled, fillcolor="#99CCFF"];
"36202009" [label="36202009\lFracture of tooth", shape=box, peripheries=2, style=filled, fillcolor="#CCCCFF"];
"714635005" [label="714635005\lDeformity of mucogingival junction", shape=box, peripheries=2, style=filled, fillcolor="#CCCCFF"];
"708579004" [label="708579004\lInner third of dentin", shape=box, peripheries=1, style=filled, fillcolor="#99CCFF"];
"109787002" [label="109787002\lInflammatory fibrous hyperplasia of mouth", shape=box, peripheries=1, style=filled, fillcolor="#99CCFF"];
"109501002" [label="109501002\lMalocclusion, Angle class II", shape=box, peripheries=1, style=filled, fillcolor="#99CCFF"];
"11625007" [label="11625007\lTorus mandibularis", shape=box, peripheries=2, style=filled, fillcolor="#CCCCFF"];
"66383009" [label="66383009\lGingivitis", shape=box, peripheries=2, style=filled, fillcolor="#CCCCFF"];
"109798001" [label="109798001\lLack of adequate intermaxillary vertical dimension", shape=box, peripheries=1, style=filled, fillcolor="#99CCFF"];
"699423008" [label="699423008\lHyperocclusion", shape=box, peripheries=1, style=filled, fillcolor="#99CCFF"];
"711635006" [label="711635006\lNormal periapical tissue", shape=box, peripheries=1, style=filled, fillcolor="#99CCFF"];
"16958000" [label="16958000\lTotal anodontia of permanent and deciduous teeth", shape=box, peripheries=2, style=filled, fillcolor="#CCCCFF"];
"5639000" [label="5639000\lLate tooth eruption", shape=box, peripheries=2, style=filled, fillcolor="#CCCCFF"];
"443859009" [label="443859009\lPossible clinical finding", shape=box, peripheries=2, style=filled, fillcolor="#CCCCFF"];
"66569006" [label="66569006\lRetained dental root", shape=box, peripheries=2, style=filled, fillcolor="#CCCCFF"];
"711639000" [label="711639000\lAsymptomatic irreversible pulpitis", shape=box, peripheries=1, style=filled, fillcolor="#99CCFF"];
"708585006" [label="708585006\lOuter half of enamel", shape=box, peripheries=1, style=filled, fillcolor="#99CCFF"];
"699710002" [label="699710002\lDefective mandibular overdenture", shape=box, peripheries=1, style=filled, fillcolor="#99CCFF"];
"702745006" [label="702745006\lAdhesive failure of dental restoration", shape=box, peripheries=1, style=filled, fillcolor="#99CCFF"];
"4264000" [label="4264000\lChronic pericoronitis", shape=box, peripheries=2, style=filled, fillcolor="#CCCCFF"];
"716292004" [label="716292004\lRadiographic radiolucency of tooth", shape=box, peripheries=1, style=filled, fillcolor="#99CCFF"];
"708573003" [label="708573003\lCavitated caries", shape=box, peripheries=1, style=filled, fillcolor="#99CCFF"];
"373572006" [label="373572006\lClinical finding absent", shape=box, peripheries=2, style=filled, fillcolor="#CCCCFF"];
"702645001" [label="702645001\lCohesive failure of dental restoration", shape=box, peripheries=1, style=filled, fillcolor="#99CCFF"];
"718061004" [label="718061004\lGeneralised severe chronic periodontitis", shape=box, peripheries=1, style=filled, fillcolor="#99CCFF"];
"609403008" [label="609403008\lAt extreme risk for dental caries", shape=box, peripheries=1, style=filled, fillcolor="#99CCFF"];
"235001002" [label="235001002\lGingival fibroepithelial polyp", shape=box, peripheries=2, style=filled, fillcolor="#CCCCFF"];
"109729001" [label="109729001\lOverhang on tooth restoration", shape=box, peripheries=1, style=filled, fillcolor="#99CCFF"];
"708574009" [label="708574009\lNon-cavitated caries", shape=box, peripheries=1, style=filled, fillcolor="#99CCFF"];
"38592005" [label="38592005\lDental behaviour management", shape=box, peripheries=1, style=filled, fillcolor="#99CCFF"];
"41918006" [label="41918006\lExternal resorption of tooth", shape=box, peripheries=1, style=filled, fillcolor="#99CCFF"];
"18755003" [label="18755003\lSupragingival dental calculus", shape=box, peripheries=1, style=filled, fillcolor="#99CCFF"];
"61804006" [label="61804006\lAlveolitis of jaw", shape=box, peripheries=2, style=filled, fillcolor="#CCCCFF"];
"109751009" [label="109751009\lFracture of crown of tooth, enamel only", shape=box, peripheries=1, style=filled, fillcolor="#99CCFF"];
"109747007" [label="109747007\lCracked tooth", shape=box, peripheries=1, style=filled, fillcolor="#99CCFF"];
"718066009" [label="718066009\lGeneralised moderate aggressive periodontitis", shape=box, peripheries=1, style=filled, fillcolor="#99CCFF"];
"63161005" [label="63161005\lPrincipal", shape=box, peripheries=1, style=filled, fillcolor="#99CCFF"];
"109735001" [label="109735001\lDental restoration failure of marginal integrity", shape=box, peripheries=1, style=filled, fillcolor="#99CCFF"];
"109504005" [label="109504005\lMalocclusion, Angle class III", shape=box, peripheries=1, style=filled, fillcolor="#99CCFF"];
"715843008" [label="715843008\lLocalised slight aggressive periodontitis", shape=box, peripheries=1, style=filled, fillcolor="#99CCFF"];
"109644008" [label="109644008\lOvereruption of tooth", shape=box, peripheries=1, style=filled, fillcolor="#99CCFF"];
"110313007" [label="110313007\lInsufficient clinical crown height", shape=box, peripheries=1, style=filled, fillcolor="#99CCFF"];
"716299008" [label="716299008\lRetention of dental device", shape=box, peripheries=1, style=filled, fillcolor="#99CCFF"];
"699711003" [label="699711003\lDefective mandibular complete denture", shape=box, peripheries=1, style=filled, fillcolor="#99CCFF"];
"711469000" [label="711469000\lBiologically unacceptable dental restoration", shape=box, peripheries=1, style=filled, fillcolor="#99CCFF"];
"716296001" [label="716296001\lPerforation of dental restoration", shape=box, peripheries=1, style=filled, fillcolor="#99CCFF"];
"373588006" [label="373588006\lEnamel and dentine fracture", shape=box, peripheries=2, style=filled, fillcolor="#CCCCFF"];
"91863007" [label="91863007\lAcute pericoronitis", shape=box, peripheries=2, style=filled, fillcolor="#CCCCFF"];
"4776004" [label="4776004\lLichen planus", shape=box, peripheries=1, style=filled, fillcolor="#99CCFF"];
"234972003" [label="234972003\lDisturbance of tooth eruption or exfoliation", shape=box, peripheries=1, style=filled, fillcolor="#99CCFF"];
"80353004" [label="80353004\lEnamel caries", shape=box, peripheries=2, style=filled, fillcolor="#CCCCFF"];
"714478005" [label="714478005\lModerate gingivitis", shape=box, peripheries=1, style=filled, fillcolor="#99CCFF"];
"109753007" [label="109753007\lFracture of crown of tooth, enamel and dentin, with pulp exposure", shape=box, peripheries=2, style=filled, fillcolor="#CCCCFF"];
"266415009" [label="266415009\lDevelopmental abnormality of tooth size and form", shape=box, peripheries=1, style=filled, fillcolor="#99CCFF"];
"414603003" [label="414603003\lLeucoplakia of oral mucosa", shape=box, peripheries=2, style=filled, fillcolor="#CCCCFF"];
"699712005" [label="699712005\lDefective maxillary complete denture", shape=box, peripheries=1, style=filled, fillcolor="#99CCFF"];
"718375003" [label="718375003\lPermanent tooth normal", shape=box, peripheries=2, style=filled, fillcolor="#CCCCFF"];
"278549007" [label="278549007\lLeaking dental restoration", shape=box, peripheries=1, style=filled, fillcolor="#99CCFF"];
"397869004" [label="397869004\lDental trauma", shape=box, peripheries=1, style=filled, fillcolor="#99CCFF"];
"50882004" [label="50882004\lTraumatic ulcer of oral mucosa", shape=box, peripheries=2, style=filled, fillcolor="#CCCCFF"];
"14901003" [label="14901003\lAnkylosis of tooth", shape=box, peripheries=2, style=filled, fillcolor="#CCCCFF"];
"716364007" [label="716364007\lCervical caries", shape=box, peripheries=1, style=filled, fillcolor="#99CCFF"];
"699856002" [label="699856002\lRemovable partial denture not aesthetic", shape=box, peripheries=1, style=filled, fillcolor="#99CCFF"];
"109762009" [label="109762009\lVertical fracture of root of tooth", shape=box, peripheries=2, style=filled, fillcolor="#CCCCFF"];
"711638008" [label="711638008\lSymptomatic irreversible pulpitis", shape=box, peripheries=1, style=filled, fillcolor="#99CCFF"];
"26671000" [label="26671000\lStructure of pulp of tooth", shape=box, peripheries=1, style=filled, fillcolor="#99CCFF"];
"708577002" [label="708577002\lNon-active caries", shape=box, peripheries=1, style=filled, fillcolor="#99CCFF"];
"12351004" [label="12351004\lCrowding of teeth", shape=box, peripheries=1, style=filled, fillcolor="#99CCFF"];
"80967001" [label="80967001\lDental caries", shape=box, peripheries=2, style=filled, fillcolor="#CCCCFF"];
"278616006" [label="278616006\lFractured denture", shape=box, peripheries=1, style=filled, fillcolor="#99CCFF"];
"13468005" [label="13468005\lSensitive dentin", shape=box, peripheries=1, style=filled, fillcolor="#99CCFF"];
"109671008" [label="109671008\lComplete dislocation of tooth", shape=box, peripheries=2, style=filled, fillcolor="#CCCCFF"];
"234979007" [label="234979007\lExtrinsic staining of tooth", shape=box, peripheries=1, style=filled, fillcolor="#99CCFF"];
"235104008" [label="235104008\lImpacted tooth", shape=box, peripheries=2, style=filled, fillcolor="#CCCCFF"];
"278617002" [label="278617002\lTooth fallen off denture", shape=box, peripheries=1, style=filled, fillcolor="#99CCFF"];
"42711005" [label="42711005\lNecrosis of the pulp", shape=box, peripheries=2, style=filled, fillcolor="#CCCCFF"];
"8004003" [label="8004003\lTeething syndrome", shape=box, peripheries=1, style=filled, fillcolor="#99CCFF"];
"95212006" [label="95212006\lGingival disease due to pregnancy", shape=box, peripheries=1, style=filled, fillcolor="#99CCFF"];
"20674003" [label="20674003\lOral fistula", shape=box, peripheries=2, style=filled, fillcolor="#CCCCFF"];
"235006007" [label="235006007\lPeriodontal and endodontic lesion", shape=box, peripheries=1, style=filled, fillcolor="#99CCFF"];
"718065008" [label="718065008\lGeneralised severe aggressive periodontitis", shape=box, peripheries=1, style=filled, fillcolor="#99CCFF"];
"74598008" [label="74598008\lPeriapical abscess with sinus tract", shape=box, peripheries=1, style=filled, fillcolor="#99CCFF"];
"37743000" [label="37743000\lHistory and physical examination, monitoring", shape=box, peripheries=1, style=filled, fillcolor="#99CCFF"];
"37320007" [label="37320007\lAcquired absence of teeth", shape=box, peripheries=2, style=filled, fillcolor="#CCCCFF"];
"61170000" [label="61170000\lStomatitis", shape=box, peripheries=2, style=filled, fillcolor="#CCCCFF"];
"235014001" [label="235014001\lFlabby alveolar ridge", shape=box, peripheries=1, style=filled, fillcolor="#99CCFF"];
"41366005" [label="41366005\lSubgingival dental calculus", shape=box, peripheries=1, style=filled, fillcolor="#99CCFF"];
"71379006" [label="71379006\lErythroplakia", shape=box, peripheries=1, style=filled, fillcolor="#99CCFF"];
"109679005" [label="109679005\lCentral dislocation of tooth", shape=box, peripheries=1, style=filled, fillcolor="#99CCFF"];
"109754001" [label="109754001\lFracture of crown and root of tooth", shape=box, peripheries=2, style=filled, fillcolor="#CCCCFF"];
"714477000" [label="714477000\lSevere gingivitis", shape=box, peripheries=1, style=filled, fillcolor="#99CCFF"];
"210366009" [label="210366009\lDislocation of tooth", shape=box, peripheries=2, style=filled, fillcolor="#CCCCFF"];
"4356008" [label="4356008\lGingival recession", shape=box, peripheries=2, style=filled, fillcolor="#CCCCFF"];
"711640003" [label="711640003\lAsymptomatic reversible pulpitis", shape=box, peripheries=1, style=filled, fillcolor="#99CCFF"];
"711636007" [label="711636007\lNormal pulp of tooth", shape=box, peripheries=1, style=filled, fillcolor="#99CCFF"];
"69254008" [label="69254008\lDenture stomatitis", shape=box, peripheries=2, style=filled, fillcolor="#CCCCFF"];
"715287007" [label="715287007\lLocalised severe chronic periodontitis", shape=box, peripheries=1, style=filled, fillcolor="#99CCFF"];
"699853005" [label="699853005\lLabial ectopic tooth", shape=box, peripheries=1, style=filled, fillcolor="#99CCFF"];
"699685006" [label="699685006\lDeep occlusal groove", shape=box, peripheries=1, style=filled, fillcolor="#99CCFF"];
"129263008" [label="129263008\lImpacted tooth", shape=box, peripheries=1, style=filled, fillcolor="#99CCFF"];
"718062006" [label="718062006\lGeneralised moderate chronic periodontitis", shape=box, peripheries=1, style=filled, fillcolor="#99CCFF"];
"109647001" [label="109647001\lOcclusal trauma", shape=box, peripheries=1, style=filled, fillcolor="#99CCFF"];
"718060003" [label="718060003\lGeneralised slight chronic periodontitis", shape=box, peripheries=1, style=filled, fillcolor="#99CCFF"];
"109648006" [label="109648006\lPrimary occlusal trauma", shape=box, peripheries=1, style=filled, fillcolor="#99CCFF"];
"8666004" [label="8666004\lSupernumerary teeth", shape=box, peripheries=1, style=filled, fillcolor="#99CCFF"];
"234975001" [label="234975001\lRoot caries", shape=box, peripheries=2, style=filled, fillcolor="#CCCCFF"];
"235017008" [label="235017008\lMucocele of mouth", shape=box, peripheries=2, style=filled, fillcolor="#CCCCFF"];
"109728009" [label="109728009\lDefective dental restoration", shape=box, peripheries=1, style=filled, fillcolor="#99CCFF"];
"699713000" [label="699713000\lDefective mandibular removable partial denture", shape=box, peripheries=1, style=filled, fillcolor="#99CCFF"];
"109710007" [label="109710007\lVertical alveolar bone loss", shape=box, peripheries=1, style=filled, fillcolor="#99CCFF"];
"109602002" [label="109602002\lAcute apical abscess", shape=box, peripheries=2, style=filled, fillcolor="#CCCCFF"];
"699857006" [label="699857006\lComplete denture not aesthetic", shape=box, peripheries=1, style=filled, fillcolor="#99CCFF"];
"714482007" [label="714482007\lNormal periodontal tissue", shape=box, peripheries=1, style=filled, fillcolor="#99CCFF"];
"716363001" [label="716363001\lAt risk of fracture of tooth", shape=box, peripheries=1, style=filled, fillcolor="#99CCFF"];
"699714006" [label="699714006\lDefective maxillary removable partial denture", shape=box, peripheries=1, style=filled, fillcolor="#99CCFF"];
"109750005" [label="109750005\lAbfraction", shape=box, peripheries=1, style=filled, fillcolor="#99CCFF"];
"715860003" [label="715860003\lLocalised severe aggressive periodontitis", shape=box, peripheries=1, style=filled, fillcolor="#99CCFF"];
"441935006" [label="441935006\lAcquired absence of all teeth", shape=box, peripheries=2, style=filled, fillcolor="#CCCCFF"];
"109610001" [label="109610001\lGingival abscess", shape=box, peripheries=2, style=filled, fillcolor="#CCCCFF"];
"609402003" [label="609402003\lAt high risk for dental caries", shape=box, peripheries=1, style=filled, fillcolor="#99CCFF"];
"67289000" [label="67289000\lAnterior open bite", shape=box, peripheries=1, style=filled, fillcolor="#99CCFF"];
"715842003" [label="715842003\lNormal periodontium with attachment loss", shape=box, peripheries=1, style=filled, fillcolor="#99CCFF"];
"734009000" [label="734009000\lDiastema of teeth", shape=box, peripheries=2, style=filled, fillcolor="#CCCCFF"];
"82212003" [label="82212003\lErosion of teeth", shape=box, peripheries=1, style=filled, fillcolor="#99CCFF"];
"710783007" [label="710783007\lRemovable partial denture with loss of occlusal relationship", shape=box, peripheries=1, style=filled, fillcolor="#99CCFF"];
"609400006" [label="609400006\lAt low risk for dental caries", shape=box, peripheries=1, style=filled, fillcolor="#99CCFF"];
"367534004" [label="367534004\lSupernumerary tooth", shape=box, peripheries=2, style=filled, fillcolor="#CCCCFF"];
"416673002" [label="416673002\lDental restoration lost", shape=box, peripheries=1, style=filled, fillcolor="#99CCFF"];
"8954007" [label="8954007\lSequestrum of jaw bone", shape=box, peripheries=2, style=filled, fillcolor="#CCCCFF"];
"708584005" [label="708584005\lInner half of enamel", shape=box, peripheries=1, style=filled, fillcolor="#99CCFF"];
"42323001" [label="42323001\lEruption cyst of jaw", shape=box, peripheries=1, style=filled, fillcolor="#99CCFF"];
"609401005" [label="609401005\lAt moderate risk for dental caries", shape=box, peripheries=1, style=filled, fillcolor="#99CCFF"];
"278618007" [label="278618007\lBroken denture clasp", shape=box, peripheries=1, style=filled, fillcolor="#99CCFF"];
"41888000" [label="41888000\lTemporomandibular joint disorder", shape=box, peripheries=2, style=filled, fillcolor="#CCCCFF"];
"715286003" [label="715286003\lLocalised moderate chronic periodontitis", shape=box, peripheries=1, style=filled, fillcolor="#99CCFF"];
"716294003" [label="716294003\lDental restoration occlusally inadequate", shape=box, peripheries=1, style=filled, fillcolor="#99CCFF"];
"715859008" [label="715859008\lLocalised moderate aggressive periodontitis", shape=box, peripheries=1, style=filled, fillcolor="#99CCFF"];
"699422003" [label="699422003\lDental peri-implantitis", shape=box, peripheries=1, style=filled, fillcolor="#99CCFF"];
"234976000" [label="234976000\lRampant dental caries", shape=box, peripheries=1, style=filled, fillcolor="#99CCFF"];
"716293009" [label="716293009\lRadiographic radiopacity of tooth", shape=box, peripheries=1, style=filled, fillcolor="#99CCFF"];
"64969001" [label="64969001\lPartial congenital absence of teeth", shape=box, peripheries=2, style=filled, fillcolor="#CCCCFF"];
"714249007" [label="714249007\lMild gingivitis", shape=box, peripheries=1, style=filled, fillcolor="#99CCFF"];
"46752004" [label="46752004\lTorus palatinus", shape=box, peripheries=2, style=filled, fillcolor="#CCCCFF"];
"699683004" [label="699683004\lNonrestorable carious tooth", shape=box, peripheries=1, style=filled, fillcolor="#99CCFF"];
"718356008" [label="718356008\lPreviously initiated dental therapy completed", shape=box, peripheries=1, style=filled, fillcolor="#99CCFF"];
"235002009" [label="235002009\lPyogenic granuloma of gingiva", shape=box, peripheries=2, style=filled, fillcolor="#CCCCFF"];
"715285004" [label="715285004\lLocalised slight chronic periodontitis", shape=box, peripheries=1, style=filled, fillcolor="#99CCFF"];
"110483000" [label="110483000\lTobacco user", shape=box, peripheries=1, style=filled, fillcolor="#99CCFF"];
"718052004" [label="718052004\lAsymptomatic periapical periodontitis", shape=box, peripheries=1, style=filled, fillcolor="#99CCFF"];
"399050001" [label="399050001\lAcute necrotising ulcerative gingivitis", shape=box, peripheries=2, style=filled, fillcolor="#CCCCFF"];
"442551007" [label="442551007\lDental caries extending into dentin", shape=box, peripheries=2, style=filled, fillcolor="#CCCCFF"];
"248140009" [label="248140009\lOral habits", shape=box, peripheries=1, style=filled, fillcolor="#99CCFF"];
"699701005" [label="699701005\lObliteration of root canal of tooth due to abnormal mineralisation of tooth pulp", shape=box, peripheries=1, style=filled, fillcolor="#99CCFF"];
}