926397009
278949004
311741002
91255004
111068008
286615007
78686003
409093004
90632001
71425003
44321000
86471004
124175009
75141003
286923006
59178007
370492003
714594000
32761003
59557004
217652009
787562009
773648002
422528000
70168001
763531001
423809007
3342004
775386002
31463003
28008001
775387006
44394001
87686008
15308006
409094005
271287008
423960007
425364008
789344006
42461002
337349001
79886009
166750003
422855001
768456007
226175006
252277007
43268001
46655005
111574001
85554007
701032004
50288007
46623005
83955004
926394002
775389009
3932008
166749003
19577007
725790004
64039006
73475009
229051007
1002240000
422789008
166751004
442252001
76693007
441871000124101
766764008
63620009
54216008
926395001
440841000124102
737560000
311739003
43098002
112548009
437131000124103
112015004
116541000
173555001
926396000
37905009
80957006
422934004
39847004
448962006
29540000
88518009
256449003
787554001
256448006
118320001
76269006
1002239002
104140002
88166005
437301000124109
312477005
424351000
89335002
19016000
775388001
96274008
216801003
49443005
53700003
111069000
313934006
412816001
256603002
725791000
66925006
281628004
166748006
36120006
277876002
112526003
11589006
443697007
29460005
715864007
437291000124108
60479003
438881000124105
311740001
737075004
76823004
768455006
277877006
767209009
926371003
373564009
423432002
37123002
