763158003
763760008
785323003
440132002
785317008
312435005
255752003
289939000
312412007
441900009
312415009
767098004
312413002
81419006
278423000
74947009
79007002
116611009
72551001
115669006
363788007
226352007
226320007
364393001
58295004
33638001
89457008
2704003
75478009
441952005
85866007
67181005
415671008
107437001
90580008
387961004
107430004
387965008
387967000
387978008
78548001
75934005
129456006
248718009
21829004
106063007
118235002
118234003
301857004
118254002
248402002
246915008
406122000
247103004
399858007
366043005
247109000
247108008
301139003
45744005
310254004
449781000
385342005
118953000
250171008
238846003
73573004
8447006
66091009
276654001
5294002
363070008
123946008
362965005
76069003
371521007
279425004
128598002
928000
118940003
88230002
95320005
80659006
238714008
19660004
254104009
441742003
118222006
782964007
247522004
32895009
363137000
363212003
363235000
363185004
365853002
106077005
50279003
106028002
127325009
82852009
105986008
415531008
106076001
230226000
128430005
249561001
386617003
235856003
118948005
822988000
76712006
53619000
128121009
609624008
822987005
302292003
363169009
363170005
363171009
128241005
128139000
373407002
249565005
406123005
63653004
272181003
49062001
411115002
308288000
266024006
14679004
266038004
106486006
106401004
106489004
106541005
386053000
105202002
122869004
441789001
430925007
433441002
128927009
61288004
275385007
241807005
57431005
217661009
44400004
763087004
226318009
11131000119108
418727003
362991006
1899006
85995004
193570009
247052002
429448005
19416009
87290003
128353007
127329003
79410001
95827002
700453005
247049005
362975008
62585004
248290002
128535002
362966006
25906001
371405004
371409005
118934005
10810001
118236001
247234006
232208008
297268004
298364001
118228005
128540005
118230007
15188001
232333009
363343008
86095007
128190004
301905003
60700002
128127008
1002241001
238111008
111941005
111379007
70241007
2492009
65404009
107241004
107291000
421406000
421330002
107261005
421160002
107280007
441691003
785673007
762656009
271737000
424988008
50820005
414022008
62574001
785671009
106200001
441793007
165397008
118245000
442686002
442096005
365799007
165427000
165423001
303607000
337340002
707727004
442082004
41829006
226163001
226155002
300893006
226077000
33468001
252275004
108252007
15220000
441689006
74040009
252294009
267513007
52565000
66612000
363246002
705460001
707728009
118295004
122456005
706596007
27624003
128301004
107669003
46595003
51936002
118956008
274891006
373782009
255852005
288847006
288841007
128284006
328383001
128289001
235903001
197354009
282714001
767524001
229028007
442564008
441693000
785670005
441931000124109
366358006
230247001
49793008
84590007
37340000
5262007
123889008
275390005
441921000124106
441801009
442756004
416113008
50043002
72163003
846640007
106048009
233773006
107290004
432102000
182922004
384760004
107733003
435781000124109
243120004
299987008
115668003
90668006
767307008
11257001
41175001
299979007
129921004
68101005
70354003
88878007
766739005
415664003
300903003
14602007
412117007
116280007
260769002
260786008
767844004
289958009
65863008
256248008
16696001
62873003
67560001
115667008
418677006
234900007
782901001
1417002
89901005
362958002
771329004
118691003
118690002
118950002
387713003
387972009
107123002
107122007
13197004
312079003
312081001
420961007
420928000
107625005
31006001
88321007
107612002
421197007
246556002
52522001
80690008
363080007
81308009
23853001
230298007
299718000
106018006
256447001
432680005
255922001
118417008
723030009
787178000
766940004
766941000
118356003
91309004
272524002
261226001
256906008
259777007
259776003
372558009
395835001
767530001
433359003
430748008
70106000
434453006
765174005
373463001
72431002
409091002
256594007
256602007
22907001
425620007
87918000
289915005
78910004
277193000
277986000
107372002
107375000
54563006
107140006
107135003
34011003
767145000
23217006
10357007
122444009
19943007
62484002
41969006
300331000
65860006
107498009
435641000124109
435591000124104
386373004
362961001
277132007
276239002
435601000124107
410942007
373460003
373453009
373545003
33008008
77611000
278946006
281618008
