900000000000521006
900000000000522004
26624006
303808007
3499940011
1217318005
900000000000493001
103303007
74286002
30380007
14673003
900000000000455006
446609009
721143001
671826019
278643001
35455006
991411000000109
404684003
64572001
991401000000107
999001061000000106
287847009
265458003
236409000
