703264005
817956002
863954001
230187000
276206000
293109003
293125008
294645006
294662001
399957001
788707000
870748006
871522005
871567003
118698009
122592007
127785005
231907006
23892008
241234000
25201000119104
267914007
293108006
294644005
38453000
386725007
404177007
441987005
473010000
473011001
51323005
56125009
60654006
609405001
703704008
781076008
781382000
79858001
840580004
865878007
870712009
870714005
870727009
870730002
870731003
870746005
870747001
871499007
871500003
871501004
871502006
871503001
871504007
871505008
871506009
871507000
871508005
871509002
871510007
871511006
871512004
871513009
871514003
871515002
871516001
871517005
871521003
871562009
871926004
871927008
128092005
