20180131

999000011000000103
999000021000000109
999000031000000106
999000041000000102
999000011000001104
999000021000001108
83821000000107

('900000000000012004', '20170731')
('900000000000207008', '20170731')
('999000011000000103', '20171001')
('999000011000001104', '20180124')
('999000021000000109', '20171001')
('999000021000001108', '20180124')
('999000041000000102', '20180124')
