 	 	20120401	20121001	20130401	20131001	20140401	20141001	20150401	20151001	20160401	20161001	20170401	20171001	20180401	20181001	20190401	20191001	20200401	20201001
7771000	Left	.	+	+	+	+	+	+	+	+	+	+	+	+	+	+	+	+	+
24028007	Right	.	+	+	+	+	+	+	+	+	+	+	+	+	+	+	+	+	+
