767238007	18	3
392339009	1	1
360096006	1	1
254176007	1	1
391939000	1	1
768592009	13	3
411326004	2	1
13174002	1	1
30312008	1	1
16420009	1	1
719926003	1	1
409919004	1	1
439209002	1	1
272291000	1	1
30111006	1	1
228702008	2	1
86799007	1	1
68702006	8	2
228689006	1	1
389046005	1	1
5670008	12	1
30511000	1	1
133107000	1	1
106551000119107	1	1
447424003	1	1
238638002	1	1
773304004	1	1
252807001	1	1
160083007	1	1
39285009	1	1
273486009	3	2
424687000	1	1
232373003	1	1
362981000	3	2
70544003	1	1
4911005	1	1
420458003	1	1
236520002	1	1
1069001	1	1
23750007	1	1
719931001	1	1
256596009	1	1
389152008	1	1
292697003	1	1
55270001	1	1
447534005	2	1
229864009	1	1
447617007	1	1
447476004	1	1
58745001	1	1
86045006	1	1
423814006	1	1
82492001	1	1
420523002	1	1
414937009	1	1
41238004	1	1
2309006	1	1
781914003	1	1
273923007	1	1
73450005	1	1
36884001	1	1
24301009	1	1
63799007	1	1
58149001	1	1
10787004	1	1
91637004	1	1
447484000	1	1
48176007	3	2
377081006	1	1
770561007	1	1
423630000	2	1
781913009	1	1
42920007	1	1
410562005	1	1
1161001	1	1
1751004	1	1
773737004	1	1
35691006	1	1
49755003	2	1
716096005	1	1
256500008	1	1
51753000	1	1
66547004	1	1
371256005	1	1
273485008	1	1
776140002	1	1
719925004	1	1
29459000	1	1
838420003	1	1
90618003	4	3
132850001	1	1
15390009	1	1
291392000	1	1
232065000	1	1
449415002	1	1
243796009	3	2
29791000	1	1
781912004	1	1
445632001	1	1
423112008	1	1
256499004	1	1
131660009	1	1
105590001	30	8
863969000	2	1
74119006	4	3
75249006	1	1
14290002	1	1
3234002	1	1
409969007	1	1
69864007	4	3
421719002	2	1
410607006	84	78
719929005	1	1
411963003	1	1
172280008	1	1
777546008	6	1
717822006	1	1
254291000	6	3
777547004	1	1
391928003	2	1
296500000	1	1
256498007	1	1
19254006	1	1
446095007	1	1
64572001	38	30
86852007	1	1
51380005	1	1
7425008	1	1
39975001	1	1
373873005	15	2
90277006	1	1
81174003	1	1
47053009	1	1
14330001	11	10
726605004	1	1
88439004	1	1
297338005	1	1
85494006	1	1
3656005	1	1
87114004	1	1
294238000	1	1
63640002	1	1
4796007	1	1
392389001	1	1
291393005	1	1
22452008	1	1
447609004	1	1
404684003	42	4
54739001	1	1
27310005	3	1
710907000	1	1
79550001	1	1
780460001	5	4
447485004	1	1
42966002	1	1
123800009	1	1
83434006	1	1
5078000	1	1
83766002	1	1
2173003	1	1
38117009	1	1
1701009	1	1
719782009	1	1
52832001	1	1
701773006	1	1
447607002	1	1
387901001	1	1
256497002	1	1
716230005	1	1
7512002	1	1
59964005	1	1
132014009	1	1
5691000146107	1	1
767330002	6	1
16820003	1	1
256496006	5	4
296502008	1	1
82679005	1	1
296501001	1	1
2604009	1	1
72555005	1	1
444672002	1	1
766811003	1	1
260787004	12	10
717823001	1	1
62770008	1	1
123037004	3	1
34861006	1	1
388979002	1	1
58568008	1	1
50502005	1	1
447456005	1	1
387380005	1	1
64885005	1	1
84832009	1	1
296499009	4	3
423948006	1	1
47971004	1	1
58108001	1	1
12978006	1	1
62792007	1	1
226761009	1	1
392205007	1	1
403248006	1	1
71388002	25	18
131818008	1	1
448552007	1	1
719783004	1	1
34551009	1	1
49853002	1	1
180242007	1	1
407518005	1	1
767325001	2	1
409932009	1	1
719471002	1	1
118321002	1	1
363787002	3	2
30794005	1	1
231625002	1	1
719069008	1	1
439379001	2	1
711548004	1	1
424957009	1	1
216484000	1	1
287447000	1	1
396828000	5	3
205418005	1	1
424516007	1	1
80395008	1	1
