strict digraph G { rankdir=RL; ranksep=.3; node [shape=box, fontsize=9, fontname=Helvetica, style=filled, fillcolor=white];
"38117009"->"49755003" [arrowhead=onormal];
"49755003"->"123037004" [arrowhead=onormal];
"123037004"->"138875005" [arrowhead=onormal];
"291393005"->"74119006" [arrowhead=onormal];
"30312008"->"64572001" [arrowhead=onormal];
"294238000"->"404684003" [arrowhead=onormal];
"74119006"->"64572001" [arrowhead=onormal];
"770561007"->"64572001" [arrowhead=onormal];
"292697003"->"863969000" [arrowhead=onormal];
"296502008"->"296499009" [arrowhead=onormal];
"123800009"->"64572001" [arrowhead=onormal];
"236520002"->"64572001" [arrowhead=onormal];
"403248006"->"404684003" [arrowhead=onormal];
"296499009"->"64572001" [arrowhead=onormal];
"291392000"->"74119006" [arrowhead=onormal];
"216484000"->"74119006" [arrowhead=onormal];
"716096005"->"64572001" [arrowhead=onormal];
"719069008"->"64572001" [arrowhead=onormal];
"414937009"->"404684003" [arrowhead=onormal];
"41238004"->"64572001" [arrowhead=onormal];
"52832001"->"64572001" [arrowhead=onormal];
"863969000"->"64572001" [arrowhead=onormal];
"7425008"->"64572001" [arrowhead=onormal];
"717823001"->"64572001" [arrowhead=onormal];
"388979002"->"64572001" [arrowhead=onormal];
"5078000"->"64572001" [arrowhead=onormal];
"205418005"->"64572001" [arrowhead=onormal];
"232373003"->"64572001" [arrowhead=onormal];
"717822006"->"64572001" [arrowhead=onormal];
"232065000"->"64572001" [arrowhead=onormal];
"254176007"->"64572001" [arrowhead=onormal];
"296500000"->"296499009" [arrowhead=onormal];
"54739001"->"64572001" [arrowhead=onormal];
"86799007"->"64572001" [arrowhead=onormal];
"296501001"->"296499009" [arrowhead=onormal];
"773304004"->"64572001" [arrowhead=onormal];
"91637004"->"64572001" [arrowhead=onormal];
"716230005"->"64572001" [arrowhead=onormal];
"238638002"->"64572001" [arrowhead=onormal];
"719471002"->"64572001" [arrowhead=onormal];
"773737004"->"64572001" [arrowhead=onormal];
"35691006"->"64572001" [arrowhead=onormal];
"62792007"->"64572001" [arrowhead=onormal];
"64572001"->"404684003" [arrowhead=onormal];
"404684003"->"138875005" [arrowhead=onormal];
"719929005"->"363787002" [arrowhead=onormal];
"719931001"->"363787002" [arrowhead=onormal];
"363787002"->"138875005" [arrowhead=onormal];
"447484000"->"410607006" [arrowhead=onormal];
"389046005"->"410607006" [arrowhead=onormal];
"16820003"->"410607006" [arrowhead=onormal];
"42920007"->"410607006" [arrowhead=onormal];
"63640002"->"410607006" [arrowhead=onormal];
"82492001"->"410607006" [arrowhead=onormal];
"49853002"->"410607006" [arrowhead=onormal];
"445632001"->"410607006" [arrowhead=onormal];
"449415002"->"410607006" [arrowhead=onormal];
"42966002"->"410607006" [arrowhead=onormal];
"82679005"->"410607006" [arrowhead=onormal];
"423112008"->"410607006" [arrowhead=onormal];
"34551009"->"410607006" [arrowhead=onormal];
"72555005"->"410607006" [arrowhead=onormal];
"88439004"->"410607006" [arrowhead=onormal];
"447485004"->"410607006" [arrowhead=onormal];
"420458003"->"410607006" [arrowhead=onormal];
"409919004"->"410607006" [arrowhead=onormal];
"447476004"->"410607006" [arrowhead=onormal];
"83434006"->"410607006" [arrowhead=onormal];
"396828000"->"410607006" [arrowhead=onormal];
"423814006"->"410607006" [arrowhead=onormal];
"80395008"->"410607006" [arrowhead=onormal];
"1069001"->"410607006" [arrowhead=onormal];
"87114004"->"410607006" [arrowhead=onormal];
"39975001"->"410607006" [arrowhead=onormal];
"446095007"->"410607006" [arrowhead=onormal];
"86045006"->"410607006" [arrowhead=onormal];
"447424003"->"410607006" [arrowhead=onormal];
"51753000"->"410607006" [arrowhead=onormal];
"447534005"->"410607006" [arrowhead=onormal];
"447607002"->"447534005" [arrowhead=onormal];
"424516007"->"423630000" [arrowhead=onormal];
"29459000"->"410607006" [arrowhead=onormal];
"19254006"->"410607006" [arrowhead=onormal];
"447456005"->"410607006" [arrowhead=onormal];
"23750007"->"410607006" [arrowhead=onormal];
"3656005"->"410607006" [arrowhead=onormal];
"75249006"->"410607006" [arrowhead=onormal];
"7512002"->"410607006" [arrowhead=onormal];
"13174002"->"410607006" [arrowhead=onormal];
"47971004"->"410607006" [arrowhead=onormal];
"409932009"->"396828000" [arrowhead=onormal];
"423630000"->"396828000" [arrowhead=onormal];
"14290002"->"410607006" [arrowhead=onormal];
"2173003"->"410607006" [arrowhead=onormal];
"447609004"->"410607006" [arrowhead=onormal];
"423948006"->"396828000" [arrowhead=onormal];
"30794005"->"410607006" [arrowhead=onormal];
"63799007"->"410607006" [arrowhead=onormal];
"73450005"->"410607006" [arrowhead=onormal];
"1161001"->"410607006" [arrowhead=onormal];
"4911005"->"410607006" [arrowhead=onormal];
"58149001"->"410607006" [arrowhead=onormal];
"55270001"->"410607006" [arrowhead=onormal];
"131818008"->"410607006" [arrowhead=onormal];
"3234002"->"410607006" [arrowhead=onormal];
"392205007"->"410607006" [arrowhead=onormal];
"51380005"->"410607006" [arrowhead=onormal];
"409969007"->"410607006" [arrowhead=onormal];
"64885005"->"410607006" [arrowhead=onormal];
"131660009"->"410607006" [arrowhead=onormal];
"133107000"->"410607006" [arrowhead=onormal];
"84832009"->"410607006" [arrowhead=onormal];
"5691000146107"->"410607006" [arrowhead=onormal];
"62770008"->"410607006" [arrowhead=onormal];
"58108001"->"410607006" [arrowhead=onormal];
"4796007"->"410607006" [arrowhead=onormal];
"12978006"->"410607006" [arrowhead=onormal];
"407518005"->"410607006" [arrowhead=onormal];
"132850001"->"410607006" [arrowhead=onormal];
"392389001"->"410607006" [arrowhead=onormal];
"424687000"->"410607006" [arrowhead=onormal];
"15390009"->"410607006" [arrowhead=onormal];
"81174003"->"410607006" [arrowhead=onormal];
"444672002"->"410607006" [arrowhead=onormal];
"2604009"->"410607006" [arrowhead=onormal];
"10787004"->"410607006" [arrowhead=onormal];
"1751004"->"410607006" [arrowhead=onormal];
"447617007"->"410607006" [arrowhead=onormal];
"424957009"->"410607006" [arrowhead=onormal];
"30111006"->"410607006" [arrowhead=onormal];
"132014009"->"410607006" [arrowhead=onormal];
"410607006"->"138875005" [arrowhead=onormal];
"68702006"->"768592009" [arrowhead=onormal];
"411963003"->"373873005" [arrowhead=onormal];
"767325001"->"768592009" [arrowhead=onormal];
"780460001"->"777546008" [arrowhead=onormal];
"780460001"->"767330002" [arrowhead=onormal];
"781912004"->"780460001" [arrowhead=onormal];
"767330002"->"68702006" [arrowhead=onormal];
"776140002"->"767325001" [arrowhead=onormal];
"777546008"->"68702006" [arrowhead=onormal];
"377081006"->"780460001" [arrowhead=onormal];
"411326004"->"768592009" [arrowhead=onormal];
"781914003"->"780460001" [arrowhead=onormal];
"768592009"->"373873005" [arrowhead=onormal];
"777547004"->"411326004" [arrowhead=onormal];
"781913009"->"780460001" [arrowhead=onormal];
"373873005"->"138875005" [arrowhead=onormal];
"838420003"->"260787004" [arrowhead=onormal];
"118321002"->"260787004" [arrowhead=onormal];
"391928003"->"260787004" [arrowhead=onormal];
"360096006"->"260787004" [arrowhead=onormal];
"410562005"->"260787004" [arrowhead=onormal];
"701773006"->"260787004" [arrowhead=onormal];
"391939000"->"260787004" [arrowhead=onormal];
"420523002"->"421719002" [arrowhead=onormal];
"420523002"->"391928003" [arrowhead=onormal];
"90277006"->"260787004" [arrowhead=onormal];
"272291000"->"260787004" [arrowhead=onormal];
"421719002"->"260787004" [arrowhead=onormal];
"260787004"->"138875005" [arrowhead=onormal];
"58568008"->"71388002" [arrowhead=onormal];
"448552007"->"71388002" [arrowhead=onormal];
"231625002"->"71388002" [arrowhead=onormal];
"439379001"->"27310005" [arrowhead=onormal];
"66547004"->"69864007" [arrowhead=onormal];
"719926003"->"71388002" [arrowhead=onormal];
"389152008"->"71388002" [arrowhead=onormal];
"36884001"->"71388002" [arrowhead=onormal];
"711548004"->"71388002" [arrowhead=onormal];
"172280008"->"71388002" [arrowhead=onormal];
"180242007"->"71388002" [arrowhead=onormal];
"439209002"->"439379001" [arrowhead=onormal];
"16420009"->"69864007" [arrowhead=onormal];
"228702008"->"71388002" [arrowhead=onormal];
"27310005"->"71388002" [arrowhead=onormal];
"228689006"->"228702008" [arrowhead=onormal];
"83766002"->"71388002" [arrowhead=onormal];
"39285009"->"69864007" [arrowhead=onormal];
"726605004"->"71388002" [arrowhead=onormal];
"34861006"->"71388002" [arrowhead=onormal];
"392339009"->"71388002" [arrowhead=onormal];
"719925004"->"71388002" [arrowhead=onormal];
"69864007"->"71388002" [arrowhead=onormal];
"252807001"->"71388002" [arrowhead=onormal];
"71388002"->"138875005" [arrowhead=onormal];
"371256005"->"362981000" [arrowhead=onormal];
"297338005"->"362981000" [arrowhead=onormal];
"362981000"->"138875005" [arrowhead=onormal];
"287447000"->"243796009" [arrowhead=onormal];
"106551000119107"->"243796009" [arrowhead=onormal];
"243796009"->"138875005" [arrowhead=onormal];
"160083007"->"48176007" [arrowhead=onormal];
"22452008"->"48176007" [arrowhead=onormal];
"48176007"->"138875005" [arrowhead=onormal];
"719783004"->"273486009" [arrowhead=onormal];
"273923007"->"254291000" [arrowhead=onormal];
"273486009"->"254291000" [arrowhead=onormal];
"273485008"->"254291000" [arrowhead=onormal];
"719782009"->"273486009" [arrowhead=onormal];
"254291000"->"138875005" [arrowhead=onormal];
"70544003"->"14330001" [arrowhead=onormal];
"47053009"->"14330001" [arrowhead=onormal];
"387380005"->"90618003" [arrowhead=onormal];
"30511000"->"90618003" [arrowhead=onormal];
"229864009"->"105590001" [arrowhead=onormal];
"767238007"->"105590001" [arrowhead=onormal];
"5670008"->"767238007" [arrowhead=onormal];
"766811003"->"105590001" [arrowhead=onormal];
"58745001"->"14330001" [arrowhead=onormal];
"24301009"->"14330001" [arrowhead=onormal];
"29791000"->"14330001" [arrowhead=onormal];
"256499004"->"256496006" [arrowhead=onormal];
"387901001"->"105590001" [arrowhead=onormal];
"256497002"->"256496006" [arrowhead=onormal];
"256496006"->"105590001" [arrowhead=onormal];
"256596009"->"105590001" [arrowhead=onormal];
"2309006"->"767238007" [arrowhead=onormal];
"256498007"->"256496006" [arrowhead=onormal];
"85494006"->"90618003" [arrowhead=onormal];
"226761009"->"105590001" [arrowhead=onormal];
"59964005"->"14330001" [arrowhead=onormal];
"14330001"->"5670008" [arrowhead=onormal];
"86852007"->"14330001" [arrowhead=onormal];
"50502005"->"14330001" [arrowhead=onormal];
"256500008"->"256496006" [arrowhead=onormal];
"79550001"->"14330001" [arrowhead=onormal];
"90618003"->"767238007" [arrowhead=onormal];
"1701009"->"14330001" [arrowhead=onormal];
"710907000"->"105590001" [arrowhead=onormal];
"105590001"->"138875005" [arrowhead=onormal];
"362981000" [label="362981000\nQualifier value", shape=box, peripheries=2, style=filled, fillcolor=pink];
"138875005" [label="138875005\nSNOMED CT Concept", shape=box, peripheries=2, style=filled, fillcolor=pink];
"48176007" [label="48176007\nSocial context", shape=box, peripheries=2, style=filled, fillcolor=pink];
"49755003" [label="49755003\nMorphologically abnormal structure", shape=box, peripheries=2, style=filled, fillcolor=pink];
"243796009" [label="243796009\nSituation with explicit context", shape=box, peripheries=2, style=filled, fillcolor=pink];
"105590001" [label="105590001\nSubstance", shape=box, peripheries=2, style=filled, fillcolor=pink];
"410607006" [label="410607006\nOrganism", shape=box, peripheries=2, style=filled, fillcolor=pink];
"254291000" [label="254291000\nStaging and scales", shape=box, peripheries=2, style=filled, fillcolor=pink];
"64572001" [label="64572001\nDisease", shape=box, peripheries=2, style=filled, fillcolor=pink];
"373873005" [label="373873005\nPharmaceutical / biologic product", shape=box, peripheries=2, style=filled, fillcolor=pink];
"404684003" [label="404684003\nClinical finding", shape=box, peripheries=2, style=filled, fillcolor=pink];
"260787004" [label="260787004\nPhysical object", shape=box, peripheries=2, style=filled, fillcolor=pink];
"123037004" [label="123037004\nBody structure", shape=box, peripheries=2, style=filled, fillcolor=pink];
"71388002" [label="71388002\nProcedure", shape=box, peripheries=2, style=filled, fillcolor=pink];
"363787002" [label="363787002\nObservable entity", shape=box, peripheries=2, style=filled, fillcolor=pink];
"371256005" [label="371256005\lGold colour", shape=box, peripheries=1, style=filled, fillcolor="#99CCFF"];
"70544003" [label="70544003\lGold-199", shape=box, peripheries=1, style=filled, fillcolor="#99CCFF"];
"447484000" [label="447484000\lPachycephala melanura", shape=box, peripheries=1, style=filled, fillcolor="#99CCFF"];
"719783004" [label="719783004\lGoldman-Fristoe Test for Articulation Third Edition", shape=box, peripheries=1, style=filled, fillcolor="#99CCFF"];
"58568008" [label="58568008\lGoldthwaite operation for ankle stabilisation", shape=box, peripheries=1, style=filled, fillcolor="#99CCFF"];
"68702006" [label="68702006\lSodium aurothiomalate-containing product", shape=box, peripheries=2, style=filled, fillcolor="#CCCCFF"];
"389046005" [label="389046005\lArctocebus aureus", shape=box, peripheries=1, style=filled, fillcolor="#99CCFF"];
"16820003" [label="16820003\lSalmonella Goldcoast", shape=box, peripheries=1, style=filled, fillcolor="#99CCFF"];
"42920007" [label="42920007\lChloropsis aurifrons", shape=box, peripheries=1, style=filled, fillcolor="#99CCFF"];
"63640002" [label="63640002\lAmandava subflava", shape=box, peripheries=1, style=filled, fillcolor="#99CCFF"];
"291393005" [label="291393005\lGold salt poisoning of undetermined intent", shape=box, peripheries=2, style=filled, fillcolor="#CCCCFF"];
"82492001" [label="82492001\lGolden-winged sunbird", shape=box, peripheries=1, style=filled, fillcolor="#99CCFF"];
"448552007" [label="448552007\lInterstitial brachytherapy using gold grain", shape=box, peripheries=1, style=filled, fillcolor="#99CCFF"];
"273923007" [label="273923007\lWeigl - Goldstein - Scheerer colour form sorting test", shape=box, peripheries=1, style=filled, fillcolor="#99CCFF"];
"49853002" [label="49853002\lEtheostoma parvipinne", shape=box, peripheries=1, style=filled, fillcolor="#99CCFF"];
"445632001" [label="445632001\lParadoxornis verreauxi", shape=box, peripheries=1, style=filled, fillcolor="#99CCFF"];
"30312008" [label="30312008\lHaplopappus heterophyllus poisoning", shape=box, peripheries=2, style=filled, fillcolor="#CCCCFF"];
"449415002" [label="449415002\lGallicolumba rufigula", shape=box, peripheries=1, style=filled, fillcolor="#99CCFF"];
"47053009" [label="47053009\lGold-193", shape=box, peripheries=1, style=filled, fillcolor="#99CCFF"];
"42966002" [label="42966002\lHiodon alosoides", shape=box, peripheries=1, style=filled, fillcolor="#99CCFF"];
"231625002" [label="231625002\lRemoval of gold weight from upper eyelid", shape=box, peripheries=2, style=filled, fillcolor="#CCCCFF"];
"294238000" [label="294238000\lAllergy to gold", shape=box, peripheries=2, style=filled, fillcolor="#CCCCFF"];
"411963003" [label="411963003\lGoldenrod diagnostic allergen extract", shape=box, peripheries=2, style=filled, fillcolor="#CCCCFF"];
"82679005" [label="82679005\lGolden oriole", shape=box, peripheries=1, style=filled, fillcolor="#99CCFF"];
"439379001" [label="439379001\lMeasurement of gold in urine", shape=box, peripheries=2, style=filled, fillcolor="#CCCCFF"];
"66547004" [label="66547004\lRestoration, gold foil, three surfaces", shape=box, peripheries=1, style=filled, fillcolor="#99CCFF"];
"423112008" [label="423112008\lPluvialis dominica", shape=box, peripheries=1, style=filled, fillcolor="#99CCFF"];
"74119006" [label="74119006\lPoisoning by gold salt", shape=box, peripheries=2, style=filled, fillcolor="#CCCCFF"];
"719926003" [label="719926003\lAssessment using GFTA-3 (Goldman-Fristoe Test for Articulation 3)", shape=box, peripheries=1, style=filled, fillcolor="#99CCFF"];
"34551009" [label="34551009\lNotemigonus crysoleucas", shape=box, peripheries=1, style=filled, fillcolor="#99CCFF"];
"72555005" [label="72555005\lFloridichthys carpio", shape=box, peripheries=1, style=filled, fillcolor="#99CCFF"];
"770561007" [label="770561007\lLower limb malformation hypospadias syndrome", shape=box, peripheries=1, style=filled, fillcolor="#99CCFF"];
"88439004" [label="88439004\lBucephala clangula", shape=box, peripheries=1, style=filled, fillcolor="#99CCFF"];
"292697003" [label="292697003\lGold adverse reaction", shape=box, peripheries=2, style=filled, fillcolor="#CCCCFF"];
"447485004" [label="447485004\lPachycephala pectoralis", shape=box, peripheries=1, style=filled, fillcolor="#99CCFF"];
"296502008" [label="296502008\lGold salt overdose of undetermined intent", shape=box, peripheries=2, style=filled, fillcolor="#CCCCFF"];
"387380005" [label="387380005\lSodium aurothiomalate", shape=box, peripheries=1, style=filled, fillcolor="#99CCFF"];
"30511000" [label="30511000\lGold salt", shape=box, peripheries=1, style=filled, fillcolor="#99CCFF"];
"389152008" [label="389152008\lGoldmann applanation tonometry", shape=box, peripheries=2, style=filled, fillcolor="#CCCCFF"];
"160083007" [label="160083007\lGoldsmith", shape=box, peripheries=1, style=filled, fillcolor="#99CCFF"];
"229864009" [label="229864009\lGolden syrup", shape=box, peripheries=1, style=filled, fillcolor="#99CCFF"];
"123800009" [label="123800009\lGoldblatt hypertension", shape=box, peripheries=1, style=filled, fillcolor="#99CCFF"];
"236520002" [label="236520002\lGold nephropathy", shape=box, peripheries=2, style=filled, fillcolor="#CCCCFF"];
"420458003" [label="420458003\lNephila clavipes", shape=box, peripheries=1, style=filled, fillcolor="#99CCFF"];
"409919004" [label="409919004\lCatopuma temminckii", shape=box, peripheries=1, style=filled, fillcolor="#99CCFF"];
"447476004" [label="447476004\lParadisaea decora", shape=box, peripheries=1, style=filled, fillcolor="#99CCFF"];
"767325001" [label="767325001\lGold-containing product", shape=box, peripheries=2, style=filled, fillcolor="#CCCCFF"];
"780460001" [label="780460001\lSodium aurothiomalate only product in parenteral dose form", shape=box, peripheries=2, style=filled, fillcolor="#CCCCFF"];
"83434006" [label="83434006\lGnatholepis thompsoni", shape=box, peripheries=1, style=filled, fillcolor="#99CCFF"];
"767238007" [label="767238007\lGold and gold compound", shape=box, peripheries=1, style=filled, fillcolor="#99CCFF"];
"36884001" [label="36884001\lRepair of recurrent dislocation of patella", shape=box, peripheries=1, style=filled, fillcolor="#99CCFF"];
"396828000" [label="396828000\lCarduelis", shape=box, peripheries=1, style=filled, fillcolor="#99CCFF"];
"423814006" [label="423814006\lAratinga auricapillus", shape=box, peripheries=1, style=filled, fillcolor="#99CCFF"];
"403248006" [label="403248006\lRich golden blonde hair", shape=box, peripheries=1, style=filled, fillcolor="#99CCFF"];
"781912004" [label="781912004\lSodium aurothiomalate 20 mg/mL solution for injection", shape=box, peripheries=2, style=filled, fillcolor="#CCCCFF"];
"80395008" [label="80395008\lCylicostephanus goldi", shape=box, peripheries=1, style=filled, fillcolor="#99CCFF"];
"296499009" [label="296499009\lGold salt overdose", shape=box, peripheries=2, style=filled, fillcolor="#CCCCFF"];
"291392000" [label="291392000\lIntentional gold salt poisoning", shape=box, peripheries=2, style=filled, fillcolor="#CCCCFF"];
"216484000" [label="216484000\lAccidental poisoning by gold salt", shape=box, peripheries=2, style=filled, fillcolor="#CCCCFF"];
"1069001" [label="1069001\lHydrastis canadensis", shape=box, peripheries=1, style=filled, fillcolor="#99CCFF"];
"711548004" [label="711548004\lUltrasonography guided insertion of gold seed marker", shape=box, peripheries=1, style=filled, fillcolor="#99CCFF"];
"172280008" [label="172280008\lInsertion of gold weight into upper eyelid", shape=box, peripheries=2, style=filled, fillcolor="#CCCCFF"];
"273486009" [label="273486009\lGoldman-Fristoe test", shape=box, peripheries=1, style=filled, fillcolor="#99CCFF"];
"716096005" [label="716096005\lGoldblatt Wallis syndrome", shape=box, peripheries=1, style=filled, fillcolor="#99CCFF"];
"87114004" [label="87114004\lFundulus chrysotus", shape=box, peripheries=1, style=filled, fillcolor="#99CCFF"];
"39975001" [label="39975001\lPercina aurolineata", shape=box, peripheries=1, style=filled, fillcolor="#99CCFF"];
"446095007" [label="446095007\lVermivora chrysoptera x Vermivora pinus intragenus hybrid", shape=box, peripheries=1, style=filled, fillcolor="#99CCFF"];
"86045006" [label="86045006\lProfelis aurata", shape=box, peripheries=1, style=filled, fillcolor="#99CCFF"];
"447424003" [label="447424003\lPipra erythrocephala", shape=box, peripheries=1, style=filled, fillcolor="#99CCFF"];
"767330002" [label="767330002\lSodium aurothiomalate-containing product in parenteral dose form", shape=box, peripheries=2, style=filled, fillcolor="#CCCCFF"];
"180242007" [label="180242007\lIntramuscular gold therapy", shape=box, peripheries=1, style=filled, fillcolor="#99CCFF"];
"51753000" [label="51753000\lMyrichthys oculatus", shape=box, peripheries=1, style=filled, fillcolor="#99CCFF"];
"5670008" [label="5670008\lGold isotope", shape=box, peripheries=1, style=filled, fillcolor="#99CCFF"];
"766811003" [label="766811003\lCalifornia goldenpoppy extract", shape=box, peripheries=1, style=filled, fillcolor="#99CCFF"];
"439209002" [label="439209002\lMeasurement of gold in 24 hour urine specimen", shape=box, peripheries=2, style=filled, fillcolor="#CCCCFF"];
"719069008" [label="719069008\lShprintzen Goldberg craniosynostosis syndrome", shape=box, peripheries=1, style=filled, fillcolor="#99CCFF"];
"447534005" [label="447534005\lArchboldia papuensis", shape=box, peripheries=1, style=filled, fillcolor="#99CCFF"];
"414937009" [label="414937009\lOn gold standards palliative care framework", shape=box, peripheries=1, style=filled, fillcolor="#99CCFF"];
"447607002" [label="447607002\lArchboldia papuensis sanfordi", shape=box, peripheries=1, style=filled, fillcolor="#99CCFF"];
"41238004" [label="41238004\lGold poisoning", shape=box, peripheries=2, style=filled, fillcolor="#CCCCFF"];
"424516007" [label="424516007\lCarduelis psaltria colombiana", shape=box, peripheries=1, style=filled, fillcolor="#99CCFF"];
"58745001" [label="58745001\lGold-195", shape=box, peripheries=1, style=filled, fillcolor="#99CCFF"];
"29459000" [label="29459000\lOonopsis", shape=box, peripheries=1, style=filled, fillcolor="#99CCFF"];
"38117009" [label="38117009\lDeposition of gold", shape=box, peripheries=1, style=filled, fillcolor="#99CCFF"];
"22452008" [label="22452008\lGoldsmith and silversmith", shape=box, peripheries=1, style=filled, fillcolor="#99CCFF"];
"52832001" [label="52832001\lTesticular feminisation", shape=box, peripheries=1, style=filled, fillcolor="#99CCFF"];
"863969000" [label="863969000\lAdverse reaction to gold and gold compound", shape=box, peripheries=2, style=filled, fillcolor="#CCCCFF"];
"16420009" [label="16420009\lRestoration, gold foil, one surface", shape=box, peripheries=1, style=filled, fillcolor="#99CCFF"];
"838420003" [label="838420003\lGold artificial teeth", shape=box, peripheries=1, style=filled, fillcolor="#99CCFF"];
"24301009" [label="24301009\lGold-198", shape=box, peripheries=1, style=filled, fillcolor="#99CCFF"];
"7425008" [label="7425008\lHereditary coproporphyria", shape=box, peripheries=2, style=filled, fillcolor="#CCCCFF"];
"717823001" [label="717823001\lGoldblatt syndrome", shape=box, peripheries=1, style=filled, fillcolor="#99CCFF"];
"19254006" [label="19254006\lMoxostoma erythrurum", shape=box, peripheries=1, style=filled, fillcolor="#99CCFF"];
"447456005" [label="447456005\lAquila", shape=box, peripheries=1, style=filled, fillcolor="#99CCFF"];
"23750007" [label="23750007\lXeromphalina campanella", shape=box, peripheries=1, style=filled, fillcolor="#99CCFF"];
"719929005" [label="719929005\lGFTA-2 (Goldman-Fristoe Test for Articulation 2) score", shape=box, peripheries=1, style=filled, fillcolor="#99CCFF"];
"776140002" [label="776140002\lGold only product", shape=box, peripheries=2, style=filled, fillcolor="#CCCCFF"];
"228702008" [label="228702008\lGold 198 therapy", shape=box, peripheries=2, style=filled, fillcolor="#CCCCFF"];
"388979002" [label="388979002\lChrysiasis of cornea", shape=box, peripheries=2, style=filled, fillcolor="#CCCCFF"];
"3656005" [label="3656005\lGolden-rumped tinkerbird", shape=box, peripheries=1, style=filled, fillcolor="#99CCFF"];
"29791000" [label="29791000\lGold-196", shape=box, peripheries=1, style=filled, fillcolor="#99CCFF"];
"5078000" [label="5078000\lScriver-Goldbloom-Roy syndrome", shape=box, peripheries=1, style=filled, fillcolor="#99CCFF"];
"27310005" [label="27310005\lGold measurement", shape=box, peripheries=2, style=filled, fillcolor="#CCCCFF"];
"205418005" [label="205418005\lGoldenhar syndrome", shape=box, peripheries=1, style=filled, fillcolor="#99CCFF"];
"75249006" [label="75249006\lCaulolatilus chrysops", shape=box, peripheries=1, style=filled, fillcolor="#99CCFF"];
"256499004" [label="256499004\lLow-gold content alloy", shape=box, peripheries=1, style=filled, fillcolor="#99CCFF"];
"387901001" [label="387901001\lGoldenrod specific immunoglobulin E", shape=box, peripheries=1, style=filled, fillcolor="#99CCFF"];
"7512002" [label="7512002\lSalmo aguabonita", shape=box, peripheries=1, style=filled, fillcolor="#99CCFF"];
"232373003" [label="232373003\lChoanal atresia with radial ray hypoplasia", shape=box, peripheries=1, style=filled, fillcolor="#99CCFF"];
"13174002" [label="13174002\lGolden-winged warbler", shape=box, peripheries=1, style=filled, fillcolor="#99CCFF"];
"287447000" [label="287447000\lTooth restored with gold inlay", shape=box, peripheries=1, style=filled, fillcolor="#99CCFF"];
"717822006" [label="717822006\lGoldberg Shprintzen megacolon syndrome", shape=box, peripheries=1, style=filled, fillcolor="#99CCFF"];
"232065000" [label="232065000\lGoldmann-Favre syndrome", shape=box, peripheries=1, style=filled, fillcolor="#99CCFF"];
"47971004" [label="47971004\lGoldcrest", shape=box, peripheries=1, style=filled, fillcolor="#99CCFF"];
"256497002" [label="256497002\lHigh-gold content alloy", shape=box, peripheries=1, style=filled, fillcolor="#99CCFF"];
"409932009" [label="409932009\lCarduelis tristis", shape=box, peripheries=1, style=filled, fillcolor="#99CCFF"];
"118321002" [label="118321002\lGold vapour laser device", shape=box, peripheries=1, style=filled, fillcolor="#99CCFF"];
"423630000" [label="423630000\lCarduelis psaltria", shape=box, peripheries=1, style=filled, fillcolor="#99CCFF"];
"256496006" [label="256496006\lGold alloy", shape=box, peripheries=1, style=filled, fillcolor="#99CCFF"];
"14290002" [label="14290002\lNaja goldii", shape=box, peripheries=1, style=filled, fillcolor="#99CCFF"];
"2173003" [label="2173003\lCanis aureus", shape=box, peripheries=1, style=filled, fillcolor="#99CCFF"];
"391928003" [label="391928003\lGoldmann-type goniolens", shape=box, peripheries=1, style=filled, fillcolor="#99CCFF"];
"447609004" [label="447609004\lGuaruba guarouba", shape=box, peripheries=1, style=filled, fillcolor="#99CCFF"];
"360096006" [label="360096006\lGold weight", shape=box, peripheries=1, style=filled, fillcolor="#99CCFF"];
"256596009" [label="256596009\lDental solder - gold", shape=box, peripheries=1, style=filled, fillcolor="#99CCFF"];
"423948006" [label="423948006\lCarduelis carduelis", shape=box, peripheries=1, style=filled, fillcolor="#99CCFF"];
"2309006" [label="2309006\lGold", shape=box, peripheries=1, style=filled, fillcolor="#99CCFF"];
"254176007" [label="254176007\lProgressive recessive dystrophic epidermolysis bullosa", shape=box, peripheries=1, style=filled, fillcolor="#99CCFF"];
"30794005" [label="30794005\lDuranta repens", shape=box, peripheries=1, style=filled, fillcolor="#99CCFF"];
"63799007" [label="63799007\lRamaria aurea", shape=box, peripheries=1, style=filled, fillcolor="#99CCFF"];
"256498007" [label="256498007\lMedium-gold content alloy", shape=box, peripheries=1, style=filled, fillcolor="#99CCFF"];
"296500000" [label="296500000\lAccidental gold salt overdose", shape=box, peripheries=2, style=filled, fillcolor="#CCCCFF"];
"54739001" [label="54739001\lChrysoderma", shape=box, peripheries=2, style=filled, fillcolor="#CCCCFF"];
"228689006" [label="228689006\lGold 198 brachytherapy", shape=box, peripheries=2, style=filled, fillcolor="#CCCCFF"];
"73450005" [label="73450005\lSolidago", shape=box, peripheries=1, style=filled, fillcolor="#99CCFF"];
"1161001" [label="1161001\lChrysolophus pictus", shape=box, peripheries=1, style=filled, fillcolor="#99CCFF"];
"777546008" [label="777546008\lSodium aurothiomalate only product", shape=box, peripheries=2, style=filled, fillcolor="#CCCCFF"];
"377081006" [label="377081006\lSodium aurothiomalate 25 mg/mL solution for injection", shape=box, peripheries=2, style=filled, fillcolor="#CCCCFF"];
"4911005" [label="4911005\lAquila chrysaetos", shape=box, peripheries=1, style=filled, fillcolor="#99CCFF"];
"83766002" [label="83766002\lColloidal gold test", shape=box, peripheries=1, style=filled, fillcolor="#99CCFF"];
"58149001" [label="58149001\lMuraena miliaris", shape=box, peripheries=1, style=filled, fillcolor="#99CCFF"];
"86799007" [label="86799007\lLaburnum anagyroides poisoning", shape=box, peripheries=2, style=filled, fillcolor="#CCCCFF"];
"85494006" [label="85494006\lSodium aurotiosulfate", shape=box, peripheries=1, style=filled, fillcolor="#99CCFF"];
"106551000119107" [label="106551000119107\lLong-term current use of medicinal gold", shape=box, peripheries=2, style=filled, fillcolor="#CCCCFF"];
"297338005" [label="297338005\lNanai language", shape=box, peripheries=1, style=filled, fillcolor="#99CCFF"];
"296501001" [label="296501001\lIntentional gold salt overdose", shape=box, peripheries=2, style=filled, fillcolor="#CCCCFF"];
"773304004" [label="773304004\lSpondylometaphyseal dysplasia Golden type", shape=box, peripheries=1, style=filled, fillcolor="#99CCFF"];
"55270001" [label="55270001\lViguiera annua", shape=box, peripheries=1, style=filled, fillcolor="#99CCFF"];
"226761009" [label="226761009\lChannel island milk", shape=box, peripheries=1, style=filled, fillcolor="#99CCFF"];
"131818008" [label="131818008\lGolden 300 hybrid duck", shape=box, peripheries=1, style=filled, fillcolor="#99CCFF"];
"3234002" [label="3234002\lHaplopappus heterophyllus", shape=box, peripheries=1, style=filled, fillcolor="#99CCFF"];
"392205007" [label="392205007\lDasyprocta leporina", shape=box, peripheries=1, style=filled, fillcolor="#99CCFF"];
"91637004" [label="91637004\lMyasthenia gravis", shape=box, peripheries=2, style=filled, fillcolor="#CCCCFF"];
"273485008" [label="273485008\lGoldman cardiac risk index", shape=box, peripheries=1, style=filled, fillcolor="#99CCFF"];
"39285009" [label="39285009\lRestoration, gold foil, two surfaces", shape=box, peripheries=1, style=filled, fillcolor="#99CCFF"];
"716230005" [label="716230005\lShprintzen Goldberg omphalocele syndrome", shape=box, peripheries=1, style=filled, fillcolor="#99CCFF"];
"238638002" [label="238638002\lMultiple minute digitate hyperkeratosis of Goldstein", shape=box, peripheries=1, style=filled, fillcolor="#99CCFF"];
"410562005" [label="410562005\lGoldmann perimeter", shape=box, peripheries=1, style=filled, fillcolor="#99CCFF"];
"726605004" [label="726605004\lMedicinal gold therapy", shape=box, peripheries=2, style=filled, fillcolor="#CCCCFF"];
"51380005" [label="51380005\lAra ararauna", shape=box, peripheries=1, style=filled, fillcolor="#99CCFF"];
"409969007" [label="409969007\lSpermophilus lateralis", shape=box, peripheries=1, style=filled, fillcolor="#99CCFF"];
"64885005" [label="64885005\lSenecio aureus", shape=box, peripheries=1, style=filled, fillcolor="#99CCFF"];
"131660009" [label="131660009\lGolden Guernsey goat", shape=box, peripheries=1, style=filled, fillcolor="#99CCFF"];
"133107000" [label="133107000\lGolden American Saddlebred horse", shape=box, peripheries=1, style=filled, fillcolor="#99CCFF"];
"84832009" [label="84832009\lMycena leaiana", shape=box, peripheries=1, style=filled, fillcolor="#99CCFF"];
"59964005" [label="59964005\lGold-192", shape=box, peripheries=1, style=filled, fillcolor="#99CCFF"];
"14330001" [label="14330001\lGold radioisotope", shape=box, peripheries=1, style=filled, fillcolor="#99CCFF"];
"5691000146107" [label="5691000146107\lParabacteroides goldsteinii", shape=box, peripheries=1, style=filled, fillcolor="#99CCFF"];
"719471002" [label="719471002\lCleidorhizomelic syndrome", shape=box, peripheries=1, style=filled, fillcolor="#99CCFF"];
"411326004" [label="411326004\lSodium aurotiosulfate-containing product", shape=box, peripheries=2, style=filled, fillcolor="#CCCCFF"];
"34861006" [label="34861006\lPatellar stabilisation by tendon transfer", shape=box, peripheries=2, style=filled, fillcolor="#CCCCFF"];
"701773006" [label="701773006\lImplantable gold thread", shape=box, peripheries=1, style=filled, fillcolor="#99CCFF"];
"62770008" [label="62770008\lGolden frog", shape=box, peripheries=1, style=filled, fillcolor="#99CCFF"];
"58108001" [label="58108001\lGolden retriever", shape=box, peripheries=1, style=filled, fillcolor="#99CCFF"];
"86852007" [label="86852007\lGold-196m2", shape=box, peripheries=1, style=filled, fillcolor="#99CCFF"];
"4796007" [label="4796007\lLeontopithecus rosalia", shape=box, peripheries=1, style=filled, fillcolor="#99CCFF"];
"12978006" [label="12978006\lCarassius auratus", shape=box, peripheries=1, style=filled, fillcolor="#99CCFF"];
"407518005" [label="407518005\lGolden pheasant virus", shape=box, peripheries=1, style=filled, fillcolor="#99CCFF"];
"132850001" [label="132850001\lGolden Montazah chicken", shape=box, peripheries=1, style=filled, fillcolor="#99CCFF"];
"391939000" [label="391939000\lGoldmann applanation tonometer", shape=box, peripheries=1, style=filled, fillcolor="#99CCFF"];
"392389001" [label="392389001\lMesocricetus auratus", shape=box, peripheries=1, style=filled, fillcolor="#99CCFF"];
"424687000" [label="424687000\lZonotrichia atricapilla", shape=box, peripheries=1, style=filled, fillcolor="#99CCFF"];
"392339009" [label="392339009\lGoldenrod RAST", shape=box, peripheries=1, style=filled, fillcolor="#99CCFF"];
"420523002" [label="420523002\lGoldmann three-mirror contact lens", shape=box, peripheries=1, style=filled, fillcolor="#99CCFF"];
"719925004" [label="719925004\lAssessment using GFTA-2 (Goldman-Fristoe Test for Articulation 2)", shape=box, peripheries=1, style=filled, fillcolor="#99CCFF"];
"90277006" [label="90277006\lGold jewellery", shape=box, peripheries=1, style=filled, fillcolor="#99CCFF"];
"773737004" [label="773737004\lNPHP3-related Meckel-like syndrome", shape=box, peripheries=1, style=filled, fillcolor="#99CCFF"];
"69864007" [label="69864007\lRestoration, gold foil", shape=box, peripheries=1, style=filled, fillcolor="#99CCFF"];
"15390009" [label="15390009\lMalacoctenus aurolineatus", shape=box, peripheries=1, style=filled, fillcolor="#99CCFF"];
"719782009" [label="719782009\lGoldman-Fristoe Test for Articulation Second Edition", shape=box, peripheries=1, style=filled, fillcolor="#99CCFF"];
"50502005" [label="50502005\lGold-194", shape=box, peripheries=1, style=filled, fillcolor="#99CCFF"];
"256500008" [label="256500008\lWrought gold alloy", shape=box, peripheries=1, style=filled, fillcolor="#99CCFF"];
"781914003" [label="781914003\lSodium aurothiomalate 100 mg/mL solution for injection", shape=box, peripheries=2, style=filled, fillcolor="#CCCCFF"];
"79550001" [label="79550001\lGold-197", shape=box, peripheries=1, style=filled, fillcolor="#99CCFF"];
"81174003" [label="81174003\lManchurian golden Japanese quail", shape=box, peripheries=1, style=filled, fillcolor="#99CCFF"];
"768592009" [label="768592009\lGold and gold compound-containing product", shape=box, peripheries=2, style=filled, fillcolor="#CCCCFF"];
"444672002" [label="444672002\lGoldendoodle", shape=box, peripheries=1, style=filled, fillcolor="#99CCFF"];
"90618003" [label="90618003\lGold compound", shape=box, peripheries=1, style=filled, fillcolor="#99CCFF"];
"2604009" [label="2604009\lGolden-crested bowerbird", shape=box, peripheries=1, style=filled, fillcolor="#99CCFF"];
"252807001" [label="252807001\lGoldmann visual field", shape=box, peripheries=1, style=filled, fillcolor="#99CCFF"];
"10787004" [label="10787004\lLaburnum anagyroides", shape=box, peripheries=1, style=filled, fillcolor="#99CCFF"];
"35691006" [label="35691006\lCombined deficiency of sialidase AND beta galactosidase", shape=box, peripheries=1, style=filled, fillcolor="#99CCFF"];
"272291000" [label="272291000\lFull gold crown", shape=box, peripheries=1, style=filled, fillcolor="#99CCFF"];
"1751004" [label="1751004\lGolden-crowned kinglet", shape=box, peripheries=1, style=filled, fillcolor="#99CCFF"];
"777547004" [label="777547004\lSodium aurotiosulfate only product", shape=box, peripheries=2, style=filled, fillcolor="#CCCCFF"];
"447617007" [label="447617007\lPrimolius auricollis", shape=box, peripheries=1, style=filled, fillcolor="#99CCFF"];
"719931001" [label="719931001\lGFTA-3 (Goldman-Fristoe Test for Articulation 3) score", shape=box, peripheries=1, style=filled, fillcolor="#99CCFF"];
"1701009" [label="1701009\lGold-191", shape=box, peripheries=1, style=filled, fillcolor="#99CCFF"];
"62792007" [label="62792007\lUrophilia", shape=box, peripheries=1, style=filled, fillcolor="#99CCFF"];
"421719002" [label="421719002\lGoldmann fundus contact lens", shape=box, peripheries=1, style=filled, fillcolor="#99CCFF"];
"781913009" [label="781913009\lSodium aurothiomalate 40 mg/mL solution for injection", shape=box, peripheries=2, style=filled, fillcolor="#CCCCFF"];
"424957009" [label="424957009\lPluvialis fulva", shape=box, peripheries=1, style=filled, fillcolor="#99CCFF"];
"30111006" [label="30111006\lGunterichthys longipenis", shape=box, peripheries=1, style=filled, fillcolor="#99CCFF"];
"132014009" [label="132014009\lCotswold Gold pig", shape=box, peripheries=1, style=filled, fillcolor="#99CCFF"];
"710907000" [label="710907000\lGoldenrod pollen", shape=box, peripheries=1, style=filled, fillcolor="#99CCFF"];
}