87715008
699709007
405258007
43144004
10017004
278631002
54711002
47222000
162005007
703401001
718392007
713879003
234983007
711641004
711175004
91950000
22240003
38285004
713245008
109794004
67787004
57650002
60476005
109649003
708578007
718064007
373573001
278528006
386207004
274950005
18718003
234973008
235010005
711173006
109734002
255227004
247805009
707219007
426965005
110302009
213299007
111347003
699274002
699828007
278630001
703132007
109603007
109741008
718070001
109495004
109736000
716362006
702402003
699777008
110321001
109500001
698039001
718053009
109709002
29553002
53963006
234974002
708581002
109758003
83412009
41565005
109743006
79740000
708580001
52994003
442437005
168496002
109730006
699684005
36202009
714635005
708579004
109787002
109501002
11625007
66383009
109798001
699423008
711635006
16958000
5639000
443859009
66569006
711639000
708585006
699710002
702745006
4264000
716292004
708573003
373572006
702645001
718061004
609403008
235001002
109729001
708574009
38592005
41918006
18755003
61804006
109751009
109747007
718066009
63161005
109735001
109504005
715843008
109644008
110313007
716299008
699711003
711469000
716296001
373588006
91863007
4776004
234972003
80353004
714478005
109753007
266415009
414603003
699712005
718375003
278549007
397869004
50882004
14901003
716364007
699856002
109762009
711638008
26671000
708577002
12351004
80967001
278616006
13468005
109671008
234979007
235104008
278617002
42711005
8004003
95212006
20674003
235006007
718065008
74598008
37743000
37320007
61170000
235014001
41366005
71379006
109679005
109754001
714477000
210366009
4356008
711640003
711636007
69254008
715287007
699853005
699685006
129263008
718062006
109647001
718060003
109648006
8666004
234975001
235017008
109728009
699713000
109710007
109602002
699857006
714482007
716363001
699714006
109750005
715860003
441935006
109610001
609402003
67289000
715842003
734009000
82212003
710783007
609400006
367534004
416673002
8954007
708584005
42323001
609401005
278618007
41888000
715286003
716294003
715859008
699422003
234976000
716293009
64969001
714249007
46752004
699683004
718356008
235002009
715285004
110483000
718052004
399050001
442551007
248140009
699701005
