897644008	1	1
763376002	1	1
766237006	1	1
60650002	1	1
230773005	9	8
128261004	1	1
725050005	1	1
6595006	21	20
447052000	1	1
765282004	1	1
866257006	1	1
438771000124103	1	1
874871007	1	1
70129008	1	1
439061000124104	1	1
64572001	3580	2563
783175003	1	1
702317003	1	1
699256006	1	1
720461006	1	1
1003733007	1	1
719043002	1	1
870604007	1	1
721834007	1	1
719515001	1	1
733087007	1	1
868235008	1	1
715793003	1	1
771232003	1	1
789777007	1	1
109361004	1	1
763065008	1	1
32750006	2	1
736854003	1	1
699418008	1	1
717010007	1	1
720506002	1	1
764460003	1	1
836407008	1	1
706970001	1	1
763062006	1	1
719576009	1	1
723612001	1	1
785766008	1	1
22741000087109	1	1
715986009	1	1
419243002	1	1
789107004	1	1
723579009	1	1
1149455007	1	1
735216000	1	1
1145197004	1	1
773769008	1	1
734546009	1	1
721101008	1	1
716198008	1	1
724002003	1	1
442981000124102	4	3
1142138002	1	1
699189004	1	1
763778003	1	1
783194008	1	1
419778001	1	1
399309003	1	1
734821002	1	1
702105009	1	1
249607009	1	1
399367004	1	1
878899005	1	1
420047004	1	1
48721008	1	1
766937004	1	1
787611004	1	1
416680000	1	1
721073008	1	1
783768006	1	1
783555001	1	1
773648002	1	1
1003406009	1	1
443471000124104	1	1
738992009	1	1
789420005	1	1
765135003	1	1
1156406005	1	1
718721006	1	1
76145000	1	1
766751007	1	1
723496007	1	1
710000001	1	1
438321000124103	1	1
879872003	1	1
710090006	1	1
763828007	1	1
1141825006	1	1
1142126006	1	1
763776004	1	1
819011003	1	1
785879009	1	1
718766002	1	1
722386009	1	1
768833009	1	1
766032007	1	1
443591000124104	1	1
768666006	1	1
846619006	1	1
768826009	1	1
442971000124100	6	2
773582002	1	1
715710001	1	1
408677003	1	1
733468006	1	1
763272003	1	1
716775009	2	1
1149116000	6	5
768836001	1	1
719272007	1	1
897637004	1	1
763527007	1	1
782825008	1	1
732926009	1	1
5911000124102	1	1
1149451003	1	1
723589008	2	1
56190005	1	1
717825008	1	1
784391002	1	1
772225005	3	2
86078004	4	1
735130003	1	1
768925009	1	1
13144005	1	1
719949001	1	1
716515000	1	1
11244009	1	1
254132000	1	1
700360000	1	1
766044005	1	1
16817006	1	1
57430006	1	1
724066002	1	1
715395008	1	1
763350002	1	1
785298001	1	1
1149443001	1	1
416242008	1	1
360153003	1	1
723720008	1	1
62972009	4	2
773328002	1	1
440801000124104	1	1
778069004	1	1
733447005	1	1
437091000124100	3	2
763743003	1	1
770905005	1	1
276658003	1	1
773325004	1	1
763632004	1	1
782918002	1	1
699532008	1	1
720514008	1	1
715668008	1	1
95453001	1	1
782880001	1	1
63337009	55	7
362605009	1	1
723829000	1	1
894128009	1	1
398993007	1	1
782690007	1	1
789131009	1	1
416797002	1	1
1149453000	1	1
782695002	1	1
778003000	1	1
770626007	1	1
1142133006	1	1
1156526006	1	1
765138001	1	1
609617007	13	4
784346006	1	1
720465002	1	1
14919007	1	1
1153606007	1	1
441041000124100	15	14
444571000124102	1	1
764435003	1	1
733638006	1	1
109750005	1	1
717263009	1	1
733621007	1	1
764858009	1	1
722066001	1	1
32485007	1	1
720502000	1	1
723410002	1	1
715780008	1	1
733116005	1	1
718608006	1	1
441952005	4	3
770663003	1	1
715561008	1	1
717260007	1	1
443601000124107	1	1
763886009	1	1
254125009	1	1
783556000	1	1
763755009	1	1
819975003	1	1
765204000	1	1
127346000	18	16
763721006	1	1
773666007	1	1
702829000	1	1
119270007	45	36
708638007	1	1
1144288000	1	1
764996009	1	1
719409004	1	1
399239005	1	1
703629008	1	1
737581000	1	1
723574004	5	2
865940006	1	1
1052326006	1	1
770794008	1	1
784352007	1	1
700487000	1	1
725150008	1	1
447931005	1	1
722058005	1	1
710787008	1	1
710950005	1	1
71905009	1	1
718713000	1	1
255106001	1	1
82966003	2	1
19092004	1	1
782742006	1	1
874869007	1	1
879866003	1	1
417656005	1	1
733637001	1	1
88154004	1	1
789343000	1	1
204312002	1	1
771309000	1	1
783549006	1	1
718218005	1	1
718763005	1	1
169283005	1	1
715850007	1	1
420204005	1	1
715756009	1	1
118640001	1	1
773579007	1	1
719397009	1	1
725904009	1	1
449809008	1	1
724175002	1	1
783009008	1	1
773492007	1	1
438911000124105	1	1
771514002	1	1
773300008	1	1
816173008	1	1
723446006	1	1
705008001	2	1
716387004	1	1
720815000	1	1
763624007	1	1
890099000	1	1
860693006	1	1
722453009	1	1
789336006	1	1
768731002	1	1
763405000	1	1
926359009	1	1
716683005	1	1
770624005	1	1
723821002	1	1
1003631002	1	1
441361000124104	1	1
702441001	1	1
445752009	2	1
738774007	1	1
732951005	1	1
771074000	1	1
418133000	1	1
296041000119103	1	1
1141981001	5	3
900000000000483008	1	1
1144596006	1	1
443251000124108	1	1
707190001	1	1
721904001	1	1
720750004	1	1
771509001	1	1
442415003	1	1
427167008	1	1
738910002	1	1
720850008	1	1
125681006	2	1
703185000	1	1
1156382005	1	1
441431000124101	1	1
720576001	1	1
765329008	1	1
736680000	1	1
70881005	1	1
440341000124108	1	1
778030005	1	1
726616006	1	1
783701002	1	1
718687003	1	1
435661000124108	3	2
783092005	1	1
61685007	6	5
702817009	1	1
786458005	1	1
1010690008	1	1
732289008	1	1
784380009	1	1
127490009	1	1
438031000124103	3	2
719651000	1	1
900000000000482003	1	1
708901009	1	1
860729008	1	1
763344007	1	1
713864005	1	1
770101002	1	1
75049004	2	1
718605009	1	1
1156420003	1	1
722435003	1	1
763368004	1	1
725461009	1	1
769161006	1	1
715626008	1	1
773578004	1	1
726606003	1	1
13555004	1	1
897570002	1	1
312929003	1	1
441771000124105	1	1
816164000	1	1
416452005	1	1
439131000124109	5	4
773283006	1	1
734874007	1	1
782828005	1	1
720606005	1	1
7119001	1	1
442961000124107	2	1
766927009	1	1
711159002	1	1
64157005	1	1
719946008	1	1
444631000124101	1	1
440941000124107	1	1
773577009	1	1
720522001	1	1
715652002	1	1
721094006	1	1
447122006	2	1
699811009	1	1
778044004	1	1
787092009	1	1
1144804007	3	2
734617007	1	1
789157007	1	1
770684008	1	1
715634002	1	1
763684005	1	1
768822006	1	1
443291000124102	1	1
768821004	1	1
722479000	1	1
1156407001	1	1
426210003	1	1
719096006	1	1
609585002	1	1
443541000124108	1	1
715345007	3	2
717799003	1	1
713755006	1	1
440681000124109	1	1
715526002	1	1
440471000124108	1	1
733619002	1	1
26701009	1	1
416078007	1	1
30956003	1	1
724383002	1	1
782765001	1	1
1010585000	5	1
438821000124106	1	1
725048002	1	1
125104001	2	1
715657008	1	1
717183001	1	1
302283001	1	1
766707003	1	1
773625007	1	1
764952009	1	1
33553000	1	1
717049005	1	1
717224002	1	1
724349009	1	1
710979003	1	1
399235004	1	1
732948003	1	1
437161000124107	3	2
722053001	1	1
703216001	1	1
416388004	1	1
785808002	1	1
420163009	1	1
417548001	1	1
725046003	1	1
705039004	1	1
771269000	1	1
880108004	1	1
721880009	1	1
773280009	1	1
784339002	1	1
437751000124109	1	1
719136005	1	1
715842003	1	1
699190008	1	1
724138007	1	1
778065005	1	1
784048001	1	1
724178000	1	1
782869001	1	1
738996007	1	1
1148812007	1	1
764452004	1	1
443281000124100	1	1
723565001	1	1
122546009	3	1
720493003	1	1
1148720002	1	1
1791000119105	1	1
1141684006	1	1
718759003	1	1
719842006	1	1
724064004	1	1
765142003	1	1
718614004	1	1
708672004	1	1
1144907001	1	1
21684005	1	1
732249002	1	1
59037007	1	1
890463002	1	1
782752005	1	1
773393001	1	1
783767001	1	1
1156444001	1	1
64779008	22	12
722118005	1	1
79909001	1	1
705095008	1	1
715401008	1	1
437371000124103	1	1
784353002	1	1
782724001	1	1
766757006	1	1
720982007	1	1
702772003	1	1
874931001	1	1
710978006	1	1
704647008	1	1
78064003	2	1
40275004	1	1
766251006	1	1
785299009	1	1
734549002	1	1
773297003	1	1
720499004	1	1
718848000	1	1
716699004	1	1
764453009	1	1
722059002	1	1
765401006	4	3
440851000124100	1	1
773992003	1	1
732947008	1	1
718393002	1	1
784402004	1	1
359593004	1	1
703195007	1	1
416720006	1	1
789130005	1	1
789312007	1	1
441601000124106	1	1
1119303003	1	1
715828006	1	1
2677003	1	1
1155693005	1	1
726669007	1	1
32456001	1	1
764938007	1	1
1155694004	1	1
437231000124109	3	2
609328004	3	2
765141005	1	1
3100007	1	1
771234002	1	1
782697005	1	1
704681002	1	1
733066002	1	1
721226005	1	1
699807003	1	1
719664004	1	1
768734005	1	1
711364006	1	1
788925003	1	1
385117009	1	1
890465009	1	1
766976003	1	1
722210007	1	1
44248001	1	1
766930002	1	1
763740000	1	1
420168000	1	1
717054001	1	1
766708008	1	1
788417006	1	1
773774000	1	1
128553008	1	1
785305006	1	1
448077001	1	1
441401000124109	1	1
436941000124108	2	1
725431001	1	1
435701000124100	3	2
735391009	1	1
719255000	1	1
715908008	1	1
711360002	1	1
440791000124100	1	1
56090007	1	1
416118004	1	1
4070001	1	1
715803003	1	1
733112007	1	1
718689000	1	1
763716008	1	1
763070001	1	1
438881000124105	1	1
763802009	1	1
437701000124105	1	1
86088003	1	1
715341003	1	1
58000006	3	2
724276006	1	1
766819001	1	1
437531000124107	3	2
1142127002	9	5
771445001	1	1
765751002	1	1
399345000	1	1
763373005	1	1
710092003	1	1
12763006	1	1
119249001	1	1
726723004	1	1
764686003	1	1
720415006	1	1
233947005	1	1
719819004	1	1
770687001	1	1
370130000	1	1
770680004	1	1
119268003	1	1
710007003	1	1
5951000124101	1	1
1149445008	1	1
785892007	1	1
782831006	1	1
307011000119108	1	1
784184006	1	1
766987006	1	1
723439002	1	1
726081005	1	1
444110003	1	1
868240000	1	1
897641000	1	1
230437002	1	1
765195000	1	1
763479005	1	1
715397000	1	1
836412009	1	1
699533003	1	1
771264005	1	1
403661001	1	1
763717004	1	1
720984008	1	1
725026008	1	1
710095001	1	1
276466000	1	1
238328000	1	1
118636005	2	1
782823001	1	1
1052337007	46	7
733630004	1	1
768837005	1	1
716657000	1	1
716280004	1	1
890434000	1	1
717338006	1	1
763406004	1	1
76777009	1	1
1156418001	1	1
785303004	1	1
773622005	1	1
734539000	2	1
719140001	1	1
716456000	1	1
1149197005	1	1
712651001	1	1
42432003	1	1
789308001	1	1
718200007	1	1
718850008	1	1
764105002	1	1
722092008	1	1
782746009	1	1
778021002	1	1
399036006	1	1
1145195007	1	1
716712004	1	1
438201000124100	1	1
1141931005	3	2
704369007	1	1
738908004	1	1
441911000124103	9	8
1149440003	1	1
74162007	3	2
1148641000	1	1
763768001	1	1
722037004	1	1
719258003	1	1
776417008	1	1
717047007	1	1
53889007	1	1
782909004	1	1
722004001	1	1
723822009	1	1
763745005	1	1
822992007	4	3
783614008	1	1
5941000124103	1	1
789379008	1	1
441011000124104	1	1
732957009	1	1
715577009	1	1
91539005	1	1
763457000	1	1
764794000	1	1
721876004	1	1
718183003	1	1
6301000124105	1	1
444059002	1	1
715532007	1	1
890221004	1	1
736014004	1	1
720603002	1	1
782934004	1	1
1148979007	1	1
765750001	1	1
770411000	1	1
868242008	1	1
769044006	1	1
780817000	1	1
732929002	1	1
66621000052103	1	1
773986009	1	1
720752007	1	1
738982001	4	3
783351009	1	1
714126004	1	1
726706008	1	1
711409002	1	1
773552008	1	1
733519008	1	1
734777009	1	1
715830008	1	1
715633008	1	1
724228005	1	1
438741000124106	1	1
715950008	1	1
720609003	1	1
443441000124107	3	2
699528002	1	1
778004006	1	1
773416006	1	1
719662000	1	1
763713000	1	1
733521003	1	1
438991000124100	1	1
733451007	1	1
711103007	1	1
770438007	1	1
789352009	1	1
763796007	1	1
765486004	1	1
49755003	41	35
719652007	1	1
788657000	1	1
718719001	1	1
46992007	1	1
725029001	1	1
716024001	1	1
1153593003	1	1
773548008	1	1
771471002	1	1
761829007	1	1
17784009	1	1
783619003	1	1
719296002	1	1
9667001	1	1
719431007	1	1
715285004	1	1
733512004	1	1
14766002	2	1
708722008	1	1
725417001	1	1
784351000	1	1
720813007	1	1
86273004	4	3
1149366004	1	1
10743271000119103	1	1
773726000	1	1
441321000124105	1	1
417310005	1	1
1144651007	1	1
721158009	1	1
442951000124105	2	1
260787004	28	25
717042001	1	1
733095006	1	1
725047007	1	1
720724003	1	1
230710000	1	1
437131000124103	3	2
436701000124108	1	1
733117001	1	1
715630006	1	1
818999009	2	1
717940006	1	1
724179008	1	1
865944002	1	1
763310000	1	1
763536006	1	1
818984009	5	2
442901000124106	1	1
715504003	1	1
408512008	1	1
399106004	1	1
880103008	1	1
897487003	1	1
726021008	1	1
127489000	2	1
722457005	1	1
698270004	9	8
73442001	1	1
716704007	1	1
253176002	1	1
764871007	1	1
239332003	1	1
15440009	1	1
418818005	1	1
710729009	1	1
441231000124100	1	1
771444002	1	1
771265006	1	1
763130006	1	1
763349002	1	1
372475000	1	1
59252009	1	1
763374004	1	1
441871000124101	1	1
1148721003	1	1
416174007	1	1
726721002	1	1
789348009	1	1
734276001	1	1
437421000124105	1	1
783705006	1	1
722117000	1	1
770643005	1	1
703218000	2	1
722389002	1	1
707852009	1	1
372476004	1	1
771336003	1	1
721085000	1	1
2044003	1	1
705012007	1	1
442471000124109	1	1
721650001	1	1
739009002	1	1
718754008	1	1
764694005	1	1
768818001	1	1
1148645009	1	1
224571005	1	1
724091002	1	1
773418007	1	1
609389009	1	1
717129004	1	1
764630003	1	1
716008002	1	1
122467006	1	1
783248004	1	1
763869003	1	1
765326001	1	1
724069009	1	1
5851000124105	1	1
1148945006	1	1
785824001	1	1
774209001	1	1
773700005	1	1
84100007	2	1
718897009	1	1
713770007	1	1
95333004	1	1
1142162007	1	1
722085003	1	1
770401007	1	1
436951000124105	1	1
711544002	1	1
417602003	3	2
876833001	1	1
724093004	1	1
773412008	1	1
1003629006	1	1
766766005	1	1
710089002	1	1
417261002	1	1
438701000124109	1	1
819973005	1	1
710083001	5	4
770434009	1	1
707144009	6	5
734028007	1	1
421131006	1	1
774151000	1	1
1144301005	20	19
715624006	1	1
444421000124102	1	1
703884003	1	1
789421009	1	1
699310000	1	1
417557007	1	1
720747002	1	1
417635008	1	1
768663003	1	1
445913005	1	1
783179009	1	1
770623004	3	2
6553002	1	1
725287006	2	1
472964009	2	1
722298001	1	1
1156469001	1	1
708668003	1	1
440321000124101	1	1
440361000124107	1	1
81099000	1	1
783740007	1	1
782786001	1	1
716565009	1	1
773646003	1	1
890357007	1	1
1153594009	1	1
772227002	1	1
62497000	1	1
1149484003	1	1
239072003	1	1
710022008	1	1
724068001	1	1
314621000119104	1	1
125086000	1	1
762070008	1	1
770628008	1	1
710971000	1	1
721970009	1	1
777999008	1	1
1148495004	1	1
1141936000	3	2
428191002	1	1
723568004	1	1
783006001	1	1
373873005	82	34
716199000	1	1
722463001	1	1
124911000119100	1	1
764960005	1	1
836410001	1	1
419954003	1	1
704076007	1	1
722061006	1	1
717771007	1	1
770896003	1	1
720751000	1	1
230780007	7	3
732953008	1	1
720460007	1	1
699288003	1	1
720951008	1	1
818959006	1	1
1002224003	1	1
721883006	1	1
781405001	1	1
766977007	1	1
416122009	1	1
721234004	1	1
417614006	1	1
866017001	1	1
706873003	1	1
416304004	1	1
766760004	1	1
725049005	1	1
767023003	1	1
8510008	1	1
717158001	1	1
715629001	1	1
774068004	1	1
733615008	1	1
721874001	1	1
778070003	1	1
733606001	1	1
764846009	1	1
716660007	1	1
440601000124100	9	8
367336001	2	1
860932002	1	1
38371006	2	1
763346009	1	1
783013001	1	1
774083009	1	1
719571004	2	1
1155695003	1	1
75152009	2	1
192976002	1	1
715535009	1	1
702314005	10	3
789494008	1	1
721095007	1	1
838430007	1	1
738994005	1	1
419076005	2	1
784342008	1	1
722109008	1	1
722288007	1	1
443694000	1	1
719514002	1	1
53120007	6	5
783766005	1	1
732263008	1	1
718085007	1	1
719209002	1	1
717941005	1	1
787174003	1	1
722056009	1	1
438221000124105	1	1
715776003	1	1
926355003	1	1
71937005	1	1
438951000124106	1	1
737596001	1	1
1141699006	1	1
699382004	1	1
718750004	1	1
708980008	7	6
711464005	1	1
443111000124101	6	2
890245000	1	1
720830009	1	1
710117006	1	1
32570681000036106	1	1
715721005	1	1
715987000	1	1
1149120001	1	1
897488008	1	1
6035001	1	1
722062004	1	1
724357007	1	1
763619009	1	1
435601000124107	34	3
1144999005	1	1
65361000	10	7
441721000124109	5	4
1145193000	1	1
720956003	1	1
783722008	1	1
1156453008	1	1
721973006	1	1
895542003	1	1
721229003	1	1
890163007	1	1
719663005	1	1
399200001	1	1
773662009	1	1
768012004	1	1
417640000	1	1
721087008	1	1
26643006	1	1
769036006	1	1
770723007	1	1
698032005	1	1
48563009	1	1
721014007	1	1
441869008	1	1
726727003	1	1
711283001	1	1
818986006	13	5
890286007	1	1
720568003	1	1
770724001	1	1
766752000	1	1
416269009	1	1
38239002	1	1
765202001	1	1
416092001	1	1
725588002	1	1
143521000119103	1	1
710023003	1	1
714096008	1	1
443491000124103	3	2
782884005	1	1
713771006	1	1
715217004	1	1
80406003	10	9
723716009	1	1
778001003	1	1
763531001	1	1
699535005	1	1
419021003	1	1
314611000119106	1	1
722027009	1	1
769065000	2	1
68641000	2	1
765757003	3	2
718908009	1	1
710108006	1	1
721208007	1	1
717261006	1	1
1141823004	1	1
718096004	1	1
118635009	1	1
765753004	1	1
438801000124101	1	1
609433001	5	2
719910004	1	1
722113001	1	1
417643003	1	1
725413002	1	1
699670000	1	1
703476007	1	1
763131005	1	1
770900000	1	1
438841000124104	1	1
708579004	1	1
722033000	1	1
774152007	1	1
723359002	1	1
12456005	1	1
769160007	1	1
897645009	1	1
720410001	1	1
442275008	1	1
773668008	1	1
715726000	1	1
440991000124103	1	1
782745008	1	1
44764005	1	1
716135008	1	1
724172004	1	1
786455008	1	1
773308001	1	1
764810000	1	1
784371009	1	1
25585008	1	1
722032005	1	1
1155728004	1	1
367821000119106	1	1
890379002	1	1
763622006	1	1
718224004	1	1
765100000	1	1
725394006	1	1
890105003	1	1
770728003	1	1
20418004	1	1
69854003	1	1
1149103000	1	1
773576000	1	1
35688006	1	1
766048008	1	1
724283004	1	1
372459003	1	1
722287002	1	1
720746006	1	1
771235001	1	1
715863001	1	1
8540001000004109	1	1
719044008	1	1
55870005	1	1
783620009	1	1
440521000124106	1	1
10692761000119107	1	1
441851000124106	1	1
721835008	1	1
722020006	1	1
765191009	1	1
122459003	1	1
720604008	1	1
725392005	1	1
722392003	1	1
787758000	1	1
733070005	1	1
717811007	1	1
764619001	1	1
838457009	1	1
926353005	1	1
5811000124109	1	1
707989006	1	1
1003633004	1	1
702345009	1	1
773641008	1	1
1148715002	1	1
774167006	1	1
782826009	1	1
1231004	1	1
710883002	1	1
609519004	1	1
1148965004	1	1
720634003	1	1
763203009	1	1
399051002	1	1
783204009	1	1
722450007	1	1
715866009	1	1
441301000124100	1	1
1156404008	1	1
437361000124105	1	1
773688007	1	1
441421000124104	1	1
421716009	1	1
773553003	1	1
724094005	1	1
763136000	1	1
770397004	1	1
732933009	1	1
437521000124109	1	1
1144996003	3	2
130621000119105	4	3
707624002	1	1
766888002	1	1
765330003	3	2
1156495004	1	1
789133007	2	1
1003996007	1	1
225737007	1	1
726707004	1	1
783612007	1	1
733722007	1	1
722449007	1	1
710021001	1	1
719765007	1	1
719945007	1	1
715506001	1	1
281373004	1	1
719972004	1	1
228244001	3	1
443261000124105	1	1
833278008	1	1
789187001	1	1
723561005	1	1
771440006	1	1
789344006	1	1
1055204001	27	8
783205005	1	1
285695004	2	1
720494009	1	1
716238003	1	1
787407003	1	1
716112005	1	1
836414005	1	1
734551003	1	1
896806005	1	1
733416004	1	1
783166000	1	1
54471007	1	1
102482005	1	1
1156528007	1	1
782886007	1	1
735421004	1	1
782672006	1	1
67681000119109	1	1
709199006	1	1
722031003	1	1
28644007	1	1
435651000124106	1	1
718680001	1	1
445084008	1	1
707301001	1	1
708037001	1	1
766790006	1	1
419320008	1	1
771473004	1	1
711459006	2	1
737580004	1	1
764732004	1	1
763370008	1	1
18183009	1	1
15398002	1	1
726614009	1	1
716684004	1	1
725408001	1	1
715865008	1	1
715366004	1	1
771261002	1	1
763067000	1	1
720498007	1	1
771184001	1	1
719572006	1	1
783157004	1	1
720744009	1	1
719452004	1	1
733046006	1	1
715216008	1	1
734347001	1	1
786041005	1	1
770754006	1	1
783719006	1	1
926360004	1	1
770596007	1	1
897639001	1	1
782774004	1	1
416327007	1	1
763220008	1	1
783011004	1	1
711039004	1	1
718228001	1	1
723554006	1	1
439472009	1	1
74923002	1	1
418608002	1	1
890151002	1	1
445211001	1	1
105594005	1	1
1366004	1	1
11530004	3	2
715628009	1	1
764840003	1	1
724152009	1	1
78621006	6	4
723407009	1	1
437431000124108	1	1
715474004	1	1
720755009	1	1
723235005	1	1
710881000	1	1
770404004	1	1
709064009	1	1
25981000119102	1	1
60753006	1	1
399064001	1	1
733618005	1	1
726672000	1	1
442941000124108	4	3
782878007	1	1
766872002	1	1
224960004	1	1
1153637007	1	1
722034006	1	1
773642001	1	1
771143004	1	1
764437006	1	1
399063007	1	1
783558004	1	1
16872008	1	1
724384008	1	1
437081000124103	1	1
473010000	29	14
47625008	4	3
707318002	1	1
711191001	1	1
763798008	1	1
700364009	358	353
363687006	2	1
25744000	1	1
715952000	1	1
710191008	1	1
715559004	1	1
719840003	1	1
778023004	1	1
866008001	1	1
439031000124108	1	1
782785002	1	1
726722009	1	1
774207004	1	1
438241000124103	1	1
708474007	1	1
719684000	1	1
763316006	1	1
783056006	1	1
77465005	4	3
1144667001	1	1
1003435001	1	1
719944006	1	1
721013001	1	1
5921000124105	1	1
1144650008	4	3
773772001	1	1
725351001	1	1
722096006	1	1
409073007	12	9
890432001	1	1
732245008	1	1
719646006	1	1
789159005	1	1
897134007	1	1
1145194006	1	1
717943008	1	1
725907002	1	1
773729007	1	1
719649004	1	1
717285003	1	1
715426004	1	1
719582007	1	1
720497002	1	1
774070008	1	1
733612006	1	1
704682009	1	1
725141006	1	1
719047001	1	1
722205008	1	1
721057002	1	1
720571006	1	1
717459000	1	1
722478008	1	1
418664002	1	1
767921003	1	1
716132006	1	1
123744001	1	1
763068005	1	1
773749003	1	1
771185000	1	1
86484008	1	1
1149457004	1	1
880105001	1	1
819019001	1	1
35486000	2	1
145611000119107	1	1
773987000	1	1
763209008	1	1
441671000124100	1	1
773643006	1	1
789160000	1	1
733650000	1	1
789132002	1	1
780820008	1	1
1155841005	1	1
721837000	1	1
718481007	1	1
719201004	1	1
436681000124105	1	1
770437002	1	1
704326004	1	1
768817006	1	1
122460008	1	1
264287008	1	1
703069008	1	1
271813007	2	1
718362003	1	1
710951009	1	1
717185008	1	1
721838005	1	1
770679002	1	1
703217005	1	1
1156384006	1	1
717061002	1	1
763889002	1	1
733091002	1	1
699684005	1	1
723820001	1	1
764518004	1	1
721200000	1	1
784332006	2	1
783243008	1	1
418401004	1	1
308698004	1	1
444862003	4	3
705016005	1	1
818987002	5	2
1137465007	1	1
836409006	1	1
773330000	1	1
789106008	1	1
733033001	1	1
783718003	1	1
1144595005	3	2
58193001	1	1
726620005	1	1
417194006	1	1
774066000	1	1
86588008	1	1
1003438004	1	1
725296006	1	1
1148716001	1	1
715369006	1	1
769170009	1	1
723552005	1	1
783251006	1	1
128065004	1	1
1149439000	1	1
710923000	1	1
387124009	1	1
773275000	1	1
82515000	2	1
419631009	1	1
765190005	1	1
770565003	1	1
438311000124106	1	1
1153605006	1	1
770622009	1	1
437986008	1	1
718610008	1	1
763630007	1	1
717155003	1	1
763835004	1	1
768827000	1	1
765057007	1	1
425764006	1	1
111030006	1	1
719833004	1	1
789350001	1	1
445254006	1	1
719098007	1	1
719513008	1	1
439111000124103	1	1
437821000124107	1	1
1003628003	1	1
110986000	1	1
763864008	1	1
725165009	1	1
719208005	1	1
766248004	1	1
714743009	2	1
773624006	1	1
713194001	1	1
716708005	1	1
438781000124100	1	1
732943007	1	1
437401000124100	1	1
441261000124109	1	1
890390007	1	1
789108009	1	1
440531000124109	1	1
447227007	1	1
719249005	1	1
764847000	1	1
783177006	1	1
421594008	1	1
723569007	4	1
715799004	1	1
58811000052103	1	1
713966008	1	1
890202007	1	1
710106005	1	1
283545005	1	1
71617008	1	1
230426003	1	1
733425005	1	1
733097003	1	1
8205005	1	1
722455002	1	1
721219005	1	1
718176005	1	1
109440005	1	1
725099009	1	1
763747002	1	1
718691008	1	1
733625003	1	1
711329002	1	1
782738008	1	1
765275003	1	1
733469003	1	1
439237009	1	1
716196007	1	1
720860004	1	1
715802008	1	1
441531000124102	2	1
719207000	1	1
704322002	1	1
764993001	1	1
823054000	1	1
717011006	1	1
710793000	1	1
726078000	1	1
416280009	1	1
1156525005	1	1
715867000	1	1
736678006	1	1
733600007	1	1
437621000124108	3	2
716584007	1	1
789161001	1	1
783704005	1	1
770750002	1	1
733115009	1	1
441461000124105	1	1
783258000	1	1
443521000124101	1	1
773732005	1	1
19359003	1	1
722064003	1	1
723471009	1	1
770561007	1	1
725393000	1	1
771178004	1	1
711495003	1	1
732250002	1	1
783189008	1	1
819016008	1	1
437261000124100	1	1
721881008	1	1
715826005	1	1
789123004	1	1
783245001	1	1
703540008	1	1
878790004	1	1
89444000	3	2
37839007	1	1
711284007	1	1
609373006	1	1
1156457009	1	1
890145007	1	1
710025005	1	1
256681002	1	1
721842008	1	1
5971000124106	1	1
782722002	1	1
732248005	1	1
706923002	1	1
718480008	1	1
788667005	1	1
721007005	1	1
789172006	1	1
710086009	1	1
718135001	1	1
5845006	1	1
60213007	1	1
11326003	1	1
339008	1	1
1149114002	1	1
1144526000	1	1
440611000124102	1	1
189411005	1	1
716740009	1	1
703529000	1	1
715574002	1	1
724142005	1	1
1157249003	1	1
720010009	1	1
733499007	1	1
783156008	1	1
764939004	1	1
722036008	1	1
102955006	1	1
399195005	1	1
75019001	4	3
716379000	1	1
726079008	1	1
447026006	2	1
738995006	1	1
783016009	1	1
709073001	1	1
59719002	2	1
21143006	1	1
778028008	1	1
717043006	1	1
768010007	1	1
765092004	1	1
438113009	1	1
819967009	14	12
399167005	3	2
764690001	1	1
771080008	1	1
789334009	1	1
711432003	1	1
723583009	1	1
704327008	1	1
726051002	1	1
737582007	1	1
719838008	1	1
770685009	1	1
722063009	1	1
725122008	1	1
717264003	1	1
718572004	1	1
722201004	1	1
105651000119100	1	1
717337001	1	1
715342005	1	1
880093002	1	1
362981000	331	157
718552009	1	1
711433008	1	1
736477006	4	1
719510006	1	1
716653001	1	1
733089005	1	1
1156315004	9	4
708673009	1	1
717223008	1	1
742876007	1	1
710135002	2	1
764454003	1	1
708585006	1	1
718444008	1	1
438156004	1	1
722379001	1	1
789387009	1	1
838434003	1	1
722081007	1	1
268868001	1	1
715575001	1	1
827107003	1	1
719827008	1	1
722721004	1	1
782887003	1	1
788923005	1	1
763623001	1	1
783621008	1	1
437511000124101	3	2
768840005	1	1
308916002	5	4
1144812004	1	1
440771000124101	1	1
438791000124102	1	1
714789002	1	1
51881000119109	1	1
720941007	1	1
700361001	1	1
770595006	1	1
441031000124105	1	1
741062008	1	1
443381000124105	1	1
721091003	1	1
771306007	1	1
763132003	1	1
314410003	1	1
718329006	1	1
715984007	1	1
719257008	1	1
733069009	1	1
721845005	1	1
890244001	1	1
1156868003	1	1
440631000124108	1	1
785301002	1	1
1144656002	1	1
717814004	1	1
1156823006	1	1
718765003	1	1
763885008	1	1
437381000124100	1	1
55566008	1	1
783734000	1	1
399139001	1	1
443201000124109	1	1
773627004	1	1
782881002	1	1
764849002	1	1
773664005	1	1
715656004	1	1
719046005	1	1
773691007	1	1
723623002	1	1
95269005	1	1
778068007	1	1
17144009	1	1
11899006	1	1
721233005	1	1
736828006	1	1
741679001	1	1
191478006	1	1
716230005	1	1
410607006	22	15
718564001	1	1
732928005	1	1
771141002	1	1
766711009	1	1
385115001	1	1
766050000	1	1
774211005	1	1
703233008	1	1
773503009	1	1
773549000	1	1
82345001	1	1
1141933008	1	1
890101007	1	1
726613003	1	1
709852002	1	1
122869004	8	6
782780007	1	1
721017000	1	1
410619003	2	1
716864001	1	1
74636004	1	1
738946006	1	1
715337002	2	1
722401001	1	1
772127009	1	1
720418008	1	1
715843008	1	1
5447007	2	1
1148982002	1	1
718097008	1	1
445768003	4	3
723360007	1	1
723584003	1	1
91454002	1	1
34896006	8	6
726609005	1	1
773307006	1	1
763403007	1	1
1149452005	1	1
816949001	1	1
724173009	1	1
778043005	1	1
439141000124104	1	1
435591000124104	40	2
725136003	1	1
47881004	4	3
9421007	1	1
773489008	1	1
1148723000	1	1
443041000124101	1	1
734015000	1	1
431193003	1	1
787764007	13	9
763683004	1	1
715201005	1	1
787093004	1	1
715522000	1	1
127062003	5	4
40617009	4	3
445756007	1	1
733473000	1	1
722493007	1	1
370132008	1	1
739010007	1	1
1055202002	1	1
62057008	2	1
723357000	1	1
738948007	1	1
766981007	1	1
720513002	1	1
416426004	1	1
766979005	1	1
711431005	1	1
420719007	1	1
733614007	1	1
436961000124107	1	1
897278005	1	1
818985005	9	2
764951002	1	1
733094005	1	1
764461004	1	1
107411000119108	1	1
389239007	1	1
718174008	1	1
723595009	2	1
723999009	1	1
788656009	1	1
765145001	1	1
764520001	1	1
707985000	1	1
721879006	1	1
763278004	1	1
438171000124104	1	1
770908007	1	1
763888005	1	1
763318007	1	1
771076003	1	1
441631000124103	1	1
1156470000	1	1
1142163002	1	1
721862000	1	1
725138002	1	1
722296002	1	1
719171005	1	1
723307008	1	1
82699004	1	1
437221000124106	1	1
700237005	1	1
773575001	1	1
707205007	1	1
783738002	1	1
765054000	1	1
771304005	1	1
723364003	1	1
443171000124105	1	1
763767006	1	1
416278003	10	8
723563008	1	1
789386000	1	1
443451000124109	1	1
734948002	1	1
715981004	1	1
894132003	1	1
36813001	1	1
716007007	1	1
438211000124102	1	1
783254003	1	1
716663009	1	1
446841001	1	1
371079004	1	1
201160005	1	1
733617000	1	1
81723002	3	2
722209002	1	1
719430008	1	1
6064005	7	5
417963007	1	1
8530001000004108	1	1
443051000124104	4	1
789103000	1	1
766871009	1	1
707194005	1	1
782691006	1	1
721836009	1	1
764945007	1	1
436691000124108	1	1
437731000124102	1	1
722168002	1	1
723622007	1	1
720492008	1	1
75076004	24	17
416355006	1	1
714279000	1	1
715771008	2	1
723555007	1	1
5871000124100	1	1
697964003	1	1
47002008	1	1
706905005	1	1
445767008	7	4
60726007	1	1
763129001	1	1
27782009	1	1
125095008	1	1
707853004	1	1
792871003	1	1
419891008	22	18
723823004	1	1
726083008	1	1
724146008	1	1
716192009	1	1
715420005	1	1
782720005	1	1
67889009	1	1
734349003	1	1
771517009	1	1
784344009	1	1
85921004	2	1
726099002	1	1
445278001	1	1
764816006	1	1
419231003	2	1
770942003	1	1
122500009	1	1
773672007	1	1
726611001	1	1
715531000	1	1
715463008	1	1
773326003	1	1
23686004	1	1
716117004	1	1
723385003	1	1
725168006	1	1
76572000	1	1
1156474009	1	1
47434006	3	2
20364005	1	1
772044006	1	1
721096008	1	1
418821007	1	1
49864004	1	1
782673001	1	1
778064009	1	1
709846003	1	1
64445006	1	1
720635002	1	1
720827002	1	1
721296004	1	1
890468006	1	1
122463005	2	1
315058005	1	1
721878003	1	1
52734007	1	1
719511005	1	1
1149115001	1	1
468421000	1	1
444591000124101	1	1
720952001	1	1
783003009	1	1
783165001	1	1
722122000	1	1
764522009	1	1
765740002	1	1
717785002	1	1
435691000124100	1	1
733088002	1	1
732970000	1	1
725135004	1	1
405266003	1	1
723556008	1	1
418851001	1	1
437341000124106	1	1
719837003	1	1
926357006	1	1
773396009	1	1
718914002	1	1
789529009	1	1
789063000	1	1
710243000	1	1
719251009	1	1
783061008	1	1
766721001	1	1
890356003	1	1
721847002	1	1
408539000	1	1
22199006	1	1
30623001	1	1
93040009	7	6
771333006	1	1
699298009	1	1
1002225002	1	1
722781002	1	1
251079001	1	1
716696006	1	1
718881004	1	1
704346009	1	1
720419000	1	1
716197003	1	1
399007006	1	1
442137000	1	1
783562005	1	1
732264002	1	1
416600003	2	1
437711000124108	1	1
715314008	1	1
718141008	1	1
720501007	1	1
766249007	1	1
784372002	1	1
719800009	1	1
440371000124100	1	1
735531008	1	1
733491005	1	1
33308003	187	174
1157244008	1	1
445104009	1	1
717329009	1	1
122865005	7	3
720457000	1	1
708675002	1	1
771512003	1	1
722098007	1	1
736803003	1	1
764969006	1	1
763186006	1	1
436911000124109	1	1
704323007	1	1
782197009	4	2
770786001	1	1
778012003	1	1
764775005	1	1
764997000	1	1
768846004	1	1
113011001	1	1
716133001	1	1
717221005	1	1
897144009	1	1
399238002	1	1
717008005	1	1
720448006	1	1
719042007	1	1
718192000	1	1
706906006	1	1
724207001	1	1
894145004	1	1
372457001	2	1
717276003	1	1
700502006	1	1
1142164008	1	1
773984007	1	1
719425009	1	1
1142141006	1	1
716999001	1	1
444431000124104	1	1
783697000	1	1
716277000	1	1
721843003	1	1
724063005	1	1
56275003	1	1
238850005	1	1
708016009	1	1
707192009	1	1
417698008	1	1
718753002	1	1
699424002	1	1
443711000124102	1	1
789383008	2	1
717003001	1	1
765171002	1	1
716648006	1	1
708584005	1	1
414492009	2	1
246501002	1	1
47017007	1	1
72781000119105	1	1
739007000	1	1
782781006	1	1
764963007	1	1
372458006	1	1
719453009	1	1
38809004	4	1
717062009	1	1
440301000124106	1	1
444601000124109	1	1
783137003	1	1
772224009	1	1
717012004	1	1
719753008	1	1
410016009	1	1
1144601002	3	2
734873001	1	1
77329001	1	1
22951000119104	1	1
387713003	105	28
719580004	1	1
58761000052107	1	1
766876004	1	1
771303004	1	1
437791000124103	1	1
443571000124100	8	5
438971000124101	1	1
16076005	1	1
58100008	2	1
5901000124100	1	1
774204006	1	1
416876007	1	1
439001000124100	1	1
721972001	1	1
897677007	1	1
719578005	1	1
708581002	1	1
724070005	1	1
435741000124103	1	1
734817009	1	1
61819007	3	2
771478008	1	1
441751000124100	1	1
123571000119104	1	1
440961000124106	1	1
713834002	1	1
698008003	1	1
819015007	1	1
441821000124102	1	1
774154008	1	1
816160009	2	1
738527001	1	1
782759001	1	1
880115007	1	1
722290008	1	1
702625009	1	1
721146009	1	1
438191000124103	1	1
827081001	1	1
774205007	1	1
789349001	1	1
1144813009	1	1
58722007	1	1
709848002	1	1
783616005	1	1
1003951000	2	1
51741000119105	1	1
782689003	1	1
764958008	1	1
733422008	1	1
441591000124103	1	1
719267003	1	1
715631005	1	1
733636005	1	1
1055201009	1	1
444510006	1	1
720753002	1	1
874872000	1	1
773697006	1	1
443101000124104	1	1
763061004	1	1
763720007	1	1
719161008	1	1
70302008	1	1
118760003	1	1
763715007	1	1
782914000	1	1
31092005	1	1
764466009	1	1
725416005	1	1
783741006	1	1
783203003	1	1
720756005	1	1
1148643002	1	1
773555005	1	1
719298001	1	1
716334004	1	1
697931003	1	1
2802005	1	1
419196000	3	2
734021001	1	1
789306002	1	1
715074009	1	1
716857003	1	1
1148637004	1	1
704321009	1	1
721105004	1	1
773692000	1	1
1142142004	1	1
771340007	1	1
711038007	1	1
703500002	1	1
5961000124104	1	1
717914000	1	1
722147003	1	1
705006002	4	2
440291000124105	1	1
119271006	2	1
699381006	1	1
27706005	1	1
437581000124108	3	2
718132003	2	1
717184007	1	1
719400000	1	1
6797001	1	1
816094009	16	1
437761000124106	1	1
82334004	1	1
17802000	1	1
788922000	1	1
719991004	1	1
1142125005	1	1
708080005	1	1
702313004	1	1
719306007	1	1
12371008	1	1
718717004	1	1
724275005	1	1
1677001	1	1
723557004	1	1
738988002	1	1
771475006	1	1
765197008	1	1
782694003	1	1
716996008	2	1
723405001	1	1
444323003	1	1
900000000000485001	1	1
715404000	1	1
720743003	1	1
783095007	1	1
764688002	1	1
718107000	1	1
764521002	1	1
765744006	1	1
896797001	1	1
722488009	1	1
720500008	1	1
704674009	1	1
715665006	1	1
721086004	1	1
890385009	1	1
773727009	1	1
109778006	1	1
739005008	1	1
31325007	1	1
718182008	1	1
442921000124101	1	1
734901004	1	1
894139007	1	1
738993004	1	1
719568007	1	1
720569006	1	1
773332008	1	1
22649008	2	1
417009006	1	1
782901001	8	6
764100007	1	1
699303006	1	1
895538001	1	1
721089006	1	1
771446000	1	1
23150001	1	1
718577005	1	1
1142143009	1	1
733522005	1	1
436931000124103	2	1
763400005	1	1
180333002	3	2
404684003	3990	277
36364006	1	1
723721007	1	1
35897007	1	1
763276000	1	1
719300001	1	1
609406000	1	1
715576000	1	1
725415009	1	1
441521000124100	1	1
725409009	1	1
773278003	1	1
763069002	1	1
714095007	3	2
768843007	1	1
122458006	4	3
720757001	1	1
737562008	1	1
773329005	1	1
417575008	2	1
766705006	1	1
437571000124105	1	1
719299009	1	1
764703002	1	1
709109004	2	1
764459008	1	1
19384000	1	1
766982000	1	1
766046007	1	1
723231001	2	1
763532008	1	1
399145009	1	1
699662005	1	1
128045006	2	1
724072002	1	1
725433003	1	1
764999002	1	1
836343001	1	1
716245003	1	1
437041000124109	1	1
723442008	1	1
719686003	1	1
416183002	1	1
1156524009	1	1
726733007	1	1
715734006	1	1
697988001	1	1
721075001	1	1
787762006	1	1
1004110005	1	1
773702002	1	1
3761000119104	1	1
716281000	1	1
721100009	1	1
716380002	1	1
18115005	1	1
372454008	19	4
1144652000	13	9
1148960009	1	1
718606005	1	1
733457006	1	1
434601000124108	1	1
733616009	1	1
720637005	1	1
718609003	1	1
766720000	1	1
763719001	1	1
770761005	1	1
818993005	4	3
717360009	1	1
421378002	24	23
721227001	1	1
726708009	1	1
816067005	1	1
723676007	1	1
720638000	1	1
19207007	38	6
725097006	1	1
732949006	1	1
765403009	1	1
203994003	1	1
819021006	1	1
1148948008	1	1
897676003	1	1
763741001	1	1
733503001	1	1
718714006	1	1
1156471001	1	1
57214001	1	1
763739002	1	1
418947002	1	1
771341006	1	1
765327005	1	1
789310004	1	1
787091002	1	1
442421000124108	1	1
397578001	1	1
763771009	1	1
778025006	1	1
715414009	1	1
783148005	1	1
230557001	1	1
717632002	1	1
722390006	1	1
437801000124102	1	1
710005006	1	1
78208005	2	1
733093004	1	1
768926005	1	1
766252004	1	1
445279009	1	1
439161000124100	1	1
1003735000	1	1
4592006	1	1
710091005	5	4
771337007	1	1
926356002	1	1
726107008	1	1
118626002	1	1
773419004	1	1
726734001	1	1
1144806009	1	1
31031000119102	1	1
719454003	1	1
770664009	1	1
783764008	1	1
716195006	1	1
766764008	1	1
723567009	1	1
438181000124101	1	1
719164000	1	1
778027003	1	1
819010002	1	1
1149112003	1	1
716709002	1	1
787610003	1	1
238902007	1	1
860781008	1	1
726629006	1	1
782827000	1	1
782692004	1	1
733450008	1	1
718556007	1	1
707851002	1	1
718232007	1	1
702323008	1	1
446540005	2	1
783064000	1	1
711045007	1	1
890140002	1	1
708578007	1	1
1148642007	1	1
437311000124107	1	1
719194006	1	1
770727008	1	1
437882009	1	1
722378009	1	1
787414001	1	1
766870005	1	1
718752007	1	1
437181000124102	1	1
890233009	1	1
12921003	9	5
15970001000004108	1	1
443920001	1	1
709992001	1	1
724385009	1	1
765096001	1	1
782937006	1	1
78421000	2	1
417016007	1	1
782945001	1	1
716005004	1	1
716651004	1	1
1148793005	1	1
715440003	1	1
723441001	1	1
716647001	1	1
764625002	1	1
445353002	1	1
119246008	1	1
783140003	1	1
733510007	1	1
703503000	3	2
720983002	1	1
1144802006	1	1
1002223009	1	1
764733009	1	1
4887000	1	1
1148693003	1	1
1153590000	1	1
784345005	1	1
771307003	1	1
763408003	1	1
717182006	1	1
716530009	1	1
771507004	1	1
774149004	1	1
719471002	1	1
399354002	1	1
1119304009	1	1
716134007	1	1
129325002	3	2
439101000124101	1	1
789384002	1	1
705136008	1	1
705009009	1	1
706893006	1	1
436721000124103	1	1
437191000124104	1	1
61086009	1	1
111310003	1	1
702642003	1	1
724097003	1	1
716771000	1	1
764095005	1	1
1144935002	1	1
704366000	1	1
716593008	1	1
399140004	1	1
720408003	1	1
440911000124108	1	1
399070007	1	1
704999008	1	1
725589005	1	1
726633004	1	1
62226000	4	3
768555009	1	1
723363009	1	1
95837007	1	1
737579002	3	2
441351000124101	1	1
444581000124104	1	1
894127004	1	1
448492006	3	2
372468001	4	3
716655008	1	1
705007006	3	1
890471003	1	1
733032006	1	1
783139000	1	1
880104002	1	1
720599002	1	1
722213009	1	1
87179004	1	1
720459002	1	1
770898002	1	1
12601000132105	1	1
3377004	1	1
31808004	1	1
782783009	1	1
726018006	1	1
766246000	1	1
784392009	1	1
4764004	1	1
770542008	1	1
764711007	1	1
897638009	1	1
312004007	1	1
720523006	1	1
715991005	1	1
230388003	1	1
715533002	1	1
829971006	1	1
717333002	1	1
732247000	1	1
783014007	1	1
255496004	1	1
440461000124101	1	1
723601001	1	1
237770005	1	1
763837007	1	1
720458005	1	1
713756007	1	1
95323007	1	1
5661000124106	1	1
782911008	1	1
789393001	1	1
773304004	1	1
736847009	3	2
122502001	1	1
734002009	1	1
119265000	1	1
118662001	1	1
254024005	1	1
718749004	1	1
721082002	1	1
720427009	1	1
722456001	1	1
437321000124104	1	1
735129008	1	1
437641000124101	2	1
819978001	1	1
713759000	1	1
1156443007	1	1
713767008	1	1
385099005	1	1
702360007	1	1
771180005	1	1
782789008	1	1
1156460002	1	1
91480001	1	1
441968004	1	1
722461004	1	1
261237000	1	1
707436001	1	1
417522009	1	1
725286002	1	1
1153575004	1	1
763744009	1	1
441641000124108	1	1
418287000	1	1
722376008	1	1
443551000124105	2	1
719569004	1	1
442385007	1	1
715789009	1	1
15420002	1	1
716318002	1	1
715427008	1	1
232350006	1	1
733030003	1	1
111311004	1	1
1156597009	6	1
782821004	1	1
438851000124102	1	1
771441005	1	1
716239006	1	1
438931000124104	1	1
422481005	1	1
770602005	1	1
713851009	1	1
716091000	1	1
733921009	1	1
720748007	1	1
26029002	1	1
782794008	2	1
710098004	1	1
764621006	1	1
776087007	1	1
765488003	1	1
818963004	1	1
782757004	1	1
736848004	3	2
770788000	1	1
725407006	1	1
79341000119107	1	1
64716005	1	1
72965009	1	1
443091000124105	1	1
773333003	1	1
782726004	1	1
722183007	1	1
441761000124103	1	1
722309000	1	1
83678007	1	1
440401000124102	15	2
421166008	1	1
787765008	1	1
771239007	1	1
309294001	1	1
716871006	1	1
238047006	1	1
63697000	1	1
725908007	1	1
738991002	1	1
770678005	1	1
763377006	1	1
733518000	1	1
439041000124103	1	1
10567003	1	1
723598006	1	1
724001005	1	1
782718007	1	1
82999001	1	1
763839005	1	1
720826006	1	1
890386005	1	1
123581000119101	1	1
1156452003	1	1
420254004	7	3
783158009	1	1
7108004	1	1
719950001	1	1
733627006	1	1
1148757008	71	7
718104007	1	1
69079004	1	1
717332007	1	1
699664006	1	1
726622002	1	1
57554003	1	1
43802008	1	1
723306004	1	1
896802007	1	1
717827000	1	1
816169005	1	1
720407008	1	1
879871005	2	1
718712005	1	1
1156178003	1	1
95041000119101	12	4
713850005	1	1
722067005	1	1
4365001	26	8
725590001	1	1
32166003	1	1
785307003	1	1
717256009	1	1
715403006	1	1
739006009	1	1
785725008	1	1
894142001	1	1
783774006	1	1
723308003	1	1
1003836005	1	1
1431002	9	6
416240000	1	1
771078002	1	1
733096007	1	1
720856002	1	1
782723007	1	1
129721000119106	1	1
766821006	1	1
723367005	1	1
722424008	1	1
45685007	1	1
771443008	1	1
783096008	1	1
774084003	1	1
472328003	1	1
715777007	1	1
718615003	1	1
726732002	1	1
723277005	1	1
782877002	1	1
717253001	1	1
1144287005	1	1
240410002	1	1
77817004	1	1
816952009	1	1
718631006	1	1
716193004	1	1
125671007	2	1
764523004	1	1
440661000124104	1	1
771077007	1	1
764956007	1	1
718756005	1	1
732219004	2	1
773554009	1	1
1003636007	1	1
783742004	1	1
399133000	1	1
719688002	1	1
733418003	1	1
1145189006	1	1
385064006	1	1
404815008	1	1
769158005	1	1
782910009	1	1
58831000052108	1	1
1149367008	1	1
444074000	1	1
715223009	1	1
721902002	1	1
707854005	1	1
26889001	8	7
719567002	3	2
720980004	1	1
726615005	1	1
896801000	1	1
1149322001	1	1
890392004	1	1
722383001	1	1
440721000124102	1	1
713765000	1	1
715287007	1	1
774208009	1	1
722207000	1	1
441581000124101	3	2
699311001	1	1
715534008	1	1
770414008	2	1
772786005	1	1
764456001	1	1
716089008	1	1
721841001	1	1
715748006	1	1
763128009	1	1
722211006	1	1
713053006	1	1
734818004	2	1
774203000	1	1
716191002	1	1
417985001	11	4
32615007	1	1
770435005	1	1
819009007	1	1
789419004	1	1
763211004	1	1
763795006	1	1
870442006	1	1
700473000	1	1
721069005	1	1
773345007	1	1
733456002	1	1
723512008	1	1
714628002	1	1
773667003	1	1
417171005	1	1
715720006	1	1
765325002	1	1
713777005	1	1
720602007	1	1
396620009	1	1
720518006	1	1
880106000	1	1
710024009	1	1
48537004	4	2
771144005	1	1
1153592008	1	1
715527006	1	1
609517002	1	1
725041008	1	1
385101003	1	1
724278007	1	1
782766000	1	1
81036009	1	1
717046003	1	1
443181000124108	5	4
770902008	1	1
720430002	1	1
112696003	1	1
1148638009	1	1
723573005	3	2
718559000	1	1
128188000	22	4
782935003	1	1
894144000	1	1
719911000	1	1
778007004	1	1
770430000	1	1
725146001	1	1
441331000124108	1	1
763458005	1	1
782747000	1	1
715989002	1	1
372467006	1	1
8009008	1	1
724174003	1	1
413577001	1	1
441921000124106	16	15
49928004	2	1
816989007	3	2
70502009	1	1
52616002	1	1
778042000	1	1
771342004	1	1
736099005	1	1
128091003	1	1
723560006	1	1
32998005	1	1
710088005	1	1
719907006	1	1
715735007	1	1
860779006	1	1
773279006	1	1
765471005	1	1
340311000119104	2	1
782782004	1	1
895546000	1	1
768933005	2	1
719823007	1	1
718755009	1	1
704320005	1	1
773551001	1	1
725027004	1	1
440731000124104	1	1
722381004	1	1
281902004	2	1
722005000	1	1
709986007	1	1
79869003	2	1
440391000124104	1	1
1149069001	1	1
890438002	1	1
440381000124102	1	1
732262003	1	1
449807005	1	1
50659003	3	2
703215002	1	1
443581000124102	2	1
840560000	1	1
715674008	1	1
719811001	1	1
438731000124101	1	1
725078006	1	1
816092008	12	3
722459008	1	1
725100001	1	1
715409005	1	1
722451006	1	1
783183009	1	1
5891000124104	1	1
763063001	1	1
719812008	1	1
719402008	1	1
770757004	1	1
724141003	1	1
438861000124100	1	1
720953006	1	1
715861004	1	1
738983006	1	1
890354000	1	1
770625006	1	1
725906006	1	1
897643002	1	1
714485009	1	1
763477007	1	1
732927000	1	1
723597001	1	1
764735002	1	1
90028008	2	1
738998008	1	1
836411002	1	1
719990003	1	1
734031008	1	1
782790004	1	1
782824007	1	1
763815000	1	1
719455002	1	1
773737004	1	1
702346005	1	1
447080003	1	1
770406002	1	1
733608000	1	1
719011002	1	1
399339008	1	1
719810000	1	1
722476007	1	1
773693005	1	1
1148946007	1	1
716746003	1	1
715770009	1	1
774163005	1	1
870371006	1	1
443221000124104	1	1
896809003	1	1
439151000124102	1	1
51795009	1	1
75184002	1	1
717222003	1	1
715371006	1	1
708575005	1	1
785723001	1	1
416628009	1	1
773644000	1	1
768473009	1	1
443371000124107	1	1
710101000	1	1
827117008	1	1
1144808005	1	1
782696001	1	1
710160002	1	1
716772007	1	1
723572000	1	1
722110003	1	1
764457005	1	1
732954002	1	1
764730007	1	1
23426006	2	1
771237009	1	1
715374003	1	1
788662004	1	1
239728007	1	1
709847007	1	1
441381000124109	1	1
722433005	1	1
762708005	1	1
816990003	1	1
763315005	1	1
773775004	1	1
723562003	1	1
765763007	1	1
391100008	1	1
438941000124109	1	1
716381003	1	1
763797003	1	1
1148947003	1	1
1003999000	1	1
895543008	1	1
770563005	1	1
40587007	1	1
704243004	1	1
724351008	1	1
736853009	1	1
15270002	1	1
880107009	1	1
838435002	1	1
764104003	1	1
719379001	1	1
890162002	1	1
440331000124103	1	1
438901000124107	1	1
416853009	1	1
703802001	1	1
766929007	1	1
385043007	1	1
890102000	1	1
773299000	1	1
766761000	1	1
761958009	1	1
763865009	1	1
765095002	1	1
82203000	1	1
372450004	1	1
782736007	1	1
788924004	1	1
1144600001	1	1
1003463004	1	1
720394008	1	1
719250005	1	1
1148711006	1	1
733037000	1	1
766992008	1	1
764854006	1	1
866018006	1	1
710895002	1	1
721846006	1	1
719814009	1	1
1141983003	2	1
819980007	1	1
773628009	1	1
734037007	1	1
719466009	1	1
783737007	1	1
711446003	1	1
783553008	1	1
773584001	1	1
95564001	1	1
766755003	1	1
418321004	1	1
253120005	1	1
733598001	1	1
705172001	1	1
716004000	1	1
723450004	1	1
399363000	1	1
782168006	1	1
436871000124106	3	2
880112005	1	1
715822007	1	1
437811000124104	1	1
719048006	1	1
722437006	1	1
720416007	1	1
704190008	1	1
29064005	1	1
782705004	1	1
708573003	1	1
719139003	1	1
866010004	1	1
441681000124102	1	1
698275009	1	1
717013009	1	1
719657001	1	1
763204003	1	1
763273008	1	1
765434008	1	1
764856008	1	1
735390005	2	1
716742001	1	1
768560008	1	1
716872004	1	1
715860003	1	1
783195009	1	1
723826007	1	1
716997004	7	6
788465007	1	1
438831000124109	1	1
764697003	1	1
1149113008	1	1
83038001	1	1
719159004	1	1
715751004	1	1
896812000	1	1
715704001	2	1
718106009	1	1
363924004	1	1
723564002	8	4
735192009	1	1
723408004	1	1
718189004	1	1
719981005	1	1
717774004	1	1
234975001	1	1
440871000124105	1	1
718579008	1	1
764623009	1	1
17771000119103	1	1
109478007	1	1
783250007	1	1
715899006	1	1
720855003	1	1
778045003	1	1
774158006	1	1
717761005	1	1
770408001	1	1
444541000124105	1	1
435731000124108	3	2
718555006	1	1
720853005	1	1
764295003	1	1
763409006	1	1
15778005	3	1
1148634006	1	1
726019003	1	1
719909009	2	1
722119002	1	1
718064007	1	1
766881008	1	1
717973004	1	1
716248001	1	1
783174004	1	1
699677002	1	1
1149446009	1	1
77386006	2	1
719301002	1	1
441765008	1	1
778062008	1	1
699274002	1	1
719976001	1	1
763462004	1	1
724092009	1	1
782721009	1	1
764946008	1	1
771442003	1	1
738984000	4	3
733045005	1	1
819961005	1	1
12591000132100	1	1
765047006	1	1
783743009	1	1
723362004	2	1
193114000	3	2
764942005	1	1
763135001	1	1
703842006	1	1
251721007	1	1
24981001	1	1
722343009	1	1
721147000	1	1
723592007	2	1
780842009	1	1
766816008	1	1
765090007	1	1
705011000	1	1
773665006	1	1
772004004	1	1
85830006	1	1
733423003	1	1
890464008	1	1
734018003	1	1
243796009	21	19
773303005	1	1
58771000052103	1	1
712661008	1	1
118292001	43	14
52765003	2	1
791000124107	1	1
399039004	1	1
763475004	1	1
818981001	1	1
792872005	1	1
719979008	1	1
720517001	1	1
716108004	1	1
102704008	1	1
441901000124101	9	8
719987009	1	1
1010682008	1	1
763686007	1	1
1149458009	1	1
768966009	1	1
1156180009	1	1
890433006	1	1
718586000	1	1
718553004	1	1
128105004	1	1
418743005	2	1
1148502009	3	2
443531000124103	1	1
1144654004	1	1
890388006	1	1
732251003	1	1
766247009	1	1
726617002	1	1
894138004	1	1
717968005	1	1
719595002	1	1
768556005	1	1
1156254000	5	3
255499006	1	1
768927001	1	1
782737003	1	1
442126001	1	1
718632004	2	1
787766009	4	3
719787003	1	1
719019000	1	1
763320005	1	1
725105006	1	1
437061000124108	1	1
770751003	1	1
50015006	1	1
418441008	1	1
725420009	1	1
1144598007	1	1
1153591001	1	1
1153600001	1	1
716788007	1	1
719764006	1	1
705013002	2	1
771308008	1	1
1148718000	1	1
1155696002	1	1
783242003	1	1
708252004	1	1
58731000052100	1	1
718213001	1	1
897640004	1	1
122461007	5	3
788654007	1	1
442461000124102	1	1
717913006	1	1
722468005	1	1
372461007	2	1
345671000119105	1	1
717824007	1	1
816068000	1	1
449808000	1	1
783700001	1	1
699654002	1	1
766719006	1	1
1004004007	1	1
739123003	1	1
441441000124106	1	1
770946000	1	1
719826004	1	1
1144294008	1	1
372464004	1	1
1153601002	1	1
771179007	1	1
717257000	1	1
787094005	1	1
718769009	1	1
702600000	1	1
703392003	1	1
46713006	1	1
438711000124107	1	1
765046002	1	1
732932004	1	1
716590006	1	1
1148969005	1	1
723444009	1	1
890466005	1	1
1156934008	1	1
438721000124104	1	1
733110004	1	1
1148635007	1	1
897642007	1	1
784341001	1	1
372465003	1	1
399287000	1	1
768828005	1	1
764108000	1	1
699197006	1	1
416614003	1	1
764957003	1	1
230387008	1	1
788659002	1	1
763366000	1	1
718065008	1	1
715736008	1	1
720512007	1	1
733092009	1	1
37737002	22	3
778011005	1	1
440831000124107	1	1
1003703000	1	1
715754007	1	1
373713005	1	1
719160009	1	1
440511000124103	1	1
897592003	1	1
773698001	1	1
443001000124103	2	1
443391000124108	1	1
789314008	1	1
890156007	1	1
713040008	1	1
715419004	1	1
719758004	1	1
894135001	1	1
774212003	1	1
725034002	1	1
58821000052106	1	1
738945005	1	1
36777000	1	1
440881000124108	1	1
734020000	1	1
708484008	1	1
763793004	1	1
764737005	1	1
719395001	1	1
870601004	1	1
128207002	1	1
716790008	1	1
62014003	3	2
399023006	1	1
766767001	1	1
787607005	1	1
726029005	1	1
773773006	1	1
716174001	1	1
716701004	1	1
720401009	1	1
840581000	1	1
819007009	1	1
399154007	1	1
819974004	1	1
792882006	22	20
420460001	1	1
720859009	1	1
725289009	1	1
717920004	1	1
716722005	1	1
420699003	10	9
716111003	1	1
770802007	2	1
442273001	1	1
723333000	1	1
716094008	1	1
81742003	2	1
720819006	1	1
1003998008	1	1
771516000	1	1
786839005	1	1
890394003	1	1
707074004	1	1
34840004	1	1
443071000124109	1	1
768937006	1	1
67734004	15	11
722114007	1	1
784010006	4	3
773730002	1	1
765331004	1	1
76916001	2	1
770436006	1	1
719297006	1	1
80266002	3	1
718649006	1	1
1156210006	1	1
719715003	1	1
723674005	1	1
442084003	1	1
416926006	1	1
438141000124107	1	1
786038001	1	1
720507006	1	1
782811007	1	1
1149118004	1	1
782743001	1	1
761895005	1	1
711292003	1	1
719398004	1	1
764791008	1	1
718177001	1	1
763212006	1	1
778024005	1	1
816174002	1	1
876834007	1	1
763402002	1	1
716706009	1	1
723544007	1	1
715985008	1	1
783149002	1	1
764096006	1	1
896810008	1	1
764870008	1	1
723304001	1	1
720955004	1	1
766049000	1	1
734816000	1	1
703749006	1	1
1153598007	1	1
10685111000119102	1	1
838433009	1	1
720520009	1	1
771142009	1	1
720825005	1	1
768471006	1	1
894131005	1	1
764990003	1	1
722477003	1	1
763620003	1	1
763618001	1	1
773768000	1	1
733513009	1	1
721074002	1	1
766884000	1	1
720863002	1	1
723624008	1	1
789528001	1	1
783696009	1	1
703162001	1	1
720511000	1	1
708027006	1	1
792875007	1	1
719835006	1	1
386533006	1	1
763863002	1	1
716335003	1	1
443081000124107	1	1
788666001	1	1
724281002	1	1
715827001	1	1
699666008	1	1
723596005	1	1
721882001	1	1
738986003	1	1
763275001	1	1
722762005	1	1
712556004	1	1
130611000119103	3	2
436661000124100	3	2
703318003	1	1
609526004	1	1
778047006	1	1
716774008	1	1
1144995004	1	1
717286002	1	1
894146003	1	1
766709000	1	1
722283003	1	1
763658004	1	1
773645004	2	1
763668009	1	1
787171006	1	1
1144285002	1	1
763401009	1	1
718611007	1	1
709461008	1	1
54305003	1	1
715344006	1	1
7431000175109	1	1
719012009	1	1
1144805008	1	1
829972004	1	1
765756007	1	1
14792009	1	1
448826009	1	1
721903007	1	1
711175004	1	1
770792007	1	1
770907002	1	1
700226009	1	1
722006004	1	1
782755007	1	1
766986002	1	1
725045004	1	1
88220006	1	1
63684002	1	1
94081000119107	1	1
709994000	3	2
722008003	1	1
702949005	1	1
129152004	7	5
789708003	1	1
700486009	1	1
785807007	1	1
712832005	1	1
766239009	1	1
303249004	1	1
866007006	1	1
721976003	1	1
125094007	1	1
715406003	1	1
4150005	9	8
723411003	1	1
719021005	1	1
770559003	1	1
726621009	1	1
723504000	1	1
720864008	1	1
719759007	1	1
713126005	1	1
1142135004	1	1
770790004	1	1
715737004	1	1
719974003	1	1
773400009	1	1
739008005	1	1
765136002	1	1
703619001	1	1
714250007	1	1
724277002	1	1
82200002	1	1
783057002	1	1
1078280005	1	1
836415006	1	1
783164002	1	1
719203001	1	1
722369003	1	1
733466005	1	1
713400007	1	1
386053000	60	34
785304005	1	1
724224007	1	1
95712005	1	1
710782002	1	1
789385001	1	1
782820003	1	1
36576007	3	1
765745007	1	1
437021000124102	3	2
445941009	1	1
718062006	1	1
441791000124106	1	1
721236002	1	1
717187000	1	1
699530000	1	1
122498008	2	1
256679004	1	1
865943008	1	1
707855006	1	1
710110008	1	1
717016001	1	1
724361001	1	1
722382006	1	1
710102007	1	1
719769001	1	1
725142004	1	1
441291000124101	1	1
716745004	1	1
716662004	1	1
723830005	1	1
78104003	1	1
766758001	1	1
437771000124104	1	1
784347002	1	1
723581006	1	1
89890002	4	3
417666002	1	1
708580001	1	1
95442007	2	1
726705007	1	1
722095005	1	1
711291005	1	1
719166003	1	1
444422007	1	1
726106004	1	1
723566000	1	1
890387001	1	1
1156209001	1	1
717963001	1	1
1141985005	1	1
789135000	4	2
721877008	1	1
726735000	1	1
713381008	1	1
78678003	1	1
782879004	1	1
782669004	1	1
719103009	1	1
108372004	1	1
726618007	1	1
82058009	3	2
719670005	1	1
129336009	1	1
783739005	1	1
122462000	1	1
819960006	1	1
399030000	1	1
372460008	3	2
1156708005	1	1
715904005	1	1
703264005	1	1
699220008	1	1
14734007	24	10
773629001	1	1
1149456008	1	1
718214007	1	1
717262004	1	1
125105000	1	1
721008000	1	1
763742008	1	1
719302009	1	1
704679004	1	1
725591002	1	1
719666002	1	1
418887008	2	1
715980003	1	1
473011001	9	5
1142140007	1	1
724065003	1	1
392481002	1	1
770407006	1	1
783004003	1	1
440841000124102	1	1
1144908006	1	1
703627005	1	1
771513008	1	1
248241002	1	1
733611004	1	1
724016008	1	1
419810008	1	1
723386002	1	1
733050004	1	1
707606004	1	1
61653009	1	1
715951007	1	1
82254000	1	1
437171000124100	3	2
1055203007	1	1
773488000	1	1
819008004	1	1
703178004	1	1
1003777000	1	1
721148005	1	1
1145191003	1	1
1149459001	1	1
417236000	1	1
816168002	1	1
420185003	1	1
719451006	1	1
763829004	1	1
718764004	1	1
1004005008	1	1
1148719008	1	1
437271000124107	1	1
734030009	1	1
700489002	1	1
44808001	4	3
255581000119100	3	2
713054000	1	1
43671000	1	1
736849007	2	1
399282006	1	1
420218003	1	1
717045004	1	1
826984001	2	1
724147004	1	1
446435000	1	1
819979009	1	1
417272007	1	1
740685003	1	1
720640005	1	1
712798003	1	1
719013004	1	1
725043006	1	1
123038009	3	2
774153002	1	1
438091000124104	3	2
722293005	1	1
399310008	1	1
733613001	1	1
718095000	1	1
719599008	1	1
866009009	1	1
770667002	1	1
783202008	1	1
718876008	1	1
723502001	1	1
785300001	1	1
717915004	1	1
773690008	1	1
771272007	1	1
894141008	1	1
473447008	1	1
700399008	1	1
715462003	1	1
771182002	1	1
700057001	1	1
720818003	1	1
105590001	61	50
765747004	1	1
437211000124103	3	2
719583002	1	1
4905007	1	1
723553000	1	1
722057000	1	1
418511008	1	1
437721000124100	1	1
723675006	1	1
713875009	2	1
445755006	7	2
719658006	1	1
716336002	1	1
708574009	1	1
122497003	1	1
717258005	1	1
713772004	1	1
723599003	3	2
771233008	1	1
54954004	1	1
787612006	1	1
437391000124102	1	1
736784004	1	1
2360001000004109	1	1
417431007	1	1
389272007	1	1
894140009	1	1
437491000124107	3	2
399232001	1	1
699877004	1	1
819981006	1	1
718219002	1	1
782676009	1	1
719600006	1	1
716166002	1	1
763774001	1	1
720412009	1	1
722391005	1	1
32350008	1	1
722203001	1	1
12246008	1	1
783698005	1	1
773735007	2	1
703232003	1	1
818983003	38	12
707607008	1	1
773985008	1	1
722675000	1	1
765435009	1	1
717887003	1	1
118661008	2	1
722436002	1	1
709495007	1	1
787411009	1	1
739001004	1	1
1055207008	1	1
719429003	1	1
722150000	1	1
710084007	1	1
721222007	1	1
720978005	1	1
778049009	1	1
446407004	1	1
12011000119105	1	1
718633009	1	1
5821000124101	1	1
718573009	1	1
763860004	1	1
725119006	1	1
715796006	1	1
439081000124109	1	1
707859000	1	1
764725008	1	1
472965005	1	1
123037004	254	30
785727000	1	1
440651000124101	1	1
48983004	2	1
764861005	1	1
418331006	1	1
725149008	1	1
720605009	1	1
437351000124108	1	1
721228006	1	1
764850002	1	1
717822006	1	1
719020006	1	1
717330004	1	1
783615009	1	1
724227000	1	1
702575003	1	1
718718009	1	1
49549006	12	8
27411008	2	1
1003838006	1	1
766814006	1	1
720345008	1	1
441551000124109	1	1
609372001	1	1
42183005	1	1
719947004	1	1
713775002	1	1
725121001	1	1
788663009	1	1
8389004	1	1
711545001	1	1
69105007	1	1
763404001	1	1
1003839003	1	1
437661000124102	1	1
436711000124106	1	1
725163002	1	1
437841000124100	1	1
703166003	1	1
718497002	1	1
733628001	1	1
782751003	1	1
823034001	1	1
717909004	1	1
771075004	1	1
723571007	3	2
719266007	1	1
437871000124108	1	1
58372006	1	1
715282001	1	1
437051000124106	1	1
31201001	1	1
50749006	1	1
719456001	1	1
719685004	1	1
735191002	1	1
725139005	1	1
763833006	1	1
715672007	1	1
140051000119109	1	1
783055005	1	1
766812005	1	1
774065001	1	1
437861000124101	1	1
722231005	1	1
706912001	3	2
1137439008	1	1
725145002	1	1
703765007	1	1
416553003	6	5
725295005	1	1
719157002	1	1
234161007	1	1
816957003	1	1
717823001	1	1
441651000124105	1	1
721092005	1	1
442431000124106	1	1
723461007	1	1
715438008	1	1
420287000	1	1
725031005	1	1
719770000	1	1
64853007	1	1
707856007	1	1
723687004	2	1
398998003	1	1
724067006	1	1
715649005	1	1
469796007	1	1
722434004	1	1
716787002	1	1
783008000	1	1
770560008	1	1
715821000	1	1
720958002	1	1
774164004	1	1
720572004	1	1
1156314000	1	1
122861001	1	1
768553002	2	1
738990001	1	1
766980008	1	1
88834003	2	1
437631000124106	1	1
838441009	1	1
789378000	1	1
723610009	1	1
1148842005	1	1
734023003	1	1
816991004	1	1
723600000	1	1
769256002	1	1
421532009	1	1
827174006	1	1
1142165009	1	1
419165009	1	1
719973009	1	1
782680004	1	1
64874008	1	1
734815001	1	1
440861000124103	1	1
816955006	1	1
733725009	1	1
715340002	1	1
767263007	1	1
717156002	1	1
442371002	1	1
723503006	1	1
782942003	1	1
715707008	2	1
399293008	1	1
782750002	1	1
715422002	1	1
385049006	1	1
774147002	1	1
703196008	1	1
1141683000	2	1
766238001	1	1
715797002	1	1
766815007	1	1
764855007	1	1
710026006	1	1
385100002	1	1
86075001	10	9
896800004	1	1
789134001	2	1
420275007	6	5
763893008	1	1
763890006	1	1
119251002	1	1
715901002	1	1
720632004	1	1
723621000	1	1
417989007	1	1
733623005	1	1
708671006	1	1
721231007	1	1
733417008	1	1
719687007	1	1
789408002	1	1
716194005	1	1
719404009	1	1
718105008	1	1
766759009	1	1
107728002	2	1
716661006	1	1
111029001	1	1
716183006	1	1
770756008	1	1
723452007	1	1
437331000124101	1	1
766932005	1	1
786037006	1	1
723451000	1	1
702969000	1	1
723232008	1	1
771470001	1	1
720565000	1	1
710097009	1	1
719577000	1	1
718882006	1	1
722430008	1	1
5491000179105	1	1
711527001	1	1
711534004	1	1
895539009	1	1
733062000	1	1
719818007	1	1
709989000	1	1
783062001	1	1
112581000119104	1	1
715316005	2	1
864491000000105	1	1
723991007	2	1
736681001	1	1
768554008	1	1
447694001	11	7
418136008	6	5
725148000	1	1
1003952007	1	1
718900002	1	1
39379000	2	1
836406004	1	1
718217000	1	1
717228004	1	1
416141007	1	1
783617001	1	1
59108006	8	6
441411000124107	1	1
717055000	1	1
416615002	1	1
770433003	1	1
1155691007	1	1
24736005	4	1
24184005	1	1
716652006	1	1
709995004	1	1
783244002	1	1
766750008	1	1
445300006	1	1
733453005	1	1
721961006	1	1
15807005	2	1
717942003	1	1
722281001	1	1
719278006	1	1
709993006	1	1
718103001	1	1
717772000	1	1
3700004	1	1
1149121002	1	1
784340000	1	1
700467001	1	1
276249004	1	1
719574007	1	1
417682001	1	1
783012006	1	1
416846000	1	1
816948009	1	1
781641005	1	1
770941005	1	1
736783005	1	1
1144525001	1	1
770630005	1	1
724145007	1	1
764624003	1	1
443401000124105	1	1
699591004	2	1
773770009	1	1
722494001	1	1
774102003	1	1
720979002	1	1
773587008	1	1
773993008	1	1
783735004	1	1
783007005	1	1
770591002	1	1
715343000	1	1
708637002	1	1
783201001	1	1
720940008	1	1
722431007	1	1
724015007	1	1
715769008	1	1
718188007	1	1
719172003	1	1
785909009	1	1
373068000	1	1
717231003	1	1
216800002	1	1
1149460006	1	1
421961002	7	5
412787009	1	1
443501000124106	1	1
720467005	1	1
721083007	1	1
765977002	1	1
782753000	1	1
722859001	3	2
71432007	1	1
816954005	1	1
764723001	1	1
719432000	1	1
713849005	1	1
774080007	1	1
235865005	1	1
724350009	1	1
370481004	3	1
419894000	1	1
763772002	1	1
780822000	1	1
713879003	1	1
725434009	1	1
440431000124105	1	1
773583007	1	1
127491008	1	1
733044009	1	1
715859008	1	1
788926002	1	1
719407002	1	1
719097002	1	1
719408007	1	1
107724000	2	1
399229004	1	1
890355004	1	1
719213009	1	1
1144801004	1	1
897137000	2	1
1148636008	1	1
47538007	3	2
763375003	1	1
719252002	1	1
733472005	1	1
766935007	1	1
723577006	1	1
773557002	1	1
770940006	1	1
717964007	1	1
418813001	1	1
897277000	1	1
733967009	1	1
778060000	1	1
777998000	1	1
719163006	1	1
765221009	1	1
782951006	1	1
16857009	1	1
773493002	1	1
63561003	1	1
284808000	1	1
719575008	1	1
704319004	1	1
720519003	1	1
719892007	1	1
715752006	1	1
764857004	1	1
443211000124107	1	1
783180007	1	1
438021000124101	3	2
271594007	2	1
420243009	1	1
174000	1	1
868236009	1	1
718576001	1	1
716278005	1	1
783198006	1	1
894143006	1	1
844585000	1	1
718220008	1	1
437501000124104	3	2
312901001	1	1
716664003	1	1
1156255004	1	1
733511006	3	2
1148708005	1	1
763345008	1	1
763274002	1	1
766824003	1	1
778051008	1	1
871879005	1	1
704324001	1	1
783182004	1	1
733502006	1	1
715983001	1	1
445754005	1	1
764860006	1	1
775909002	1	1
783199003	1	1
440971000124104	1	1
119247004	2	1
768934004	1	1
787408008	1	1
818989004	1	1
720463009	1	1
734173003	1	1
716096005	1	1
782670003	1	1
724170007	1	1
773425000	1	1
734545008	7	5
788661006	1	1
766933000	1	1
711499009	1	1
722051004	1	1
700463002	1	1
716665002	1	1
79095000	2	1
54036001	1	1
789670004	1	1
719274008	1	1
763456009	1	1
1781000119107	1	1
719158007	1	1
1148968002	1	1
890165000	1	1
735387004	1	1
3961000119101	1	1
1003429001	1	1
708667008	1	1
412726003	1	1
108051000119101	1	1
770945001	1	1
771146007	1	1
816161008	1	1
764440006	1	1
763534009	1	1
238033007	1	1
710952002	1	1
715483009	1	1
724099000	1	1
84757009	71	68
770916003	1	1
710094002	1	1
770666006	1	1
725903003	1	1
716338001	1	1
62950007	2	1
782940006	1	1
719512003	1	1
764779004	3	2
84229001	4	3
768677000	1	1
771439009	1	1
1003632009	1	1
447121004	1	1
438811000124103	1	1
361348008	1	1
715673002	1	1
716110002	1	1
703132007	1	1
722375007	1	1
123976001	7	6
778010006	1	1
76248009	1	1
28861008	2	1
715218009	1	1
719951002	1	1
763133008	1	1
766934006	1	1
372452007	2	1
54455007	1	1
878789008	1	1
436671000124107	1	1
768733004	1	1
16982005	1	1
716721003	1	1
723309006	1	1
773415005	1	1
720521008	1	1
719045009	1	1
770558006	1	1
418506006	1	1
773331001	1	1
444641000124106	1	1
13791008	1	1
890391006	1	1
717765001	1	1
718227006	1	1
773610007	1	1
437741000124107	1	1
716741008	1	1
783172000	1	1
438131000124102	1	1
897146006	12	11
86997002	1	1
714249007	1	1
704347000	1	1
871868000	2	1
26629001	2	1
119266004	2	1
717044000	1	1
774071007	1	1
763895001	1	1
35328001	1	1
726608002	1	1
717633007	1	1
702446006	1	1
39250009	1	1
58751000052109	1	1
233765002	1	1
122545008	2	1
765746008	1	1
34810001	1	1
72696002	1	1
718465002	1	1
765140006	1	1
733068001	1	1
710713001	1	1
725463007	1	1
69911009	1	1
719975002	1	1
437831000124105	1	1
789313002	1	1
723334006	1	1
783703004	1	1
769159002	1	1
714477000	1	1
2504000	1	1
723406000	1	1
763347000	1	1
770686005	1	1
720456009	1	1
783551005	1	1
721977007	1	1
765146000	1	1
716378008	1	1
764500002	1	1
890180006	1	1
787447005	19	18
765093009	1	1
717334008	1	1
773738009	1	1
890104004	1	1
737037004	1	1
257383002	1	1
372472002	1	1
46809006	1	1
420768007	1	1
397678008	1	1
782771007	1	1
773733000	1	1
763460007	1	1
128489003	1	1
717192003	1	1
725033008	1	1
784006008	11	10
773728004	1	1
890439005	1	1
290002008	1	1
768816002	1	1
778061001	1	1
702320006	1	1
5981000124109	1	1
1144291000	1	1
1148722005	1	1
715905006	1	1
112928008	1	1
716243005	1	1
334711000119109	2	1
789156003	5	4
782941005	1	1
442931000124103	2	1
733083006	1	1
709079002	3	2
739003001	1	1
716743006	1	1
782675008	1	1
724177005	1	1
773647007	1	1
1148988003	1	1
789331001	1	1
26386000	4	1
418418000	3	2
35691006	1	1
771177009	1	1
1141934002	1	1
119248009	1	1
773404000	1	1
60476005	2	1
66391000	1	1
715560009	1	1
437551000124100	3	2
770787005	1	1
717186009	1	1
718770005	1	1
711102002	1	1
720852000	1	1
783138008	1	1
766983005	1	1
768825008	1	1
720417003	1	1
417663005	1	1
127559009	1	1
399109006	1	1
90991008	1	1
719041000	1	1
716592003	1	1
771145006	1	1
260674002	1	1
3137001	1	1
128180007	1	1
715768000	1	1
770785002	1	1
246464006	33	28
719650004	1	1
765216006	1	1
783159001	1	1
1155690008	1	1
774206008	1	1
1156473003	1	1
717181004	1	1
726610000	1	1
865941005	2	1
717041008	1	1
785308008	1	1
55080005	1	1
723403008	1	1
716231009	1	1
703182002	1	1
443161000124103	1	1
783065004	1	1
717225001	1	1
722454003	1	1
709984005	1	1
733082001	1	1
712877007	1	1
12894003	2	1
723998001	1	1
441941000124104	1	1
720633009	1	1
718634003	1	1
737051004	6	2
122501008	3	2
789674008	4	3
725079003	1	1
1148967007	1	1
715924009	1	1
718909001	1	1
722212004	1	1
770409009	1	1
716766007	1	1
1153595005	1	1
252512005	2	1
789305003	1	1
709849005	1	1
818950005	2	1
764734003	1	1
764815005	1	1
720977000	1	1
716682000	1	1
703234002	1	1
720754008	1	1
58976002	3	2
704491001	1	1
718603002	1	1
128115005	1	1
763775000	1	1
782739000	1	1
716189005	1	1
417380003	1	1
707858008	1	1
720574003	1	1
770725000	1	1
773230003	1	1
715755008	1	1
699828007	1	1
773405004	1	1
897140000	1	1
719394002	1	1
774160008	1	1
723508002	1	1
1142139005	1	1
1145190002	1	1
718602007	1	1
9134004	1	1
818952002	1	1
763215008	1	1
734029004	1	1
710072005	1	1
724140002	1	1
782769007	1	1
717826009	1	1
770655004	1	1
770566002	1	1
702788003	1	1
1141935001	1	1
703542000	1	1
1148639001	1	1
719766008	1	1
1144298006	1	1
763803004	1	1
721010003	1	1
34109009	1	1
733605002	1	1
771472009	1	1
782915004	1	1
771223000	1	1
773699009	1	1
722284009	1	1
122972007	3	2
784373007	1	1
770791000	1	1
763861000	1	1
717975006	1	1
766715000	1	1
1148499005	1	1
709988008	1	1
438041000124108	3	2
719204007	1	1
5801000124106	1	1
235719002	2	1
702364003	1	1
441311000124102	1	1
196273001	1	1
1003464005	1	1
782744007	1	1
89461002	1	1
717269008	1	1
709999005	1	1
733086003	1	1
763348005	1	1
774069007	1	1
773397000	1	1
764739008	1	1
716249009	1	1
438231000124108	1	1
703985001	1	1
440541000124104	1	1
726702005	1	1
436881000124109	5	2
408678008	1	1
763535005	6	5
450451007	1	1
725096002	1	1
715428003	1	1
715655000	1	1
773282001	1	1
436731000124100	1	1
719760002	1	1
1144599004	1	1
440501000124101	1	1
785724007	1	1
700242002	1	1
836342006	1	1
102706005	1	1
716747007	1	1
719017003	1	1
1148644008	1	1
416451003	1	1
789098002	1	1
11763009	1	1
274864009	3	2
789347004	1	1
787175002	1	1
441774005	1	1
721974000	1	1
90412006	1	1
784348007	1	1
819976002	1	1
897143003	6	2
819020007	4	3
784576003	1	1
763134002	1	1
715470008	1	1
721225009	1	1
770683002	1	1
716697002	1	1
718849008	1	1
418586008	1	1
440921000124100	1	1
437611000124100	3	2
890103005	1	1
897558001	1	1
717911008	1	1
2704003	57	53
708700001	1	1
766717008	1	1
736679003	1	1
3324009	1	1
782787005	5	4
764463001	1	1
715482004	1	1
718216009	1	1
14512007	1	1
723336008	1	1
716724006	1	1
719009006	1	1
733034007	1	1
130091000119103	2	1
896795009	1	1
3791008	1	1
1153596006	1	1
722077007	1	1
719276005	1	1
879878004	1	1
890158008	1	1
725036000	1	1
5931000124108	1	1
419762003	1	1
788928001	1	1
707193004	1	1
880118009	1	1
716650003	1	1
52250000	1	1
1148978004	1	1
718847005	1	1
71388002	661	82
721223002	1	1
719689005	1	1
708577002	1	1
440671000124106	1	1
445165008	1	1
763317002	1	1
699536006	1	1
430975009	1	1
734022008	1	1
725104005	1	1
778022009	1	1
778000002	1	1
717336005	1	1
703192005	2	1
372471009	1	1
719661007	1	1
154091000119106	25	21
719377004	1	1
78667006	1	1
722002002	1	1
47975008	1	1
282785008	1	1
713148004	1	1
23680005	3	1
735389001	1	1
704325000	1	1
1153602009	1	1
715339004	1	1
721090002	1	1
441491000124102	1	1
732290004	1	1
773422002	1	1
721978002	1	1
708127008	1	1
717266001	1	1
763529005	1	1
771448004	1	1
718215008	1	1
14509009	1	1
417439009	1	1
24878005	1	1
437201000124101	3	2
721649001	1	1
711173006	1	1
435781000124109	39	18
718551002	1	1
441371000124106	1	1
732945000	1	1
715491000	1	1
710099007	1	1
868237000	1	1
84157002	1	1
35764002	1	1
403767009	1	1
767574004	1	1
770682007	1	1
880116008	1	1
763868006	1	1
720468000	1	1
764859001	1	1
441611000124109	1	1
703955006	1	1
416603001	2	1
416160000	1	1
717255008	1	1
765748009	1	1
65801008	18	15
113349007	1	1
771263004	1	1
787412002	1	1
770603000	1	1
1144657006	1	1
770627003	1	1
1003461002	1	1
1156413005	1	1
715487005	1	1
367489004	1	1
771338002	1	1
444511005	1	1
773406003	1	1
732961003	1	1
724208006	1	1
87193006	1	1
1148823006	1	1
785894008	1	1
399301000	1	1
1156472008	1	1
782754006	1	1
716092007	1	1
11140008	1	1
720851007	1	1
443271000124103	1	1
78141002	1	1
129561000119108	2	1
776416004	1	1
437681000124107	1	1
715900001	1	1
718060003	1	1
763615003	1	1
771262009	1	1
763455008	1	1
770719004	1	1
437141000124108	1	1
723993005	1	1
722302009	1	1
441471000124103	1	1
5880005	14	9
113076002	1	1
763127004	1	1
720981000	1	1
772129007	1	1
771267003	1	1
763351003	1	1
440981000124101	1	1
48333001	2	1
771458000	1	1
722139003	1	1
766704005	1	1
22053006	1	1
724284005	1	1
54485002	13	9
736415005	1	1
410614008	12	4
722089009	1	1
786039009	1	1
95692001	1	1
720639008	1	1
719861005	1	1
1142136003	1	1
1003427004	1	1
441451000124108	1	1
346802004	1	1
720957007	1	1
715733000	1	1
93557001	1	1
724356003	1	1
722035007	1	1
609495006	1	1
61594008	1	1
442272006	1	1
700507000	1	1
723594008	2	1
417255000	3	2
773626008	1	1
241955009	3	2
816172003	1	1
94684003	1	1
718880003	1	1
19484001	1	1
702561005	1	1
766052008	1	1
441481000124100	1	1
773426004	1	1
726703000	1	1
789392006	1	1
765485000	1	1
725910009	1	1
723994004	1	1
732956000	1	1
782830007	1	1
1003387003	1	1
784343003	1	1
782807001	2	1
609396006	1	1
264068005	1	1
783554002	1	1
710087000	1	1
713836000	1	1
771300001	1	1
725028009	1	1
711174000	1	1
702976005	1	1
1156412000	1	1
765045003	1	1
773547003	1	1
720975008	1	1
1149449002	1	1
715819005	1	1
441001000124102	1	1
768667002	1	1
385286003	1	1
816950001	1	1
721887007	1	1
762949000	1	1
709987003	3	2
715318006	1	1
702316007	2	1
716868003	1	1
417578005	3	2
765143008	1	1
3921000175107	1	1
763312008	1	1
704676006	1	1
442911000124109	3	2
441915005	1	1
816159004	2	1
716098006	2	1
723236006	1	1
789523005	1	1
719016007	1	1
789389007	1	1
57551006	1	1
723453002	1	1
720817008	1	1
419396008	37	19
773649005	1	1
440451000124103	1	1
725030006	1	1
719815005	1	1
782155003	1	1
418730005	1	1
782882009	1	1
782679002	1	1
10547007	3	2
722380003	1	1
716232002	1	1
819018009	1	1
437561000124103	3	2
722206009	1	1
783146009	1	1
723409007	1	1
1155717003	1	1
716863007	1	1
716586009	1	1
774159003	1	1
733626002	1	1
722107005	1	1
443341000124104	1	1
718226002	1	1
272379006	9	7
732259001	1	1
764736001	1	1
773274001	1	1
51289009	24	16
844584001	1	1
240407009	1	1
31248004	3	2
439121000124106	1	1
860732006	2	1
773994002	1	1
715429006	1	1
720495005	1	1
792904006	1	1
782949007	1	1
719825000	1	1
765170001	1	1
768732009	1	1
722475006	1	1
418892005	1	1
764845008	1	1
437411000124102	1	1
441951000124102	1	1
723611008	1	1
85595005	1	1
440411000124104	6	5
447964005	22	3
719210007	1	1
734019006	1	1
723365002	1	1
789342005	1	1
763311001	1	1
716531008	1	1
783181006	1	1
774082004	1	1
388393002	2	1
372473007	4	3
773414009	1	1
771147003	1	1
722065002	1	1
783702009	1	1
768946000	4	3
763314009	1	1
768839008	1	1
400047006	1	1
22439003	1	1
733072002	1	1
1144668006	1	1
733604003	1	1
724282009	1	1
738526005	1	1
718089001	1	1
764519007	1	1
441341000124103	1	1
715864007	1	1
789128008	1	1
819977006	1	1
764627005	1	1
278512001	1	1
284821007	1	1
718212006	1	1
721232000	1	1
419474003	1	1
783770002	1	1
723578001	1	1
723074006	1	1
1142129004	4	3
765188009	1	1
770947009	1	1
783176002	1	1
726670008	1	1
722075004	1	1
724229002	1	1
766753005	1	1
717813005	1	1
764628000	1	1
122504000	1	1
724206005	1	1
700050004	1	1
102705009	1	1
1003948007	1	1
1142128007	3	2
764994007	1	1
896808006	1	1
719305006	1	1
443411000124108	6	3
773621003	1	1
75180006	1	1
1525831000004108	1	1
783161005	1	1
421079001	1	1
721235003	1	1
763722004	1	1
1141822009	2	1
738985004	2	1
717773005	1	1
734016004	1	1
836413004	1	1
733603009	1	1
890395002	1	1
711101009	28	27
723819007	1	1
733455003	1	1
716023007	1	1
723824005	1	1
768815003	5	4
733601006	1	1
770604006	1	1
719517009	1	1
874868004	1	1
302284007	1	1
770405003	1	1
783257005	1	1
122490001	4	3
715800000	1	1
416132002	1	1
725098001	1	1
716855006	1	1
705000008	1	1
1148758003	64	63
766813000	1	1
716279002	1	1
784381008	1	1
890368007	1	1
719205008	1	1
718761007	1	1
766710005	1	1
783089006	1	1
765187004	1	1
770784003	1	1
789332008	1	1
778009001	1	1
722003007	1	1
720598005	1	1
107733003	226	28
438871000124107	1	1
719304005	1	1
789341003	1	1
17374005	1	1
720986005	1	1
232373003	1	1
718194004	1	1
766045006	1	1
770720005	1	1
894133008	1	1
698055008	1	1
770594005	1	1
782913006	1	1
417070009	1	1
768929003	1	1
443781000124109	1	1
723383005	1	1
45890007	1	1
440891000124106	1	1
771271000	1	1
346313005	1	1
715439000	1	1
719988004	1	1
773556006	1	1
773990006	1	1
419601003	1	1
716090004	1	1
418617002	1	1
715317001	1	1
766765009	1	1
444073006	1	1
732959007	1	1
723570008	1	1
1145000005	1	1
17761000119109	1	1
768832004	1	1
710093008	1	1
1148497007	1	1
442335003	1	1
75478009	6	2
16992002	30	9
722055008	1	1
192958009	1	1
764943000	1	1
1148989006	1	1
716305005	1	1
719468005	1	1
871561002	1	1
766879006	1	1
778008009	1	1
716700003	1	1
724279004	1	1
724226009	1	1
26445008	1	1
33344008	1	1
722458000	1	1
733454004	1	1
721119004	1	1
717812000	1	1
785900008	1	1
770903003	1	1
57185003	3	2
419684008	1	1
763821001	1	1
76729009	1	1
723593002	3	1
782946000	1	1
1149369006	1	1
56757003	3	2
766053003	1	1
709997007	1	1
717157006	1	1
445967004	1	1
719202006	1	1
712825001	1	1
437011000124105	3	2
766722008	1	1
109788007	1	1
721084001	1	1
716022002	1	1
773501006	1	1
80917008	1	1
720466001	1	1
763827002	1	1
718771009	1	1
372474001	2	1
765091006	1	1
739004007	1	1
724098008	1	1
438891000124108	1	1
789246006	1	1
890141003	1	1
773306002	1	1
127701000119109	1	1
771238004	1	1
722385008	1	1
1145192005	1	1
718211004	1	1
715795005	13	12
418114005	1	1
771510006	1	1
711462009	1	1
718066009	1	1
448491004	3	2
785302009	1	1
720612000	1	1
770564004	1	1
758673004	1	1
773623000	1	1
725464001	1	1
10012005	1	1
783059004	1	1
111304003	1	1
723404002	1	1
438961000124108	1	1
771081007	1	1
774155009	1	1
409063005	16	1
416069001	1	1
770668007	1	1
29923002	1	1
197299004	1	1
770948004	1	1
715472000	1	1
829973009	1	1
783094006	1	1
22577007	1	1
783143001	1	1
715988005	1	1
1153604005	1	1
718604008	1	1
3789000	1	1
719813003	1	1
445000002	1	1
766051001	1	1
719450007	1	1
719768009	1	1
764998005	1	1
441971000124107	1	1
443231000124101	1	1
416489008	1	1
704997005	1	1
715907003	1	1
764512003	1	1
719762005	1	1
439458000	1	1
81678004	1	1
118659004	1	1
723827003	1	1
5881000124102	1	1
442511009	1	1
717014003	1	1
718558008	1	1
737007008	1	1
773281008	1	1
726607007	1	1
107727007	8	6
29836001	1	1
14070001000004105	1	1
726628003	1	1
75971007	1	1
771479000	1	1
706907002	1	1
764869007	1	1
703039001	1	1
719155005	1	1
773673002	1	1
707860005	1	1
720575002	1	1
435801000124108	4	3
714093000	1	1
8611000119100	3	2
770726004	1	1
715528001	1	1
5861000124107	1	1
704368004	1	1
713768003	1	1
64269007	1	1
718575002	1	1
113343008	59	48
127796002	1	1
698965000	57	29
90968009	1	1
122464004	1	1
8595004	1	1
417205008	3	2
715807002	1	1
725462002	1	1
896798006	1	1
789351002	1	1
721207002	1	1
773495009	1	1
85461000119106	1	1
711040002	1	1
765484001	1	1
708024004	2	1
816958008	1	1
771240009	1	1
722187008	1	1
719824001	1	1
773991005	1	1
720414005	1	1
897489000	1	1
792870002	1	1
720579008	1	1
733028000	1	1
763669001	1	1
447351004	1	1
25201000119104	2	1
417712000	1	1
712756001	1	1
737594003	1	1
399214001	1	1
788927006	1	1
1156403002	1	1
1003635006	1	1
372453002	1	1
770670003	1	1
770592009	1	1
419874009	1	1
703186004	1	1
49412003	1	1
255482005	1	1
773989002	1	1
1144293002	1	1
784399000	1	1
770432008	1	1
782719004	1	1
898143001	1	1
771988004	1	1
716588005	1	1
775908005	1	1
770601003	1	1
710100004	1	1
725042001	1	1
738906000	1	1
9631000119102	1	1
1003991002	1	1
733029008	1	1
1144295009	1	1
230648001	1	1
768834003	1	1
763867001	1	1
5791000124105	1	1
702321005	1	1
411123000	1	1
445769006	1	1
764811001	1	1
112695004	2	1
1142131008	1	1
770793002	1	1
1003623007	1	1
778005007	1	1
788655008	1	1
254291000	5	4
418176003	1	1
718688008	1	1
770760006	1	1
441251000124107	1	1
725587007	1	1
717407006	1	1
771334000	1	1
733492003	1	1
1148496003	1	1
437651000124104	1	1
723497003	1	1
717259002	1	1
1144524002	1	1
441969007	1	1
385194003	1	1
723995003	1	1
723454008	1	1
429817007	1	1
1149447000	1	1
4065008	1	1
771072001	1	1
715415005	1	1
440811000124101	1	1
1148501002	1	1
715722003	1	1
816956007	1	1
372451000	1	1
1145403003	15	14
715430001	1	1
42842009	1	1
440421000124107	8	7
722108000	1	1
732950006	1	1
109817001	1	1
437031000124104	1	1
783160006	1	1
77066003	1	1
778029000	1	1
15964901000119107	1	1
763367009	1	1
716099003	1	1
771149000	1	1
443021000124108	2	1
427331009	1	1
716105001	1	1
719516000	1	1
1156707000	2	1
768962006	1	1
722280000	1	1
441271000124102	1	1
721975004	1	1
768935003	1	1
719771001	1	1
127492001	1	1
783178001	1	1
699663000	1	1
770939009	1	1
763794005	1	1
718067000	1	1
818990008	1	1
764447009	1	1
764995008	1	1
388168008	4	3
870401000004107	1	1
241741007	1	1
707195006	1	1
720742008	1	1
715437003	1	1
770755007	1	1
724274009	1	1
763369007	1	1
472963003	4	2
417021005	1	1
228643004	1	1
763825005	1	1
733111000	1	1
1142132001	1	1
773305003	1	1
783090002	1	1
763064007	1	1
739002006	1	1
718681002	1	1
722019000	1	1
770629000	1	1
43486001	1	1
62834003	1	1
890123006	1	1
783097004	1	1
74928006	1	1
1648002	1	1
771302009	1	1
404820008	1	1
771474005	1	1
765206003	1	1
721220004	1	1
766240006	1	1
387651008	1	1
737043002	1	1
720954000	1	1
70871006	1	1
719817002	1	1
879876000	1	1
719816006	1	1
783155007	1	1
784349004	1	1
783789002	1	1
897136009	1	1
721072003	1	1
1144658001	1	1
715788001	1	1
416424001	1	1
719584008	1	1
724139004	1	1
700211007	1	1
720567008	1	1
718911005	1	1
1148646005	1	1
716107009	1	1
1144286001	1	1
445169002	1	1
715465001	1	1
435611000124105	1	1
783246000	1	1
720429007	1	1
718210003	1	1
764629008	1	1
725911008	1	1
723825006	1	1
1149444007	1	1
247592009	1	1
37161004	1	1
442336002	1	1
713351000	1	1
840301002	1	1
778063003	1	1
13559005	1	1
399306005	5	4
725058003	1	1
699964009	1	1
890250006	1	1
444551000124107	1	1
782801000	1	1
722149000	1	1
723576002	1	1
785306007	1	1
721840000	1	1
703194006	1	1
789411001	1	1
247588002	1	1
722120008	1	1
738904002	1	1
780844005	1	1
711458003	1	1
1142137007	1	1
699854004	1	1
733064004	1	1
734026006	1	1
715441004	1	1
719165004	1	1
723440000	1	1
189814006	1	1
609371008	1	1
710961002	1	1
706908007	1	1
717821004	1	1
733085004	1	1
609370009	1	1
473085002	1	1
871885003	6	5
609404002	1	1
416820004	1	1
715215007	1	1
399104001	1	1
719844007	1	1
733031004	1	1
721015008	1	1
1155729007	1	1
1156419009	1	1
765489006	1	1
1141986006	1	1
441201000124108	1	1
861000124109	1	1
720636001	1	1
1156410008	1	1
715644000	1	1
719722006	1	1
789525003	1	1
716180009	1	1
446105004	1	1
8889005	1	1
766883006	1	1
766928004	1	1
782902008	8	4
890146008	1	1
70730006	1	1
716773002	1	1
717859007	1	1
783256001	1	1
416689004	1	1
440351000124105	1	1
609388001	1	1
764950001	1	1
725157006	1	1
119283008	1	1
715824008	1	1
716170005	1	1
230314007	1	1
717232005	1	1
442534000	1	1
764376008	1	1
733419006	1	1
706886007	1	1
771301002	1	1
1003837001	1	1
439397009	1	1
122465003	6	5
703156006	1	1
715902009	1	1
715990006	1	1
771236000	1	1
718851007	1	1
767499000	1	1
713042000	1	1
726542003	1	1
417950001	7	4
763352005	1	1
717977003	1	1
783771003	1	1
712555000	1	1
709002005	1	1
764989007	1	1
719156006	1	1
103286000	1	1
719138006	1	1
784393004	1	1
176028006	1	1
1142166005	1	1
789104006	1	1
441927008	1	1
717335009	1	1
711025004	1	1
773284000	1	1
710896001	1	1
719659003	1	1
768819009	1	1
766874001	1	1
763666008	1	1
719980006	1	1
710980000	1	1
115537005	1	1
771266007	1	1
767497003	3	2
763279007	1	1
782756008	1	1
67551009	1	1
609327009	1	1
717331000	1	1
719836007	1	1
880109007	1	1
734990008	1	1
60962000	1	1
784350004	1	1
20348002	1	1
446442000	1	1
715412008	1	1
785726009	1	1
719834005	1	1
718716008	1	1
706892001	1	1
763407008	1	1
723237002	1	1
725140007	1	1
439071000124106	1	1
715421009	1	1
763714006	1	1
440551000124102	1	1
715523005	1	1
764961009	1	1
417704008	1	1
437591000124106	3	2
719518004	1	1
427565006	1	1
715723008	1	1
125093001	1	1
58759008	1	1
715825009	1	1
782725000	1	1
441661000124107	1	1
778073001	1	1
733071009	1	1
778048001	1	1
723455009	1	1
723575003	1	1
734547000	1	1
437251000124102	3	2
112629002	1	1
782822006	1	1
829974003	1	1
719843001	1	1
285403007	1	1
118627006	1	1
1003622002	1	1
78817002	7	3
785722006	1	1
770567006	1	1
418091004	1	1
721873007	1	1
119250001	2	1
715464002	1	1
717907002	1	1
437111000124109	3	2
709612002	1	1
726704006	1	1
7361000175106	1	1
765196004	1	1
128419007	2	1
441021000124107	1	1
773581009	1	1
774148007	1	1
91739007	1	1
718905007	1	1
716649003	1	1
719665003	1	1
771339005	1	1
719282008	1	1
722432000	1	1
718446005	1	1
775907000	1	1
1064711000000108	1	1
770631009	1	1
894129001	1	1
719597005	1	1
720987001	1	1
1148640004	1	1
64305001	1	1
441868000	1	1
718715007	1	1
128533009	1	1
784370005	1	1
718059008	1	1
718099006	1	1
865942003	1	1
12130007	2	1
784377008	1	1
787410005	1	1
193116003	1	1
723366001	1	1
1148987008	1	1
384709000	1	1
763533003	1	1
444621000124104	1	1
702315006	1	1
783622001	1	1
441831000124104	1	1
716723000	1	1
783255002	1	1
720570007	1	1
721093000	1	1
896811007	1	1
713744006	1	1
1149448005	1	1
716131004	1	1
765487008	1	1
723580007	1	1
50223000	1	1
718679004	1	1
771515001	1	1
715391004	2	1
716337006	1	1
783550006	1	1
722132007	1	1
765212008	1	1
399267001	1	1
372449004	3	2
715727009	1	1
721076000	1	1
719839000	1	1
768820003	3	2
774210006	1	1
399266005	1	1
782912001	1	1
713411004	1	1
440621000124105	1	1
723384004	1	1
715820004	1	1
833330006	1	1
773670004	1	1
894136000	1	1
725166005	1	1
770909004	1	1
763830009	1	1
704658004	1	1
890467001	1	1
125097000	1	1
926354004	1	1
719845008	1	1
763891005	1	1
733065003	1	1
702318008	1	1
879877009	1	1
56242006	2	1
702809001	1	1
15367004	1	1
818992000	1	1
738987007	1	1
783618006	1	1
724176001	1	1
445118002	1	1
765741003	1	1
722763000	1	1
715669000	1	1
441881000124103	1	1
783005002	1	1
771187008	1	1
722078002	1	1
740666001	1	1
716200002	1	1
840645005	1	1
715787006	1	1
773423007	1	1
715724002	1	1
417163006	76	62
734017008	1	1
770944002	1	1
767498008	1	1
827172005	1	1
84261000119106	1	1
763773007	1	1
725137007	1	1
725164008	3	2
720600004	1	1
720749004	1	1
717052002	1	1
1078229009	1	1
243185007	3	2
715862006	1	1
722294004	1	1
723449004	1	1
764959000	1	1
783058007	1	1
704659007	2	1
717048002	1	1
722285005	1	1
783787000	1	1
720464003	1	1
435671000124101	2	1
715338007	1	1
719102004	1	1
782772000	1	1
416930009	1	1
736649005	1	1
440761000124108	1	1
771476007	1	1
56409008	1	1
763353000	1	1
716998009	1	1
443771000124106	8	3
437601000124103	1	1
771181009	1	1
1149442006	1	1
34206005	1	1
702361006	1	1
788664003	1	1
738952007	1	1
699683004	1	1
732968009	1	1
440481000124106	1	1
710004005	1	1
717050005	1	1
46947000	1	1
719989007	1	1
763528002	2	1
716233007	1	1
399062002	1	1
1144800003	3	2
440901000124105	1	1
763748007	1	1
766820007	1	1
764525006	1	1
774150004	1	1
732252005	1	1
770665005	1	1
716994006	1	1
732955001	1	1
725411000	1	1
764622004	1	1
880110002	1	1
42965003	1	1
1003607007	1	1
399086000	1	1
782798006	1	1
890472005	1	1
443421000124100	2	1
725035001	1	1
38795005	2	1
771305006	1	1
1055210001	5	4
783717008	1	1
724096007	1	1
122499000	1	1
385055001	1	1
714150002	1	1
1155913007	1	1
765758008	1	1
733067006	1	1
732261005	1	1
723828008	1	1
5399005	1	1
897490009	1	1
890473000	1	1
783773000	1	1
440491000124109	1	1
716859000	1	1
725291001	1	1
721888002	1	1
763792009	3	2
715801001	1	1
1149231004	1	1
65289004	1	1
738943003	1	1
445771006	1	1
65690001	1	1
435811000124106	40	13
30866005	1	1
418162004	1	1
53892006	1	1
768470007	1	1
890166004	1	1
698247007	28	14
14560005	1	1
763834000	1	1
783706007	1	1
1156530009	1	1
768939009	1	1
788665002	1	1
1141932003	1	1
763213001	1	1
704998000	1	1
732246009	1	1
703401001	1	1
416521007	1	1
1156409003	1	1
128177006	1	1
439021000124105	1	1
782917007	1	1
399093001	1	1
763691008	1	1
763770005	1	1
715982006	1	1
715625007	1	1
718774001	1	1
708586007	1	1
770759001	1	1
719378009	1	1
713149007	1	1
782773005	1	1
770593004	1	1
782883004	1	1
788651004	1	1
896799003	4	3
1149450002	1	1
443061000124102	1	1
785891000	1	1
446033002	1	1
773395008	1	1
718845002	1	1
372466002	1	1
734024009	1	1
441541000124107	3	2
782829002	1	1
363162000	1	1
719427001	1	1
715431002	1	1
714107007	1	1
773346008	1	1
733622000	1	1
399048009	1	1
718483005	1	1
715654001	1	1
437301000124109	1	1
15071000119107	1	1
437121000124101	1	1
609405001	3	2
1144666005	1	1
95794005	1	1
725290000	1	1
715471007	1	1
691471000119109	1	1
441391000124107	1	1
716862002	1	1
442441000124101	1	1
771073006	1	1
718910006	1	1
3430008	1	1
874867009	1	1
718061004	1	1
716869006	1	1
435581000124102	16	10
161006	2	1
733520002	1	1
723992000	1	1
714280002	1	1
725432008	1	1
159004009	1	1
707147002	2	1
53224005	1	1
783200000	1	1
733038005	1	1
1004109000	1	1
783099001	1	1
441571000124104	1	1
725390002	1	1
722429003	1	1
720601000	1	1
718230004	1	1
703764006	1	1
708576006	1	1
184034005	1	1
438001000124106	3	2
1153599004	1	1
721979005	1	1
782674007	1	1
72607000	3	2
778046002	1	1
926358001	1	1
1142167001	1	1
766978002	1	1
719808002	1	1
443031000124106	6	5
715568002	1	1
118630004	2	1
405267007	1	1
782727008	1	1
421890007	1	1
723443003	1	1
418877009	1	1
720976009	1	1
722091001	1	1
718772002	1	1
763309005	1	1
441281000124104	1	1
720573009	1	1
778002005	1	1
880102003	1	1
716106000	1	1
27941003	1	1
435751000124101	1	1
765328000	1	1
724144006	1	1
25694009	1	1
770758009	1	1
716670009	1	1
723499000	1	1
787446001	16	15
721009008	1	1
68305005	1	1
37931006	1	1
724039002	1	1
772130002	1	1
418204005	1	1
718124006	1	1
722127006	1	1
880119001	1	1
721584005	1	1
717267005	1	1
773750003	1	1
732930007	1	1
721099001	1	1
764696007	1	1
441561000124106	1	1
787172004	1	1
720861000	1	1
721221000	1	1
717945001	1	1
720950009	1	1
778006008	1	1
719104003	1	1
733113002	1	1
715286003	1	1
715829003	1	1
720812002	1	1
726709001	1	1
703801008	1	1
435641000124109	19	18
47135001	15	12
437281000124105	1	1
429885007	1	1
714792003	1	1
437851000124103	1	1
773771008	1	1
59380008	1	1
123471000119103	1	1
819953000	1	1
722125003	1	1
827115000	1	1
763110007	1	1
720820000	1	1
772126000	1	1
773302000	1	1
733452000	1	1
716860005	1	1
733467001	1	1
722282008	1	1
118629009	3	2
713848002	1	1
12265261000119102	1	1
420201002	2	1
726032008	1	1
441841000124109	1	1
70751009	3	2
763280005	1	1
436901000124106	2	1
48176007	40	33
783142006	1	1
719475006	1	1
444611000124107	1	1
707276009	1	1
818982008	52	5
896807001	1	1
783736003	1	1
894137009	1	1
713852002	1	1
722292000	1	1
716006003	1	1
763665007	1	1
422259002	1	1
418987007	4	2
765137006	1	1
782792007	1	1
787037000	1	1
17630002	1	1
75506009	1	1
716585008	1	1
385174007	1	1
442463000	1	1
715794009	1	1
715651009	1	1
726031001	1	1
437781000124101	1	1
68688001	1	1
717254007	1	1
253017000	1	1
785809005	1	1
723551003	1	1
438921000124102	1	1
718751000	1	1
773494008	1	1
723332005	1	1
64597002	16	11
880113000	1	1
778067002	1	1
239723003	2	1
722060007	1	1
404818005	1	1
738989005	1	1
725101002	1	1
42786005	1	1
703254001	1	1
734544007	2	1
770943008	1	1
31716004	1	1
724137002	1	1
719521002	1	1
5781000124107	1	1
715197005	1	1
770431001	1	1
764498003	1	1
363787002	509	347
768730001	1	1
416210002	1	1
421288004	1	1
715484003	1	1
897135008	1	1
442370001	1	1
879870006	2	1
719405005	1	1
284815008	1	1
702319000	1	1
770410004	1	1
399371001	1	1
783091003	1	1
723732007	1	1
443011000124100	1	1
789382003	1	1
122489005	1	1
418722009	1	1
1010685005	1	1
86064000	1	1
1010196001	1	1
733084000	1	1
720515009	1	1
416513001	1	1
709667001	1	1
444561000124109	1	1
435771000124106	1	1
722106001	1	1
718574003	1	1
720816004	1	1
699589007	32	15
783723003	1	1
718122005	1	1
717053007	1	1
442991000124104	4	2
766817004	1	1
719018008	1	1
1149441004	1	1
773421009	1	1
836358009	1	1
372462000	1	1
734275002	1	1
766716004	1	1
422186009	1	1
726619004	1	1
721297008	1	1
879937000	1	1
438051000124105	3	2
778026007	1	1
445340000	1	1
719256004	1	1
725044000	1	1
721088003	1	1
716020005	1	1
764940002	1	1
723278000	1	1
763631006	1	1
765755006	1	1
765812004	1	1
764524005	1	1
1003430006	1	1
416166006	1	1
733118006	1	1
237061004	1	1
723582004	1	1
698271000	6	5
718720007	1	1
766931003	1	1
715402001	1	1
715868005	1	1
55445003	1	1
763277009	1	1
29268000	2	1
441621000124101	1	1
719948009	1	1
763530000	1	1
816987009	2	1
715798007	1	1
720496006	1	1
770669004	1	1
770721009	1	1
719403003	1	1
281496003	1	1
722105002	1	1
719520001	1	1
711133000	1	1
722202006	1	1
709850005	1	1
1003437009	1	1
733049004	1	1
773498006	1	1
763066009	1	1
372463005	1	1
763617006	1	1
715418007	1	1
763718009	1	1
715725001	1	1
715753001	1	1
437291000124108	1	1
103741002	1	1
895547009	6	5
771148008	1	1
713973003	1	1
738956005	1	1
819014006	1	1
238035000	1	1
246514001	1	1
438761000124105	1	1
633004	1	1
778050009	1	1
772045007	1	1
900000000000441003	105	85
719563003	1	1
722377004	1	1
710784001	1	1
320091000221107	1	1
770681000	1	1
416723008	1	1
725151007	1	1
765089003	1	1
33415007	1	1
770901001	1	1
771469002	1	1
770562000	1	1
719253007	1	1
372470005	1	1
764455002	1	1
764955006	1	1
1144653005	1	1
733489002	1	1
719254001	1	1
251727006	1	1
771335004	1	1
773663004	1	1
766706007	1	1
717944002	1	1
1111561000000108	1	1
818988007	3	1
441241000124105	1	1
443191000124106	1	1
440641000124103	1	1
725592009	1	1
715647007	1	1
896794008	1	1
783010003	1	1
21454007	4	3
399264008	1	1
448598008	1	1
715632003	1	1
771477003	1	1
763218005	1	1
773398005	1	1
719271000	1	1
1003945005	1	1
710085008	1	1
54134001	1	1
713757003	1	1
404819002	1	1
437481000124109	38	13
765761009	1	1
372469009	1	1
870605008	1	1
716169009	1	1
719275009	1	1
735237008	1	1
773497001	1	1
718175009	1	1
441931000124109	17	16
719069008	1	1
718196002	1	1
8239009	1	1
787413007	3	2
118652008	1	1
722439009	1	1
30110007	1	1
315184001	1	1
718554005	1	1
708596003	1	1
437441000124103	1	1
85768003	1	1
4116001	1	1
722054007	1	1
437671000124109	1	1
1141680002	1	1
716685003	1	1
416731003	1	1
723604009	2	1
780827006	1	1
444651000124108	1	1
718181001	1	1
441511000124108	1	1
1149119007	1	1
445465004	1	1
764962002	1	1
437691000124105	1	1
733599009	1	1
734949005	1	1
722086002	1	1
713838004	1	1
436891000124107	2	1
761868000	1	1
764992006	1	1
896805009	1	1
699221007	1	1
714478005	1	1
307001000119105	1	1
437541000124102	3	2
773276004	1	1
419993007	1	1
440441000124100	1	1
764965000	1	1
723448007	1	1
764786007	1	1
715529009	1	1
783098009	1	1
789657008	1	1
719380003	1	1
1148981009	1	1
442431006	1	1
718179003	1	1
722082000	1	1
766756002	1	1
11421009	1	1
770722002	1	1
763866005	1	1
896692004	1	1
718222000	1	1
385048003	1	1
718479005	1	1
816171005	1	1
763688008	1	1
713766004	1	1
718180000	1	1
1735007	1	1
763884007	1	1
439171000124107	1	1
708654005	1	1
783136007	1	1
723603003	1	1
782791000	1	1
726724005	1	1
1003630001	1	1
710960001	1	1
719660008	1	1
771533007	1	1
719162001	1	1
782916003	1	1
783060009	1	1
5668004	4	3
838429002	4	3
764944006	1	1
700400001	1	1
88427007	1	1
719268008	1	1
445822005	1	1
399271003	1	1
709991008	3	2
763616002	1	1
720009004	1	1
244023005	1	1
438981000124103	1	1
715192004	1	1
723602008	1	1
716865000	1	1
719449007	1	1
732958004	1	1
1003992009	1	1
53088000	1	1
766818009	1	1
764812008	1	1
130631000119108	3	2
726082003	1	1
783249007	1	1
447229005	1	1
436921000124101	1	1
1055200005	1	1
715963002	1	1
435631000124104	13	12
722452004	1	1
771186004	1	1
16171003	1	1
719985001	1	1
768924008	1	1
724344004	1	1
771511005	1	1
897147002	2	1
257867005	1	1
722111004	1	1
719010001	1	1
443311000124103	1	1
1156529004	1	1
720858001	1	1
773394007	1	1
897138005	1	1
437151000124105	3	2
