<?xml version="1.0" encoding="UTF-8" standalone="no"?>
<!DOCTYPE svg PUBLIC "-//W3C//DTD SVG 1.1//EN"
 "http://www.w3.org/Graphics/SVG/1.1/DTD/svg11.dtd">
<!-- Generated by graphviz version 2.43.0 (0)
 -->
<!-- Title: G Pages: 1 -->
<svg width="231pt" height="104pt"
 viewBox="0.00 0.00 230.70 104.21" xmlns="http://www.w3.org/2000/svg" xmlns:xlink="http://www.w3.org/1999/xlink">
<g id="graph0" class="graph" transform="scale(1 1) rotate(0) translate(4 100.21)">
<title>G</title>
<polygon fill="white" stroke="transparent" points="-4,4 -4,-100.21 226.7,-100.21 226.7,4 -4,4"/>
<!-- 227015009 -->
<g id="node1" class="node">
<title>227015009</title>
<polygon fill="#99ccff" stroke="black" points="94,-96.21 0,-96.21 0,-60.21 94,-60.21 94,-96.21"/>
<text text-anchor="start" x="8" y="-81.01" font-family="Helvetica,sans-Serif" font-size="9.00">227015009</text>
<text text-anchor="start" x="8" y="-71.01" font-family="Helvetica,sans-Serif" font-size="9.00">Low fat liver pate</text>
</g>
<!-- DN0 -->
<g id="node2" class="node">
<title>DN0</title>
<ellipse fill="white" stroke="black" cx="47" cy="-21.21" rx="21.43" ry="21.43"/>
<text text-anchor="middle" x="47" y="-14.61" font-family="Helvetica,sans-Serif" font-size="27.00">⊆</text>
</g>
<!-- 227015009&#45;&gt;DN0 -->
<g id="edge1" class="edge">
<title>227015009&#45;&gt;DN0</title>
<path fill="none" stroke="black" d="M47.7,-60.18C47.7,-60.18 47.7,-52.52 47.7,-52.52"/>
<polygon fill="black" stroke="black" points="51.2,-52.52 47.7,-42.52 44.2,-52.52 51.2,-52.52"/>
</g>
<!-- BN00\nA8 B0 C1\nO3 P1 S4 -->
<g id="node3" class="node">
<title>BN00\nA8 B0 C1\nO3 P1 S4</title>
<ellipse fill="black" stroke="black" cx="122.85" cy="-21.21" rx="14.7" ry="14.7"/>
<text text-anchor="middle" x="122.85" y="-21.91" font-family="Helvetica,sans-Serif" font-size="1.00">BN00</text>
<text text-anchor="middle" x="122.85" y="-20.91" font-family="Helvetica,sans-Serif" font-size="1.00">A8 B0 C1</text>
<text text-anchor="middle" x="122.85" y="-19.91" font-family="Helvetica,sans-Serif" font-size="1.00">O3 P1 S4</text>
</g>
<!-- DN0&#45;&gt;BN00\nA8 B0 C1\nO3 P1 S4 -->
<g id="edge2" class="edge">
<title>DN0&#45;&gt;BN00\nA8 B0 C1\nO3 P1 S4</title>
<path fill="none" stroke="black" d="M68.53,-21.21C68.53,-21.21 98,-21.21 98,-21.21"/>
<polygon fill="black" stroke="black" points="98,-24.71 108,-21.21 98,-17.71 98,-24.71"/>
</g>
<!-- 227014008 -->
<g id="node4" class="node">
<title>227014008</title>
<polygon fill="#99ccff" stroke="black" points="222.7,-39.21 151.7,-39.21 151.7,-3.21 222.7,-3.21 222.7,-39.21"/>
<text text-anchor="start" x="159.7" y="-24.01" font-family="Helvetica,sans-Serif" font-size="9.00">227014008</text>
<text text-anchor="start" x="159.7" y="-14.01" font-family="Helvetica,sans-Serif" font-size="9.00">Liver pate</text>
</g>
<!-- BN00\nA8 B0 C1\nO3 P1 S4&#45;&gt;227014008 -->
<g id="edge3" class="edge">
<title>BN00\nA8 B0 C1\nO3 P1 S4&#45;&gt;227014008</title>
<path fill="none" stroke="black" d="M137.77,-21.21C137.77,-21.21 141.45,-21.21 141.45,-21.21"/>
<polygon fill="none" stroke="black" points="141.45,-24.71 151.45,-21.21 141.45,-17.71 141.45,-24.71"/>
</g>
</g>
</svg>
