digraph RF2_MRCM { rankdir=LR; splines=ortho; node [shape=box, peripheries=1, style=filled, fontsize=9, fontname=Helvetica, tooltip=" ", fillcolor=palegreen];

/* *** Model rows *** */
"<< 105590001\nSubstance"->"726542003\nHas disposition" [arrowhead=open, style=dashed, color=red, tooltip="Substance -> Has disposition [0..*]"];
"726542003\nHas disposition"->"<< 726711005\nDisposition" [arrowhead=open, style=dashed, color=blue, tooltip="Has disposition -> Disposition"];
"<< 105590001\nSubstance"->"738774007\nIs modification of" [arrowhead=open, style=dashed, color=red, tooltip="Substance -> Is modification of [0..*]"];
"738774007\nIs modification of"->"<< 105590001\nSubstance" [arrowhead=open, style=dashed, color=blue, tooltip="Is modification of -> Substance"];
"<< 123038009\nSpecimen"->"118168003\nSpecimen source morphology" [arrowhead=open, color=red, tooltip="Specimen -> Specimen source morphology [0..1]"];
"118168003\nSpecimen source morphology"->"<< 49755003\nMorphologically abnormal structure" [arrowhead=open, color=blue, tooltip="Specimen source morphology -> Morphologically abnormal structure"];
"<< 123038009\nSpecimen"->"118169006\nSpecimen source topography" [arrowhead=open, color=red, tooltip="Specimen -> Specimen source topography [0..1]"];
"118169006\nSpecimen source topography"->"<< 442083009\nAnatomical or acquired body structure" [arrowhead=open, color=blue, tooltip="Specimen source topography -> Anatomical or acquired body structure"];
"<< 123038009\nSpecimen"->"118170007\nSpecimen source identity" [arrowhead=open, color=red, tooltip="Specimen -> Specimen source identity [0..1]"];
"118170007\nSpecimen source identity"->"<< 125676002\nPerson" [arrowhead=open, color=blue, tooltip="Specimen source identity -> Person"];
"118170007\nSpecimen source identity"->"<< 133928008\nCommunity" [arrowhead=open, color=blue, tooltip="Specimen source identity -> Community"];
"118170007\nSpecimen source identity"->"<< 260787004\nPhysical object" [arrowhead=open, color=blue, tooltip="Specimen source identity -> Physical object"];
"118170007\nSpecimen source identity"->"<< 276339004\nEnvironment" [arrowhead=open, color=blue, tooltip="Specimen source identity -> Environment"];
"118170007\nSpecimen source identity"->"<< 35359004\nFamily" [arrowhead=open, color=blue, tooltip="Specimen source identity -> Family"];
"<< 123038009\nSpecimen"->"118171006\nSpecimen procedure" [arrowhead=open, color=red, tooltip="Specimen -> Specimen procedure [0..1]"];
"118171006\nSpecimen procedure"->"<< 71388002\nProcedure" [arrowhead=open, color=blue, tooltip="Specimen procedure -> Procedure"];
"<< 123038009\nSpecimen"->"370133003\nSpecimen substance" [arrowhead=open, color=red, tooltip="Specimen -> Specimen substance [0..1]"];
"370133003\nSpecimen substance"->"<< 105590001\nSubstance" [arrowhead=open, color=blue, tooltip="Specimen substance -> Substance"];
"370133003\nSpecimen substance"->"<< 260787004\nPhysical object" [arrowhead=open, color=blue, tooltip="Specimen substance -> Physical object"];
"370133003\nSpecimen substance"->"<< 373873005\nPharmaceutical / biologic product" [arrowhead=open, color=blue, tooltip="Specimen substance -> Pharmaceutical / biologic product"];

/* *** Domain and range/parent domain graph *** */
"<< 442083009\nAnatomical or acquired body structure"->"123037004\nBody structure" [arrowhead=onormal, color=black, tooltip="Anatomical or acquired body structure is_a Body structure"];
"<< 49755003\nMorphologically abnormal structure"->"123037004\nBody structure" [arrowhead=onormal, color=black, tooltip="Morphologically abnormal structure is_a Body structure"];
"123037004\nBody structure"->"138875005\nSNOMED CT Concept" [arrowhead=onormal, color=black, tooltip="Body structure is_a SNOMED CT Concept"];
"<< 276339004\nEnvironment"->"308916002\nEnvironment or geographical location" [arrowhead=onormal, color=black, tooltip="Environment is_a Environment or geographical location"];
"308916002\nEnvironment or geographical location"->"138875005\nSNOMED CT Concept" [arrowhead=onormal, color=black, tooltip="Environment or geographical location is_a SNOMED CT Concept"];
"<< 373873005\nPharmaceutical / biologic product"->"138875005\nSNOMED CT Concept" [arrowhead=onormal, color=black, tooltip="Pharmaceutical / biologic product is_a SNOMED CT Concept"];
"<< 260787004\nPhysical object"->"138875005\nSNOMED CT Concept" [arrowhead=onormal, color=black, tooltip="Physical object is_a SNOMED CT Concept"];
"<< 71388002\nProcedure"->"138875005\nSNOMED CT Concept" [arrowhead=onormal, color=black, tooltip="Procedure is_a SNOMED CT Concept"];
"<< 726711005\nDisposition"->"362981000\nQualifier value" [arrowhead=onormal, color=black, tooltip="Disposition is_a Qualifier value"];
"362981000\nQualifier value"->"138875005\nSNOMED CT Concept" [arrowhead=onormal, color=black, tooltip="Qualifier value is_a SNOMED CT Concept"];
"<< 125676002\nPerson"->"48176007\nSocial context" [arrowhead=onormal, color=black, tooltip="Person is_a Social context"];
"<< 133928008\nCommunity"->"48176007\nSocial context" [arrowhead=onormal, color=black, tooltip="Community is_a Social context"];
"<< 35359004\nFamily"->"48176007\nSocial context" [arrowhead=onormal, color=black, tooltip="Family is_a Social context"];
"48176007\nSocial context"->"138875005\nSNOMED CT Concept" [arrowhead=onormal, color=black, tooltip="Social context is_a SNOMED CT Concept"];
"<< 123038009\nSpecimen"->"138875005\nSNOMED CT Concept" [arrowhead=onormal, color=black, tooltip="Specimen is_a SNOMED CT Concept"];
"<< 105590001\nSubstance"->"138875005\nSNOMED CT Concept" [arrowhead=onormal, color=black, tooltip="Substance is_a SNOMED CT Concept"];

/* *** Domain and range classes *** */
"<< 71388002\nProcedure" [shape=box, peripheries=1, style=filled, fontsize=9, fontcolor=black, fontname=Helvetica, tooltip="<< 71388002 Procedure\n\nIN RANGE OF:\nSpecimen procedure\n\nFROM DOMAIN:\nSpecimen\n", URL="http://snomed.info/id/71388002", fillcolor=lightblue1];
"<< 442083009\nAnatomical or acquired body structure" [shape=box, peripheries=1, style=filled, fontsize=9, fontcolor=black, fontname=Helvetica, tooltip="<< 442083009 Anatomical or acquired body structure\n\nIN RANGE OF:\nSpecimen source topography\n\nFROM DOMAIN:\nSpecimen\n", URL="http://snomed.info/id/442083009", fillcolor=lightblue1];
"<< 373873005\nPharmaceutical / biologic product" [shape=box, peripheries=1, style=filled, fontsize=9, fontcolor=black, fontname=Helvetica, tooltip="<< 373873005 Pharmaceutical / biologic product\n\nIN RANGE OF:\nSpecimen substance\n\nFROM DOMAIN:\nSpecimen\n", URL="http://snomed.info/id/373873005", fillcolor=lightblue1];
"<< 105590001\nSubstance" [shape=box, peripheries=1, style=filled, fontsize=9, fontcolor=black, fontname=Helvetica, tooltip="<< 105590001 Substance\n\nIN DOMAIN OF:\nHas disposition\nIs modification of\n\nIN RANGE OF:\nIs modification of [1]\nSpecimen substance [2]\n\nFROM DOMAINS:\n1. Substance\n2. Specimen\n", URL="http://snomed.info/id/105590001", fillcolor=violet];
"<< 276339004\nEnvironment" [shape=box, peripheries=1, style=filled, fontsize=9, fontcolor=black, fontname=Helvetica, tooltip="<< 276339004 Environment\n\nIN RANGE OF:\nSpecimen source identity\n\nFROM DOMAIN:\nSpecimen\n", URL="http://snomed.info/id/276339004", fillcolor=lightblue1];
"<< 125676002\nPerson" [shape=box, peripheries=1, style=filled, fontsize=9, fontcolor=black, fontname=Helvetica, tooltip="<< 125676002 Person\n\nIN RANGE OF:\nSpecimen source identity\n\nFROM DOMAIN:\nSpecimen\n", URL="http://snomed.info/id/125676002", fillcolor=lightblue1];
"<< 49755003\nMorphologically abnormal structure" [shape=box, peripheries=1, style=filled, fontsize=9, fontcolor=black, fontname=Helvetica, tooltip="<< 49755003 Morphologically abnormal structure\n\nIN RANGE OF:\nSpecimen source morphology\n\nFROM DOMAIN:\nSpecimen\n", URL="http://snomed.info/id/49755003", fillcolor=lightblue1];
"<< 726711005\nDisposition" [shape=box, peripheries=1, style=filled, fontsize=9, fontcolor=black, fontname=Helvetica, tooltip="<< 726711005 Disposition\n\nIN RANGE OF:\nHas disposition\n\nFROM DOMAIN:\nSubstance\n", URL="http://snomed.info/id/726711005", fillcolor=lightblue1];
"<< 123038009\nSpecimen" [shape=box, peripheries=1, style=filled, fontsize=9, fontcolor=black, fontname=Helvetica, tooltip="<< 123038009 Specimen\n\nMaterial (structure, substance, device) removed from a\nsource (patient, donor, physical location, product)\n\nIN DOMAIN OF:\nSpecimen procedure\nSpecimen source identity\nSpecimen source morphology\nSpecimen source topography\nSpecimen substance\n", URL="http://snomed.info/id/123038009", fillcolor=lightpink];
"<< 133928008\nCommunity" [shape=box, peripheries=1, style=filled, fontsize=9, fontcolor=black, fontname=Helvetica, tooltip="<< 133928008 Community\n\nIN RANGE OF:\nSpecimen source identity\n\nFROM DOMAIN:\nSpecimen\n", URL="http://snomed.info/id/133928008", fillcolor=lightblue1];
"<< 260787004\nPhysical object" [shape=box, peripheries=1, style=filled, fontsize=9, fontcolor=black, fontname=Helvetica, tooltip="<< 260787004 Physical object\n\nIN RANGE OF:\nSpecimen source identity\nSpecimen substance\n\nFROM DOMAIN:\nSpecimen\n", URL="http://snomed.info/id/260787004", fillcolor=lightblue1];
"<< 35359004\nFamily" [shape=box, peripheries=1, style=filled, fontsize=9, fontcolor=black, fontname=Helvetica, tooltip="<< 35359004 Family\n\nIN RANGE OF:\nSpecimen source identity\n\nFROM DOMAIN:\nSpecimen\n", URL="http://snomed.info/id/35359004", fillcolor=lightblue1];
"900000000000441003\nSNOMED CT Model Component" [style=invis];

/* *** Role hierarchy relationships *** */

/* *** Attribute classes *** */
"118170007\nSpecimen source identity" [shape=box, peripheries=2, style=filled, fontsize=9, fontname=Helvetica, fontcolor=black, tooltip="118170007 Specimen source identity\n\nDOMAIN:\nSpecimen\n\nRANGES:\nCommunity\nEnvironment\nFamily\nPerson\nPhysical object\n", URL="http://snomed.info/id/118170007", fillcolor=lemonchiffon1];
"118168003\nSpecimen source morphology" [shape=box, peripheries=2, style=filled, fontsize=9, fontname=Helvetica, fontcolor=black, tooltip="118168003 Specimen source morphology\n\nDOMAIN:\nSpecimen\n\nRANGE:\nMorphologically abnormal structure\n", URL="http://snomed.info/id/118168003", fillcolor=lemonchiffon1];
"118171006\nSpecimen procedure" [shape=box, peripheries=2, style=filled, fontsize=9, fontname=Helvetica, fontcolor=black, tooltip="118171006 Specimen procedure\n\nDOMAIN:\nSpecimen\n\nRANGE:\nProcedure\n", URL="http://snomed.info/id/118171006", fillcolor=lemonchiffon1];
"738774007\nIs modification of" [shape=box, peripheries=2, style=filled, fontsize=9, fontname=Helvetica, fontcolor=black, tooltip="738774007 Is modification of\n\nThis attribute indicates that the concept is a structural\nmodification of another concept.\n\nDOMAIN:\nSubstance\n\nRANGE:\nSubstance\n", URL="http://snomed.info/id/738774007", fillcolor=lemonchiffon1];
"118169006\nSpecimen source topography" [shape=box, peripheries=2, style=filled, fontsize=9, fontname=Helvetica, fontcolor=black, tooltip="118169006 Specimen source topography\n\nDOMAIN:\nSpecimen\n\nRANGE:\nAnatomical or acquired body structure\n", URL="http://snomed.info/id/118169006", fillcolor=lemonchiffon1];
"370133003\nSpecimen substance" [shape=box, peripheries=2, style=filled, fontsize=9, fontname=Helvetica, fontcolor=black, tooltip="370133003 Specimen substance\n\nDOMAIN:\nSpecimen\n\nRANGES:\nPharmaceutical / biologic product\nPhysical object\nSubstance\n", URL="http://snomed.info/id/370133003", fillcolor=lemonchiffon1];
"726542003\nHas disposition" [shape=box, peripheries=2, style=filled, fontsize=9, fontname=Helvetica, fontcolor=black, tooltip="726542003 Has disposition\n\nThis attribute specifies the behaviour that a substance will\nexhibit or participate in, given the appropriate context.\n\nDOMAIN:\nSubstance\n\nRANGE:\nDisposition\n", URL="http://snomed.info/id/726542003", fillcolor=lemonchiffon1];

/* *** Caption *** */
"diagramLabel" [label="Simplified diagram of SNOMED CT\nMRCM Domain and Range constraints|Pre-coordination view |Showing domains:\n105590001 Substance\n123038009 Specimen|20210731 International data|Drawn September 22, 2021", shape=record, fontsize=12];

/* *** Key *** */
subgraph cluster_key {fontname=Helvetica; label = "Key"; style=filled; fillcolor="white"; fontsize=12; peripheries=2;
"<< XXXXXXXX\nDefined domain concept" -> "XXXXXXXX\nAttribute name" [arrowhead=open, color=red];
"<< XXXXXXXX\nPrimitive domain concept" -> "XXXXXXXX\nAttribute name"[arrowhead=open, style=dashed, color=red];
"XXXXXXXX\nAttribute name" -> "<< XXXXXXXX\nDomain and\n range concept\n(operators the same)" [arrowhead=open, color=blue];
"XXXXXXXX\nAttribute name" -> "<< XXXXXXXX\nDomain and\n range concept\n(operators differ)" [arrowhead=open, color=blue];
"<< XXXXXXXX\nDomain and\n range concept\n(operators the same)" -> "XXXXXXXX\nAttribute name" [arrowhead=open, color=red];
"<< XXXXXXXX\nDomain and\n range concept\n(operators differ)" -> "XXXXXXXX\nAttribute name" [arrowhead=open, color=red];
"XXXXXXXX\nAttribute name" -> "<< XXXXXXXX\nRange concept" [arrowhead=open, style=dashed, color=blue];
"XXXXXXXX\nAttribute name" -> "Concrete\nrange" [arrowhead=open, style=dashed, color=blue];
"<< XXXXXXXX\nDomain and\n range concept\n(operators the same)" -> "Domain and range\n relationships\n\nNote 1. Operators may differ between\ndomain and range\n\nNote 2. Dashed edge indicates\nattribute ungrouped for this domain in DL" [style=invis];
"<< XXXXXXXX\nDomain and\n range concept\n(operators differ)"  -> "Domain and range\n relationships\n\nNote 1. Operators may differ between\ndomain and range\n\nNote 2. Dashed edge indicates\nattribute ungrouped for this domain in DL" [style=invis];
"<< XXXXXXXX\nRange concept" -> "Domain and range\n relationships\n\nNote 1. Operators may differ between\ndomain and range\n\nNote 2. Dashed edge indicates\nattribute ungrouped for this domain in DL" [style=invis];
"Concrete\nrange" -> "Domain and range\n relationships\n\nNote 1. Operators may differ between\ndomain and range\n\nNote 2. Dashed edge indicates\nattribute ungrouped for this domain in DL" [style=invis];
"<< XXXXXXXX\nConcept referenced in model"->"<< XXXXXXXX\nAnother concept referenced in model" [arrowhead=normal, color=black];
"<< XXXXXXXX\nConcept referenced in model"->"<< XXXXXXXX\nAnother concept referenced in model" [arrowhead=diamond, color=black];
"<< XXXXXXXX\nAnother concept referenced in model"->"XXXXXXXX\nConcept included in diagram but\nnot referenced in concept model" [arrowhead=onormal, color=black];
"XXXXXXXX\nConcept included in diagram but\nnot referenced in concept model"->"Domain and range\nhierarchies\n\nNote: Filled arrows and diamonds\nindicate parent domains" [style=invis];
"XXXXXXXX\nInactive domain,\nrange or attribute"->"XXXXXXXX\nSub-attribute name" [style=invis];
"XXXXXXXX\nSub-attribute name"->"XXXXXXXX\nSuper-attribute name" [arrowhead=onormal, color=black];
"XXXXXXXX\nSuper-attribute name"->"Attribute hierarchies\n(full path to root not shown)\n\nNote: yellow indicates attribute range\ndiffers for different domains" [style=invis];
"<< XXXXXXXX\nDefined domain concept"  [shape=box, peripheries=2, style=filled, fontsize=9, fontcolor=black, fontname=Helvetica, fillcolor=lightpink];
"<< XXXXXXXX\nPrimitive domain concept"  [shape=box, peripheries=1, style=filled, fontsize=9, fontcolor=black, fontname=Helvetica, fillcolor=lightpink];
"<< XXXXXXXX\nRange concept"  [shape=box, peripheries=1, style=filled, fontsize=9, fontcolor=black, fontname=Helvetica, fillcolor=lightblue1];
"Concrete\nrange"  [shape=box, peripheries=1, style=filled, fontsize=9, fontcolor=black, fontname=Helvetica, fillcolor=palegreen, style="diagonals,filled"];
"XXXXXXXX\nAttribute name" [shape=box, peripheries=2, style=filled, fontsize=9, fontname=Helvetica, fillcolor=lemonchiffon1];
"<< XXXXXXXX\nDomain and\n range concept\n(operators the same)" [shape=box, peripheries=2, style=filled, fontsize=9, fontcolor=black, fontname=Helvetica, fillcolor=violet];
"<< XXXXXXXX\nDomain and\n range concept\n(operators differ)" [shape=box, peripheries=1, style=filled, fontsize=9, fontcolor=white, fontname=Helvetica, fillcolor=violet];
"Domain and range\n relationships\n\nNote 1. Operators may differ between\ndomain and range\n\nNote 2. Dashed edge indicates\nattribute ungrouped for this domain in DL" [fontsize=9, style=filled, fillcolor=white, penwidth=0];
"<< XXXXXXXX\nConcept referenced in model" [shape=box, peripheries=1, style=filled, fontsize=9, fontcolor=black, fontname=Helvetica, fillcolor=lightblue1];
"<< XXXXXXXX\nAnother concept referenced in model" [shape=box, peripheries=1, style=filled, fontsize=9, fontcolor=black, fontname=Helvetica, fillcolor=lightblue1];
"XXXXXXXX\nConcept included in diagram but\nnot referenced in concept model" [fontsize=9, fillcolor=palegreen];
"Domain and range\nhierarchies\n\nNote: Filled arrows and diamonds\nindicate parent domains" [fontsize=9, style=filled, fillcolor=white, penwidth=0];
"XXXXXXXX\nInactive domain,\nrange or attribute" [shape=box, peripheries=1, style=filled, fontsize=9, fontname=Helvetica, fillcolor=orange];
"XXXXXXXX\nSub-attribute name" [shape=box, peripheries=2, style=filled, fontsize=9, fontname=Helvetica, fillcolor=yellow];
"XXXXXXXX\nSuper-attribute name" [shape=box, peripheries=2, style=filled, fontsize=9, fontname=Helvetica, fillcolor=lemonchiffon1];
"Attribute hierarchies\n(full path to root not shown)\n\nNote: yellow indicates attribute range\ndiffers for different domains"  [fontsize=9, style=filled, fillcolor=white, penwidth=0];
}}