782692004
764512003
778043005
764711007
1003930003
1003904002
764461004
766716004
1003402006
726348003
764619001
1003882002
829974003
715983001
765485000
734030009
764519007
770669004
764997000
1003872003
1003410007
765140006
726375005
778007004
719652007
897527002
726347008
49024004
726384005
1003897004
719600006
770563005
1162463004
1003885000
726349006
770666006
764725008
726389000
726352003
1003913000
764520001
726705007
88154004
726376006
717158001
783718003
1172899000
726393006
726385006
764466009
1003887008
765486004
764524005
726396003
897548000
726390009
726368009
726398002
1003905001
726399005
1003893000
764518004
897564008
722430008
765488003
773299000
726371001
1003895007
1003876000
1003888003
1003414003
1003910002
1003865004
726373003
766721001
897568006
1003901005
726723004
770562000
764996009
718188007
897536003
726381002
1153430004
74183001
733521003
764624003
1003896008
1003911003
770719004
1003929008
715530004
726343007
733626002
768471006
26445008
783735004
718189004
726358004
726344001
763276000
1003419008
723332005
726339008
726340005
726395004
70173007
764500002
766238001
726397007
763273008
726379004
702346005
81438002
763529005
726370000
726356000
1003880005
1003418000
716381003
726392001
768929003
897529004
1003912005
764690001
726341009
1003871005
764623009
726351005
726377002
733520002
726342002
734016004
897566005
1003933001
1003883007
1003891003
1003892005
733473000
721158009
766053003
1162478006
715735007
1003396003
726378007
1003899001
1003322006
770595006
726361003
1003875001
764696007
20348002
1003890002
1003898009
726391008
1228886008
787171006
763061004
1003908004
715215007
1003392001
726394000
1003415002
770665005
763275001
726387003
717157006
13555004
1003405008
1003391008
726372008
763405000
764629008
1003416001
1003909007
1003394000
764630003
763272003
719686003
734029004
1003900006
733300002
17122004
782691006
270889005
726388008
111311004
719658006
764703002
768555009
766239009
1162488007
733519008
86997002
715736008
764622004
770670003
897547005
717049005
1003907009
1003873008
764628000
764989007
1003358004
726359007
715438008
270890001
1003395004
897542004
726733007
766760004
1162440009
726355001
718689000
763527007
764454003
1003420002
1003935008
734349003
47017007
897526006
1003894006
1003903008
766719006
31325007
111310003
23686004
726362005
1003902003
1228890005
1003868002
1003914006
1003934007
726367004
1003915007
765142003
1003870006
897528007
726346004
897524009
726354002
764739008
770668007
765171002
765489006
1003886004
1003866003
765487008
783164002
205630009
719646006
726353008
1153583005
702345009
763062006
726706008
764627005
1003869005
726383004
36369001
764463001
1003937000
1003417005
1162487002
764621006
726338000
726360002
726366008
897545002
1003412004
763528002
766240006
718687003
726369001
1003889006
765484001
726345000
726365007
74008005
1003364006
766766005
897569003
60650002
766237006
770663003
763407008
1003864000
1003376006
771439009
1003906000
766720000
764625002
111312006
81678004
1003393006
1003932006
726382009
726380001
1003411006
1003403001
717335009
1003878004
897549008
726350006
763277009
897561000
1162460001
726374009
1003377002
726386007
763274002
763406004
768930008
783562005
768927001
1003867007
1003931004
770566002
733518000
726357009
768931007
1003413009
726707004
763530000
764459008
766816008
764447009
