783164002
764512003
724147004
778073001
770410004
897509000
719646006
770665005
719663005
763275001
1153583005
890127007
82751009
764711007
699306003
205686009
719661007
783061008
718688008
763062006
719599008
766708008
880078001
717157006
726706008
26480007
719665003
719046005
770760006
36369001
699310000
879939002
766716004
770902008
764440006
764996009
449819002
718188007
699308002
719582007
897536003
1153430004
719583002
782674007
77497005
15841002
719657001
733521003
227035005
897510005
719650004
734030009
770542008
1169362009
1229872004
48760005
111309008
722429003
880079009
890123006
764519007
764997000
76447002
719576009
890125004
14091009
718227006
763272003
719686003
766050000
51819009
734029004
721881008
732259001
783619003
719427001
765140006
19419002
719577000
719584008
716456000
720982007
770719004
778007004
897543009
719652007
770756008
4242009
49024004
17122004
205687000
764435003
897527002
270889005
4199009
771340007
43420005
719600006
715530004
1010614003
733626002
768471006
880086001
111311004
26445008
782669004
890110004
719658006
4325000
773670004
890124000
724282009
73035005
764703002
768555009
770401007
81304006
763528002
773547003
890128002
720749004
778000002
719662000
718687003
733519008
716683005
716709002
782673001
22497004
890117001
770666006
718615003
1229873009
698849002
717633007
719580004
9527009
763276000
83721006
37506004
10572007
228050004
764725008
723332005
897544003
75893003
897507003
897546001
74008005
716515000
718226002
70173007
719664004
1479009
719684000
764520001
766052008
766766005
699307007
726705007
770905005
766051001
717049005
764500002
16129004
719909009
770411000
880081006
770663003
715438008
773325004
1172899000
717761005
763273008
719651000
1216940001
702346005
768713003
270890001
66985009
763529005
764524005
771439009
726733007
63247009
890180006
789187001
1229895008
770754006
782877002
48812004
1228844002
718689000
770794008
773494008
716381003
719666002
763527007
1229891004
764454003
782676009
768929003
719597005
719575008
724098008
897511009
897529004
771337007
734349003
770793002
77527000
782694003
718881004
24786004
719659003
719574007
719808002
29379007
763277009
897526006
767263007
717338006
773493002
6002006
771072001
733520002
771341006
734016004
4135001
88894000
1229883008
1228890005
763274002
766755003
1003380001
1003449005
764518004
783562005
768927001
33706001
50992006
722430008
716708005
1010613009
1229882003
880093002
771477003
773326003
890116005
1229875002
733473000
721158009
699311001
733518000
1003389000
770566002
548004
765142003
30361005
766053003
773346008
40389006
897528007
770629000
554003
90866007
702357000
83585001
897524009
19550003
726707004
56653005
719660008
717973004
764696007
763530000
4874006
7586009
20348002
764739008
5982001
699305004
765171002
890130000
699254009
29257000
1228886008
787171006
719578005
724070005
764459008
766816008
719649004
764447009
719047001
763061004
715215007
716387004
