37506004	1	62555013	4q partial monosomy syndrome	4q	37506004	2	2912992019	Chromosome 4q deletion syndrome	4q
4242009	1	8152014	18q partial monosomy syndrome	18q	4242009	2	8153016	18q minus syndrome	18q
449819002	1	2913030016	3p partial monosomy syndrome	3p	449819002	2	2912647011	Chromosome 3p deletion syndrome	3p
719909009	1	4570723012	Trisomy Xq28	Xq28	719909009	2	4570722019	Chromosome Xq28 trisomy	Xq28
77527000	1	128694011	9p partial trisomy syndrome	9p	77527000	2	128696013	Trisomy 9p syndrome	9p
15841002	1	26840010	21q partial monosomy syndrome	21q	15841002	2	26841014	21q partial proximal monosomy syndrome	21q
49024004	1	81675017	4p partial trisomy syndrome	4p	49024004	2	81676016	Trisomy 4p syndrome	4p
763528002	1	3642742016	Distal monosomy 3p syndrome	3p	763528002	2	3642743014	Distal 3p deletion	3p
763528002	1	3642742016	Distal monosomy 3p syndrome	3p	763528002	2	3642744015	Distal monosomy 3p	3p
763528002	1	3642742016	Distal monosomy 3p syndrome	3p	763528002	2	3642746018	3p syndrome	3p
763528002	2	3642743014	Distal 3p deletion	3p	763528002	2	3642744015	Distal monosomy 3p	3p
763528002	2	3642743014	Distal 3p deletion	3p	763528002	2	3642746018	3p syndrome	3p
763528002	2	3642744015	Distal monosomy 3p	3p	763528002	2	3642746018	3p syndrome	3p
763530000	1	3642756019	Distal monosomy 9p syndrome	9p	763530000	2	3642753010	Distal deletion 9p	9p
763530000	1	3642756019	Distal monosomy 9p syndrome	9p	763530000	2	3642755015	Distal monosomy 9p	9p
763530000	2	3642753010	Distal deletion 9p	9p	763530000	2	3642755015	Distal monosomy 9p	9p
766051001	1	3660633015	Distal trisomy 17q	17q	766051001	2	3660631018	Distal duplication 17q	17q
766051001	1	3660633015	Distal trisomy 17q	17q	766051001	2	3660632013	Telomeric duplication 17q	17q
766051001	1	3660633015	Distal trisomy 17q	17q	766051001	2	3660645012	Distal trisomy 17q syndrome	17q
766051001	2	3660631018	Distal duplication 17q	17q	766051001	2	3660632013	Telomeric duplication 17q	17q
766051001	2	3660631018	Distal duplication 17q	17q	766051001	2	3660645012	Distal trisomy 17q syndrome	17q
766051001	2	3660632013	Telomeric duplication 17q	17q	766051001	2	3660645012	Distal trisomy 17q syndrome	17q
1003449005	1	4164744012	Paternal 14q32.2 microdeletion	14q32.2	1003449005	2	4164745013	Paternal monosomy 14q32.2	14q32.2
111311004	1	178543013	20p partial trisomy syndrome	20p	111311004	2	187734011	Trisomy 20p syndrome	20p
1172899000	2	4636393019	17p11.2p12 microduplication syndrome	17p11.2p12	1172899000	2	4636396010	Trisomy 17p11.2p12	17p11.2p12
1228844002	1	5063406016	1p35.2 microdeletion syndrome	1p35.2	1228844002	2	5063409011	Monosomy 1p35.2	1p35.2
1228886008	1	5063612017	9q33.3q34.11 microdeletion syndrome	9q33.3q34.11	1228886008	2	5063613010	Deletion 9q33.3q34.11	9q33.3q34.11
1228886008	1	5063612017	9q33.3q34.11 microdeletion syndrome	9q33.3q34.11	1228886008	2	5063615015	Monosomy 9q33.3q34.11	9q33.3q34.11
1228886008	2	5063613010	Deletion 9q33.3q34.11	9q33.3q34.11	1228886008	2	5063615015	Monosomy 9q33.3q34.11	9q33.3q34.11
1228890005	1	5063630012	16p13.2 microdeletion syndrome	16p13.2	1228890005	2	5063631011	Monosomy 16p13.2	16p13.2
1229872004	1	5065543019	Xq25 microduplication syndrome	Xq25	1229872004	2	5065544013	Xq25 microtriplication	Xq25
1229882003	1	5065610010	11q22.2q22.3 microdeletion syndrome	11q22.2q22.3	1229882003	2	5065612019	Monosomy 11q22.2q22.3	11q22.2q22.3
1229895008	1	5065667018	8q24.3 microdeletion syndrome	8q24.3	1229895008	2	5065665014	Deletion 8q24.3	8q24.3
1229895008	1	5065667018	8q24.3 microdeletion syndrome	8q24.3	1229895008	2	5065666010	Monosomy 8q24.3	8q24.3
1229895008	2	5065665014	Deletion 8q24.3	8q24.3	1229895008	2	5065666010	Monosomy 8q24.3	8q24.3
17122004	1	28958010	4p partial monosomy syndrome	4p	17122004	2	28960012	4p minus syndrome	4p
29257000	1	48961019	13q partial monosomy syndrome	13q	29257000	2	48963016	13q minus syndrome	13q
56653005	1	94209016	18p partial monosomy syndrome	18p	56653005	2	94210014	18p minus syndrome	18p
63247009	2	3791531011	Deletion 7q11.23	7q11.23	63247009	2	3791532016	Monosomy 7q11.23	7q11.23
698849002	1	2981459011	Tetrasomy 18p	18p	698849002	2	2981462014	18p tetrasomy	18p
698849002	1	2981459011	Tetrasomy 18p	18p	698849002	2	2981491012	18p isochromosome	18p
698849002	2	2981462014	18p tetrasomy	18p	698849002	2	2981491012	18p isochromosome	18p
699254009	1	2983429014	15q13.3 microdeletion	15q13.3	699254009	2	2983307014	15q13.3 deletion syndrome	15q13.3
699254009	1	2983429014	15q13.3 microdeletion	15q13.3	699254009	2	3015079019	Microdeletion of chromosome 15q13.3	15q13.3
699254009	2	2983307014	15q13.3 deletion syndrome	15q13.3	699254009	2	3015079019	Microdeletion of chromosome 15q13.3	15q13.3
699305004	1	2983705015	1q21.1 microdeletion	1q21.1	699305004	2	2983579010	Chromosome 1q21.1 deletion syndrome	1q21.1
699305004	1	2983705015	1q21.1 microdeletion	1q21.1	699305004	2	2983615017	1q21.1 contiguous gene deletion	1q21.1
699305004	1	2983705015	1q21.1 microdeletion	1q21.1	699305004	2	3015049014	Microdeletion of chromosome 1q21.1	1q21.1
699305004	1	2983705015	1q21.1 microdeletion	1q21.1	699305004	2	4555239015	1q21.1 microdeletion syndrome	1q21.1
699305004	2	2983579010	Chromosome 1q21.1 deletion syndrome	1q21.1	699305004	2	2983615017	1q21.1 contiguous gene deletion	1q21.1
699305004	2	2983579010	Chromosome 1q21.1 deletion syndrome	1q21.1	699305004	2	3015049014	Microdeletion of chromosome 1q21.1	1q21.1
699305004	2	2983579010	Chromosome 1q21.1 deletion syndrome	1q21.1	699305004	2	4555239015	1q21.1 microdeletion syndrome	1q21.1
699305004	2	2983615017	1q21.1 contiguous gene deletion	1q21.1	699305004	2	3015049014	Microdeletion of chromosome 1q21.1	1q21.1
699305004	2	2983615017	1q21.1 contiguous gene deletion	1q21.1	699305004	2	4555239015	1q21.1 microdeletion syndrome	1q21.1
699305004	2	3015049014	Microdeletion of chromosome 1q21.1	1q21.1	699305004	2	4555239015	1q21.1 microdeletion syndrome	1q21.1
699306003	1	2983739016	1p36 deletion syndrome	1p36	699306003	2	2983611014	Distal monosomy 1p36	1p36
699306003	1	2983739016	1p36 deletion syndrome	1p36	699306003	2	2983665014	Monosomy 1p36 syndrome	1p36
699306003	1	2983739016	1p36 deletion syndrome	1p36	699306003	2	2983669015	Chromosome 1p36 deletion syndrome	1p36
699306003	2	2983611014	Distal monosomy 1p36	1p36	699306003	2	2983665014	Monosomy 1p36 syndrome	1p36
699306003	2	2983611014	Distal monosomy 1p36	1p36	699306003	2	2983669015	Chromosome 1p36 deletion syndrome	1p36
699306003	2	2983665014	Monosomy 1p36 syndrome	1p36	699306003	2	2983669015	Chromosome 1p36 deletion syndrome	1p36
699307007	1	2983646018	Chromosome 16p11.2 deletion syndrome	16p11.2	699307007	2	2983663019	16p11.2 deletion syndrome	16p11.2
699308002	1	2983610010	15q24 microdeletion	15q24	699308002	2	2983637012	15q24 microdeletion syndrome	15q24
699308002	1	2983610010	15q24 microdeletion	15q24	699308002	2	2983648017	Interstitial deletion of chromosome 15q24	15q24
699308002	1	2983610010	15q24 microdeletion	15q24	699308002	2	2983720014	15q24 deletion	15q24
699308002	1	2983610010	15q24 microdeletion	15q24	699308002	2	3023268018	Microdeletion of chromosome 15q24	15q24
699308002	2	2983637012	15q24 microdeletion syndrome	15q24	699308002	2	2983648017	Interstitial deletion of chromosome 15q24	15q24
699308002	2	2983637012	15q24 microdeletion syndrome	15q24	699308002	2	2983720014	15q24 deletion	15q24
699308002	2	2983637012	15q24 microdeletion syndrome	15q24	699308002	2	3023268018	Microdeletion of chromosome 15q24	15q24
699308002	2	2983648017	Interstitial deletion of chromosome 15q24	15q24	699308002	2	2983720014	15q24 deletion	15q24
699308002	2	2983648017	Interstitial deletion of chromosome 15q24	15q24	699308002	2	3023268018	Microdeletion of chromosome 15q24	15q24
699308002	2	2983720014	15q24 deletion	15q24	699308002	2	3023268018	Microdeletion of chromosome 15q24	15q24
699310000	1	2983765017	22q13.3 deletion syndrome	22q13.3	699310000	2	2983769011	Monosomy 22q13	22q13
699311001	1	4555272015	22q11.2 duplication syndrome	22q11.2	699311001	2	2983751019	Chromosome 22q11.2 microduplication syndrome	22q11.2
699311001	1	4555272015	22q11.2 duplication syndrome	22q11.2	699311001	2	2983753016	22q11.2 duplication	22q11.2
699311001	1	4555272015	22q11.2 duplication syndrome	22q11.2	699311001	2	2983761014	Chromosome 22q11.2 duplication syndrome	22q11.2
699311001	2	2983751019	Chromosome 22q11.2 microduplication syndrome	22q11.2	699311001	2	2983753016	22q11.2 duplication	22q11.2
699311001	2	2983751019	Chromosome 22q11.2 microduplication syndrome	22q11.2	699311001	2	2983761014	Chromosome 22q11.2 duplication syndrome	22q11.2
699311001	2	2983753016	22q11.2 duplication	22q11.2	699311001	2	2983761014	Chromosome 22q11.2 duplication syndrome	22q11.2
70173007	1	116546014	5p partial monosomy syndrome	5p	70173007	2	116549019	5p minus syndrome	5p
702346005	2	2995037013	Proximal 11p deletion syndrome	11p	702346005	2	2995170018	Chromosome 11p11.2 deletion syndrome	11p11.2
702346005	2	2995037013	Proximal 11p deletion syndrome	11p	702346005	2	2995658018	P11pDS - proximal 11p deletion syndrome	11p
702346005	2	2995170018	Chromosome 11p11.2 deletion syndrome	11p11.2	702346005	2	2995658018	P11pDS - proximal 11p deletion syndrome	11p
702357000	1	2995103015	Chromosome 2q37 deletion syndrome	2q37	702357000	2	2995117012	2q37 deletion syndrome	2q37
715438008	2	3302631013	Distal deletion 11q	11q	715438008	2	3302632018	Distal monosomy 11q	11q
715530004	2	3302938017	Isochromosome 9p	9p	715530004	2	3302939013	Tetrasomy 9p	9p
716381003	1	3305745016	8p23.1 microdeletion syndrome	8p23.1	716381003	2	3305746015	Monosomy 8p23.1	8p23.1
716387004	1	3305896014	2q31.1 microdeletion syndrome	2q31.1	716387004	2	3305897017	Monosomy 2q31.1	2q31.1
716456000	1	3306037010	3q29 microdeletion syndrome	3q29	716456000	2	3306038017	3q subtelomere deletion syndrome	3q
716456000	1	3306037010	3q29 microdeletion syndrome	3q29	716456000	2	3306039013	Monosomy 3q29	3q29
716456000	2	3306038017	3q subtelomere deletion syndrome	3q	716456000	2	3306039013	Monosomy 3q29	3q29
716515000	1	3306160017	1q41q42 microdeletion syndrome	1q41q42	716515000	2	3306161018	Monosomy 1q41q42	1q41q42
716515000	1	3306160017	1q41q42 microdeletion syndrome	1q41q42	716515000	2	3306162013	1q41-q42 microdeletion syndrome	1q41-q42
716515000	2	3306161018	Monosomy 1q41q42	1q41q42	716515000	2	3306162013	1q41-q42 microdeletion syndrome	1q41-q42
716683005	1	3307196013	17q21.31 microduplication syndrome	17q21.31	716683005	2	3307199018	Trisomy 17q21.31	17q21.31
717633007	1	4555958019	Distal monosomy 1q syndrome	1q	717633007	2	3309872013	Distal monosomy 1q	1q
717633007	1	4555958019	Distal monosomy 1q syndrome	1q	717633007	2	3309873015	Distal deletion 1q	1q
717633007	1	4555958019	Distal monosomy 1q syndrome	1q	717633007	2	3309874014	Monosomy 1qter	1q
717633007	1	4555958019	Distal monosomy 1q syndrome	1q	717633007	2	3309875010	Telomeric deletion 1q	1q
717633007	2	3309872013	Distal monosomy 1q	1q	717633007	2	3309873015	Distal deletion 1q	1q
717633007	2	3309872013	Distal monosomy 1q	1q	717633007	2	3309874014	Monosomy 1qter	1q
717633007	2	3309872013	Distal monosomy 1q	1q	717633007	2	3309875010	Telomeric deletion 1q	1q
717633007	2	3309873015	Distal deletion 1q	1q	717633007	2	3309874014	Monosomy 1qter	1q
717633007	2	3309873015	Distal deletion 1q	1q	717633007	2	3309875010	Telomeric deletion 1q	1q
717633007	2	3309874014	Monosomy 1qter	1q	717633007	2	3309875010	Telomeric deletion 1q	1q
717973004	1	3310743017	3q29 microduplication	3q29	717973004	2	3310744011	Trisomy 3q29	3q29
717973004	1	3310743017	3q29 microduplication	3q29	717973004	2	3310745012	Chromosome 3q29 duplication syndrome	3q29
717973004	2	3310744011	Trisomy 3q29	3q29	717973004	2	3310745012	Chromosome 3q29 duplication syndrome	3q29
718615003	1	3312949015	8q21.11 microdeletion syndrome	8q21.11	718615003	2	3312950015	Monosomy 8q21.11	8q21.11
718687003	1	4555202016	Distal monosomy 10q syndrome	10q	718687003	2	3313217015	Distal monosomy 10q	10q
718687003	1	4555202016	Distal monosomy 10q syndrome	10q	718687003	2	3313218013	Distal deletion 10q	10q
718687003	2	3313217015	Distal monosomy 10q	10q	718687003	2	3313218013	Distal deletion 10q	10q
718688008	1	3313226017	Distal monosomy 6p	6p	718688008	2	3313222015	Distal deletion 6p	6p
718689000	1	3313221010	Distal trisomy 10q	10q	718689000	2	3313227014	Distal duplication 10q	10q
719046005	1	3314798017	12q14 microdeletion syndrome	12q14	719046005	2	3314800012	Monosomy 12q14	12q14
719047001	1	3314803014	14q11.2 microdeletion syndrome	14q11.2	719047001	2	3314804015	Monosomy 14q11.2	14q11.2
719427001	1	3316310010	15q11q13 microduplication syndrome	15q11q13	719427001	2	3316978017	Trisomy 15q11q13	15q11q13
719574007	1	3313397016	14q12 microdeletion syndrome	14q12	719574007	2	3313420014	Monosomy 14q12	14q12
719575008	1	3313439016	15q14 microdeletion syndrome	15q14	719575008	2	3314919018	Monosomy 15q14	15q14
719576009	1	3316970012	16p11.2p12.2 microdeletion syndrome	16p11.2p12.2	719576009	2	3316971011	Monosomy 16p11.2p12.2	16p11.2p12.2
719577000	1	3316974015	16p13.11 microdeletion syndrome	16p13.11	719577000	2	3316975019	Monosomy 16p13.11	16p13.11
719578005	1	3316982015	16p13.11 microduplication syndrome	16p13.11	719578005	2	3316983013	Trisomy 16p13.11	16p13.11
719580004	1	3316990015	16q24.3 microdeletion syndrome	16q24.3	719580004	2	3316991016	Monosomy 16q24.3	16q24.3
719582007	1	3316818012	17p13.3 microduplication syndrome	17p13.3	719582007	2	3316819016	Trisomy 17p13.3	17p13.3
719583002	1	3316814014	17q11.2 microduplication syndrome	17q11.2	719583002	2	3316815010	Trisomy 17q11.2	17q11.2
719597005	1	3317084010	19p13.12 microdeletion syndrome	19p13.12	719597005	2	3317085011	Monosomy 19p13.12	19p13.12
719599008	1	3317093011	19q13.11 microdeletion syndrome	19q13.11	719599008	2	3317094017	Monosomy 19q13.11	19q13.11
719600006	1	3317090014	1p21.3 microdeletion syndrome	1p21.3	719600006	2	3317106013	Monosomy 1p21.3	1p21.3
719646006	1	3317475015	8p11.2 deletion syndrome	8p11.2	719646006	2	3317476019	Monosomy 8p11.2	8p11.2
719649004	1	3317240017	1q44 microdeletion syndrome	1q44	719649004	2	3317241018	Monosomy 1q44	1q44
719650004	1	3317244014	20p12.3 microdeletion syndrome	20p12.3	719650004	2	3317245010	Monosomy 20p12.3	20p12.3
719651000	1	3317248012	2p15p16.1 microdeletion syndrome	2p15p16.1	719651000	2	3317249016	Monosomy 2p15p16.1	2p15p16.1
719652007	1	3317252012	2p21 microdeletion syndrome	2p21	719652007	2	3317253019	Monosomy 2p21	2p21
719657001	1	3317268018	2q23.1 microdeletion syndrome	2q23.1	719657001	2	3317269014	Monosomy 2q23.1	2q23.1
719658006	1	3317274018	2q24 microdeletion syndrome	2q24	719658006	2	3317275017	Monosomy 2q24	2q24
719659003	1	3317278015	2q32q33 microdeletion syndrome	2q32q33	719659003	2	3317279011	Monosomy 2q32q33	2q32q33
719660008	1	3317282018	4q21 microdeletion syndrome	4q21	719660008	2	3317283011	Monosomy 4q21	4q21
719661007	1	3317286015	5q14.3 microdeletion syndrome	5q14.3	719661007	2	3317287012	Monosomy 5q14.3	5q14.3
719662000	1	3317290018	6p22 microdeletion syndrome	6p22	719662000	2	3317291019	Monosomy 6p22	6p22
719663005	1	3317294010	6q25 microdeletion syndrome	6q25	719663005	2	3317295011	Monosomy 6q25	6q25
719664004	1	3317298013	8q22.1 microdeletion syndrome	8q22.1	719664004	2	3317299017	Monosomy 8q22.1	8q22.1
719665003	1	3317303010	5q35 microduplication syndrome	5q35	719665003	2	3317304016	Trisomy 5q35	5q35
719684000	1	3317479014	8q12 microduplication syndrome	8q12	719684000	2	3317480012	Trisomy 8q12	8q12
719686003	1	3317486018	Distal monosomy 10p	10p	719686003	2	3317487010	Distal 10p deletion	10p
719686003	1	3317486018	Distal monosomy 10p	10p	719686003	2	3317488017	Telomeric deletion 10p	10p
719686003	2	3317487010	Distal 10p deletion	10p	719686003	2	3317488017	Telomeric deletion 10p	10p
721158009	1	3324481017	Deletion 5q35	5q35	721158009	2	3332028014	Telomeric deletion 5q	5q
721158009	1	3324481017	Deletion 5q35	5q35	721158009	2	3332030011	Monosomy 5q35	5q35
721158009	1	3324481017	Deletion 5q35	5q35	721158009	2	4565163018	Distal 5q deletion	5q
721158009	2	3332028014	Telomeric deletion 5q	5q	721158009	2	3332030011	Monosomy 5q35	5q35
721158009	2	3332028014	Telomeric deletion 5q	5q	721158009	2	4565163018	Distal 5q deletion	5q
721158009	2	3332030011	Monosomy 5q35	5q35	721158009	2	4565163018	Distal 5q deletion	5q
721881008	1	3326432016	Microduplication Xp11.22p11.23 syndrome	Xp11.22p11.23	721881008	2	3326436018	Trisomy Xp11.22-p11.23	Xp11.22-p11.23
722430008	1	3332037014	Distal trisomy 6p syndrome	6p	722430008	2	3332034019	Distal duplication 6p	6p
722430008	1	3332037014	Distal trisomy 6p syndrome	6p	722430008	2	3332035018	Telomeric duplication 6p	6p
722430008	2	3332034019	Distal duplication 6p	6p	722430008	2	3332035018	Telomeric duplication 6p	6p
723332005	2	3424114010	Duplication/inversion 15q11	15q11	723332005	2	3424117015	Non-distal tetrasomy 15q	15q
724070005	1	3429809011	Paternal 20q13.2q13.3 microdeletion syndrome	20q13.2q13.3	724070005	2	3429810018	Paternal monosomy 20q13.2q13.3	20q13.2q13.3
724098008	1	3430704012	Monosomy 9q22.3 syndrome	9q22.3	724098008	2	3430705013	Microdeletion 9q22.3	9q22.3
724098008	1	3430704012	Monosomy 9q22.3 syndrome	9q22.3	724098008	2	3430706014	Monosomy 9q22.3	9q22.3
724098008	1	3430704012	Monosomy 9q22.3 syndrome	9q22.3	724098008	2	4009498017	9q22.3 deletion syndrome	9q22.3
724098008	2	3430705013	Microdeletion 9q22.3	9q22.3	724098008	2	3430706014	Monosomy 9q22.3	9q22.3
724098008	2	3430705013	Microdeletion 9q22.3	9q22.3	724098008	2	4009498017	9q22.3 deletion syndrome	9q22.3
724098008	2	3430706014	Monosomy 9q22.3	9q22.3	724098008	2	4009498017	9q22.3 deletion syndrome	9q22.3
724147004	1	3431149012	8q13 microdeletion syndrome	8q13	724147004	2	3431152016	Monosomy 8q13	8q13
726705007	1	3451914014	3q13 microdeletion syndrome	3q13	726705007	2	3451915010	Monosomy 3q13	3q13
726706008	1	3451923012	4p16.3 microduplication syndrome	4p16.3	726706008	2	3451924018	Distal trisomy 4p	4p
726733007	1	3452289015	Chromosome Xp22.3 microdeletion syndrome	Xp22.3	726733007	2	3452290012	Xp22.3 microdeletion syndrome	Xp22.3
732259001	1	3465057014	Distal monosomy 17q	17q	732259001	2	3465058016	Distal 17q deletion	17q
732259001	1	3465057014	Distal monosomy 17q	17q	732259001	2	3465059012	Telomeric deletion 17q	17q
732259001	2	3465058016	Distal 17q deletion	17q	732259001	2	3465059012	Telomeric deletion 17q	17q
733473000	1	3499511015	16p13.3 microduplication syndrome	16p13.3	733473000	2	3499509012	Distal trisomy 16p	16p
733473000	1	3499511015	16p13.3 microduplication syndrome	16p13.3	733473000	2	3499510019	Distal duplication 16p	16p
733473000	2	3499509012	Distal trisomy 16p	16p	733473000	2	3499510019	Distal duplication 16p	16p
733518000	1	3499592014	16p11.2p12.2 microduplication syndrome	16p11.2p12.2	733518000	2	3499593016	Trisomy 16p11.2p12.2	16p11.2p12.2
733519008	1	3499595011	17q12 microdeletion syndrome	17q12	733519008	2	3499596012	Monosomy 17q12	17q12
733520002	1	3499600019	20q13.33 microdeletion syndrome	20q13.33	733520002	2	3499599017	Monosomy 20q13.33	20q13.33
733521003	1	3499601015	Distal 16p11.2 microdeletion syndrome	16p11.2	733521003	2	3499603017	Distal monosomy 16p11.2	16p11.2
734016004	1	3481855018	17p11.2 microduplication syndrome	17p11.2	734016004	2	3481857014	Trisomy 17p11.2	17p11.2
734029004	1	3482005010	Distal 22q11.2 microdeletion syndrome	22q11.2	734029004	2	3482006011	Distal monosomy 22q11.2	22q11.2
734030009	1	3482019010	12q15q21.1 microdeletion syndrome	12q15q21.1	734030009	2	3482020016	Deletion 12q15q21.1	12q15q21.1
734030009	1	3482019010	12q15q21.1 microdeletion syndrome	12q15q21.1	734030009	2	3482021017	Monosomy 12q15q21.1	12q15q21.1
734030009	2	3482020016	Deletion 12q15q21.1	12q15q21.1	734030009	2	3482021017	Monosomy 12q15q21.1	12q15q21.1
763062006	1	3637735014	2q33.1 microdeletion syndrome	2q33.1	763062006	2	3637736010	Monosomy 2q33.1	2q33.1
763272003	1	3638346012	Distal trisomy 2q	2q	763272003	2	3638348013	Distal duplication 2q	2q
763273008	1	3638351018	Distal trisomy 4q	4q	763273008	2	3638353015	Distal duplication 4q	4q
763274002	1	4565138018	Distal trisomy 5q syndrome	5q	763274002	2	3638354014	Distal duplication 5q	5q
763274002	1	4565138018	Distal trisomy 5q syndrome	5q	763274002	2	3638356011	Distal trisomy 5q	5q
763274002	2	3638354014	Distal duplication 5q	5q	763274002	2	3638356011	Distal trisomy 5q	5q
763275001	1	3638358012	Distal trisomy 6q	6q	763275001	2	3638360014	Distal duplication 6q	6q
763276000	1	4555210015	Distal trisomy 7p syndrome	7p	763276000	2	3638363011	Distal trisomy 7p	7p
763276000	1	4555210015	Distal trisomy 7p syndrome	7p	763276000	2	3638364017	Distal duplication 7p	7p
763276000	2	3638363011	Distal trisomy 7p	7p	763276000	2	3638364017	Distal duplication 7p	7p
763277009	1	3638366015	Distal trisomy 8q	8q	763277009	2	3638368019	Distal duplication 8q	8q
763527007	1	3642737012	Distal monosomy 13q syndrome	13q	763527007	2	3642735016	Distal monosomy 13q	13q
763527007	1	3642737012	Distal monosomy 13q syndrome	13q	763527007	2	3642739010	13q32 deletion	13q32
763527007	1	3642737012	Distal monosomy 13q syndrome	13q	763527007	2	3642740012	Distal 13q deletion	13q
763527007	2	3642735016	Distal monosomy 13q	13q	763527007	2	3642739010	13q32 deletion	13q32
763527007	2	3642735016	Distal monosomy 13q	13q	763527007	2	3642740012	Distal 13q deletion	13q
763527007	2	3642739010	13q32 deletion	13q32	763527007	2	3642740012	Distal 13q deletion	13q
763529005	1	3642750013	Distal monosomy 7q36 syndrome	7q36	763529005	2	3642748017	Distal deletion 7q36	7q36
763529005	1	3642750013	Distal monosomy 7q36 syndrome	7q36	763529005	2	3642751012	Distal monosomy 7q36	7q36
763529005	2	3642748017	Distal deletion 7q36	7q36	763529005	2	3642751012	Distal monosomy 7q36	7q36
764435003	1	3649828016	17q12 microduplication syndrome	17q12	764435003	2	3649826017	Chromosome 17q12 duplication syndrome	17q12
764435003	1	3649828016	17q12 microduplication syndrome	17q12	764435003	2	3649827014	17q12 duplication syndrome	17q12
764435003	1	3649828016	17q12 microduplication syndrome	17q12	764435003	2	3649830019	Trisomy 17q12	17q12
764435003	2	3649826017	Chromosome 17q12 duplication syndrome	17q12	764435003	2	3649827014	17q12 duplication syndrome	17q12
764435003	2	3649826017	Chromosome 17q12 duplication syndrome	17q12	764435003	2	3649830019	Trisomy 17q12	17q12
764435003	2	3649827014	17q12 duplication syndrome	17q12	764435003	2	3649830019	Trisomy 17q12	17q12
764440006	1	3649843019	19p13.13 microdeletion syndrome	19p13.13	764440006	2	3649841017	Monosomy 19p13.13	19p13.13
764440006	1	3649843019	19p13.13 microdeletion syndrome	19p13.13	764440006	2	3649844013	Chromosome 19p13.13 deletion syndrome	19p13.13
764440006	2	3649841017	Monosomy 19p13.13	19p13.13	764440006	2	3649844013	Chromosome 19p13.13 deletion syndrome	19p13.13
764447009	1	3650157018	Distal trisomy 11q	11q	764447009	2	3650155014	Telomeric duplication 11q	11q
764447009	1	3650157018	Distal trisomy 11q	11q	764447009	2	3650158011	Distal duplication 11q	11q
764447009	2	3650155014	Telomeric duplication 11q	11q	764447009	2	3650158011	Distal duplication 11q	11q
764454003	1	3650160013	Distal trisomy 13q	13q	764454003	2	3650161012	Distal duplication 13q	13q
764454003	1	3650160013	Distal trisomy 13q	13q	764454003	2	3650162017	Telomeric duplication 13q	13q
764454003	2	3650161012	Distal duplication 13q	13q	764454003	2	3650162017	Telomeric duplication 13q	13q
764459008	1	3650168018	Distal trisomy 16q	16q	764459008	2	3650165015	Distal duplication 16q	16q
764459008	1	3650168018	Distal trisomy 16q	16q	764459008	2	3650166019	Telomeric duplication 16q	16q
764459008	2	3650165015	Distal duplication 16q	16q	764459008	2	3650166019	Telomeric duplication 16q	16q
764500002	1	4555946019	Distal trisomy 20q syndrome	20q	764500002	2	3650169014	Distal trisomy 20q	20q
764500002	1	4555946019	Distal trisomy 20q syndrome	20q	764500002	2	3650170010	Distal duplication 20q	20q
764500002	1	4555946019	Distal trisomy 20q syndrome	20q	764500002	2	3650172019	Telomeric duplication 20q	20q
764500002	2	3650169014	Distal trisomy 20q	20q	764500002	2	3650170010	Distal duplication 20q	20q
764500002	2	3650169014	Distal trisomy 20q	20q	764500002	2	3650172019	Telomeric duplication 20q	20q
764500002	2	3650170010	Distal duplication 20q	20q	764500002	2	3650172019	Telomeric duplication 20q	20q
764512003	1	4555274019	Distal trisomy 22q syndrome	22q	764512003	2	3650173012	Distal duplication 22q	22q
764512003	1	4555274019	Distal trisomy 22q syndrome	22q	764512003	2	3650175017	Distal trisomy 22q	22q
764512003	1	4555274019	Distal trisomy 22q syndrome	22q	764512003	2	3650176016	Telomeric duplication 22q	22q
764512003	2	3650173012	Distal duplication 22q	22q	764512003	2	3650175017	Distal trisomy 22q	22q
764512003	2	3650173012	Distal duplication 22q	22q	764512003	2	3650176016	Telomeric duplication 22q	22q
764512003	2	3650175017	Distal trisomy 22q	22q	764512003	2	3650176016	Telomeric duplication 22q	22q
764518004	1	3650177013	Distal trisomy 2p	2p	764518004	2	3650178015	Distal duplication 2p	2p
764518004	1	3650177013	Distal trisomy 2p	2p	764518004	2	3650180014	Telomeric duplication 2p	2p
764518004	2	3650178015	Distal duplication 2p	2p	764518004	2	3650180014	Telomeric duplication 2p	2p
764519007	1	3650188019	Distal trisomy 3p	3p	764519007	2	3650186015	Distal duplication 3p	3p
764519007	1	3650188019	Distal trisomy 3p	3p	764519007	2	3650187012	Telomeric duplication 3p	3p
764519007	2	3650186015	Distal duplication 3p	3p	764519007	2	3650187012	Telomeric duplication 3p	3p
764520001	1	3650189010	Distal trisomy 9q	9q	764520001	2	3650190018	Distal duplication 9q	9q
764520001	1	3650189010	Distal trisomy 9q	9q	764520001	2	3650191019	Telomeric duplication 9q	9q
764520001	2	3650190018	Distal duplication 9q	9q	764520001	2	3650191019	Telomeric duplication 9q	9q
764524005	1	3650205012	Distal 22q11.2 microduplication syndrome	22q11.2	764524005	2	3650203017	Distal trisomy 22q11.2	22q11.2
764696007	1	3654875010	Distal 17p13.3 microdeletion syndrome	17p13.3	764696007	2	3654876011	Distal monosomy 17p13.3	17p13.3
764703002	1	3654883016	7p22.1 microduplication syndrome	7p22.1	764703002	2	3654882014	Trisomy 7p22.1	7p22.1
764725008	1	3654894017	9p13 microdeletion syndrome	9p13	764725008	2	3654893011	Monosomy 9p13	9p13
764739008	1	3654948016	Proximal 18q deletion syndrome	18q	764739008	2	3654947014	Proximal chromosome 18q deletion syndrome	18q
764996009	1	3655994013	Non-distal trisomy 13q	13q	764996009	2	3655995014	Non-distal duplication 13q	13q
764996009	1	3655994013	Non-distal trisomy 13q	13q	764996009	2	3655997018	Non-telomeric trisomy 13q	13q
764996009	2	3655995014	Non-distal duplication 13q	13q	764996009	2	3655997018	Non-telomeric trisomy 13q	13q
764997000	1	3656006012	Non-distal trisomy 9q	9q	764997000	2	3656004010	Non-distal duplication 9q	9q
764997000	1	3656006012	Non-distal trisomy 9q	9q	764997000	2	3656005011	Non-telomeric trisomy 9q	9q
764997000	2	3656004010	Non-distal duplication 9q	9q	764997000	2	3656005011	Non-telomeric trisomy 9q	9q
765140006	1	3657161010	8p23.1 duplication syndrome	8p23.1	765140006	2	3657159018	Trisomy 8p23.1	8p23.1
765142003	1	3657168016	Proximal 16p11.2 microduplication syndrome	16p11.2	765142003	2	3657169012	Proximal trisomy 16p11.2	16p11.2
765171002	1	3657320019	Distal chromosome 18q deletion syndrome	18q	765171002	2	3657315019	Distal 18q deletion syndrome	18q
765171002	1	3657320019	Distal chromosome 18q deletion syndrome	18q	765171002	2	3657316018	Distal monosomy 18q	18q
765171002	2	3657315019	Distal 18q deletion syndrome	18q	765171002	2	3657316018	Distal monosomy 18q	18q
766050000	1	3660620014	Distal monosomy 15q	15q	766050000	2	3660618011	Distal 15q deletion syndrome	15q
766050000	1	3660620014	Distal monosomy 15q	15q	766050000	2	3660619015	Monosomy 15q26	15q26
766050000	1	3660620014	Distal monosomy 15q	15q	766050000	2	3660622018	15q26 deletion syndrome	15q26
766050000	1	3660620014	Distal monosomy 15q	15q	766050000	2	3660623011	Telomeric 15q deletion syndrome	15q
766050000	1	3660620014	Distal monosomy 15q	15q	766050000	2	3660626015	Distal monosomy 15q syndrome	15q
766050000	2	3660618011	Distal 15q deletion syndrome	15q	766050000	2	3660619015	Monosomy 15q26	15q26
766050000	2	3660618011	Distal 15q deletion syndrome	15q	766050000	2	3660622018	15q26 deletion syndrome	15q26
766050000	2	3660618011	Distal 15q deletion syndrome	15q	766050000	2	3660623011	Telomeric 15q deletion syndrome	15q
766050000	2	3660618011	Distal 15q deletion syndrome	15q	766050000	2	3660626015	Distal monosomy 15q syndrome	15q
766050000	2	3660619015	Monosomy 15q26	15q26	766050000	2	3660622018	15q26 deletion syndrome	15q26
766050000	2	3660619015	Monosomy 15q26	15q26	766050000	2	3660623011	Telomeric 15q deletion syndrome	15q
766050000	2	3660619015	Monosomy 15q26	15q26	766050000	2	3660626015	Distal monosomy 15q syndrome	15q
766050000	2	3660622018	15q26 deletion syndrome	15q26	766050000	2	3660623011	Telomeric 15q deletion syndrome	15q
766050000	2	3660622018	15q26 deletion syndrome	15q26	766050000	2	3660626015	Distal monosomy 15q syndrome	15q
766050000	2	3660623011	Telomeric 15q deletion syndrome	15q	766050000	2	3660626015	Distal monosomy 15q syndrome	15q
766052008	1	3660638012	Distal trisomy 19q	19q	766052008	2	3660635010	Distal duplication 19q	19q
766052008	1	3660638012	Distal trisomy 19q	19q	766052008	2	3660636011	Telomeric duplication 19q	19q
766052008	1	3660638012	Distal trisomy 19q	19q	766052008	2	3660648014	Distal trisomy 19q syndrome	19q
766052008	2	3660635010	Distal duplication 19q	19q	766052008	2	3660636011	Telomeric duplication 19q	19q
766052008	2	3660635010	Distal duplication 19q	19q	766052008	2	3660648014	Distal trisomy 19q syndrome	19q
766052008	2	3660636011	Telomeric duplication 19q	19q	766052008	2	3660648014	Distal trisomy 19q syndrome	19q
766053003	1	3660641015	Distal trisomy 1p36	1p36	766053003	2	3660639016	Distal duplication 1p36	1p36
766053003	1	3660641015	Distal trisomy 1p36	1p36	766053003	2	3660642010	Telomeric duplication 1p36	1p36
766053003	1	3660641015	Distal trisomy 1p36	1p36	766053003	2	3660643017	Distal trisomy 1p36 syndrome	1p36
766053003	2	3660639016	Distal duplication 1p36	1p36	766053003	2	3660642010	Telomeric duplication 1p36	1p36
766053003	2	3660639016	Distal duplication 1p36	1p36	766053003	2	3660643017	Distal trisomy 1p36 syndrome	1p36
766053003	2	3660642010	Telomeric duplication 1p36	1p36	766053003	2	3660643017	Distal trisomy 1p36 syndrome	1p36
766708008	1	3662335013	Isochromosomy Yp	Yp	766708008	2	3662336014	Isochromosome Yp	Yp
766716004	1	4590295015	Monosomy 13q34 syndrome	13q34	766716004	2	3662371014	Monosomy 13q34	13q34
766716004	1	4590295015	Monosomy 13q34 syndrome	13q34	766716004	2	3662373012	Subtelomeric deletion 13q34	13q34
766716004	1	4590295015	Monosomy 13q34 syndrome	13q34	766716004	2	3662374018	Distal deletion 13q34	13q34
766716004	2	3662371014	Monosomy 13q34	13q34	766716004	2	3662373012	Subtelomeric deletion 13q34	13q34
766716004	2	3662371014	Monosomy 13q34	13q34	766716004	2	3662374018	Distal deletion 13q34	13q34
766716004	2	3662373012	Subtelomeric deletion 13q34	13q34	766716004	2	3662374018	Distal deletion 13q34	13q34
766755003	1	4565107019	Tetrasomy 5p syndrome	5p	766755003	2	3662505017	Tetrasomy 5p	5p
766755003	1	4565107019	Tetrasomy 5p syndrome	5p	766755003	2	3662506016	Isochromosome 5p	5p
766755003	2	3662505017	Tetrasomy 5p	5p	766755003	2	3662506016	Isochromosome 5p	5p
766766005	1	3662550015	1p31p32 microdeletion syndrome	1p31p32	766766005	2	3662551016	Monosomy 1p31p32	1p31p32
766816008	1	3662715014	2q23.1 microduplication syndrome	2q23.1	766816008	2	3662716010	Trisomy 2q23.1	2q23.1
767263007	1	3670124019	22q11.2 deletion syndrome	22q11.2	767263007	2	3670127014	Microdeletion 22q11.2	22q11.2
768471006	1	3685713018	16p12.2 microdeletion syndrome	16p12.2	768471006	2	3685711016	16p12.2 microdeletion	16p12.2
768927001	1	3687514013	Trisomy 1q syndrome	1q	768927001	2	3687515014	Duplication 1q	1q
768929003	1	3687522018	Trisomy 8p syndrome	8p	768929003	2	3687523011	Duplication 8p	8p
770401007	1	3700688012	10q22.3q23.3 microdeletion syndrome	10q22.3q23.3	770401007	2	3700689016	Deletion 10q22.3q23.3	10q22.3q23.3
770401007	1	3700688012	10q22.3q23.3 microdeletion syndrome	10q22.3q23.3	770401007	2	3700691012	Monosomy 10q22.3q23.3	10q22.3q23.3
770401007	2	3700689016	Deletion 10q22.3q23.3	10q22.3q23.3	770401007	2	3700691012	Monosomy 10q22.3q23.3	10q22.3q23.3
770410004	1	4564302014	Distal monosomy 14q syndrome	14q	770410004	2	3700737016	Distal deletion 14q	14q
770410004	1	4564302014	Distal monosomy 14q syndrome	14q	770410004	2	3700738014	Telomeric deletion 14q	14q
770410004	1	4564302014	Distal monosomy 14q syndrome	14q	770410004	2	3700739018	Distal monosomy 14q	14q
770410004	2	3700737016	Distal deletion 14q	14q	770410004	2	3700738014	Telomeric deletion 14q	14q
770410004	2	3700737016	Distal deletion 14q	14q	770410004	2	3700739018	Distal monosomy 14q	14q
770410004	2	3700738014	Telomeric deletion 14q	14q	770410004	2	3700739018	Distal monosomy 14q	14q
770566002	1	3701297012	Monosomy 13q14 syndrome	13q14	770566002	2	3701299010	Deletion 13q14	13q14
770566002	1	3701297012	Monosomy 13q14 syndrome	13q14	770566002	2	3701300019	Monosomy 13q14	13q14
770566002	2	3701299010	Deletion 13q14	13q14	770566002	2	3701300019	Monosomy 13q14	13q14
770663003	1	3701913015	Tetrasomy 11q24.1	11q24.1	770663003	2	3701911018	Microtriplication 11q24.1	11q24.1
770665005	1	3701920010	Non-distal monosomy 10q	10q	770665005	2	3701919016	Non-distal deletion 10q	10q
770665005	1	3701920010	Non-distal monosomy 10q	10q	770665005	2	3701921014	Non-telomeric monosomy 10q	10q
770665005	2	3701919016	Non-distal deletion 10q	10q	770665005	2	3701921014	Non-telomeric monosomy 10q	10q
770666006	1	3701923012	Non-distal trisomy 10q	10q	770666006	2	3701922019	Non-telomeric trisomy 10q	10q
770666006	1	3701923012	Non-distal trisomy 10q	10q	770666006	2	3701924018	Non-distal duplication 10q	10q
770666006	2	3701922019	Non-telomeric trisomy 10q	10q	770666006	2	3701924018	Non-distal duplication 10q	10q
770760006	1	3702491013	16q24.1 microdeletion syndrome	16q24.1	770760006	2	3702492018	Monosomy 16q24.1	16q24.1
770793002	1	3702822018	5p13 microduplication syndrome	5p13	770793002	2	3702821013	Trisomy 5p13	5p13
770794008	1	3702827012	11p15.4 microduplication syndrome	11p15.4	770794008	2	3702825016	Trisomy 11p15.4	11p15.4
770902008	1	3703346014	Distal monosomy 12p	12p	770902008	2	3703347017	Distal deletion 12p	12p
770902008	1	3703346014	Distal monosomy 12p	12p	770902008	2	3703349019	12p13.33 microdeletion syndrome	12p13.33
770902008	2	3703347017	Distal deletion 12p	12p	770902008	2	3703349019	12p13.33 microdeletion syndrome	12p13.33
770905005	1	3703361010	Distal 7q11.23 microdeletion syndrome	7q11.23	770905005	2	3703362015	Distal monosomy 7q11.23	7q11.23
771072001	1	3704188015	Monosomy 9p	9p	771072001	2	3704189011	9p deletion syndrome	9p
771337007	1	3705813014	1q21.1 microduplication syndrome	1q21.1	771337007	2	3705812016	Trisomy 1q21.1	1q21.1
771340007	1	3705826013	15q11.2 microdeletion syndrome	15q11.2	771340007	2	3705825012	Monosomy 15q11.2	15q11.2
771341006	1	3705830011	14q11.2 microduplication syndrome	14q11.2	771341006	2	3705831010	Trisomy 14q11.2	14q11.2
771439009	1	3706198011	14q22q23 microdeletion syndrome	14q22q23	771439009	2	3706197018	Monosomy 14q22q23	14q22q23
771439009	1	3706198011	14q22q23 microdeletion syndrome	14q22q23	771439009	2	3706199015	14q22-q23 microdeletion syndrome	14q22-q23
771439009	1	3706198011	14q22q23 microdeletion syndrome	14q22q23	771439009	2	3706200017	Monosomy 14q22-q23	14q22-q23
771439009	2	3706197018	Monosomy 14q22q23	14q22q23	771439009	2	3706199015	14q22-q23 microdeletion syndrome	14q22-q23
771439009	2	3706197018	Monosomy 14q22q23	14q22q23	771439009	2	3706200017	Monosomy 14q22-q23	14q22-q23
771439009	2	3706199015	14q22-q23 microdeletion syndrome	14q22-q23	771439009	2	3706200017	Monosomy 14q22-q23	14q22-q23
773325004	1	3723181013	Distal 7q11.23 microduplication syndrome	7q11.23	773325004	2	3723178015	Distal trisomy 7q11.23	7q11.23
773326003	1	3723184017	7q31 microdeletion syndrome	7q31	773326003	2	3723182018	Monosomy 7q31	7q31
773346008	1	3723250014	20p13 microdeletion syndrome	20p13	773346008	2	3723251013	20p subtelomeric deletion syndrome	20p
773346008	1	3723250014	20p13 microdeletion syndrome	20p13	773346008	2	3723252018	Monosomy 20p13	20p13
773346008	2	3723251013	20p subtelomeric deletion syndrome	20p	773346008	2	3723252018	Monosomy 20p13	20p13
773493002	1	3723709019	9q31.1q31.3 microdeletion syndrome	9q31.1q31.3	773493002	2	3723711011	Monosomy 9q31.1q31.3	9q31.1q31.3
773494008	1	3723716018	14q24.1q24.3 microdeletion syndrome	14q24.1q24.3	773494008	2	3723718017	Monosomy 14q24.1q24.3	14q24.1q24.3
773547003	1	3724040010	13q12.3 microdeletion syndrome	13q12.3	773547003	2	3724041014	Monosomy 13q12.3	13q12.3
773670004	1	3725602017	Distal Xq28 microduplication syndrome	Xq28	773670004	2	3725604016	Distal trisomy Xq28	Xq28
778000002	1	3736354017	3q26q27 microdeletion syndrome	3q26q27	778000002	2	3736353011	Monosomy 3q26q27	3q26q27
778000002	1	3736354017	3q26q27 microdeletion syndrome	3q26q27	778000002	2	3736356015	Monosomy 3q26-q27	3q26-q27
778000002	2	3736353011	Monosomy 3q26q27	3q26q27	778000002	2	3736356015	Monosomy 3q26-q27	3q26-q27
778007004	1	3736393014	12p12.1 microdeletion syndrome	12p12.1	778007004	2	3736394015	Monosomy 12p12.1	12p12.1
778073001	1	3737638017	3q26 microduplication syndrome	3q26	778073001	2	3737639013	Trisomy 3q26	3q26
782669004	1	3755080013	10q22.3q23.3 microduplication syndrome	10q22.3q23.3	782669004	2	3755081012	Trisomy 10q22.3q23.3	10q22.3q23.3
782673001	1	3755100012	Distal monosomy 4q	4q	782673001	2	3755101011	Distal deletion 4q	4q
782673001	1	3755100012	Distal monosomy 4q	4q	782673001	2	3755103014	Telomeric deletion 4q	4q
782673001	2	3755101011	Distal deletion 4q	4q	782673001	2	3755103014	Telomeric deletion 4q	4q
782674007	1	4571148013	Distal monosomy 7p syndrome	7p	782674007	2	3755105019	Telomeric deletion 7p	7p
782674007	1	4571148013	Distal monosomy 7p syndrome	7p	782674007	2	3755106018	Distal deletion 7p	7p
782674007	1	4571148013	Distal monosomy 7p syndrome	7p	782674007	2	3755108017	Distal monosomy 7p	7p
782674007	2	3755105019	Telomeric deletion 7p	7p	782674007	2	3755106018	Distal deletion 7p	7p
782674007	2	3755105019	Telomeric deletion 7p	7p	782674007	2	3755108017	Distal monosomy 7p	7p
782674007	2	3755106018	Distal deletion 7p	7p	782674007	2	3755108017	Distal monosomy 7p	7p
782676009	1	3755116014	Distal trisomy 18q	18q	782676009	2	3755114012	Distal duplication 18q	18q
782676009	1	3755116014	Distal trisomy 18q	18q	782676009	2	3755115013	Telomeric duplication 18q	18q
782676009	2	3755114012	Distal duplication 18q	18q	782676009	2	3755115013	Telomeric duplication 18q	18q
782694003	1	3755246015	Non-distal monosomy 12q	12q	782694003	2	3755245016	Non-distal deletion 12q	12q
782694003	1	3755246015	Non-distal monosomy 12q	12q	782694003	2	3755247012	Non-telomeric monosomy 12q	12q
782694003	2	3755245016	Non-distal deletion 12q	12q	782694003	2	3755247012	Non-telomeric monosomy 12q	12q
783061008	2	3757288013	Monosomy 10p11.21p12.31	10p11.21p12.31	783061008	2	3757290014	10p12p11 microdeletion syndrome	10p12p11
783061008	2	3757288013	Monosomy 10p11.21p12.31	10p11.21p12.31	783061008	2	3757291013	Deletion 10p11.21p12.31	10p11.21p12.31
783061008	2	3757290014	10p12p11 microdeletion syndrome	10p12p11	783061008	2	3757291013	Deletion 10p11.21p12.31	10p11.21p12.31
783164002	1	3757913015	Distal monosomy 20q	20q	783164002	2	3757911018	Distal deletion 20q	20q
783164002	1	3757913015	Distal monosomy 20q	20q	783164002	2	4555831013	Distal monosomy 20q syndrome	20q
783164002	2	3757911018	Distal deletion 20q	20q	783164002	2	4555831013	Distal monosomy 20q syndrome	20q
783619003	2	3759531017	21q22.13q22.2 microdeletion syndrome	21q22.13q22.2	783619003	2	3759532012	Monosomy 21q22.13q22.2	21q22.13q22.2
787171006	1	3774792010	21q22.11q22.12 microdeletion syndrome	21q22.11q22.12	787171006	2	3774793017	Monosomy 21q22.11q22.12	21q22.11q22.12
880093002	1	3994485011	17q11 deletion syndrome	17q11	880093002	2	3994487015	Monosomy 17q11	17q11
880093002	1	3994485011	17q11 deletion syndrome	17q11	880093002	2	4008406018	Chromosome 17q11.2 deletion syndrome	17q11.2
880093002	2	3994487015	Monosomy 17q11	17q11	880093002	2	4008406018	Chromosome 17q11.2 deletion syndrome	17q11.2
890123006	1	4011205015	3p25.3 deletion syndrome	3p25.3	890123006	2	4011206019	3p25.3 microdeletion syndrome	3p25.3
9527009	1	4589824013	Tetrasomy 12p syndrome	12p	9527009	2	4589822012	Isochromosome 12p syndrome	12p
1153430004	2	4564290013	Partial deletion of chromosome 14q	14q	1153430004	0	4564291012	Partial deletion of long arm of chromosome 14 (disorder)	chromosome 14
1153430004	2	4564290013	Partial deletion of chromosome 14q	14q	1153430004	1	4564292017	Partial deletion of long arm of chromosome 14	chromosome 14
36369001	0	4555212011	1p partial monosomy (disorder)	1p	36369001	2	4555213018	Partial deletion of the short arm of chromosome 1	chromosome 1
36369001	1	4555211016	1p partial monosomy	1p	36369001	2	4555213018	Partial deletion of the short arm of chromosome 1	chromosome 1
270889005	2	405347016	18q- syndrome	18q	270889005	0	663271013	Deletion of long arm of chromosome 18 (disorder)	chromosome 18
270889005	2	405347016	18q- syndrome	18q	270889005	1	405346013	Deletion of long arm of chromosome 18	chromosome 18
897529004	2	4042284014	Distal monosomy 7q	7q	897529004	0	4034250013	Distal deletion of long arm of chromosome 7 (disorder)	chromosome 7
897529004	2	4042284014	Distal monosomy 7q	7q	897529004	1	4034249013	Distal deletion of long arm of chromosome 7	chromosome 7
1153583005	2	4565147014	Partial monosomy of chromosome 5p	5p	1153583005	0	4565149012	Deletion of part of short arm of chromosome 5 (disorder)	chromosome 5
1153583005	2	4565147014	Partial monosomy of chromosome 5p	5p	1153583005	1	4565146017	Partial deletion of short arm of chromosome 5	chromosome 5
1153583005	2	4565147014	Partial monosomy of chromosome 5p	5p	1153583005	2	4565148016	Deletion of part of short arm of chromosome 5	chromosome 5
270890001	2	405348014	18p- syndrome	18p	270890001	0	663272018	Deletion of short arm of chromosome 18 (disorder)	chromosome 18
270890001	2	405348014	18p- syndrome	18p	270890001	1	405349018	Deletion of short arm of chromosome 18	chromosome 18
49024004	0	786657013	4p partial trisomy syndrome (disorder)	4p	49024004	2	81677013	Trisomy for short arm of chromosome 4	chromosome 4
49024004	1	81675017	4p partial trisomy syndrome	4p	49024004	2	81677013	Trisomy for short arm of chromosome 4	chromosome 4
49024004	2	81676016	Trisomy 4p syndrome	4p	49024004	2	81677013	Trisomy for short arm of chromosome 4	chromosome 4
74008005	1	4565130013	5p partial trisomy	5p	74008005	0	4565140011	Partial trisomy of short arm of chromosome 5 (disorder)	chromosome 5
74008005	1	4565130013	5p partial trisomy	5p	74008005	2	4565139014	Partial trisomy of short arm of chromosome 5	chromosome 5
17122004	0	744279014	4p partial monosomy syndrome (disorder)	4p	17122004	2	28959019	Chromosome 4 short arm deletion syndrome	Chromosome 4
17122004	0	744279014	4p partial monosomy syndrome (disorder)	4p	17122004	2	1221474011	Deletion of short arm of chromosome 4	chromosome 4
17122004	1	28958010	4p partial monosomy syndrome	4p	17122004	2	28959019	Chromosome 4 short arm deletion syndrome	Chromosome 4
17122004	1	28958010	4p partial monosomy syndrome	4p	17122004	2	1221474011	Deletion of short arm of chromosome 4	chromosome 4
17122004	2	28960012	4p minus syndrome	4p	17122004	2	28959019	Chromosome 4 short arm deletion syndrome	Chromosome 4
17122004	2	28960012	4p minus syndrome	4p	17122004	2	1221474011	Deletion of short arm of chromosome 4	chromosome 4
70173007	0	810200013	5p partial monosomy syndrome (disorder)	5p	70173007	2	116550019	Partial deletion of short arm of chromosome 5 syndrome	chromosome 5
70173007	1	116546014	5p partial monosomy syndrome	5p	70173007	2	116550019	Partial deletion of short arm of chromosome 5 syndrome	chromosome 5
70173007	2	116549019	5p minus syndrome	5p	70173007	2	116550019	Partial deletion of short arm of chromosome 5 syndrome	chromosome 5
715438008	2	3302631013	Distal deletion 11q	11q	715438008	0	3302628012	Distal partial deletion of long arm of chromosome 11 (disorder)	chromosome 11
715438008	2	3302631013	Distal deletion 11q	11q	715438008	2	3302629016	Distal partial deletion of long arm of chromosome 11	chromosome 11
715438008	2	3302632018	Distal monosomy 11q	11q	715438008	0	3302628012	Distal partial deletion of long arm of chromosome 11 (disorder)	chromosome 11
715438008	2	3302632018	Distal monosomy 11q	11q	715438008	2	3302629016	Distal partial deletion of long arm of chromosome 11	chromosome 11
715530004	2	3302938017	Isochromosome 9p	9p	715530004	0	4572104018	Tetrasomy of short arm of chromosome 9 (disorder)	chromosome 9
715530004	2	3302938017	Isochromosome 9p	9p	715530004	1	4572105017	Tetrasomy of short arm of chromosome 9	chromosome 9
715530004	2	3302939013	Tetrasomy 9p	9p	715530004	0	4572104018	Tetrasomy of short arm of chromosome 9 (disorder)	chromosome 9
715530004	2	3302939013	Tetrasomy 9p	9p	715530004	1	4572105017	Tetrasomy of short arm of chromosome 9	chromosome 9
723332005	2	3424114010	Duplication/inversion 15q11	15q11	723332005	0	3424112014	Isodicentric chromosome 15 syndrome (disorder)	chromosome 15
723332005	2	3424114010	Duplication/inversion 15q11	15q11	723332005	1	3424113016	Isodicentric chromosome 15 syndrome	chromosome 15
723332005	2	3424117015	Non-distal tetrasomy 15q	15q	723332005	0	3424112014	Isodicentric chromosome 15 syndrome (disorder)	chromosome 15
723332005	2	3424117015	Non-distal tetrasomy 15q	15q	723332005	1	3424113016	Isodicentric chromosome 15 syndrome	chromosome 15
897524009	2	4042313012	Distal deletion 1p	1p	897524009	0	4034239010	Distal deletion of short arm of chromosome 1 (disorder)	chromosome 1
897524009	2	4042313012	Distal deletion 1p	1p	897524009	1	4034240012	Distal deletion of short arm of chromosome 1	chromosome 1
897526006	2	4042285010	Distal monosomy 8q	8q	897526006	0	4034243014	Distal deletion of long arm of chromosome 8 (disorder)	chromosome 8
897526006	2	4042285010	Distal monosomy 8q	8q	897526006	1	4034244015	Distal deletion of long arm of chromosome 8	chromosome 8
897527002	2	4042286011	Distal monosomy 9q	9q	897527002	0	4034245019	Distal deletion of long arm of chromosome 9 (disorder)	chromosome 9
897527002	2	4042286011	Distal monosomy 9q	9q	897527002	1	4034246018	Distal deletion of long arm of chromosome 9	chromosome 9
897528007	2	4042283015	Distal monosomy 6q	6q	897528007	0	4034247010	Distal deletion of long arm of chromosome 6 (disorder)	chromosome 6
897528007	2	4042283015	Distal monosomy 6q	6q	897528007	1	4034248017	Distal deletion of long arm of chromosome 6	chromosome 6
897536003	2	4042193017	Distal monosomy 3q	3q	897536003	0	4034269015	Distal deletion of long arm of chromosome 3 (disorder)	chromosome 3
897536003	2	4042193017	Distal monosomy 3q	3q	897536003	1	4034268011	Distal deletion of long arm of chromosome 3	chromosome 3
