233985008	118948005
233985008	248493003
233985008	359557001
233985008	473451005
233985008	239953001
398925009	73013002
398925009	302226006
80483009	50410009
80483009	300848003
80483009	1071000119107
80483009	128477000
31928004	128477000
31928004	80659006
31928004	239953001
31928004	444905003
69430001	724386005
69430001	300848003
69430001	363124003
69430001	128477000
69430001	609621000
79631006	128613002
10850741000119108	419945001
10850741000119108	262560006
11654001	34840004
11654001	128137003
11654001	280136002
241955009	41291007
721537005	299735001
721537005	15241006
721537005	386033004
266571009	249244000
266571009	362968007
266571009	724386005
30041005	2704003
30041005	11131000119108
30041005	302217008
133961000119102	128482007
133961000119102	9826008
394659003	128487001
394659003	128599005
195951007	13645005
195951007	111273006
773113008	63171007
773113008	301810000
773113008	128241005
773113008	128482007
401314000	128487001
401314000	128599005
401314000	57809008
401314000	609410002
197456007	128482007
197456007	363169009
197456007	373407002
197456007	3855007
240460008	398102009
398102009	39367000
398102009	128116006
398102009	312130009
398102009	63171007
40541001	111273006
40541001	267038008
40541001	118946009
40541001	128272009
14669001	441742003
14669001	2704003
14669001	90708001
401303003	441742003
401303003	128487001
401303003	128599005
401303003	57809008
401303003	609410002
86279000	128482007
86279000	65363002
91489000	27550009
91489000	249561001
91489000	128487001
91489000	79787007
17226007	64572001
62014003	87858002
62014003	282100009
27031003	95896000
66590003	719848005
25702006	719848005
25702006	7895008
25702006	67426006
308742005	128613002
473460002	9826008
473460002	414029004
609328004	404684003
88032003	27550009
88032003	266257000
88032003	81308009
271737000	414022008
271737000	106200001
271737000	762656009
30037006	118948005
30037006	53619000
30037006	609620004
30037006	609621000
39579001	2704003
39579001	414029004
433068007	248493003
433068007	301296002
433068007	359557001
433068007	373434004
433068007	473451005
433068007	239953001
41291007	267038008
41291007	64572001
403607004	87858002
403607004	41291007
34842007	131148009
34842007	64572001
410692006	128295000
410692006	363169009
410692006	95678007
410692006	418727003
409498004	371582002
197480006	36456004
197480006	64572001
74400008	119523007
74400008	128999004
74400008	363169009
266262004	439129009
266262004	359557001
872381000000101	95344007
50821009	239953001
50821009	359557001
50821009	247108008
50821009	29555009
50821009	11131000119108
50821009	301905003
230508004	299735001
230508004	77157004
26918003	301810000
26918003	105997008
26918003	363169009
26918003	373407002
389026000	118948005
389026000	399902003
422588002	233604007
195967001	50043002
49436004	870575001
418341009	44808001
444849002	700011003
444849002	609410002
444849002	76069003
128350005	301811001
128350005	128047003
128350005	95880003
128350005	9826008
231893002	301811001
231893002	429040005
231893002	63725005
95883001	128116006
95883001	301811001
95883001	363169009
95883001	39367000
44882003	362968007
44882003	363169009
44882003	373406006
44882003	249244000
310701003	58184002
310701003	415531008
310701003	31996006
193093009	106150003
193093009	422426003
68267002	81308009
111541001	2704003
111541001	297268004
111541001	298364001
111541001	439161008
266569009	118948005
266569009	249604002
266569009	362968007
266569009	609620004
74021003	44808001
13746004	64572001
249366005	131148009
249366005	118237005
249366005	106048009
249366005	297268004
17709002	239953001
17709002	788951001
17709002	248493003
17709002	248727005
17709002	373434004
41446000	363176004
41446000	60113004
41446000	246845007
64779008	362970003
34436003	441742003
314533000	231794000
314533000	282745002
48867003	301296002
48867003	366157005
32644009	289618005
720975008	365860008
58411009	105995000
58411009	1071000119107
58411009	282007005
58411009	82271004
42744004	105995000
42744004	1071000119107
42744004	282007005
42744004	82271004
4120002	118946009
4120002	128997002
4120002	363169009
4120002	233776003
75702008	408638001
418818005	363137000
418818005	56265001
57207003	267038008
57207003	11131000119108
57207003	15250008
770610006	52011008
770610006	106076001
770610006	125592002
770610006	282026002
770610006	714974000
770610006	80659006
770610006	280135003
770610006	14893008
284223003	84677008
284223003	700011003
18084001	6055000
18084001	125596004
274205003	262581006
274205003	371409005
262582004	262581006
262582004	125593007
11980003	84677008
11980003	118932009
80827001	6055000
80827001	125597008
14893008	6055000
14893008	125599006
19684007	84677008
19684007	125601008
37696000	84677008
37696000	128137003
60713008	37645002
60713008	90460009
284219006	52405000
284219006	282771003
284219006	609621000
284188001	127275008
284188001	125666000
57143002	6055000
57143002	125594001
6132001	84677008
6132001	7523003
64090007	262520005
64090007	14893008
88374002	11980003
88374002	128597007
88374002	406119002
52405000	48125009
52405000	125666000
14261008	6055000
14261008	125595000
84017003	363169009
84017003	363179006
15845006	721751007
15845006	108365000
15845006	301811001
15845006	46742003
30093007	105997008
25924004	76581006
78048006	3218000
410429000	56265001
89138009	128487001
85898001	57809008
57406009	118947000
57406009	302226006
57406009	239953001
57406009	299735001
193570009	62585004
193570009	418727003
193570009	301905003
700372006	68566005
700372006	473023007
192970008	239953001
192970008	246595001
192970008	299735001
192970008	302226006
192970008	822988000
128045006	64572001
109245003	371409005
109245003	118930001
109245003	128277003
38742007	11131000119108
38742007	239953001
38742007	247108008
38742007	29555009
38742007	301905003
38742007	359557001
68478007	248727005
68478007	439129009
68478007	247108008
68478007	11131000119108
68478007	29555009
68478007	301905003
312956001	42059000
312956001	54767005
312956001	299735001
274100004	81308009
274100004	1386000
450418003	274100004
450418003	110149000
192759008	248727005
192759008	439129009
54404000	246595001
54404000	118939000
54404000	302226006
387800004	298149009
387800004	111235007
387800004	372109003
387800004	396275006
1482004	246845007
1482004	441457006
1482004	60113004
1482004	239953001
1482004	444905003
1482004	714974000
1482004	238714008
111864006	33947007
111864006	131148009
105629000	371583007
76581006	249561001
76581006	105997008
76581006	363169009
76581006	373407002
63650001	249561001
63650001	128398001
63650001	79787007
63650001	301811001
63650001	408638001
328383001	235856003
328383001	27624003
21186006	65363002
21186006	27624003
235494005	27624003
235494005	363169009
235494005	373407002
235494005	3855007
90688005	441742003
90688005	27624003
90688005	90708001
822091000000100	408638001
207957008	31984004
207957008	298385001
207957008	822988000
42188001	52603002
42188001	116315007
42188001	700012005
428151000	52603002
428151000	125601008
64665009	342070009
9468002	23406007
9468002	423125000
9468002	125598003
269062008	111235007
269062008	298385001
269062008	90460009
269062008	423125000
33173003	23406007
33173003	423125000
33173003	16250001000004107
766775007	91037003
766775007	298385001
430984009	423125000
430984009	125593007
430984009	418764009
25415003	52603002
25415003	7523003
447395005	414292006
447395005	52603002
342070009	15574005
342070009	52603002
359817006	52603002
359817006	125600009
43295006	23406007
43295006	423125000
43295006	125595000
208394006	125599006
208394006	23406007
208394006	299043001
208394006	423125000
81639003	430984009
81639003	371162008
81639003	118237005
80756009	428151000
91037003	77493009
91037003	31984004
24424003	23406007
24424003	299043001
24424003	52011008
24424003	423125000
81576005	342070009
81576005	128597007
81576005	406119002
704213001	23406007
704213001	299043001
704213001	262520005
704213001	299128000
704213001	423125000
111640008	12676007
111640008	423125000
53627009	71555008
53627009	111640008
60667009	31984004
60667009	65978000
29749002	31984004
29749002	23406007
29749002	16250001000004107
29749002	262525000
371162008	423125000
371162008	118945008
371162008	418764009
66112004	31984004
66112004	65978000
208403005	208394006
208403005	262520005
208403005	299128000
447139008	414292006
447139008	52603002
413877007	447139008
413877007	447395005
71555008	54556006
71555008	423125000
207974008	91037003
207974008	298385001
208371005	9468002
207938004	31984004
207938004	262525000
207938004	298385001
208322000	201946009
208322000	263017003
208322000	419945001
208322000	111640008
29045004	125596004
29045004	417558002
29045004	419945001
29045004	58188004
29045004	71555008
193031009	81308009
193031009	230461009
80744008	6141006
111245009	64572001
111245009	419026008
27885002	418341009
27885002	57809008
27885002	870575001
109671008	105995000
128200000	42658009
128200000	279001004
128200000	27624003
128200000	373673007
128200000	82423001
309773000	116224001
398158001	473023007
398158001	116224001
427793007	473023007
427793007	116224001
44808001	56265001
363039000	105969002
363039000	66091009
48334007	128268005
48334007	263028004
48334007	5294002
48334007	66091009
204113001	66091009
204113001	371409005
13213009	128599005
13213009	5294002
13213009	66091009
770626007	60113004
770626007	5294002
770626007	66091009
770626007	15241006
770626007	386033004
770626007	363137000
29980002	249561001
29980002	5294002
29980002	66091009
29980002	79787007
42343007	415991003
13706005	118941004
13706005	239953001
13706005	246912006
13706005	276320009
13706005	280131007
13706005	301905003
13706005	418727003
13706005	714974000
13706005	62585004
193901000	444905003
193901000	11131000119108
193901000	118941004
193901000	239953001
193901000	246912006
193901000	276320009
193901000	280131007
193901000	301905003
193901000	418727003
193901000	714974000
193901000	441457006
231866000	418727003
231866000	246912006
231866000	386082004
231866000	128145008
231866000	11131000119108
231866000	118941004
231866000	280131007
417750006	118941004
417750006	246912006
417750006	276320009
417750006	280131007
417750006	418727003
417750006	714974000
417750006	231794000
417750006	262750000
417750006	428088000
417750006	282026002
14760008	88111009
14760008	609624008
40275004	106076001
40275004	363168001
40275004	363169009
68670009	40275004
68670009	280131007
68670009	60113004
68670009	363176004
371066008	85848002
371066008	443182008
314497004	443182008
34663006	419945001
34663006	301766008
34663006	81308009
34663006	82271004
34663006	128239009
34663006	125667009
50228009	300083003
50228009	82271004
50228009	125667009
125668004	125593007
125668004	125667009
262784001	128272009
262784001	105612003
262784001	127275008
262784001	262525000
262784001	125667009
60897004	125668004
60897004	118237005
87476004	128613002
87476004	414025005
13645005	27624003
13645005	118946009
13645005	233776003
85848002	283025007
85848002	231794000
85848002	63725005
85848002	282745002
85848002	262750000
274204004	231794000
274204004	63725005
274204004	274205003
5587004	15250008
5587004	62585004
50792001	429040005
50792001	63725005
37450000	15250008
37450000	11131000119108
37450000	386082004
314551004	15250008
314551004	116224001
314764001	15250008
711645008	95896000
711645008	301810000
711645008	429040005
711645008	63725005
64109004	118946009
64109004	280133005
64109004	118954006
64109004	312225001
64109004	363179006
840539006	186747009
34000006	128999004
71186008	118946009
71186008	62994001
71186008	111273006
71186008	63171007
71186008	50417007
71186008	118939000
71186008	129134004
71186008	54150009
283859007	4975008
283859007	282771003
283859007	609620004
283858004	262520005
283858004	50793006
68565009	128069005
68565009	4975008
65896005	39595001
65896005	116315007
65896005	700012005
59038002	125665001
59038002	414252009
33847006	262525000
33847006	4975008
90465004	125593007
90465004	125665001
10380004	52011008
10380004	50793006
43422002	39595001
43422002	118932009
111693009	9560007
111693009	125597008
50793006	9560007
50793006	125599006
40874009	39595001
40874009	128137003
50001009	90460009
50001009	125665001
2591000	9560007
2591000	125594001
262576002	105606008
262576002	118945008
262576002	125665001
262576002	82271004
262576002	128239009
74270009	39595001
74270009	7523003
74682007	43422002
74682007	128597007
74682007	406119002
19180002	9560007
19180002	125595000
162213003	118228005
18834007	396275006
18773000	386618008
18773000	53619000
190905008	50043002
190905008	363137000
59051007	76172008
193387007	247143009
193387007	6141006
85777005	363169009
85777005	363176004
85777005	118941004
812481000000104	365860008
128053003	248727005
128053003	439129009
95695004	29555009
95695004	62585004
210417006	283845000
210417006	269169002
210422006	283850006
210422006	700011003
210408006	283845000
210408006	127314000
210408006	280133005
283846004	283845000
283846004	274170000
210597009	210571003
210597009	125653000
210720002	283850006
210720002	125663008
210720002	240025005
210571003	125652005
210571003	417227004
210702006	283850006
210702006	125661005
283843007	125644007
283843007	282745002
283843007	419945001
283843007	80659006
283843007	125592002
283843007	282026002
283848003	210484005
283848003	283845000
283848003	280133005
210678002	283850006
210678002	125659001
210604001	210571003
210604001	125654006
210732003	210720002
210732003	125664002
210703001	283850006
210703001	116315007
210703001	700012005
210553005	125649002
210553005	417227004
210524009	125645008
210524009	417227004
210527002	125648005
210527002	417227004
34095006	1860003
2776000	81308009
52448006	81308009
38362002	111865007
299709002	105995000
299709002	300848003
299709002	1071000119107
299709002	128477000
80967001	1071000119107
80967001	609410002
80967001	105995000
80967001	128398001
80967001	301811001
35489007	64572001
47382004	59258008
47382004	106077005
47382004	301810000
420422005	442756004
420422005	74627003
4855003	29555009
4855003	74627003
39839004	249561001
39839004	118948005
39839004	239953001
39839004	106030000
39839004	118946009
39839004	50043002
812491000000102	365860008
262693007	301766008
262693007	81308009
262693007	82271004
262693007	128239009
79962008	106030000
79962008	37657006
397430003	371582002
397430003	721751007
2304001	118954006
2304001	312225001
2304001	372109003
2304001	3723001
416829003	408638001
281503004	263017003
281503004	428360003
417558002	263017003
417558002	429554009
314201008	473023007
314201008	128268005
314201008	263028004
314201008	116224001
314201008	385486001
836424002	263028004
836424002	118932009
263029007	700012005
263029007	263028004
263009006	263017003
263009006	399986003
263009006	118946009
302964004	108367008
302964004	41888000
263030002	836424002
263030002	128597007
263030002	406119002
312087002	64572001
84759007	73013002
84759007	302226006
77949003	73013002
77949003	302226006
699467005	444003007
86196005	79604008
271966006	116224001
271966006	473023007
414022008	64572001
362969004	64572001
60113004	118941004
60113004	118930001
80962007	73013002
80962007	302226006
24777009	73013002
24777009	302226006
271973001	473023007
118940003	64572001
68982002	73013002
68982002	302226006
77157004	54767005
77157004	73013002
5552004	118948005
5552004	609620004
5552004	362969004
5552004	363124003
5552004	249561001
39021009	64572001
302918009	64572001
73765005	73013002
73765005	302226006
308546005	131148009
308546005	359557001
308546005	473451005
308546005	239953001
191714002	44376007
191714002	50705009
44376007	64572001
307496006	64572001
241977008	419026008
241977008	64572001
212962007	64572001
230316009	76349003
230316009	87858002
1098111000000101	299718000
33629003	247201009
46799006	249561001
46799006	79787007
46799006	88111009
46799006	128398001
46799006	128999004
46799006	363169009
430887001	105997008
430887001	50410009
430887001	79787007
430887001	106030000
430887001	3855007
266599000	373673007
266599000	118948005
266599000	289618005
266599000	363124003
266599000	609620004
266599000	301366005
72366004	64572001
74942003	86133004
15938005	128613002
34801009	173300003
62909004	417893002
62909004	60113004
43116000	106076001
43116000	363168001
43116000	363169009
186535001	49882001
302222008	298149009
302222008	125596004
302222008	23406007
302222008	429554009
302222008	423125000
302232001	125650002
302232001	298149009
302232001	23406007
302232001	429554009
58554001	363169009
58554001	275498002
58554001	233635001
45170000	363176004
45170000	39367000
45170000	81308009
45170000	363169009
56819008	128599005
56819008	128998007
56819008	363169009
129103003	64572001
78623009	118948005
78623009	289618005
78623009	363124003
78623009	609620004
78623009	363169009
78623009	373406006
1847009	128295000
1847009	363169009
266108008	400202001
266108008	1071000119107
266108008	239953001
266108008	276320009
266108008	280131007
266108008	50410009
266108008	714974000
266108008	116311003
266108008	108365000
266108008	312130009
266108008	128047003
266108008	128398001
266108008	118932009
266108008	128999004
266108008	363176004
266108008	280135003
33168009	417893002
33168009	60113004
186738001	297268004
186738001	298364001
186738001	439161008
186738001	77949003
419603000	106076001
419603000	239953001
419603000	441457006
419603000	444905003
419603000	714974000
419603000	80659006
80384002	118939000
80384002	129134004
80384002	363169009
367649002	29555009
367649002	301905003
367649002	11131000119108
815008	78370002
815008	280131007
815008	363044007
36715001	85828009
36715001	415531008
32861005	105969002
32861005	363168001
32861005	414029004
14366000	5888003
14366000	9826008
109678002	105995000
414173003	247143009
414173003	95695004
422426003	73013002
422426003	302226006
50705009	64572001
41497008	299718000
72552008	404684003
95041000119101	363124003
198130006	189176002
198130006	363124003
198130006	373406006
50063009	128135006
50063009	609625009
50063009	118928003
50063009	239953001
50063009	249561001
270492004	418341009
270492004	57809008
270492004	870575001
78011002	65978000
78011002	125605004
1860003	64572001
75258004	75478009
33334006	125670008
33334006	53619000
75441006	386082004
75441006	297268004
75441006	298364001
74699008	118930001
74699008	386082004
74699008	118237005
73830004	249244000
73830004	362968007
73830004	125670008
70176004	119523007
70176004	33334006
70176004	609620004
262599003	125670008
262599003	50043002
93458008	125670008
93458008	106076001
93458008	80659006
34124000	363124003
34124000	118948005
34124000	248870002
34124000	609620004
34124000	125670008
213282006	125670008
213282006	225552003
275476006	386082004
275476006	60113004
20610004	373382006
20610004	73013002
20610004	302226006
700242002	267064002
95851007	246912006
95851007	371409005
95851007	118945008
95851007	418764009
13695006	125600009
13695006	77493009
399114005	280135003
399114005	444003007
4556007	363169009
4556007	128999004
4556007	50410009
4556007	118434000
4556007	118948005
235595009	37657006
235595009	118434000
235595009	118948005
33839006	312130009
33839006	189176002
33839006	300479008
33839006	362968007
33839006	73787001
266113007	724386005
266113007	108365000
266113007	312130009
266113007	714974000
266113007	444905003
266113007	239953001
266113007	280133005
266113007	609621000
266113007	189176002
266113007	362968007
239938009	230461009
239938009	363176004
239938009	52089001
239938009	105969002
239939001	363176004
239939001	52089001
231857004	60113004
231857004	9826008
231857004	414029004
66383009	363169009
66383009	128999004
66383009	105995000
66383009	280131007
66383009	363176004
37155002	66747002
29538005	37155002
29538005	410692006
36171008	90708001
36171008	363169009
36171008	373406006
28438004	414025005
28438004	128350005
28438004	15628003
15628003	409789001
90560007	442756004
90560007	64572001
40956001	85828009
40956001	2704003
40956001	302226006
40956001	363170005
40956001	362975008
81808003	131148009
81808003	64572001
81808003	118952005
417425009	127040003
111407006	118228005
111407006	38292009
111407006	2704003
111407006	90708001
111407006	271737000
90935002	64779008
709410003	371583007
66857006	106048009
66857006	131148009
247097006	93478000
247097006	128536001
95545007	131148009
95545007	249561001
95545007	79787007
95545007	88111009
70153002	248493003
70153002	248727005
70153002	27550009
70153002	609620004
70153002	609621000
70153002	118948005
70153002	53619000
262581006	82271004
262581006	37645002
368009	56265001
52072009	419026008
52072009	64572001
27601005	17322007
59927004	235856003
61165007	399244003
61165007	90708001
61165007	363137000
61165007	66091009
427115009	9389005
240475000	108365000
240475000	312130009
240475000	73787001
9389005	314020001
9389005	73787001
424801004	397573005
397573005	87513003
397573005	314020001
87513003	363169009
87513003	95880003
87513003	123976001
87513003	128116006
87513003	309465005
87513003	312130009
87513003	64309007
118599009	363346000
32911000	365448001
86406008	34014006
70660007	363044007
70660007	249236000
70660007	362968007
70660007	724386005
43064006	90708001
43064006	249273002
66931009	442756004
66931009	64572001
709109004	50043002
14094001	386618008
14094001	53619000
14094001	173300003
80394007	64572001
14140009	64572001
771115008	64572001
310505005	442756004
310505005	74627003
310505005	80394007
38341003	49601007
38341003	366157005
6962006	29555009
75229002	93478000
75229002	302217008
268640002	87858002
5291005	64572001
302866003	237630007
302866003	362969004
43339004	64572001
190855004	64572001
89627008	64572001
83966006	419026008
83966006	282745002
40930008	14304000
32273002	414027002
32273002	302215000
32273002	85828009
32273002	106076001
32273002	131148009
32273002	239953001
32273002	714974000
32273002	80659006
307052004	384821006
191306005	362975008
191306005	31996006
191306005	85828009
18070006	64572001
18070006	300083003
48277006	108365000
48277006	301811001
48277006	363168001
48277006	363169009
236037000	385486001
156072005	17369002
35363006	301366005
35363006	609624008
396334002	301810000
396334002	84706005
10679007	95896000
10679007	249561001
10679007	128398001
10679007	79787007
10087007	27601005
76172008	86133004
56335008	95896000
77506005	95896000
12463005	128398001
12463005	4556007
12463005	79787007
271558008	23513009
396234004	3723001
396234004	301810000
237091009	198130006
237091009	118948005
237091009	248870002
237091009	609620004
237091009	363169009
20848007	17322007
20848007	68843000
62752005	68843000
62752005	106076001
62752005	80659006
128241005	235856003
128241005	373407002
128241005	363169009
266579006	79604008
266579006	363169009
6142004	275498002
6142004	312130009
400097005	17790008
396232000	609625009
396232000	118928003
396232000	239953001
396232000	249561001
10392004	473451005
10392004	359557001
10392004	57662003
10392004	128069005
77165001	249273002
77165001	249561001
77165001	128606002
77165001	105612003
77165001	128069005
77165001	282771003
77165001	609620004
57662003	27550009
57662003	282728007
57662003	282026002
82271004	282749008
86175003	282728007
86175003	128599005
86175003	262525000
86175003	105612003
125625000	249561001
125625000	282007005
125625000	105612003
125625000	128069005
125625000	79787007
40095003	90708001
40095003	105612003
40095003	128069005
125588009	127275008
125588009	297268004
125588009	90460009
39400004	282007005
39400004	235856003
39400004	105612003
39400004	128069005
724940003	125597008
724940003	429340002
724905004	125594001
724905004	429340002
724908002	125595000
724908002	429340002
724908002	280135003
812761000000101	240025005
812761000000101	280136002
812761000000101	429340002
812761000000101	127279002
812721000000109	125599006
812721000000109	429340002
737254001	414252009
737254001	429340002
737254001	48125009
812751000000104	280136002
812751000000104	429340002
812751000000104	127279002
812751000000104	128137003
812741000000102	280136002
812741000000102	429340002
812741000000102	7523003
812501000000108	414252009
812501000000108	429340002
812501000000108	48125009
61823004	3855007
61823004	282007005
61823004	105612003
61823004	128069005
23589004	414027002
23589004	249561001
23589004	105612003
23589004	128069005
125626004	50410009
125626004	118434000
125626004	282007005
125626004	105612003
125626004	128069005
828981000000104	274175005
813101000000105	274174009
813101000000105	280135003
813121000000101	262971000
813121000000101	280135003
813121000000101	128597007
813121000000101	313132009
813311000000109	280136002
813311000000109	274175005
813311000000109	240025005
813331000000101	274174009
813231000000107	262971000
813231000000107	128597007
813231000000107	299128000
813231000000107	280135003
813321000000103	813311000000109
813321000000103	128597007
813321000000103	406119002
813111000000107	280135003
813111000000107	274174009
59568004	262525000
59568004	359557001
59568004	57662003
59568004	301296002
59568004	373434004
59568004	473451005
262937009	57662003
262937009	90460009
314429009	399463004
314429009	410692006
81060008	249561001
81060008	79787007
9707006	81060008
414531002	75478009
254935002	127331007
93478000	246681007
93478000	11131000119108
49723003	249561001
49723003	79787007
87522002	271737000
296938005	87858002
10743008	119523007
301813003	280136002
301813003	239953001
301813003	280133005
301813003	609620004
301813003	128268005
301813003	298149009
75053002	128487001
75053002	414027002
75053002	118939000
75053002	362971004
75053002	52089001
65636009	11131000119108
65636009	15250008
65636009	417893002
90708001	249578005
90708001	734045002
90708001	128606002
20236002	404684003
23919004	43275000
23919004	363169009
23919004	439161008
283361008	428088000
283361008	298364001
231816006	60113004
231816006	210339009
231816006	262750000
231816006	428088000
38086007	111235007
38086007	297268004
38086007	50043002
38086007	118954006
38086007	312225001
38086007	363059001
195268001	233985008
824031000000109	433068007
63467002	415991003
63467002	44808001
85232009	415991003
195889001	50417007
195889001	408638001
195889001	301811001
195889001	233604007
80612004	95896000
81004002	721751007
77377001	41116009
281050002	404684003
278516003	233604007
234014009	125592002
234014009	282026002
234014009	106076001
234014009	419026008
234014009	80659006
234014009	282745002
234014009	714974000
9651007	56265001
87763006	79787007
87763006	788951001
233961000	359557001
233961000	363340006
233961000	400047006
50417007	275498002
50417007	128272009
128196005	280133005
128196005	239953001
128196005	246595001
128196005	299735001
128196005	302226006
128196005	822988000
209565008	48125009
209565008	280133005
209565008	105606008
209565008	282026002
209565008	282745002
209565008	298149009
209565008	312225001
209565008	419945001
209565008	58188004
209565008	822988000
209565008	737566006
209565008	372109003
240820001	362971004
240820001	301810000
240820001	84706005
240820001	267038008
188725004	414027002
188725004	127331007
188725004	372087000
232006002	247143009
232006002	29555009
312912001	247143009
312912001	4855003
312912001	6141006
247161000	128536001
247161000	247103004
247161000	93478000
314662007	82271004
61462000	95896000
70272006	38341003
418915007	60113004
418915007	9826008
418915007	5888003
47398006	429040005
47398006	63725005
95730003	5888003
52404001	363176004
52404001	363169009
52404001	363179006
52404001	298364001
52404001	118945008
14189004	105631009
401207004	404684003
309779001	41446000
309779001	238714008
309779001	363168001
309779001	363169009
23511006	409789001
386692008	300479008
386692008	609625009
85007004	373673007
85007004	279001004
85007004	302226006
85007004	239953001
85007004	280136002
85007004	299735001
85007004	128135006
44897000	414027002
44897000	118948005
44897000	362971004
44897000	363169009
713425003	23853001
713425003	299733008
713425003	299735001
38959009	38292009
234168001	36456004
234168001	128487001
37796009	230461009
37796009	27550009
17369002	173300003
34614007	17369002
184770004	404684003
16607004	17369002
16607004	289262005
54016002	418341009
54016002	57809008
54016002	870575001
28189009	418341009
28189009	57809008
28189009	870575001
314661000	82271004
44782008	173300003
44782008	289262005
44782008	5294002
40070004	105630005
49982000	870575001
109989006	372087000
24700007	414029004
24700007	39367000
24700007	362975008
36989005	105631009
3218000	40733004
188732008	414027002
188732008	127331007
188732008	372087000
50920009	57809008
50920009	128599005
50920009	128998007
50920009	363169009
231995008	95695004
13445001	64572001
13445001	297268004
13445001	298364001
13445001	439161008
255024002	127331007
255024002	11131000119108
255024002	301905003
255024002	95678007
255024002	128536001
255024002	247103004
255024002	20376005
91487003	271807003
91487003	280133005
91487003	40275004
91487003	609625009
91487003	822988000
209557005	90460009
209557005	111235007
209557005	105606008
209557005	282026002
209557005	282745002
209557005	298149009
209557005	312225001
209557005	419945001
209557005	58188004
52486002	95880003
52486002	609410002
52486002	239953001
52486002	301811001
52486002	105969002
52486002	363170005
95616002	106048009
52767006	302866003
52767006	414025005
387712008	714974000
387712008	301905003
387712008	414025005
387712008	33064008
387712008	62585004
232086000	11131000119108
232086000	302217008
52254009	442756004
52254009	90708001
57182000	128239009
57182000	386033004
45369008	399244003
165517008	762656009
443980004	91302008
443980004	40733004
443980004	762656009
281900007	404684003
230509007	299735001
230509007	77157004
118601006	372087000
295217003	295123003
268002004	415746003
414875008	247143009
414875008	95695004
2492009	64572001
240842000	84706005
240842000	301810000
240842000	371409005
16761005	37657006
16761005	363169009
16761005	128999004
207965006	66691008
207965006	298385001
207965006	822988000
207965006	737566006
207965006	269169002
207965006	419945001
48187004	116315007
48187004	700012005
48187004	26947005
48187004	46866001
428019004	125660006
428019004	46866001
24948002	367527001
29014003	125598003
29014003	81405006
29014003	23406007
269070003	125644007
269070003	111235007
269070003	125605004
269070003	298385001
269070003	737566006
269070003	269169002
269070003	419945001
111637008	23406007
111637008	81405006
111637008	16250001000004107
767262002	15474008
767262002	298385001
767262002	737566006
767262002	269169002
767262002	419945001
111609001	210339009
111609001	418764009
28576007	125659001
28576007	46866001
447017008	125661005
447017008	414292006
367527001	15574005
367527001	125663008
361118003	125600009
361118003	26947005
361118003	46866001
89294002	125648005
89294002	23406007
1370007	23406007
1370007	299043001
1370007	125652005
40613008	111609001
40613008	371161001
40613008	118237005
111643005	428019004
15474008	77493009
15474008	66691008
15474008	26947005
21698002	125653000
21698002	23406007
21698002	299043001
74395007	367527001
74395007	125664002
704236005	125654006
704236005	23406007
704236005	299043001
704236005	299128000
42945005	12676007
42945005	125649002
81966000	37449000
81966000	42945005
45910007	66691008
45910007	127314000
47864008	66691008
47864008	23406007
47864008	81405006
47864008	16250001000004107
47864008	262525000
371161001	38354005
371161001	118945008
371161001	418764009
87225004	66691008
87225004	127314000
208420009	1370007
208420009	125654006
208420009	299128000
446979005	414292006
446979005	125661005
414943006	446979005
414943006	447017008
37449000	54556006
37449000	125649002
207977001	15474008
207977001	298385001
207977001	737566006
207977001	269169002
207977001	419945001
207949005	66691008
207949005	262525000
207949005	298385001
207949005	737566006
207949005	269169002
207949005	419945001
208341002	298149009
208341002	201946009
208341002	263017003
208341002	125598003
208341002	419945001
208341002	42945005
34578006	417558002
34578006	419945001
34578006	58188004
34578006	37449000
34578006	125650002
274170000	118928003
274170000	128069005
274170000	282026002
274170000	105615001
269169002	64572001
269169002	225552003
269169002	414252009
127314000	65978000
127314000	105615001
125650002	81405006
125650002	125596004
210339009	38354005
210339009	125593007
125653000	125652005
125653000	52011008
125663008	26947005
125663008	118932009
125649002	81405006
125649002	125597008
125652005	81405006
125652005	125599006
38354005	82271004
38354005	397180001
125660006	26947005
125660006	125601008
125660006	419945001
210344002	210339009
210344002	50410009
210344002	1071000119107
210344002	282007005
210344002	280131007
210344002	282026002
125661005	26947005
125661005	128137003
125644007	90460009
125644007	397180001
210484005	105615001
210484005	282771003
210484005	609621000
125645008	81405006
125645008	125594001
125659001	26947005
125659001	7523003
125654006	125652005
125654006	262520005
125664002	125663008
125664002	128597007
125664002	406119002
125648005	81405006
125648005	125595000
75544000	87858002
423341008	6141006
423341008	247201009
423341008	77157004
424669003	423341008
66760008	77157004
66760008	39367000
73221001	66760008
73221001	399463004
73221001	247201009
235055003	95880003
235055003	298364001
235055003	50410009
235055003	128398001
235055003	312130009
235055003	280131007
235055003	73787001
194005002	128277003
194005002	246912006
194005002	371409005
197983000	362968007
197983000	363169009
197983000	373406006
197983000	249236000
28651003	49601007
72047008	128137003
72047008	5294002
72047008	76069003
396275006	363059001
396275006	118952005
60168000	301810000
60168000	76069003
60168000	414027002
60168000	363169009
60168000	363179006
64859006	76069003
3135009	43275000
3135009	363169009
3135009	300083003
65363002	43275000
65363002	363169009
65363002	300162007
129635004	5552004
297053006	87858002
295830007	5851000119107
242253008	87858002
225624000	36456004
75614007	128295000
75614007	363169009
75614007	95678007
423488006	423341008
295124009	295123003
85904008	408638001
85904008	249561001
85904008	128398001
85904008	79787007
85904008	301811001
32798002	76349003
71906005	17790008
71906005	108365000
71906005	363168001
71906005	363169009
29753000	128613002
185330002	404684003
315296002	262560006
315296002	231794000
315296002	262750000
13200003	40845000
13200003	50410009
56905009	51875005
56905009	249561001
56905009	79787007
23387001	37657006
23387001	51875005
82127005	300848003
82127005	128477000
82127005	609621000
373945007	55855009
3238004	55855009
3238004	128998007
3238004	363169009
400047006	49601007
48661000	363169009
48661000	118948005
48661000	280133005
48661000	363044007
15033003	399986003
15033003	75860007
15033003	300848003
15033003	128477000
33449004	64572001
111255008	128135006
111255008	298149009
111255008	444849002
111255008	128268005
27836007	111273006
27836007	118946009
27836007	128482007
27836007	128997002
27836007	233776003
27836007	363169009
27836007	63171007
27836007	50417007
27836007	301811001
27836007	408638001
32893002	66747002
392300000	11131000119108
392300000	302217008
392300000	66747002
232408005	75860007
67895005	414029004
67895005	5888003
67895005	9826008
866000008	31928004
47639008	441457006
47639008	239953001
47639008	444905003
47639008	80659006
87614000	118941004
87614000	239953001
87614000	246912006
87614000	276320009
87614000	280131007
87614000	301905003
87614000	418727003
87614000	714974000
87614000	62585004
77252004	271807003
56454009	271807003
58750007	408638001
60046008	233635001
233604007	118946009
233604007	128997002
233604007	363169009
75478009	64572001
32835006	7895008
418409002	441952005
239783001	3723001
239783001	123976001
314030005	128295000
314030005	363169009
314030005	95678007
48880000	131148009
48880000	118228005
40425004	52448006
43363007	128295000
43363007	363169009
43363007	95678007
247081001	76682005
76742009	131148009
76742009	248870002
385486001	738668004
110265006	385486001
110265006	131148009
33910007	385486001
33910007	312087002
33910007	40733004
47821001	131148009
47821001	64572001
371073003	28651003
51771007	123976001
398254007	38341003
4557003	128599005
4557003	301366005
4557003	373673007
29717002	56265001
6383007	404684003
44223004	64572001
44223004	289262005
399912005	46742003
6273006	249244000
6273006	362968007
72658003	419026008
72658003	238714008
372087000	363346000
77075001	371409005
288531000119103	161152002
73998008	363124003
9713002	362968007
9713002	363169009
9713002	373406006
9713002	118948005
9713002	249604002
9713002	609620004
9014002	414029004
9014002	106076001
9014002	80659006
69322001	64572001
77489003	63725005
77489003	128145008
77489003	246912006
77489003	300848003
77489003	118941004
77489003	280131007
77489003	62585004
2858002	91302008
59282003	239953001
59282003	359557001
59282003	373434004
70995007	373434004
45816000	373406006
45816000	68566005
367403001	50410009
367403001	118434000
367403001	118948005
200722003	20376005
7520000	105723007
14168008	128116006
14168008	23853001
14168008	312130009
112222000	404684003
12063002	609620004
12063002	119523007
12063002	87763006
57773001	609620004
57773001	119523007
420079008	105723007
420079008	41116009
420079008	58184002
87317003	50043002
233765002	50043002
82576008	11131000119108
82576008	386082004
275425008	173300003
275425008	289262005
267064002	249273002
267064002	249561001
267064002	128606002
267064002	118948005
267064002	609620004
42059000	29555009
42059000	301905003
42059000	11131000119108
314407005	95695004
247124009	301905003
247124009	239953001
247124009	248493003
247124009	359557001
247124009	247108008
247124009	11131000119108
247124009	29555009
6141006	29555009
6141006	11131000119108
6141006	267038008
95690009	29555009
95690009	11131000119108
95690009	301905003
77628002	31996006
77628002	399463004
77628002	247108008
399463004	128295000
399463004	29555009
399463004	363169009
28835009	363137000
28835009	314407005
44268007	95695004
44268007	42059000
240131006	363059001
240131006	106030000
69896004	3723001
69896004	85828009
59118001	415991003
59118001	44808001
248406004	313132009
4106009	280135003
4106009	116308004
4106009	250133000
4106009	312225001
36653000	33947007
429513001	415746003
429513001	128137003
429513001	280136002
110016007	249244000
110016007	282771003
110016007	362968007
110016007	724386005
30832001	6849006
30832001	700012005
30832001	298149009
6849006	280136002
6849006	415746003
428883008	118947000
428883008	415746003
31541009	64572001
30242009	108365000
30242009	301811001
30242009	371582002
30242009	271807003
58214004	69322001
23056005	25416002
23056005	373673007
23056005	128135006
23056005	280136002
23056005	302226006
78370002	128295000
78370002	33064008
78370002	363169009
83227006	441952005
83227006	75258004
367498001	58184002
367498001	118237005
367498001	128145008
367498001	414029004
367498001	118930001
367498001	129134004
367498001	280131007
367498001	363169009
367498001	363176004
50563003	106076001
50563003	363168001
50563003	363169009
296015009	5851000119107
91302008	414029004
76571007	63171007
371089000	62014003
398447004	186747009
398447004	275498002
398447004	312130009
24867002	249561001
24867002	362969004
24867002	734045002
80567007	1071000119107
80567007	50410009
36083008	870575001
127040003	363137000
127040003	38292009
127040003	66091009
127040003	271737000
83901003	85828009
83901003	363170005
83901003	105969002
26460006	128135006
26460006	76069003
26460006	128268005
67924001	105630005
426936004	118946009
426936004	128272009
426936004	127275008
426936004	362975008
426936004	419945001
161152002	365448001
403194002	419026008
403194002	271807003
397923000	64572001
30077003	373673007
30077003	36456004
90584004	299735001
90584004	737566006
90584004	23853001
90584004	299733008
249389002	128145008
249389002	249378009
80423007	233635001
44465007	105606008
44465007	282026002
44465007	282745002
44465007	298149009
44465007	312225001
44465007	419945001
44465007	116315007
44465007	127279002
44465007	700012005
44465007	373575008
49388007	240025005
49388007	280136002
49388007	105606008
49388007	282026002
49388007	282745002
49388007	298149009
49388007	312225001
49388007	419945001
49388007	127279002
49388007	373575008
87778004	105606008
87778004	282026002
87778004	282745002
87778004	298149009
87778004	312225001
87778004	419945001
87778004	58188004
87778004	428360003
87778004	125599006
17883008	125600009
17883008	105606008
17883008	282026002
17883008	282745002
17883008	298149009
17883008	312225001
17883008	419945001
17883008	128268005
17883008	373575008
24864009	49388007
24864009	128597007
24864009	406119002
54888009	105606008
54888009	282026002
54888009	282745002
54888009	298149009
54888009	312225001
54888009	419945001
54888009	373575008
54888009	125601008
263128001	125596004
263128001	105606008
263128001	282026002
263128001	282745002
263128001	298149009
263128001	312225001
263128001	419945001
263128001	58188004
263128001	429554009
263128001	280135003
263129009	52011008
263129009	87778004
3199001	125594001
3199001	105606008
3199001	282026002
3199001	282745002
3199001	298149009
3199001	312225001
3199001	419945001
3199001	58188004
3199001	444003007
263130004	262520005
263130004	87778004
263130004	280135003
263130004	299128000
70704007	125598003
70704007	280135003
70704007	201946009
70704007	105606008
70704007	282026002
70704007	282745002
70704007	298149009
70704007	312225001
70704007	419945001
233819005	82423001
233819005	27624003
233819005	128599005
233819005	301366005
233819005	373673007
230456007	128613002
22066006	64572001
22817005	127279002
22817005	128137003
22817005	105606008
22817005	282026002
22817005	419945001
22817005	274175005
22817005	280136002
360450007	419945001
360450007	429340002
360450007	111235007
360450007	90460009
209508007	105606008
209508007	298149009
209508007	373575008
209508007	274175005
209508007	280136002
209508007	282026002
209508007	419945001
209508007	125601008
56975005	106076001
56975005	27550009
56975005	80659006
56975005	239953001
56975005	399981008
56975005	444905003
56975005	714974000
63305008	37657006
230690007	301766008
230690007	81308009
230690007	49601007
21454007	23853001
21454007	1386000
262955000	21454007
262955000	110149000
78768009	418727003
78768009	118941004
78768009	128145008
78768009	246912006
78768009	280131007
78768009	93478000
263061006	836424002
417109008	417558002
417109008	58188004
417109008	76069003
127315004	127314000
51178009	365860008
274183004	211036004
274183004	118928003
274183004	128069005
274183004	282026002
274195004	274197007
274195004	116315007
274195004	700012005
274184005	211036004
274184005	414252009
274187003	211036004
274187003	118946009
274187003	399986003
283032003	274190009
283032003	125596004
283032003	400044004
283032003	280135003
274193006	283034002
274193006	52011008
274199005	274197007
274199005	118932009
283033008	274190009
283033008	125597008
283033008	400044004
283033008	280135003
283034002	274190009
283034002	125599006
283025007	283024006
283025007	82271004
274196003	274197007
274196003	125600009
283040009	274197007
283040009	125601008
283040009	400044004
283040009	400202001
283041008	274197007
283041008	400044004
283041008	400202001
283041008	128137003
274182009	283024006
274182009	90460009
274182009	400044004
283037009	211036004
283037009	282771003
283037009	609620004
274188008	283037009
274188008	609621000
274191008	274190009
274191008	125594001
274198002	274197007
274198002	7523003
274194000	283034002
274194000	262520005
274200008	274199005
274200008	400044004
274200008	240025005
274200008	400202001
274200008	128597007
274200008	406119002
283031005	274190009
283031005	125595000
274192001	274190009
274192001	125598003
63297008	247097006
63297008	29555009
63363004	248727005
63363004	373434004
6456007	366157005
6456007	56265001
55004003	399244003
240008008	298149009
240008008	700012005
240008008	239953001
240008008	280136002
240008008	441457006
240008008	444905003
55464009	105969002
55464009	85828009
46152009	371409005
41888000	298366004
41888000	118930001
34840004	363179006
34840004	128482007
34840004	250133000
34840004	312225001
240037007	239953001
240037007	250133000
240037007	312225001
262971000	274174009
262971000	116311003
67801009	363179006
233645004	233635001
398057008	230461009
609446006	64572001
76902006	371582002
76902006	128116006
76902006	301811001
40108008	271737000
40108008	363137000
40108008	38292009
40108008	66091009
60750009	73013002
60750009	373382006
60750009	302226006
274162005	48125009
274162005	280133005
274162005	105606008
274162005	282026002
274162005	282745002
274162005	298149009
274162005	312225001
274162005	419945001
274162005	58188004
274162005	737566006
274162005	372109003
54048003	64572001
302215000	106200001
302215000	762656009
302215000	362970003
302215000	414022008
40283005	248727005
40283005	439129009
40283005	31996006
40283005	363340006
276177000	106030000
276177000	118941004
276177000	246912006
276177000	280131007
276177000	362969004
276177000	85828009
90739004	14304000
6020002	47382004
6020002	400202001
6020002	108365000
6020002	118932009
352818000	128613002
90176007	363176004
90176007	414027002
90176007	75860007
90176007	362971004
90176007	399986003
90176007	128999004
90176007	129134004
90176007	363169009
135869000	249244000
135869000	282771003
135869000	362968007
135869000	724386005
198047009	81996005
81996005	362968007
81996005	249236000
70070008	111235007
70070008	106030000
70070008	417893002
70070008	239953001
67426006	441952005
275390005	75478009
44400004	75478009
371043007	75478009
371043007	118946009
371043007	128997002
371043007	363169009
62994001	128997002
62994001	363169009
62994001	233776003
68033004	385486001
68033004	116224001
2576002	105629000
2576002	128350005
266257000	128487001
824061000000104	95860004
812431000000103	95860004
210305005	38354005
210305005	300083003
210305005	419945001
211548006	419945001
211548006	105615001
211548006	362968007
211548006	724386005
211548006	282771003
95855003	125653000
95855003	95856002
95859009	125663008
95859009	95860004
95856002	125652005
95856002	419945001
95856002	449669007
722704008	118237005
722704008	210339009
722704008	419945001
210611002	125654006
210611002	95856002
95858001	95859009
95858001	125664002
813131000000104	50410009
813131000000104	1071000119107
813131000000104	282007005
813131000000104	38354005
813131000000104	249378009
813131000000104	280131007
813131000000104	282026002
813131000000104	419945001
210650003	128131002
210650003	449669007
210642007	125649002
210642007	419945001
210642007	449669007
210762009	95860004
210762009	125600009
210649003	125645008
210649003	419945001
210649003	449669007
1097401000000107	17790008
1097401000000107	125592002
1097401000000107	282745002
1097401000000107	419945001
127299008	301766008
127299008	81308009
127299008	82271004
127299008	419945001
127300000	301766008
127300000	81308009
127300000	82271004
127300000	419945001
127300000	128239009
127302008	301766008
127302008	81308009
127302008	82271004
127302008	128239009
125622002	116315007
125622002	700012005
125622002	263028004
125622002	373575008
125621009	128268005
125621009	263028004
125621009	373575008
824071000000106	201946009
824071000000106	263017003
44264009	111235007
44264009	108367008
44264009	58188004
44264009	372109003
125619004	128597007
125619004	313132009
125619004	58188004
125619004	263017003
125619004	428360003
129166009	822988000
129166009	108367008
129166009	58188004
129166009	372109003
129165008	108367008
129165008	58188004
129165008	372109003
125620005	58188004
125620005	263017003
125620005	428360003
125620005	299128000
125620005	128597007
58320001	700012005
58320001	263028004
58320001	373575008
125615005	263017003
125615005	58188004
125615005	444003007
262949005	110149000
262949005	300848003
262949005	299735001
262949005	1386000
262949005	23853001
42458003	110149000
42458003	233635001
426997005	173300003
417020006	410692006
404649002	418727003
404649002	231794000
404649002	95678007
42434002	90070003
42434002	42458003
42434002	419945001
42434002	262525000
42434002	399902003
90070003	233635001
262952002	23853001
262952002	110149000
262952002	1386000
262952002	300848003
262952002	299735001
307497002	300162007
307497002	82271004
60332004	238714008
60332004	60113004
86014007	59118001
86014007	63467002
64309007	73013002
64309007	302226006
31681005	25416002
31681005	64309007
31681005	373673007
31681005	106150003
56717001	721751007
19265001	408638001
46635009	362969004
44054006	362969004
66071002	128241005
66071002	312130009
4834000	408638001
4834000	249561001
4834000	128398001
4834000	79787007
4834000	301811001
26284000	429040005
26284000	1071000119107
26284000	50410009
711168000	400202001
711168000	95344007
711168000	46742003
64766004	119523007
64766004	40845000
64766004	128999004
64766004	363169009
200724002	363170005
200724002	239953001
200724002	444905003
200724002	118928003
396347007	118928003
396347007	239953001
396347007	249561001
85561006	81308009
85561006	719848005
204878001	362968007
204878001	5294002
204878001	66091009
204878001	249236000
37372002	386618008
37372002	50410009
37372002	788951001
233959009	118947000
233959009	359557001
233959009	363340006
233959009	400047006
54150009	275498002
54150009	297268004
31054009	118948005
31054009	128606002
31054009	249273002
126485001	95322002
89322006	126485001
89322006	87858002
95315005	118948005
95315005	289618005
95315005	363124003
95315005	609620004
95315005	127331007
95315005	724386005
95315005	20376005
68566005	189176002
68566005	128606002
38907003	309465005
38907003	415531008
38907003	312130009
309465005	73787001
72866009	248493003
72866009	248727005
72866009	363340006
31996006	363169009
31996006	128998007
31996006	27550009
398665005	36456004
398665005	128487001
24596005	248727005
24596005	439129009
24596005	247108008
24596005	11131000119108
24596005	29555009
24596005	301905003
402863005	711168000
195060002	56265001
25569003	56265001
25569003	366157005
371077002	116224001
371077002	473023007
371077002	81308009
45261009	312132001
45261009	128047003
45261009	95880003
45261009	9826008
49882001	108365000
49882001	312130009
49882001	271807003
240523007	131148009
240523007	128482007
240523007	34014006
240523007	63171007
40468003	128241005
40468003	312130009
314020001	312132001
314020001	5888003
58170007	128116006
58170007	312130009
58170007	363169009
58170007	39367000
444814009	298364001
444814009	312130009
444814009	54150009
444814009	129134004
444814009	363176004
276191000000107	118946009
276191000000107	233776003
15013002	76682005
822061000000106	111865007
70647001	41116009
16541001	111865007
16541001	131148009
249561001	609624008
762656009	441742003
128477000	64572001
449669007	116307009
2704003	64572001
128487001	49601007
128487001	2704003
63171007	2704003
63171007	40733004
128482007	2704003
111273006	2704003
111273006	50043002
282100009	64572001
88111009	386618008
11131000119108	371409005
418727003	404684003
52089001	359557001
52089001	31996006
429554009	118947000
429554009	118952005
428360003	116311003
428360003	118947000
428360003	118952005
128268005	700011003
128268005	118952005
870575001	56265001
85828009	414029004
301811001	87628006
301811001	301810000
87628006	40733004
20376005	55342001
131148009	404684003
246681007	131148009
105723007	404684003
116339002	298705000
125666000	282745002
37645002	125666000
37645002	282749008
84677008	125666000
84677008	127279002
6055000	125666000
6055000	118947000
282728007	49601007
366157005	404684003
118954006	404684003
128277003	128045006
128277003	363176004
246556002	404684003
86133004	27601005
262525000	48125009
262525000	118946009
27624003	64572001
82423001	404684003
423125000	125605004
31984004	423125000
31984004	48125009
52603002	46866001
52603002	423125000
473023007	64572001
74627003	64572001
116224001	64572001
66091009	64572001
9826008	128295000
9826008	363169009
9826008	418727003
9826008	128145008
9826008	246912006
9826008	118941004
9826008	280131007
363044007	105969002
125667009	225552003
125667009	64572001
63725005	15250008
63725005	301905003
63725005	11131000119108
186747009	34014006
73013002	386033004
106150003	404684003
125665001	282745002
39595001	125665001
39595001	127279002
4975008	125665001
4975008	48125009
9560007	125665001
9560007	118947000
441457006	64572001
417893002	404684003
362975008	64572001
62585004	362975008
62585004	11131000119108
363059001	362975008
283850006	26947005
283850006	280136002
283850006	125592002
283850006	282026002
283850006	282745002
283850006	419945001
283850006	80659006
283845000	105615001
283845000	80659006
283845000	125592002
283845000	282026002
283845000	282745002
283845000	419945001
417227004	81405006
417227004	280135003
417227004	125592002
417227004	282026002
417227004	282745002
417227004	419945001
417227004	80659006
5294002	64572001
386617003	404684003
64572001	404684003
17322007	40733004
73787001	23513009
68843000	64572001
111865007	34014006
408638001	371583007
371583007	87628006
409789001	371583007
371582002	87628006
84706005	27601005
105631009	34014006
105630005	34014006
33947007	34014006
235856003	118948005
235856003	249561001
235856003	53619000
108367008	64572001
108367008	118952005
263028004	108367008
263017003	108367008
263017003	118947000
719848005	87858002
373673007	64572001
118948005	609624008
118948005	822988000
118928003	118948005
118928003	280133005
822988000	64572001
302217008	371409005
302217008	418727003
359557001	27550009
15241006	118940003
105997008	118948005
105997008	300339003
105997008	53619000
373434004	27550009
373434004	118946009
399902003	64572001
399986003	64572001
76069003	64572001
81308009	23853001
81308009	299718000
79604008	118946009
79604008	116339002
415991003	56265001
49601007	64572001
105969002	64572001
15250008	371409005
15250008	418727003
443182008	15250008
53619000	386617003
53619000	64572001
128597007	64572001
371409005	64572001
118930001	64572001
118930001	298364001
363124003	362968007
363124003	300479008
363124003	609625009
414025005	64572001
118932009	700012005
700012005	64572001
414027002	64572001
362970003	64572001
414029004	64572001
444003007	116308004
444003007	118947000
444003007	118952005
372109003	414252009
372109003	64572001
372109003	118952005
119523007	249561001
119523007	79787007
79787007	118948005
79787007	386618008
79787007	53619000
128137003	700012005
128272009	50043002
362971004	64572001
17790008	128597007
17790008	106077005
118939000	298378000
118939000	64572001
118941004	371409005
373382006	64572001
37657006	386618008
37657006	50410009
3855007	734045002
3855007	362969004
3855007	249561001
3855007	53619000
700011003	64572001
609620004	609625009
609620004	822988000
55855009	49601007
55855009	301296002
55855009	118946009
609621000	609625009
609621000	822988000
75860007	50410009
75860007	297268004
75860007	50043002
399244003	362969004
399244003	81308009
233635001	118946009
233635001	128272009
128536001	371409005
173300003	64572001
362968007	42030000
50043002	106048009
50043002	64572001
734045002	118948005
33064008	371409005
80659006	64572001
80659006	106077005
238714008	106076001
238714008	80659006
400202001	280136002
400202001	106076001
400202001	80659006
118945008	76069003
280131007	64572001
280134004	64572001
280136002	280134004
280133005	64572001
280135003	280134004
280135003	118947000
105995000	298364001
105995000	50410009
23853001	118940003
23853001	246556002
42030000	822988000
42658009	118940003
128606002	42030000
128135006	700012005
118946009	298705000
118946009	64572001
14304000	118939000
14304000	362969004
128131002	118947000
50410009	53619000
118947000	116307009
118947000	64572001
95678007	371409005
54767005	23853001
76682005	105969002
76682005	280131007
76682005	118941004
76682005	128536001
76682005	246912006
248493003	404684003
87858002	64572001
297268004	404684003
419026008	404684003
271807003	106076001
271807003	80659006
271807003	239953001
271807003	714974000
441742003	404684003
300083003	297268004
300083003	298364001
76349003	81308009
609624008	404684003
116315007	404684003
473451005	404684003
414252009	404684003
300339003	386617003
300339003	609624008
299043001	116311003
299718000	246556002
313132009	116311003
116311003	116307009
298364001	404684003
299128000	313132009
298378000	404684003
609625009	404684003
298705000	404684003
116308004	116307009
299733008	246556002
299733008	414252009
289262005	404684003
298366004	118952005
298366004	298364001
116307009	404684003
249273002	404684003
298385001	414252009
125670008	64572001
386082004	125670008
125605004	105606008
125605004	76069003
418764009	125605004
418764009	82271004
15574005	46866001
15574005	118932009
414292006	46866001
414292006	128137003
46866001	125605004
46866001	127279002
77493009	282771003
77493009	609620004
77493009	399986003
77493009	125605004
77493009	127279002
77493009	700011003
12676007	125597008
12676007	23406007
16250001000004107	125605004
16250001000004107	118947000
54556006	125597008
54556006	23406007
23406007	125605004
23406007	118947000
118228005	404684003
282007005	53619000
51875005	386618008
51875005	53619000
386618008	386617003
40845000	429040005
40845000	386618008
40845000	53619000
365860008	404684003
300479008	404684003
66747002	371409005
106200001	441742003
788951001	131148009
788951001	53619000
282749008	64572001
230461009	373673007
230461009	279001004
56265001	49601007
56265001	301296002
56265001	118946009
363137000	64572001
23513009	34014006
237630007	64572001
59258008	3218000
301810000	40733004
721751007	87628006
108365000	80659006
108365000	95880003
108365000	106076001
40733004	64572001
128398001	301810000
128398001	53619000
189176002	42030000
189176002	301810000
128047003	301810000
128047003	128145008
128116006	301810000
128116006	118940003
363168001	80659006
363168001	363170005
363169009	363170005
363170005	64572001
3723001	363179006
3723001	363169009
3723001	118952005
39367000	23853001
39367000	363170005
373407002	53619000
373407002	363170005
128999004	373407002
373406006	42030000
373406006	363170005
363176004	363170005
128997002	128272009
128997002	363170005
363179006	363170005
128998007	49601007
128998007	363170005
128295000	363176004
128295000	11131000119108
129134004	297268004
129134004	50043002
129134004	363170005
282745002	64572001
128069005	48125009
128069005	118948005
65978000	262525000
65978000	399986003
125596004	118947000
125593007	118930001
125593007	82271004
52011008	125599006
52011008	128597007
52011008	313132009
125597008	118947000
231794000	301905003
231794000	11131000119108
231794000	82271004
125599006	116311003
125599006	118947000
125600009	700011003
125600009	127279002
125592002	64572001
125592002	106077005
105612003	64572001
125601008	700012005
125601008	127279002
127279002	64572001
105606008	64572001
90460009	282749008
90460009	118939000
128239009	118940003
128239009	299735001
127275008	50043002
125594001	116308004
125594001	118947000
7523003	128135006
7523003	127279002
48125009	64572001
125595000	128131002
125598003	118947000
106077005	404684003
1386000	131148009
1386000	64572001
118952005	404684003
5888003	15250008
5888003	128295000
5888003	363169009
249578005	249561001
428088000	38354005
301766008	299718000
301766008	299735001
301905003	404684003
724386005	300479008
298149009	118952005
276320009	128145008
714974000	415531008
246845007	298364001
247143009	247103004
363346000	55342001
300848003	404684003
444905003	300848003
442756004	441742003
301296002	298705000
36456004	384821006
384821006	404684003
300162007	297268004
300162007	298364001
128145008	415531008
106030000	404684003
312225001	105969002
111235007	118939000
57809008	56265001
609410002	64572001
399981008	64572001
127331007	55342001
127331007	300848003
55342001	399981008
299735001	404684003
386033004	118940003
118237005	298364001
267038008	404684003
95322002	267038008
95322002	106076001
95322002	80659006
66691008	105615001
66691008	125605004
397180001	282749008
397180001	225552003
105616000	64572001
105616000	225552003
26947005	105616000
26947005	127279002
105615001	48125009
105615001	225552003
81405006	105616000
81405006	118947000
247201009	246556002
247201009	247103004
1071000119107	386617003
1071000119107	298364001
246912006	404684003
43275000	363176004
43275000	297268004
43275000	298364001
295123003	87858002
279001004	404684003
301366005	279001004
282771003	48125009
282771003	609625009
282771003	822988000
262560006	225552003
262560006	64572001
249244000	300479008
249244000	609625009
262750000	38354005
262750000	371409005
738668004	64572001
302226006	42658009
302226006	386033004
25416002	279001004
7895008	87858002
7895008	75478009
441952005	75478009
123976001	64572001
249604002	300479008
249604002	609625009
249604002	249561001
95896000	17322007
5851000119107	87858002
58184002	27624003
38292009	414022008
106048009	404684003
275498002	50043002
275498002	301810000
247103004	404684003
29555009	128536001
29555009	247103004
247108008	247103004
415746003	239953001
415746003	250133000
415746003	312225001
128613002	81308009
415531008	404684003
106076001	106077005
106076001	415531008
46742003	106076001
46742003	80659006
46742003	239953001
46742003	714974000
46742003	429040005
365448001	404684003
95880003	301810000
282026002	239953001
239953001	64572001
240025005	118932009
240025005	239953001
246595001	414252009
41116009	87628006
118434000	386618008
118434000	249561001
128599005	56265001
125587004	64572001
283024006	282749008
283024006	125587004
274197007	125587004
274197007	127279002
400044004	125587004
400044004	125592002
400044004	282026002
400044004	106076001
400044004	80659006
400044004	714974000
211036004	48125009
211036004	125587004
274190009	125587004
274190009	118947000
250133000	404684003
274175005	240037007
274174009	240037007
274174009	118947000
249236000	300479008
249236000	609625009
439129009	27550009
439129009	239953001
262520005	125599006
262520005	128597007
262520005	313132009
406119002	404684003
249378009	298364001
249378009	386617003
233776003	128272009
95860004	26947005
95860004	419945001
58188004	64572001
58188004	118952005
373575008	58188004
201946009	118947000
201946009	58188004
110149000	131148009
110149000	64572001
419945001	64572001
429340002	105606008
429340002	282026002
429340002	106030000
737566006	64572001
737566006	414252009
429040005	64572001
95344007	429040005
289618005	300479008
289618005	609625009
289618005	249561001
248870002	609624008
248870002	300479008
248870002	609625009
27550009	49601007
363340006	27550009
248727005	404684003
439161008	404684003
34014006	40733004
312132001	312130009
312132001	371409005
312130009	301810000
312130009	34014006
225552003	404684003
404684003	138875005
386732003	272379006
272379006	138875005
302436000	128927009
180300007	128927009
824091000000105	128927009
431415002	128927009
409516001	71388002
183561008	128927009
306206005	128927009
103742009	128927009
17636008	128927009
128927009	71388002
71388002	138875005
