138875005
762947003
736665006
273249006
246061005
736478001
123037004
362837007
4421005
765633006
900000000000442005
64572001
726711005
736542009
276339004
308916002
372148003
272379006
404684003
900000000000454005
223496003
736479009
60134006
416698001
106237007
90332006
437876006
900000000000441003
118956008
370136006
363743006
363787002
14679004
410607006
125676002
78621006
260787004
71388002
373873005
774167006
362981000
415229000
419891008
243120004
736480007
108334009
766940004
243796009
48176007
370115009
123038009
254291000
736471007
105590001
774164004
736477006
254292007
732935002
