digraph RF2_MRCM { rankdir=LR; splines=ortho; node [shape=box, peripheries=1, style=filled, fontsize=9, fontname=Helvetica, tooltip=" ", fillcolor=palegreen];

/* *** Model rows *** */
"<< 71388002\nProcedure"->"246513007\nRevision status" [arrowhead=open, color=red, tooltip="Procedure -> Revision status [0..1]"];
"246513007\nRevision status"->"<< 255231005\nRevision - value" [arrowhead=open, color=blue, tooltip="Revision status -> Revision - value"];
"246513007\nRevision status"->"<< 257958009\nPart of multistage procedure" [arrowhead=open, color=blue, tooltip="Revision status -> Part of multistage procedure"];
"246513007\nRevision status"->"<< 261424001\nPrimary operation" [arrowhead=open, color=blue, tooltip="Revision status -> Primary operation"];
"<< 71388002\nProcedure"->"260507000\nAccess" [arrowhead=open, color=red, tooltip="Procedure -> Access [0..1]"];
"260507000\nAccess"->"<< 309795001\nSurgical access values" [arrowhead=open, color=blue, tooltip="Access -> Surgical access values"];
"<< 71388002\nProcedure"->"260686004\nMethod" [arrowhead=open, color=red, tooltip="Procedure -> Method [0..1]"];
"260686004\nMethod"->"<< 129264002\nAction" [arrowhead=open, color=blue, tooltip="Method -> Action"];
"<< 71388002\nProcedure"->"260870009\nPriority" [arrowhead=open, color=red, tooltip="Procedure -> Priority [0..1]"];
"260870009\nPriority"->"<< 272125009\nPriorities" [arrowhead=open, color=blue, tooltip="Priority -> Priorities"];
"<< 71388002\nProcedure"->"363699004\nDirect device" [arrowhead=open, color=red, tooltip="Procedure -> Direct device [0..1]"];
"363699004\nDirect device"->"<< 49062001\nDevice" [arrowhead=open, color=blue, tooltip="Direct device -> Device"];
"<< 71388002\nProcedure"->"363700003\nDirect morphology" [arrowhead=open, color=red, tooltip="Procedure -> Direct morphology [0..1]"];
"363700003\nDirect morphology"->"<< 49755003\nMorphologically abnormal structure" [arrowhead=open, color=blue, tooltip="Direct morphology -> Morphologically abnormal structure"];
"<< 71388002\nProcedure"->"363701004\nDirect substance" [arrowhead=open, color=red, tooltip="Procedure -> Direct substance [0..1]"];
"363701004\nDirect substance"->"<< 105590001\nSubstance" [arrowhead=open, color=blue, tooltip="Direct substance -> Substance"];
"363701004\nDirect substance"->"<< 373873005\nPharmaceutical / biologic product" [arrowhead=open, color=blue, tooltip="Direct substance -> Pharmaceutical / biologic product"];
"<< 71388002\nProcedure"->"363702006\nHas focus" [arrowhead=open, color=red, tooltip="Procedure -> Has focus [0..1]"];
"363702006\nHas focus"->"<< 404684003\nClinical finding" [arrowhead=open, color=blue, tooltip="Has focus -> Clinical finding"];
"363702006\nHas focus"->"<< 71388002\nProcedure" [arrowhead=open, color=blue, tooltip="Has focus -> Procedure"];
"<< 71388002\nProcedure"->"363703001\nHas intent" [arrowhead=open, color=red, tooltip="Procedure -> Has intent [0..1]"];
"363703001\nHas intent"->"<< 363675004\nIntent of action values" [arrowhead=open, color=blue, tooltip="Has intent -> Intent of action values"];
"<< 71388002\nProcedure"->"363704007\nProcedure site" [arrowhead=open, color=red, tooltip="Procedure -> Procedure site [0..*]"];
"363704007\nProcedure site"->"<< 442083009\nAnatomical or acquired body structure" [arrowhead=open, color=blue, tooltip="Procedure site -> Anatomical or acquired body structure"];
"<< 71388002\nProcedure"->"363709002\nIndirect morphology" [arrowhead=open, color=red, tooltip="Procedure -> Indirect morphology [0..1]"];
"363709002\nIndirect morphology"->"<< 49755003\nMorphologically abnormal structure" [arrowhead=open, color=blue, tooltip="Indirect morphology -> Morphologically abnormal structure"];
"<< 71388002\nProcedure"->"363710007\nIndirect device" [arrowhead=open, color=red, tooltip="Procedure -> Indirect device [0..1]"];
"363710007\nIndirect device"->"<< 49062001\nDevice" [arrowhead=open, color=blue, tooltip="Indirect device -> Device"];
"<< 71388002\nProcedure"->"370131001\nRecipient category" [arrowhead=open, color=red, tooltip="Procedure -> Recipient category [0..1]"];
"370131001\nRecipient category"->"<< 125676002\nPerson" [arrowhead=open, color=blue, tooltip="Recipient category -> Person"];
"370131001\nRecipient category"->"<< 133928008\nCommunity" [arrowhead=open, color=blue, tooltip="Recipient category -> Community"];
"370131001\nRecipient category"->"<< 35359004\nFamily" [arrowhead=open, color=blue, tooltip="Recipient category -> Family"];
"370131001\nRecipient category"->"<< 389109008\nGroup" [arrowhead=open, color=blue, tooltip="Recipient category -> Group"];
"<< 71388002\nProcedure"->"405813007\nProcedure site - Direct" [arrowhead=open, color=red, tooltip="Procedure -> Procedure site - Direct [0..1]"];
"405813007\nProcedure site - Direct"->"<< 442083009\nAnatomical or acquired body structure" [arrowhead=open, color=blue, tooltip="Procedure site - Direct -> Anatomical or acquired body structure"];
"<< 71388002\nProcedure"->"405814001\nProcedure site - Indirect" [arrowhead=open, color=red, tooltip="Procedure -> Procedure site - Indirect [0..1]"];
"405814001\nProcedure site - Indirect"->"<< 442083009\nAnatomical or acquired body structure" [arrowhead=open, color=blue, tooltip="Procedure site - Indirect -> Anatomical or acquired body structure"];
"<< 71388002\nProcedure"->"405815000\nProcedure device" [arrowhead=open, color=red, tooltip="Procedure -> Procedure device [0..*]"];
"405815000\nProcedure device"->"<< 49062001\nDevice" [arrowhead=open, color=blue, tooltip="Procedure device -> Device"];
"<< 71388002\nProcedure"->"405816004\nProcedure morphology" [arrowhead=open, color=red, tooltip="Procedure -> Procedure morphology [0..*]"];
"405816004\nProcedure morphology"->"<< 49755003\nMorphologically abnormal structure" [arrowhead=open, color=blue, tooltip="Procedure morphology -> Morphologically abnormal structure"];
"<< 71388002\nProcedure"->"424226004\nUsing device" [arrowhead=open, color=red, tooltip="Procedure -> Using device [0..*]"];
"424226004\nUsing device"->"<< 49062001\nDevice" [arrowhead=open, color=blue, tooltip="Using device -> Device"];
"<< 71388002\nProcedure"->"424244007\nUsing energy" [arrowhead=open, color=red, tooltip="Procedure -> Using energy [0..1]"];
"424244007\nUsing energy"->"<< 78621006\nPhysical force" [arrowhead=open, color=blue, tooltip="Using energy -> Physical force"];
"<< 71388002\nProcedure"->"424361007\nUsing substance" [arrowhead=open, color=red, tooltip="Procedure -> Using substance [0..1]"];
"424361007\nUsing substance"->"<< 105590001\nSubstance" [arrowhead=open, color=blue, tooltip="Using substance -> Substance"];
"<< 71388002\nProcedure"->"425391005\nUsing access device" [arrowhead=open, color=red, tooltip="Procedure -> Using access device [0..1]"];
"425391005\nUsing access device"->"<< 49062001\nDevice" [arrowhead=open, color=blue, tooltip="Using access device -> Device"];

/* *** Domain and range/parent domain graph *** */
"<< 442083009\nAnatomical or acquired body structure"->"123037004\nBody structure" [arrowhead=onormal, color=black, tooltip="Anatomical or acquired body structure is_a Body structure"];
"<< 49755003\nMorphologically abnormal structure"->"123037004\nBody structure" [arrowhead=onormal, color=black, tooltip="Morphologically abnormal structure is_a Body structure"];
"123037004\nBody structure"->"138875005\nSNOMED CT Concept" [arrowhead=onormal, color=black, tooltip="Body structure is_a SNOMED CT Concept"];
"<< 404684003\nClinical finding"->"138875005\nSNOMED CT Concept" [arrowhead=onormal, color=black, tooltip="Clinical finding is_a SNOMED CT Concept"];
"<< 373873005\nPharmaceutical / biologic product"->"138875005\nSNOMED CT Concept" [arrowhead=onormal, color=black, tooltip="Pharmaceutical / biologic product is_a SNOMED CT Concept"];
"<< 78621006\nPhysical force"->"138875005\nSNOMED CT Concept" [arrowhead=onormal, color=black, tooltip="Physical force is_a SNOMED CT Concept"];
"<< 49062001\nDevice"->"260787004\nPhysical object" [arrowhead=onormal, color=black, tooltip="Device is_a Physical object"];
"260787004\nPhysical object"->"138875005\nSNOMED CT Concept" [arrowhead=onormal, color=black, tooltip="Physical object is_a SNOMED CT Concept"];
"<< 71388002\nProcedure"->"138875005\nSNOMED CT Concept" [arrowhead=onormal, color=black, tooltip="Procedure is_a SNOMED CT Concept"];
"<< 257958009\nPart of multistage procedure"->"362981000\nQualifier value" [arrowhead=onormal, color=black, tooltip="Part of multistage procedure is_a Qualifier value"];
"<< 129264002\nAction"->"362981000\nQualifier value" [arrowhead=onormal, color=black, tooltip="Action is_a Qualifier value"];
"<< 272125009\nPriorities"->"362981000\nQualifier value" [arrowhead=onormal, color=black, tooltip="Priorities is_a Qualifier value"];
"<< 363675004\nIntent of action values"->"362981000\nQualifier value" [arrowhead=onormal, color=black, tooltip="Intent of action values is_a Qualifier value"];
"<< 309795001\nSurgical access values"->"362981000\nQualifier value" [arrowhead=onormal, color=black, tooltip="Surgical access values is_a Qualifier value"];
"<< 255231005\nRevision - value"->"362981000\nQualifier value" [arrowhead=onormal, color=black, tooltip="Revision - value is_a Qualifier value"];
"<< 261424001\nPrimary operation"->"362981000\nQualifier value" [arrowhead=onormal, color=black, tooltip="Primary operation is_a Qualifier value"];
"362981000\nQualifier value"->"138875005\nSNOMED CT Concept" [arrowhead=onormal, color=black, tooltip="Qualifier value is_a SNOMED CT Concept"];
"<< 389109008\nGroup"->"48176007\nSocial context" [arrowhead=onormal, color=black, tooltip="Group is_a Social context"];
"<< 133928008\nCommunity"->"48176007\nSocial context" [arrowhead=onormal, color=black, tooltip="Community is_a Social context"];
"<< 35359004\nFamily"->"48176007\nSocial context" [arrowhead=onormal, color=black, tooltip="Family is_a Social context"];
"<< 125676002\nPerson"->"48176007\nSocial context" [arrowhead=onormal, color=black, tooltip="Person is_a Social context"];
"48176007\nSocial context"->"138875005\nSNOMED CT Concept" [arrowhead=onormal, color=black, tooltip="Social context is_a SNOMED CT Concept"];
"<< 105590001\nSubstance"->"138875005\nSNOMED CT Concept" [arrowhead=onormal, color=black, tooltip="Substance is_a SNOMED CT Concept"];

/* *** Domain and range classes *** */
"<< 442083009\nAnatomical or acquired body structure" [shape=box, peripheries=1, style=filled, fontsize=9, fontcolor=black, fontname=Helvetica, tooltip="<< 442083009 Anatomical or acquired body structure\n\nIN RANGE OF:\nProcedure site\nProcedure site - Direct\nProcedure site - Indirect\n\nFROM DOMAIN:\nProcedure\n", URL="http://snomed.info/id/442083009", fillcolor=lightblue1];
"<< 105590001\nSubstance" [shape=box, peripheries=1, style=filled, fontsize=9, fontcolor=black, fontname=Helvetica, tooltip="<< 105590001 Substance\n\nIN RANGE OF:\nDirect substance\nUsing substance\n\nFROM DOMAIN:\nProcedure\n", URL="http://snomed.info/id/105590001", fillcolor=lightblue1];
"<< 257958009\nPart of multistage procedure" [shape=box, peripheries=1, style=filled, fontsize=9, fontcolor=black, fontname=Helvetica, tooltip="<< 257958009 Part of multistage procedure\n\nIN RANGE OF:\nRevision status\n\nFROM DOMAIN:\nProcedure\n", URL="http://snomed.info/id/257958009", fillcolor=lightblue1];
"<< 373873005\nPharmaceutical / biologic product" [shape=box, peripheries=1, style=filled, fontsize=9, fontcolor=black, fontname=Helvetica, tooltip="<< 373873005 Pharmaceutical / biologic product\n\nIN RANGE OF:\nDirect substance\n\nFROM DOMAIN:\nProcedure\n", URL="http://snomed.info/id/373873005", fillcolor=lightblue1];
"<< 389109008\nGroup" [shape=box, peripheries=1, style=filled, fontsize=9, fontcolor=black, fontname=Helvetica, tooltip="<< 389109008 Group\n\nIN RANGE OF:\nRecipient category\n\nFROM DOMAIN:\nProcedure\n", URL="http://snomed.info/id/389109008", fillcolor=lightblue1];
"<< 71388002\nProcedure" [shape=box, peripheries=1, style=filled, fontsize=9, fontcolor=black, fontname=Helvetica, tooltip="<< 71388002 Procedure\n\nIN DOMAIN OF:\nAccess\nDirect device\nDirect morphology\nDirect substance\nHas focus\nHas intent\nIndirect device\nIndirect morphology\nMethod\nPriority\nProcedure device\nProcedure morphology\nProcedure site\nProcedure site - Direct\nProcedure site - Indirect\nRecipient category\nRevision status\nUsing access device\nUsing device\nUsing energy\nUsing substance\n\nIN RANGE OF:\nHas focus\n\nFROM DOMAIN:\nProcedure\n", URL="http://snomed.info/id/71388002", fillcolor=violet];
"<< 49062001\nDevice" [shape=box, peripheries=1, style=filled, fontsize=9, fontcolor=black, fontname=Helvetica, tooltip="<< 49062001 Device\n\nIN RANGE OF:\nDirect device\nIndirect device\nProcedure device\nUsing access device\nUsing device\n\nFROM DOMAIN:\nProcedure\n", URL="http://snomed.info/id/49062001", fillcolor=lightblue1];
"<< 129264002\nAction" [shape=box, peripheries=1, style=filled, fontsize=9, fontcolor=black, fontname=Helvetica, tooltip="<< 129264002 Action\n\nIN RANGE OF:\nMethod\n\nFROM DOMAIN:\nProcedure\n", URL="http://snomed.info/id/129264002", fillcolor=lightblue1];
"<< 272125009\nPriorities" [shape=box, peripheries=1, style=filled, fontsize=9, fontcolor=black, fontname=Helvetica, tooltip="<< 272125009 Priorities\n\nIN RANGE OF:\nPriority\n\nFROM DOMAIN:\nProcedure\n", URL="http://snomed.info/id/272125009", fillcolor=lightblue1];
"<< 404684003\nClinical finding" [shape=box, peripheries=1, style=filled, fontsize=9, fontcolor=black, fontname=Helvetica, tooltip="<< 404684003 Clinical finding\n\nIN RANGE OF:\nHas focus\n\nFROM DOMAIN:\nProcedure\n", URL="http://snomed.info/id/404684003", fillcolor=lightblue1];
"<< 49755003\nMorphologically abnormal structure" [shape=box, peripheries=1, style=filled, fontsize=9, fontcolor=black, fontname=Helvetica, tooltip="<< 49755003 Morphologically abnormal structure\n\nIN RANGE OF:\nDirect morphology\nIndirect morphology\nProcedure morphology\n\nFROM DOMAIN:\nProcedure\n", URL="http://snomed.info/id/49755003", fillcolor=lightblue1];
"<< 133928008\nCommunity" [shape=box, peripheries=1, style=filled, fontsize=9, fontcolor=black, fontname=Helvetica, tooltip="<< 133928008 Community\n\nIN RANGE OF:\nRecipient category\n\nFROM DOMAIN:\nProcedure\n", URL="http://snomed.info/id/133928008", fillcolor=lightblue1];
"<< 35359004\nFamily" [shape=box, peripheries=1, style=filled, fontsize=9, fontcolor=black, fontname=Helvetica, tooltip="<< 35359004 Family\n\nIN RANGE OF:\nRecipient category\n\nFROM DOMAIN:\nProcedure\n", URL="http://snomed.info/id/35359004", fillcolor=lightblue1];
"<< 78621006\nPhysical force" [shape=box, peripheries=1, style=filled, fontsize=9, fontcolor=black, fontname=Helvetica, tooltip="<< 78621006 Physical force\n\nIN RANGE OF:\nUsing energy\n\nFROM DOMAIN:\nProcedure\n", URL="http://snomed.info/id/78621006", fillcolor=lightblue1];
"<< 125676002\nPerson" [shape=box, peripheries=1, style=filled, fontsize=9, fontcolor=black, fontname=Helvetica, tooltip="<< 125676002 Person\n\nIN RANGE OF:\nRecipient category\n\nFROM DOMAIN:\nProcedure\n", URL="http://snomed.info/id/125676002", fillcolor=lightblue1];
"<< 363675004\nIntent of action values" [shape=box, peripheries=1, style=filled, fontsize=9, fontcolor=black, fontname=Helvetica, tooltip="<< 363675004 Intent of action values\n\nIN RANGE OF:\nHas intent\n\nFROM DOMAIN:\nProcedure\n", URL="http://snomed.info/id/363675004", fillcolor=lightblue1];
"<< 309795001\nSurgical access values" [shape=box, peripheries=1, style=filled, fontsize=9, fontcolor=black, fontname=Helvetica, tooltip="<< 309795001 Surgical access values\n\nIN RANGE OF:\nAccess\n\nFROM DOMAIN:\nProcedure\n", URL="http://snomed.info/id/309795001", fillcolor=lightblue1];
"<< 255231005\nRevision - value" [shape=box, peripheries=1, style=filled, fontsize=9, fontcolor=black, fontname=Helvetica, tooltip="<< 255231005 Revision - value\n\nIN RANGE OF:\nRevision status\n\nFROM DOMAIN:\nProcedure\n", URL="http://snomed.info/id/255231005", fillcolor=lightblue1];
"<< 261424001\nPrimary operation" [shape=box, peripheries=1, style=filled, fontsize=9, fontcolor=black, fontname=Helvetica, tooltip="<< 261424001 Primary operation\n\nIN RANGE OF:\nRevision status\n\nFROM DOMAIN:\nProcedure\n", URL="http://snomed.info/id/261424001", fillcolor=lightblue1];
"900000000000441003\nSNOMED CT Model Component" [style=invis];

/* *** Role hierarchy relationships *** */
"424226004\nUsing device"->"405815000\nProcedure device" [arrowhead=onormal, color=black, tooltip="Using device is_a Procedure device"];
"405813007\nProcedure site - Direct"->"363704007\nProcedure site" [arrowhead=onormal, color=black, tooltip="Procedure site - Direct is_a Procedure site"];
"363710007\nIndirect device"->"405815000\nProcedure device" [arrowhead=onormal, color=black, tooltip="Indirect device is_a Procedure device"];
"363709002\nIndirect morphology"->"405816004\nProcedure morphology" [arrowhead=onormal, color=black, tooltip="Indirect morphology is_a Procedure morphology"];
"405814001\nProcedure site - Indirect"->"363704007\nProcedure site" [arrowhead=onormal, color=black, tooltip="Procedure site - Indirect is_a Procedure site"];
"363699004\nDirect device"->"405815000\nProcedure device" [arrowhead=onormal, color=black, tooltip="Direct device is_a Procedure device"];
"363700003\nDirect morphology"->"405816004\nProcedure morphology" [arrowhead=onormal, color=black, tooltip="Direct morphology is_a Procedure morphology"];
"425391005\nUsing access device"->"424226004\nUsing device" [arrowhead=onormal, color=black, tooltip="Using access device is_a Using device"];

/* *** Attribute classes *** */
"424226004\nUsing device" [shape=box, peripheries=2, style=filled, fontsize=9, fontname=Helvetica, fontcolor=black, tooltip="424226004 Using device\n\nDOMAIN:\nProcedure\n\nRANGE:\nDevice\n", URL="http://snomed.info/id/424226004", fillcolor=lemonchiffon1];
"260870009\nPriority" [shape=box, peripheries=2, style=filled, fontsize=9, fontname=Helvetica, fontcolor=black, tooltip="260870009 Priority\n\nDOMAIN:\nProcedure\n\nRANGE:\nPriorities\n", URL="http://snomed.info/id/260870009", fillcolor=lemonchiffon1];
"246513007\nRevision status" [shape=box, peripheries=2, style=filled, fontsize=9, fontname=Helvetica, fontcolor=black, tooltip="246513007 Revision status\n\nDOMAIN:\nProcedure\n\nRANGES:\nPart of multistage procedure\nPrimary operation\nRevision - value\n", URL="http://snomed.info/id/246513007", fillcolor=lemonchiffon1];
"424244007\nUsing energy" [shape=box, peripheries=2, style=filled, fontsize=9, fontname=Helvetica, fontcolor=black, tooltip="424244007 Using energy\n\nDOMAIN:\nProcedure\n\nRANGE:\nPhysical force\n", URL="http://snomed.info/id/424244007", fillcolor=lemonchiffon1];
"363702006\nHas focus" [shape=box, peripheries=2, style=filled, fontsize=9, fontname=Helvetica, fontcolor=black, tooltip="363702006 Has focus\n\nDOMAIN:\nProcedure\n\nRANGES:\nClinical finding\nProcedure\n", URL="http://snomed.info/id/363702006", fillcolor=lemonchiffon1];
"260507000\nAccess" [shape=box, peripheries=2, style=filled, fontsize=9, fontname=Helvetica, fontcolor=black, tooltip="260507000 Access\n\nDOMAIN:\nProcedure\n\nRANGE:\nSurgical access values\n", URL="http://snomed.info/id/260507000", fillcolor=lemonchiffon1];
"363703001\nHas intent" [shape=box, peripheries=2, style=filled, fontsize=9, fontname=Helvetica, fontcolor=black, tooltip="363703001 Has intent\n\nDOMAIN:\nProcedure\n\nRANGE:\nIntent of action values\n", URL="http://snomed.info/id/363703001", fillcolor=lemonchiffon1];
"405813007\nProcedure site - Direct" [shape=box, peripheries=2, style=filled, fontsize=9, fontname=Helvetica, fontcolor=black, tooltip="405813007 Procedure site - Direct\n\nDOMAIN:\nProcedure\n\nRANGE:\nAnatomical or acquired body structure\n", URL="http://snomed.info/id/405813007", fillcolor=lemonchiffon1];
"405816004\nProcedure morphology" [shape=box, peripheries=2, style=filled, fontsize=9, fontname=Helvetica, fontcolor=black, tooltip="405816004 Procedure morphology\n\nDOMAIN:\nProcedure\n\nRANGE:\nMorphologically abnormal structure\n", URL="http://snomed.info/id/405816004", fillcolor=lemonchiffon1];
"370131001\nRecipient category" [shape=box, peripheries=2, style=filled, fontsize=9, fontname=Helvetica, fontcolor=black, tooltip="370131001 Recipient category\n\nDOMAIN:\nProcedure\n\nRANGES:\nCommunity\nFamily\nGroup\nPerson\n", URL="http://snomed.info/id/370131001", fillcolor=lemonchiffon1];
"424361007\nUsing substance" [shape=box, peripheries=2, style=filled, fontsize=9, fontname=Helvetica, fontcolor=black, tooltip="424361007 Using substance\n\nDOMAIN:\nProcedure\n\nRANGE:\nSubstance\n", URL="http://snomed.info/id/424361007", fillcolor=lemonchiffon1];
"260686004\nMethod" [shape=box, peripheries=2, style=filled, fontsize=9, fontname=Helvetica, fontcolor=black, tooltip="260686004 Method\n\nDOMAIN:\nProcedure\n\nRANGE:\nAction\n", URL="http://snomed.info/id/260686004", fillcolor=lemonchiffon1];
"363710007\nIndirect device" [shape=box, peripheries=2, style=filled, fontsize=9, fontname=Helvetica, fontcolor=black, tooltip="363710007 Indirect device\n\nDOMAIN:\nProcedure\n\nRANGE:\nDevice\n", URL="http://snomed.info/id/363710007", fillcolor=lemonchiffon1];
"363709002\nIndirect morphology" [shape=box, peripheries=2, style=filled, fontsize=9, fontname=Helvetica, fontcolor=black, tooltip="363709002 Indirect morphology\n\nDOMAIN:\nProcedure\n\nRANGE:\nMorphologically abnormal structure\n", URL="http://snomed.info/id/363709002", fillcolor=lemonchiffon1];
"405814001\nProcedure site - Indirect" [shape=box, peripheries=2, style=filled, fontsize=9, fontname=Helvetica, fontcolor=black, tooltip="405814001 Procedure site - Indirect\n\nDOMAIN:\nProcedure\n\nRANGE:\nAnatomical or acquired body structure\n", URL="http://snomed.info/id/405814001", fillcolor=lemonchiffon1];
"363699004\nDirect device" [shape=box, peripheries=2, style=filled, fontsize=9, fontname=Helvetica, fontcolor=black, tooltip="363699004 Direct device\n\nDOMAIN:\nProcedure\n\nRANGE:\nDevice\n", URL="http://snomed.info/id/363699004", fillcolor=lemonchiffon1];
"363701004\nDirect substance" [shape=box, peripheries=2, style=filled, fontsize=9, fontname=Helvetica, fontcolor=black, tooltip="363701004 Direct substance\n\nDOMAIN:\nProcedure\n\nRANGES:\nPharmaceutical / biologic product\nSubstance\n", URL="http://snomed.info/id/363701004", fillcolor=lemonchiffon1];
"363704007\nProcedure site" [shape=box, peripheries=2, style=filled, fontsize=9, fontname=Helvetica, fontcolor=black, tooltip="363704007 Procedure site\n\nDOMAIN:\nProcedure\n\nRANGE:\nAnatomical or acquired body structure\n", URL="http://snomed.info/id/363704007", fillcolor=lemonchiffon1];
"405815000\nProcedure device" [shape=box, peripheries=2, style=filled, fontsize=9, fontname=Helvetica, fontcolor=black, tooltip="405815000 Procedure device\n\nDOMAIN:\nProcedure\n\nRANGE:\nDevice\n", URL="http://snomed.info/id/405815000", fillcolor=lemonchiffon1];
"363700003\nDirect morphology" [shape=box, peripheries=2, style=filled, fontsize=9, fontname=Helvetica, fontcolor=black, tooltip="363700003 Direct morphology\n\nDOMAIN:\nProcedure\n\nRANGE:\nMorphologically abnormal structure\n", URL="http://snomed.info/id/363700003", fillcolor=lemonchiffon1];
"425391005\nUsing access device" [shape=box, peripheries=2, style=filled, fontsize=9, fontname=Helvetica, fontcolor=black, tooltip="425391005 Using access device\n\nDOMAIN:\nProcedure\n\nRANGE:\nDevice\n", URL="http://snomed.info/id/425391005", fillcolor=lemonchiffon1];

/* *** Caption *** */
"diagramLabel" [label="Simplified diagram of SNOMED CT\nMRCM Domain and Range constraints|Pre-coordination view |Showing domains:\n71388002 Procedure|20210131 International data|Drawn September 22, 2021", shape=record, fontsize=12];

/* *** Key *** */
subgraph cluster_key {fontname=Helvetica; label = "Key"; style=filled; fillcolor="white"; fontsize=12; peripheries=2;
"<< XXXXXXXX\nDefined domain concept" -> "XXXXXXXX\nAttribute name" [arrowhead=open, color=red];
"<< XXXXXXXX\nPrimitive domain concept" -> "XXXXXXXX\nAttribute name"[arrowhead=open, style=dashed, color=red];
"XXXXXXXX\nAttribute name" -> "<< XXXXXXXX\nDomain and\n range concept\n(operators the same)" [arrowhead=open, color=blue];
"XXXXXXXX\nAttribute name" -> "<< XXXXXXXX\nDomain and\n range concept\n(operators differ)" [arrowhead=open, color=blue];
"<< XXXXXXXX\nDomain and\n range concept\n(operators the same)" -> "XXXXXXXX\nAttribute name" [arrowhead=open, color=red];
"<< XXXXXXXX\nDomain and\n range concept\n(operators differ)" -> "XXXXXXXX\nAttribute name" [arrowhead=open, color=red];
"XXXXXXXX\nAttribute name" -> "<< XXXXXXXX\nRange concept" [arrowhead=open, style=dashed, color=blue];
"<< XXXXXXXX\nDomain and\n range concept\n(operators the same)" -> "Domain and range\n relationships\n\nNote 1. Operators may differ between\ndomain and range\n\nNote 2. Dashed edge indicates\nattribute ungrouped for this domain in DL" [style=invis];
"<< XXXXXXXX\nDomain and\n range concept\n(operators differ)"  -> "Domain and range\n relationships\n\nNote 1. Operators may differ between\ndomain and range\n\nNote 2. Dashed edge indicates\nattribute ungrouped for this domain in DL" [style=invis];
"<< XXXXXXXX\nRange concept" -> "Domain and range\n relationships\n\nNote 1. Operators may differ between\ndomain and range\n\nNote 2. Dashed edge indicates\nattribute ungrouped for this domain in DL" [style=invis];
"<< XXXXXXXX\nConcept referenced in model"->"<< XXXXXXXX\nAnother concept referenced in model" [arrowhead=normal, color=black];
"<< XXXXXXXX\nConcept referenced in model"->"<< XXXXXXXX\nAnother concept referenced in model" [arrowhead=diamond, color=black];
"<< XXXXXXXX\nAnother concept referenced in model"->"XXXXXXXX\nConcept included in diagram but\nnot referenced in concept model" [arrowhead=onormal, color=black];
"XXXXXXXX\nConcept included in diagram but\nnot referenced in concept model"->"Domain and range\nhierarchies\n\nNote: Filled arrows and diamonds\nindicate parent domains" [style=invis];
"XXXXXXXX\nInactive domain,\nrange or attribute"->"XXXXXXXX\nSub-attribute name" [style=invis];
"XXXXXXXX\nSub-attribute name"->"XXXXXXXX\nSuper-attribute name" [arrowhead=onormal, color=black];
"XXXXXXXX\nSuper-attribute name"->"Attribute hierarchies\n(full path to root not shown)\n\nNote: yellow indicates attribute range\ndiffers for different domains" [style=invis];
"<< XXXXXXXX\nDefined domain concept"  [shape=box, peripheries=2, style=filled, fontsize=9, fontcolor=black, fontname=Helvetica, fillcolor=lightpink];
"<< XXXXXXXX\nPrimitive domain concept"  [shape=box, peripheries=1, style=filled, fontsize=9, fontcolor=black, fontname=Helvetica, fillcolor=lightpink];
"<< XXXXXXXX\nRange concept"  [shape=box, peripheries=1, style=filled, fontsize=9, fontcolor=black, fontname=Helvetica, fillcolor=lightblue1];
"XXXXXXXX\nAttribute name" [shape=box, peripheries=2, style=filled, fontsize=9, fontname=Helvetica, fillcolor=lemonchiffon1];
"<< XXXXXXXX\nDomain and\n range concept\n(operators the same)" [shape=box, peripheries=2, style=filled, fontsize=9, fontcolor=black, fontname=Helvetica, fillcolor=violet];
"<< XXXXXXXX\nDomain and\n range concept\n(operators differ)" [shape=box, peripheries=1, style=filled, fontsize=9, fontcolor=white, fontname=Helvetica, fillcolor=violet];
"Domain and range\n relationships\n\nNote 1. Operators may differ between\ndomain and range\n\nNote 2. Dashed edge indicates\nattribute ungrouped for this domain in DL" [fontsize=9, style=filled, fillcolor=white, penwidth=0];
"<< XXXXXXXX\nConcept referenced in model" [shape=box, peripheries=1, style=filled, fontsize=9, fontcolor=black, fontname=Helvetica, fillcolor=lightblue1];
"<< XXXXXXXX\nAnother concept referenced in model" [shape=box, peripheries=1, style=filled, fontsize=9, fontcolor=black, fontname=Helvetica, fillcolor=lightblue1];
"XXXXXXXX\nConcept included in diagram but\nnot referenced in concept model" [fontsize=9, fillcolor=palegreen];
"Domain and range\nhierarchies\n\nNote: Filled arrows and diamonds\nindicate parent domains" [fontsize=9, style=filled, fillcolor=white, penwidth=0];
"XXXXXXXX\nInactive domain,\nrange or attribute" [shape=box, peripheries=1, style=filled, fontsize=9, fontname=Helvetica, fillcolor=orange];
"XXXXXXXX\nSub-attribute name" [shape=box, peripheries=2, style=filled, fontsize=9, fontname=Helvetica, fillcolor=yellow];
"XXXXXXXX\nSuper-attribute name" [shape=box, peripheries=2, style=filled, fontsize=9, fontname=Helvetica, fillcolor=lemonchiffon1];
"Attribute hierarchies\n(full path to root not shown)\n\nNote: yellow indicates attribute range\ndiffers for different domains"  [fontsize=9, style=filled, fillcolor=white, penwidth=0];
}}