24526004 | Inflammatory bowel disease |
<<< 85919009 | Disorder of intestine | +
363169009 | Inflammation of specific body organs | +
128999004 | Inflammatory disorder of digestive tract | :
{116676008 | Associated morphology | = 409774005 | Inflammatory morphology |,
363698007 | Finding site | = 113276009 | Intestinal structure |}