60194009
235472002
235499000
9524002
287847009
91516004
235468001
401004
174542007
45464004
307581005
265461002
235469009
51684008
174710004
119288004
708876004
3562008
5745003
414158004
609192001
173848007
235470005
287818002
69538006
174699007
49438003
174045003
174718006
174712007
33479006
78017003
359567006
841091000000105
174602009
7833003
18133004
76077004
56078005
235467006
174697009
307196002
307569006
82730006
54154000
235313004
307568003
47789005
287848004
116215005
1299000
11236009
174702000
443935000
235466002
173849004
83857006
6025007
