22933009
80963002
34852006
82003006
111577008
24661004
42484009
15276008
47526003
86859003
41387000
52212006
111579006
29177004
59644002
62268000
44641000
34194007
78908001
52413004
62403005
1148895008
25251008
1148893001
74703006
