726709001
773404000
719659003
721296004
718910006
716998009
897543009
724275005
783619003
718219002
715952000
765140006
702357000
703542000
770907002
733083006
782782004
724351008
720986005
719646006
763274002
763368004
770754006
763351003
733520002
718099006
733491005
716701004
785722006
722019000
719157002
719909009
766716004
890124000
718579008
88894000
771341006
719835006
717264003
725289009
770755007
733601006
724277002
737562008
726611001
764739008
1003380001
783198006
719816006
783064000
763618001
770401007
723439002
726622002
717633007
716997004
773503009
725164008
77527000
773419004
783717008
82203000
775907000
719160009
763374004
768713003
897536003
70173007
764703002
778068007
719172003
719166003
773551001
720457000
897526006
722477003
880081006
31981007
890116005
722383001
724067006
205686009
721873007
724145007
88326002
723825006
770666006
449819002
770941005
722293005
764512003
763748007
733029008
764518004
717977003
725044000
720749004
4874006
270889005
770411000
449818005
715628009
719665003
783059004
766816008
70324008
45525000
111311004
720978005
719012009
111309008
773730002
770784003
734016004
765331004
773673002
774148007
783764008
733451007
36608002
771335004
720753002
770760006
717261006
764725008
771478008
718721006
771470001
721072003
725461009
716696006
719973009
720416007
722475006
733453005
782757004
733085004
771272007
770794008
765142003
782880001
724278007
724141003
725026008
716999001
774205007
782674007
764454003
890117001
782751003
774155009
764996009
764997000
1003389000
717157006
725291001
719136005
733450008
26480007
764519007
771515001
715533002
715780008
763344007
770665005
774068004
733623005
726606003
783099001
723819007
717003001
782724001
732932004
700489002
7586009
718851007
722285005
764696007
715799004
719950001
719834005
725028009
725034002
720941007
733084000
723995003
719405005
4242009
897510005
1010613009
699254009
770663003
768471006
773400009
782877002
777998000
778021002
719582007
49024004
722056009
726733007
766705006
734026006
890130000
783194008
719649004
782676009
66985009
782737003
764524005
763721006
722385008
4887000
717050005
719824001
724349009
716775009
766879006
766053003
733521003
75049004
718196002
717821004
722109008
19419002
773672007
764108000
764520001
720638000
722375007
773610007
722059002
15841002
764858009
723823004
725290000
720412009
732933009
763400005
721847002
782669004
774203000
13144005
719017003
77497005
764435003
768927001
717048002
83585001
719159004
722429003
782772000
716709002
733111000
764711007
1153430004
771340007
783097004
782882009
770407006
721158009
725050005
764095005
880093002
720982007
720977000
702360007
720639008
763273008
773622005
778073001
63247009
773494008
719047001
721881008
724361001
770720005
1003449005
724282009
719684000
890125004
720633009
723998001
718687003
890180006
82699004
699307007
699310000
5982001
716700003
782694003
725145002
718188007
770629000
722203001
722067005
897528007
765753004
723450004
722037004
733115009
724142005
733518000
773406003
238033007
721227001
19550003
548004
770788000
897544003
719837003
1010685005
719583002
700463002
715438008
715802008
717407006
733604003
765146000
717822006
767497003
719576009
783246000
719271000
770564004
773702002
723449004
719574007
764500002
766708008
90866007
723307008
719815005
768555009
721862000
723579009
724177005
725100001
1479009
719580004
784349004
717182006
890123006
50992006
763528002
768929003
19092004
771336003
897592003
763795006
773493002
775909002
719599008
715951007
770627003
766766005
773326003
716996008
724356003
73035005
774212003
721882001
773303005
733519008
778042000
771337007
726079008
732949006
771269000
766050000
782745008
724385009
719660008
763890006
719454003
718761007
782736007
725286002
770680004
785305006
783551005
718631006
4199009
771439009
778067002
733452000
720569006
724208006
20348002
724276006
766052008
765326001
717338006
75893003
724097003
732252005
17122004
719046005
726083008
726608002
715530004
766051001
778006008
763773007
783164002
111304003
16129004
763792009
9527009
782825008
240048000
718689000
783558004
56653005
722057000
29379007
62995000
783734000
699305004
726707004
773627004
719171005
763720007
719575008
767263007
773548008
773501006
718615003
10572007
763373005
699311001
734022008
733112007
722210007
725592009
879939002
773648002
734349003
715797002
782759001
763455008
897511009
699306003
725295005
771477003
719600006
770751003
770902008
719689005
24786004
1003409002
719663005
763345008
716708005
719427001
782914000
726610000
773346008
30361005
771267003
782739000
771338002
74928006
715798007
770560008
778007004
54036001
719658006
720567008
767499000
726705007
719584008
719255000
770793002
771517009
719577000
721972001
724170007
718914002
26445008
778000002
721236002
782879004
783698005
724147004
725462002
723308003
719666002
773552008
773396009
764440006
720976009
28861008
763277009
765327005
715982006
770542008
74008005
770756008
724350009
778022009
770721009
782754006
776417008
719947004
763714006
716515000
719650004
4135001
719044008
719662000
36369001
43420005
719158007
763276000
782670003
724070005
702346005
719397009
554003
773670004
718606005
719305006
723821002
787171006
771516000
774150004
228050004
716456000
782720005
717761005
723824005
33706001
238035000
880079009
720605009
723826007
734990008
40389006
897507003
725029001
718688008
773644000
773276004
4325000
783092005
773693005
717973004
719661007
723444009
763272003
1010614003
771512003
764100007
763530000
789187001
718222000
720572004
227035005
717827000
764523004
719597005
719819004
783767001
723675006
783057002
726708009
719800009
723551003
766755003
770728003
723367005
771072001
725911008
723440000
1153583005
703540008
722231005
723360007
874931001
778026007
718194004
734029004
715215007
726607007
725139005
773554009
890118006
81304006
770719004
6002006
766992008
778023004
721297008
765325002
719578005
724206005
723611008
726732002
763376002
770942003
782673001
890110004
48760005
723820001
773306002
720864008
897509000
718609003
763062006
783789002
48812004
54954004
766976003
773325004
773547003
719686003
720513002
783740007
770410004
763061004
764447009
715796006
726609005
719657001
718227006
765329008
14091009
772224009
724098008
897546001
763815000
715803003
723364003
783061008
897524009
725296006
787412002
725046003
724207001
732259001
783562005
897527002
698849002
785299009
717222003
270890001
718556007
724139004
763833006
47434006
722456001
722458000
720984008
722439009
778010006
719808002
719664004
732948003
22497004
716248001
37506004
880078001
51819009
29257000
773628009
773332008
783250007
718881004
782785002
765171002
764459008
770566002
719651000
42432003
722058005
723822009
773737004
785298001
717049005
720853005
720520009
725141006
82751009
720752007
716683005
733626002
716090004
763529005
716387004
699308002
818959006
726021008
770905005
763366000
734030009
716699004
783738002
719453009
725079003
763527007
733473000
773625007
763275001
83721006
720856002
773329005
774071007
719652007
785303004
880086001
722430008
771442003
773331001
720830009
782753000
718226002
723332005
897529004
787407003
778024005
719203001
784344009
715801001
1149069001
890128002
716868003
716381003
726706008
890127007
205687000
76447002
773643006
