763272003
763528002
768929003
763530000
19092004
765140006
766766005
770663003
768471006
719646006
763274002
733520002
733519008
766716004
49024004
726733007
1153583005
734029004
764739008
715215007
770719004
764524005
771439009
20348002
766053003
733521003
897536003
70173007
17122004
764703002
764520001
897526006
715530004
783164002
763062006
718689000
719686003
726707004
763061004
764447009
768927001
770666006
764711007
1153430004
897524009
764512003
721158009
764518004
734349003
270889005
783562005
897527002
270890001
763273008
766816008
111311004
719600006
734016004
718687003
778007004
719658006
764725008
726705007
765171002
721972001
718188007
764459008
770566002
26445008
717049005
897528007
763529005
733518000
733626002
763277009
721227001
74008005
765142003
734030009
715438008
763527007
764454003
733473000
763275001
36369001
764996009
764997000
719652007
717157006
763276000
722430008
702346005
719397009
764519007
723332005
770665005
787171006
897529004
764500002
700489002
716381003
726706008
768555009
764696007
