digraph RF2_MRCM { rankdir=LR; splines=ortho; node [shape=box, peripheries=1, style=filled, fontsize=9, fontname=Helvetica, tooltip=" ", fillcolor=palegreen];

/* *** Model rows *** */
"<< 404684003\nClinical finding"->"116676008\nAssociated morphology" [arrowhead=open, color=red, tooltip="Clinical finding -> Associated morphology [0..*]"];
"116676008\nAssociated morphology"->"<< 49755003\nMorphologically abnormal structure" [arrowhead=open, color=blue, tooltip="Associated morphology -> Morphologically abnormal structure"];
"<< 404684003\nClinical finding"->"246075003\nCausative agent" [arrowhead=open, color=red, tooltip="Clinical finding -> Causative agent [0..1]"];
"246075003\nCausative agent"->"<< 105590001\nSubstance" [arrowhead=open, color=blue, tooltip="Causative agent -> Substance"];
"246075003\nCausative agent"->"<< 260787004\nPhysical object" [arrowhead=open, color=blue, tooltip="Causative agent -> Physical object"];
"246075003\nCausative agent"->"<< 373873005\nPharmaceutical / biologic product" [arrowhead=open, color=blue, tooltip="Causative agent -> Pharmaceutical / biologic product"];
"246075003\nCausative agent"->"<< 410607006\nOrganism" [arrowhead=open, color=blue, tooltip="Causative agent -> Organism"];
"246075003\nCausative agent"->"<< 78621006\nPhysical force" [arrowhead=open, color=blue, tooltip="Causative agent -> Physical force"];
"<< 404684003\nClinical finding"->"246112005\nSeverity" [arrowhead=open, color=red, tooltip="Clinical finding -> Severity [0..1]"];
"246112005\nSeverity"->"<< 272141005\nSeverities" [arrowhead=open, color=blue, tooltip="Severity -> Severities"];
"<< 404684003\nClinical finding"->"246454002\nOccurrence" [arrowhead=open, color=red, tooltip="Clinical finding -> Occurrence [0..1]"];
"246454002\nOccurrence"->"<< 282032007\nPeriods of life" [arrowhead=open, color=blue, tooltip="Occurrence -> Periods of life"];
"<< 404684003\nClinical finding"->"246456000\nEpisodicity" [arrowhead=open, color=red, tooltip="Clinical finding -> Episodicity [0..1]"];
"246456000\nEpisodicity"->"<< 288526004\nEpisodicities" [arrowhead=open, color=blue, tooltip="Episodicity -> Episodicities"];
"<< 404684003\nClinical finding"->"255234002\nAfter" [arrowhead=open, color=red, tooltip="Clinical finding -> After [0..1]"];
"255234002\nAfter"->"<< 272379006\nEvent" [arrowhead=open, color=blue, tooltip="After -> Event"];
"255234002\nAfter"->"<< 404684003\nClinical finding" [arrowhead=open, color=blue, tooltip="After -> Clinical finding"];
"255234002\nAfter"->"<< 71388002\nProcedure" [arrowhead=open, color=blue, tooltip="After -> Procedure"];
"<< 404684003\nClinical finding"->"263502005\nClinical course" [arrowhead=open, color=red, tooltip="Clinical finding -> Clinical course [0..1]"];
"263502005\nClinical course"->"<< 288524001\nCourses" [arrowhead=open, color=blue, tooltip="Clinical course -> Courses"];
"<< 404684003\nClinical finding"->"288556008\nBefore" [arrowhead=open, color=red, tooltip="Clinical finding -> Before [0..1]"];
"288556008\nBefore"->"<< 71388002\nProcedure" [arrowhead=open, color=blue, tooltip="Before -> Procedure"];
"<< 404684003\nClinical finding"->"363698007\nFinding site" [arrowhead=open, color=red, tooltip="Clinical finding -> Finding site [0..*]"];
"363698007\nFinding site"->"<< 442083009\nAnatomical or acquired body structure" [arrowhead=open, color=blue, tooltip="Finding site -> Anatomical or acquired body structure"];
"<< 404684003\nClinical finding"->"363713009\nHas interpretation" [arrowhead=open, color=red, tooltip="Clinical finding -> Has interpretation [0..1]"];
"363713009\nHas interpretation"->"<< 260245000\nFinding value" [arrowhead=open, color=blue, tooltip="Has interpretation -> Finding value"];
"363713009\nHas interpretation"->"<< 263714004\nColours" [arrowhead=open, color=blue, tooltip="Has interpretation -> Colours"];
"363713009\nHas interpretation"->"<< 308916002\nEnvironment or geographical location" [arrowhead=open, color=blue, tooltip="Has interpretation -> Environment or geographical location"];
"<< 404684003\nClinical finding"->"363714003\nInterprets" [arrowhead=open, color=red, tooltip="Clinical finding -> Interprets [0..1]"];
"363714003\nInterprets"->"<< 108252007\nLaboratory procedure" [arrowhead=open, color=blue, tooltip="Interprets -> Laboratory procedure"];
"363714003\nInterprets"->"<< 363787002\nObservable entity" [arrowhead=open, color=blue, tooltip="Interprets -> Observable entity"];
"363714003\nInterprets"->"<< 386053000\nEvaluation procedure" [arrowhead=open, color=blue, tooltip="Interprets -> Evaluation procedure"];
"<< 404684003\nClinical finding"->"370135005\nPathological process" [arrowhead=open, color=red, tooltip="Clinical finding -> Pathological process [0..1]"];
"370135005\nPathological process"->"<< 308490002\nPathological developmental process" [arrowhead=open, color=blue, tooltip="Pathological process -> Pathological developmental process"];
"370135005\nPathological process"->"<< 441862004\nInfectious process" [arrowhead=open, color=blue, tooltip="Pathological process -> Infectious process"];
"370135005\nPathological process"->"<< 472963003\nHypersensitivity process" [arrowhead=open, color=blue, tooltip="Pathological process -> Hypersensitivity process"];
"370135005\nPathological process"->"<< 769247005\nAbnormal immune process" [arrowhead=open, color=blue, tooltip="Pathological process -> Abnormal immune process"];
"<< 404684003\nClinical finding"->"371881003\nDuring" [arrowhead=open, color=red, tooltip="Clinical finding -> During [0..1]"];
"371881003\nDuring"->"<< 71388002\nProcedure" [arrowhead=open, color=blue, tooltip="During -> Procedure"];
"<< 404684003\nClinical finding"->"418775008\nFinding method" [arrowhead=open, color=red, tooltip="Clinical finding -> Finding method [0..1]"];
"418775008\nFinding method"->"<< 71388002\nProcedure" [arrowhead=open, color=blue, tooltip="Finding method -> Procedure"];
"<< 404684003\nClinical finding"->"419066007\nFinding informer" [arrowhead=open, color=red, tooltip="Clinical finding -> Finding informer [0..1]"];
"419066007\nFinding informer"->"<< 419358007\nSubject of record or other provider of history" [arrowhead=open, color=blue, tooltip="Finding informer -> Subject of record or other provider of history"];
"419066007\nFinding informer"->"<< 420158005\nPerformer of method" [arrowhead=open, color=blue, tooltip="Finding informer -> Performer of method"];
"419066007\nFinding informer"->"<< 444018008\nPerson with characteristic related to subject of record" [arrowhead=open, color=blue, tooltip="Finding informer -> Person with characteristic related to subject of record"];
"<< 404684003\nClinical finding"->"42752001\nDue to" [arrowhead=open, color=red, tooltip="Clinical finding -> Due to [0..1]"];
"42752001\nDue to"->"<< 272379006\nEvent" [arrowhead=open, color=blue, tooltip="Due to -> Event"];
"42752001\nDue to"->"<< 404684003\nClinical finding" [arrowhead=open, color=blue, tooltip="Due to -> Clinical finding"];
"42752001\nDue to"->"<< 71388002\nProcedure" [arrowhead=open, color=blue, tooltip="Due to -> Procedure"];
"<< 404684003\nClinical finding"->"47429007\nAssociated with" [arrowhead=open, color=red, tooltip="Clinical finding -> Associated with [0..*]"];
"47429007\nAssociated with"->"<< 105590001\nSubstance" [arrowhead=open, color=blue, tooltip="Associated with -> Substance"];
"47429007\nAssociated with"->"<< 260787004\nPhysical object" [arrowhead=open, color=blue, tooltip="Associated with -> Physical object"];
"47429007\nAssociated with"->"<< 272379006\nEvent" [arrowhead=open, color=blue, tooltip="Associated with -> Event"];
"47429007\nAssociated with"->"<< 404684003\nClinical finding" [arrowhead=open, color=blue, tooltip="Associated with -> Clinical finding"];
"47429007\nAssociated with"->"<< 410607006\nOrganism" [arrowhead=open, color=blue, tooltip="Associated with -> Organism"];
"47429007\nAssociated with"->"<< 71388002\nProcedure" [arrowhead=open, color=blue, tooltip="Associated with -> Procedure"];
"47429007\nAssociated with"->"<< 78621006\nPhysical force" [arrowhead=open, color=blue, tooltip="Associated with -> Physical force"];
"<< 404684003\nClinical finding"->"719722006\nHas realization" [arrowhead=open, color=red, tooltip="Clinical finding -> Has realization [0..1]"];
"719722006\nHas realization"->"<< 719982003\nProcess" [arrowhead=open, color=blue, tooltip="Has realization -> Process"];
"<< 404684003\nClinical finding"->"726633004\nTemporally related to" [arrowhead=open, color=red, tooltip="Clinical finding -> Temporally related to [0..*]"];
"726633004\nTemporally related to"->"<< 404684003\nClinical finding" [arrowhead=open, color=blue, tooltip="Temporally related to -> Clinical finding"];
"726633004\nTemporally related to"->"<< 71388002\nProcedure" [arrowhead=open, color=blue, tooltip="Temporally related to -> Procedure"];

/* *** Domain and range/parent domain graph *** */
"<< 442083009\nAnatomical or acquired body structure"->"123037004\nBody structure" [arrowhead=onormal, color=black, tooltip="Anatomical or acquired body structure is_a Body structure"];
"<< 49755003\nMorphologically abnormal structure"->"123037004\nBody structure" [arrowhead=onormal, color=black, tooltip="Morphologically abnormal structure is_a Body structure"];
"123037004\nBody structure"->"138875005\nSNOMED CT Concept" [arrowhead=onormal, color=black, tooltip="Body structure is_a SNOMED CT Concept"];
"<< 404684003\nClinical finding"->"138875005\nSNOMED CT Concept" [arrowhead=onormal, color=black, tooltip="Clinical finding is_a SNOMED CT Concept"];
"<< 308916002\nEnvironment or geographical location"->"138875005\nSNOMED CT Concept" [arrowhead=onormal, color=black, tooltip="Environment or geographical location is_a SNOMED CT Concept"];
"<< 272379006\nEvent"->"138875005\nSNOMED CT Concept" [arrowhead=onormal, color=black, tooltip="Event is_a SNOMED CT Concept"];
"<< 363787002\nObservable entity"->"138875005\nSNOMED CT Concept" [arrowhead=onormal, color=black, tooltip="Observable entity is_a SNOMED CT Concept"];
"<< 410607006\nOrganism"->"138875005\nSNOMED CT Concept" [arrowhead=onormal, color=black, tooltip="Organism is_a SNOMED CT Concept"];
"<< 373873005\nPharmaceutical / biologic product"->"138875005\nSNOMED CT Concept" [arrowhead=onormal, color=black, tooltip="Pharmaceutical / biologic product is_a SNOMED CT Concept"];
"<< 78621006\nPhysical force"->"138875005\nSNOMED CT Concept" [arrowhead=onormal, color=black, tooltip="Physical force is_a SNOMED CT Concept"];
"<< 260787004\nPhysical object"->"138875005\nSNOMED CT Concept" [arrowhead=onormal, color=black, tooltip="Physical object is_a SNOMED CT Concept"];
"<< 108252007\nLaboratory procedure"->"<< 71388002\nProcedure" [arrowhead=onormal, color=black, tooltip="Laboratory procedure is_a Procedure"];
"<< 386053000\nEvaluation procedure"->"<< 71388002\nProcedure" [arrowhead=onormal, color=black, tooltip="Evaluation procedure is_a Procedure"];
"<< 71388002\nProcedure"->"138875005\nSNOMED CT Concept" [arrowhead=onormal, color=black, tooltip="Procedure is_a SNOMED CT Concept"];
"<< 272141005\nSeverities"->"362981000\nQualifier value" [arrowhead=onormal, color=black, tooltip="Severities is_a Qualifier value"];
"<< 308490002\nPathological developmental process"->"<< 719982003\nProcess" [arrowhead=onormal, color=black, tooltip="Pathological developmental process is_a Process"];
"<< 288526004\nEpisodicities"->"362981000\nQualifier value" [arrowhead=onormal, color=black, tooltip="Episodicities is_a Qualifier value"];
"<< 719982003\nProcess"->"362981000\nQualifier value" [arrowhead=onormal, color=black, tooltip="Process is_a Qualifier value"];
"<< 260245000\nFinding value"->"362981000\nQualifier value" [arrowhead=onormal, color=black, tooltip="Finding value is_a Qualifier value"];
"<< 472963003\nHypersensitivity process"->"<< 719982003\nProcess" [arrowhead=onormal, color=black, tooltip="Hypersensitivity process is_a Process"];
"<< 288524001\nCourses"->"362981000\nQualifier value" [arrowhead=onormal, color=black, tooltip="Courses is_a Qualifier value"];
"<< 282032007\nPeriods of life"->"362981000\nQualifier value" [arrowhead=onormal, color=black, tooltip="Periods of life is_a Qualifier value"];
"<< 263714004\nColours"->"362981000\nQualifier value" [arrowhead=onormal, color=black, tooltip="Colours is_a Qualifier value"];
"<< 441862004\nInfectious process"->"<< 719982003\nProcess" [arrowhead=onormal, color=black, tooltip="Infectious process is_a Process"];
"<< 769247005\nAbnormal immune process"->"<< 719982003\nProcess" [arrowhead=onormal, color=black, tooltip="Abnormal immune process is_a Process"];
"362981000\nQualifier value"->"138875005\nSNOMED CT Concept" [arrowhead=onormal, color=black, tooltip="Qualifier value is_a SNOMED CT Concept"];
"<< 444018008\nPerson with characteristic related to subject of record"->"48176007\nSocial context" [arrowhead=onormal, color=black, tooltip="Person with characteristic related to subject of record is_a Social context"];
"<< 420158005\nPerformer of method"->"48176007\nSocial context" [arrowhead=onormal, color=black, tooltip="Performer of method is_a Social context"];
"<< 419358007\nSubject of record or other provider of history"->"48176007\nSocial context" [arrowhead=onormal, color=black, tooltip="Subject of record or other provider of history is_a Social context"];
"48176007\nSocial context"->"138875005\nSNOMED CT Concept" [arrowhead=onormal, color=black, tooltip="Social context is_a SNOMED CT Concept"];
"<< 105590001\nSubstance"->"138875005\nSNOMED CT Concept" [arrowhead=onormal, color=black, tooltip="Substance is_a SNOMED CT Concept"];

/* *** Domain and range classes *** */
"<< 444018008\nPerson with characteristic related to subject of record" [shape=box, peripheries=1, style=filled, fontsize=9, fontcolor=black, fontname=Helvetica, tooltip="<< 444018008 Person with characteristic related to subject of record\n\nIN RANGE OF:\nFinding informer\n\nFROM DOMAIN:\nClinical finding\n", URL="http://snomed.info/id/444018008", fillcolor=lightblue1];
"<< 420158005\nPerformer of method" [shape=box, peripheries=1, style=filled, fontsize=9, fontcolor=black, fontname=Helvetica, tooltip="<< 420158005 Performer of method\n\nIN RANGE OF:\nFinding informer\n\nFROM DOMAIN:\nClinical finding\n", URL="http://snomed.info/id/420158005", fillcolor=lightblue1];
"<< 272379006\nEvent" [shape=box, peripheries=1, style=filled, fontsize=9, fontcolor=black, fontname=Helvetica, tooltip="<< 272379006 Event\n\nIN RANGE OF:\nAfter\nAssociated with\nDue to\n\nFROM DOMAIN:\nClinical finding\n", URL="http://snomed.info/id/272379006", fillcolor=lightblue1];
"<< 442083009\nAnatomical or acquired body structure" [shape=box, peripheries=1, style=filled, fontsize=9, fontcolor=black, fontname=Helvetica, tooltip="<< 442083009 Anatomical or acquired body structure\n\nIN RANGE OF:\nFinding site\n\nFROM DOMAIN:\nClinical finding\n", URL="http://snomed.info/id/442083009", fillcolor=lightblue1];
"<< 108252007\nLaboratory procedure" [shape=box, peripheries=1, style=filled, fontsize=9, fontcolor=black, fontname=Helvetica, tooltip="<< 108252007 Laboratory procedure\n\nIN RANGE OF:\nInterprets\n\nFROM DOMAIN:\nClinical finding\n", URL="http://snomed.info/id/108252007", fillcolor=lightblue1];
"<< 272141005\nSeverities" [shape=box, peripheries=1, style=filled, fontsize=9, fontcolor=black, fontname=Helvetica, tooltip="<< 272141005 Severities\n\nIN RANGE OF:\nSeverity\n\nFROM DOMAIN:\nClinical finding\n", URL="http://snomed.info/id/272141005", fillcolor=lightblue1];
"<< 373873005\nPharmaceutical / biologic product" [shape=box, peripheries=1, style=filled, fontsize=9, fontcolor=black, fontname=Helvetica, tooltip="<< 373873005 Pharmaceutical / biologic product\n\nIN RANGE OF:\nCausative agent\n\nFROM DOMAIN:\nClinical finding\n", URL="http://snomed.info/id/373873005", fillcolor=lightblue1];
"<< 308490002\nPathological developmental process" [shape=box, peripheries=1, style=filled, fontsize=9, fontcolor=black, fontname=Helvetica, tooltip="<< 308490002 Pathological developmental process\n\nIN RANGE OF:\nPathological process\n\nFROM DOMAIN:\nClinical finding\n", URL="http://snomed.info/id/308490002", fillcolor=lightblue1];
"<< 260787004\nPhysical object" [shape=box, peripheries=1, style=filled, fontsize=9, fontcolor=black, fontname=Helvetica, tooltip="<< 260787004 Physical object\n\nIN RANGE OF:\nAssociated with\nCausative agent\n\nFROM DOMAIN:\nClinical finding\n", URL="http://snomed.info/id/260787004", fillcolor=lightblue1];
"<< 71388002\nProcedure" [shape=box, peripheries=1, style=filled, fontsize=9, fontcolor=black, fontname=Helvetica, tooltip="<< 71388002 Procedure\n\nIN RANGE OF:\nAfter\nAssociated with\nBefore\nDue to\nDuring\nFinding method\nTemporally related to\n\nFROM DOMAIN:\nClinical finding\n", URL="http://snomed.info/id/71388002", fillcolor=lightblue1];
"<< 410607006\nOrganism" [shape=box, peripheries=1, style=filled, fontsize=9, fontcolor=black, fontname=Helvetica, tooltip="<< 410607006 Organism\n\nIN RANGE OF:\nAssociated with\nCausative agent\n\nFROM DOMAIN:\nClinical finding\n", URL="http://snomed.info/id/410607006", fillcolor=lightblue1];
"<< 105590001\nSubstance" [shape=box, peripheries=1, style=filled, fontsize=9, fontcolor=black, fontname=Helvetica, tooltip="<< 105590001 Substance\n\nIN RANGE OF:\nAssociated with\nCausative agent\n\nFROM DOMAIN:\nClinical finding\n", URL="http://snomed.info/id/105590001", fillcolor=lightblue1];
"<< 288526004\nEpisodicities" [shape=box, peripheries=1, style=filled, fontsize=9, fontcolor=black, fontname=Helvetica, tooltip="<< 288526004 Episodicities\n\nIN RANGE OF:\nEpisodicity\n\nFROM DOMAIN:\nClinical finding\n", URL="http://snomed.info/id/288526004", fillcolor=lightblue1];
"<< 78621006\nPhysical force" [shape=box, peripheries=1, style=filled, fontsize=9, fontcolor=black, fontname=Helvetica, tooltip="<< 78621006 Physical force\n\nIN RANGE OF:\nAssociated with\nCausative agent\n\nFROM DOMAIN:\nClinical finding\n", URL="http://snomed.info/id/78621006", fillcolor=lightblue1];
"<< 386053000\nEvaluation procedure" [shape=box, peripheries=2, style=filled, fontsize=9, fontcolor=black, fontname=Helvetica, tooltip="<< 386053000 Evaluation procedure\n\nDetermination of a value, conclusion, or inference by\nevaluating evidence\n\nIN RANGE OF:\nInterprets\n\nFROM DOMAIN:\nClinical finding\n", URL="http://snomed.info/id/386053000", fillcolor=lightblue1];
"<< 404684003\nClinical finding" [shape=box, peripheries=1, style=filled, fontsize=9, fontcolor=black, fontname=Helvetica, tooltip="<< 404684003 Clinical finding\n\nIN DOMAIN OF:\nAfter\nAssociated morphology\nAssociated with\nBefore\nCausative agent\nClinical course\nDue to\nDuring\nEpisodicity\nFinding informer\nFinding method\nFinding site\nHas interpretation\nHas realization\nInterprets\nOccurrence\nPathological process\nSeverity\nTemporally related to\n\nIN RANGE OF:\nAfter\nAssociated with\nDue to\nTemporally related to\n\nFROM DOMAIN:\nClinical finding\n", URL="http://snomed.info/id/404684003", fillcolor=violet];
"<< 719982003\nProcess" [shape=box, peripheries=1, style=filled, fontsize=9, fontcolor=black, fontname=Helvetica, tooltip="<< 719982003 Process\n\nIN RANGE OF:\nHas realization\n\nFROM DOMAIN:\nClinical finding\n", URL="http://snomed.info/id/719982003", fillcolor=lightblue1];
"<< 260245000\nFinding value" [shape=box, peripheries=1, style=filled, fontsize=9, fontcolor=black, fontname=Helvetica, tooltip="<< 260245000 Finding value\n\nIN RANGE OF:\nHas interpretation\n\nFROM DOMAIN:\nClinical finding\n", URL="http://snomed.info/id/260245000", fillcolor=lightblue1];
"<< 419358007\nSubject of record or other provider of history" [shape=box, peripheries=1, style=filled, fontsize=9, fontcolor=black, fontname=Helvetica, tooltip="<< 419358007 Subject of record or other provider of history\n\nIN RANGE OF:\nFinding informer\n\nFROM DOMAIN:\nClinical finding\n", URL="http://snomed.info/id/419358007", fillcolor=lightblue1];
"<< 472963003\nHypersensitivity process" [shape=box, peripheries=1, style=filled, fontsize=9, fontcolor=black, fontname=Helvetica, tooltip="<< 472963003 Hypersensitivity process\n\nAn immune or non-immune mediated pathological process that\nrepresents the underlying mechanism of hypersensitivity\nconditions.\n\nIN RANGE OF:\nPathological process\n\nFROM DOMAIN:\nClinical finding\n", URL="http://snomed.info/id/472963003", fillcolor=lightblue1];
"<< 49755003\nMorphologically abnormal structure" [shape=box, peripheries=1, style=filled, fontsize=9, fontcolor=black, fontname=Helvetica, tooltip="<< 49755003 Morphologically abnormal structure\n\nIN RANGE OF:\nAssociated morphology\n\nFROM DOMAIN:\nClinical finding\n", URL="http://snomed.info/id/49755003", fillcolor=lightblue1];
"<< 308916002\nEnvironment or geographical location" [shape=box, peripheries=1, style=filled, fontsize=9, fontcolor=black, fontname=Helvetica, tooltip="<< 308916002 Environment or geographical location\n\nIN RANGE OF:\nHas interpretation\n\nFROM DOMAIN:\nClinical finding\n", URL="http://snomed.info/id/308916002", fillcolor=lightblue1];
"<< 288524001\nCourses" [shape=box, peripheries=1, style=filled, fontsize=9, fontcolor=black, fontname=Helvetica, tooltip="<< 288524001 Courses\n\nIN RANGE OF:\nClinical course\n\nFROM DOMAIN:\nClinical finding\n", URL="http://snomed.info/id/288524001", fillcolor=lightblue1];
"<< 363787002\nObservable entity" [shape=box, peripheries=1, style=filled, fontsize=9, fontcolor=black, fontname=Helvetica, tooltip="<< 363787002 Observable entity\n\nIN RANGE OF:\nInterprets\n\nFROM DOMAIN:\nClinical finding\n", URL="http://snomed.info/id/363787002", fillcolor=lightblue1];
"<< 282032007\nPeriods of life" [shape=box, peripheries=1, style=filled, fontsize=9, fontcolor=black, fontname=Helvetica, tooltip="<< 282032007 Periods of life\n\nIN RANGE OF:\nOccurrence\n\nFROM DOMAIN:\nClinical finding\n", URL="http://snomed.info/id/282032007", fillcolor=lightblue1];
"<< 263714004\nColours" [shape=box, peripheries=1, style=filled, fontsize=9, fontcolor=black, fontname=Helvetica, tooltip="<< 263714004 Colours\n\nIN RANGE OF:\nHas interpretation\n\nFROM DOMAIN:\nClinical finding\n", URL="http://snomed.info/id/263714004", fillcolor=lightblue1];
"<< 441862004\nInfectious process" [shape=box, peripheries=1, style=filled, fontsize=9, fontcolor=black, fontname=Helvetica, tooltip="<< 441862004 Infectious process\n\nIN RANGE OF:\nPathological process\n\nFROM DOMAIN:\nClinical finding\n", URL="http://snomed.info/id/441862004", fillcolor=lightblue1];
"<< 769247005\nAbnormal immune process" [shape=box, peripheries=1, style=filled, fontsize=9, fontcolor=black, fontname=Helvetica, tooltip="<< 769247005 Abnormal immune process\n\nIN RANGE OF:\nPathological process\n\nFROM DOMAIN:\nClinical finding\n", URL="http://snomed.info/id/769247005", fillcolor=lightblue1];
"900000000000441003\nSNOMED CT Model Component" [style=invis];

/* *** Role hierarchy relationships *** */
"726633004\nTemporally related to"->"47429007\nAssociated with" [arrowhead=onormal, color=black, tooltip="Temporally related to is_a Associated with"];
"288556008\nBefore"->"726633004\nTemporally related to" [arrowhead=onormal, color=black, tooltip="Before is_a Temporally related to"];
"255234002\nAfter"->"726633004\nTemporally related to" [arrowhead=onormal, color=black, tooltip="After is_a Temporally related to"];
"246075003\nCausative agent"->"47429007\nAssociated with" [arrowhead=onormal, color=black, tooltip="Causative agent is_a Associated with"];
"371881003\nDuring"->"726633004\nTemporally related to" [arrowhead=onormal, color=black, tooltip="During is_a Temporally related to"];
"42752001\nDue to"->"47429007\nAssociated with" [arrowhead=onormal, color=black, tooltip="Due to is_a Associated with"];

/* *** Attribute classes *** */
"726633004\nTemporally related to" [shape=box, peripheries=2, style=filled, fontsize=9, fontname=Helvetica, fontcolor=black, tooltip="726633004 Temporally related to\n\nA period of time occurring before, during and or after a\nclinical entity\n\nDOMAIN:\nClinical finding\n\nRANGES:\nClinical finding\nProcedure\n", URL="http://snomed.info/id/726633004", fillcolor=lemonchiffon1];
"288556008\nBefore" [shape=box, peripheries=2, style=filled, fontsize=9, fontname=Helvetica, fontcolor=black, tooltip="288556008 Before\n\nDOMAIN:\nClinical finding\n\nRANGE:\nProcedure\n", URL="http://snomed.info/id/288556008", fillcolor=lemonchiffon1];
"363698007\nFinding site" [shape=box, peripheries=2, style=filled, fontsize=9, fontname=Helvetica, fontcolor=black, tooltip="363698007 Finding site\n\nDOMAIN:\nClinical finding\n\nRANGE:\nAnatomical or acquired body structure\n", URL="http://snomed.info/id/363698007", fillcolor=lemonchiffon1];
"255234002\nAfter" [shape=box, peripheries=2, style=filled, fontsize=9, fontname=Helvetica, fontcolor=black, tooltip="255234002 After\n\nDOMAIN:\nClinical finding\n\nRANGES:\nClinical finding\nEvent\nProcedure\n", URL="http://snomed.info/id/255234002", fillcolor=lemonchiffon1];
"719722006\nHas realization" [shape=box, peripheries=2, style=filled, fontsize=9, fontname=Helvetica, fontcolor=black, tooltip="719722006 Has realization\n\nThis attribute specifies the realization of a function\n\nDOMAIN:\nClinical finding\n\nRANGE:\nProcess\n", URL="http://snomed.info/id/719722006", fillcolor=lemonchiffon1];
"363714003\nInterprets" [shape=box, peripheries=2, style=filled, fontsize=9, fontname=Helvetica, fontcolor=black, tooltip="363714003 Interprets\n\nDOMAIN:\nClinical finding\n\nRANGES:\nEvaluation procedure\nLaboratory procedure\nObservable entity\n", URL="http://snomed.info/id/363714003", fillcolor=lemonchiffon1];
"246075003\nCausative agent" [shape=box, peripheries=2, style=filled, fontsize=9, fontname=Helvetica, fontcolor=black, tooltip="246075003 Causative agent\n\nDOMAIN:\nClinical finding\n\nRANGES:\nOrganism\nPharmaceutical / biologic product\nPhysical force\nPhysical object\nSubstance\n", URL="http://snomed.info/id/246075003", fillcolor=lemonchiffon1];
"363713009\nHas interpretation" [shape=box, peripheries=2, style=filled, fontsize=9, fontname=Helvetica, fontcolor=black, tooltip="363713009 Has interpretation\n\nDOMAIN:\nClinical finding\n\nRANGES:\nColours\nEnvironment or geographical location\nFinding value\n", URL="http://snomed.info/id/363713009", fillcolor=lemonchiffon1];
"116676008\nAssociated morphology" [shape=box, peripheries=2, style=filled, fontsize=9, fontname=Helvetica, fontcolor=black, tooltip="116676008 Associated morphology\n\nDOMAIN:\nClinical finding\n\nRANGE:\nMorphologically abnormal structure\n", URL="http://snomed.info/id/116676008", fillcolor=lemonchiffon1];
"246456000\nEpisodicity" [shape=box, peripheries=2, style=filled, fontsize=9, fontname=Helvetica, fontcolor=black, tooltip="246456000 Episodicity\n\nDOMAIN:\nClinical finding\n\nRANGE:\nEpisodicities\n", URL="http://snomed.info/id/246456000", fillcolor=lemonchiffon1];
"418775008\nFinding method" [shape=box, peripheries=2, style=filled, fontsize=9, fontname=Helvetica, fontcolor=black, tooltip="418775008 Finding method\n\nDOMAIN:\nClinical finding\n\nRANGE:\nProcedure\n", URL="http://snomed.info/id/418775008", fillcolor=lemonchiffon1];
"371881003\nDuring" [shape=box, peripheries=2, style=filled, fontsize=9, fontname=Helvetica, fontcolor=black, tooltip="371881003 During\n\nDOMAIN:\nClinical finding\n\nRANGE:\nProcedure\n", URL="http://snomed.info/id/371881003", fillcolor=lemonchiffon1];
"246112005\nSeverity" [shape=box, peripheries=2, style=filled, fontsize=9, fontname=Helvetica, fontcolor=black, tooltip="246112005 Severity\n\nDOMAIN:\nClinical finding\n\nRANGE:\nSeverities\n", URL="http://snomed.info/id/246112005", fillcolor=lemonchiffon1];
"246454002\nOccurrence" [shape=box, peripheries=2, style=filled, fontsize=9, fontname=Helvetica, fontcolor=black, tooltip="246454002 Occurrence\n\nDOMAIN:\nClinical finding\n\nRANGE:\nPeriods of life\n", URL="http://snomed.info/id/246454002", fillcolor=lemonchiffon1];
"47429007\nAssociated with" [shape=box, peripheries=2, style=filled, fontsize=9, fontname=Helvetica, fontcolor=black, tooltip="47429007 Associated with\n\nDOMAIN:\nClinical finding\n\nRANGES:\nClinical finding\nEvent\nOrganism\nPhysical force\nPhysical object\nProcedure\nSubstance\n", URL="http://snomed.info/id/47429007", fillcolor=lemonchiffon1];
"42752001\nDue to" [shape=box, peripheries=2, style=filled, fontsize=9, fontname=Helvetica, fontcolor=black, tooltip="42752001 Due to\n\nDOMAIN:\nClinical finding\n\nRANGES:\nClinical finding\nEvent\nProcedure\n", URL="http://snomed.info/id/42752001", fillcolor=lemonchiffon1];
"263502005\nClinical course" [shape=box, peripheries=2, style=filled, fontsize=9, fontname=Helvetica, fontcolor=black, tooltip="263502005 Clinical course\n\nDOMAIN:\nClinical finding\n\nRANGE:\nCourses\n", URL="http://snomed.info/id/263502005", fillcolor=lemonchiffon1];
"419066007\nFinding informer" [shape=box, peripheries=2, style=filled, fontsize=9, fontname=Helvetica, fontcolor=black, tooltip="419066007 Finding informer\n\nDOMAIN:\nClinical finding\n\nRANGES:\nPerformer of method\nPerson with characteristic related to subject of record\nSubject of record or other provider of history\n", URL="http://snomed.info/id/419066007", fillcolor=lemonchiffon1];
"370135005\nPathological process" [shape=box, peripheries=2, style=filled, fontsize=9, fontname=Helvetica, fontcolor=black, tooltip="370135005 Pathological process\n\nDOMAIN:\nClinical finding\n\nRANGES:\nAbnormal immune process\nHypersensitivity process\nInfectious process\nPathological developmental process\n", URL="http://snomed.info/id/370135005", fillcolor=lemonchiffon1];

/* *** Caption *** */
"diagramLabel" [label="Simplified diagram of SNOMED CT\nMRCM Domain and Range constraints|Pre-coordination view |Showing domains:\n404684003 Clinical finding|20220228 International data|Drawn March 07, 2022", shape=record, fontsize=12];

/* *** Key *** */
subgraph cluster_key {fontname=Helvetica; label = "Key"; style=filled; fillcolor="white"; fontsize=12; peripheries=2;
"<< XXXXXXXX\nDefined domain concept" -> "XXXXXXXX\nAttribute name" [arrowhead=open, color=red];
"<< XXXXXXXX\nPrimitive domain concept" -> "XXXXXXXX\nAttribute name"[arrowhead=open, style=dashed, color=red];
"XXXXXXXX\nAttribute name" -> "<< XXXXXXXX\nDomain and\n range concept\n(operators the same)" [arrowhead=open, color=blue];
"XXXXXXXX\nAttribute name" -> "<< XXXXXXXX\nDomain and\n range concept\n(operators differ)" [arrowhead=open, color=blue];
"<< XXXXXXXX\nDomain and\n range concept\n(operators the same)" -> "XXXXXXXX\nAttribute name" [arrowhead=open, color=red];
"<< XXXXXXXX\nDomain and\n range concept\n(operators differ)" -> "XXXXXXXX\nAttribute name" [arrowhead=open, color=red];
"XXXXXXXX\nAttribute name" -> "<< XXXXXXXX\nRange concept" [arrowhead=open, style=dashed, color=blue];
"XXXXXXXX\nAttribute name" -> "Concrete\nrange" [arrowhead=open, style=dashed, color=blue];
"<< XXXXXXXX\nDomain and\n range concept\n(operators the same)" -> "Domain and range\n relationships\n\nNote 1. Operators may differ between\ndomain and range\n\nNote 2. Dashed edge indicates\nattribute ungrouped for this domain in DL" [style=invis];
"<< XXXXXXXX\nDomain and\n range concept\n(operators differ)"  -> "Domain and range\n relationships\n\nNote 1. Operators may differ between\ndomain and range\n\nNote 2. Dashed edge indicates\nattribute ungrouped for this domain in DL" [style=invis];
"<< XXXXXXXX\nRange concept" -> "Domain and range\n relationships\n\nNote 1. Operators may differ between\ndomain and range\n\nNote 2. Dashed edge indicates\nattribute ungrouped for this domain in DL" [style=invis];
"Concrete\nrange" -> "Domain and range\n relationships\n\nNote 1. Operators may differ between\ndomain and range\n\nNote 2. Dashed edge indicates\nattribute ungrouped for this domain in DL" [style=invis];
"<< XXXXXXXX\nConcept referenced in model"->"<< XXXXXXXX\nAnother concept referenced in model" [arrowhead=normal, color=black];
"<< XXXXXXXX\nConcept referenced in model"->"<< XXXXXXXX\nAnother concept referenced in model" [arrowhead=diamond, color=black];
"<< XXXXXXXX\nAnother concept referenced in model"->"XXXXXXXX\nConcept included in diagram but\nnot referenced in concept model" [arrowhead=onormal, color=black];
"XXXXXXXX\nConcept included in diagram but\nnot referenced in concept model"->"Domain and range\nhierarchies\n\nNote: Filled arrows and diamonds\nindicate parent domains" [style=invis];
"XXXXXXXX\nInactive domain,\nrange or attribute"->"XXXXXXXX\nSub-attribute name" [style=invis];
"XXXXXXXX\nSub-attribute name"->"XXXXXXXX\nSuper-attribute name" [arrowhead=onormal, color=black];
"XXXXXXXX\nSuper-attribute name"->"Attribute hierarchies\n(full path to root not shown)\n\nNote: yellow indicates attribute range\ndiffers for different domains" [style=invis];
"<< XXXXXXXX\nDefined domain concept"  [shape=box, peripheries=2, style=filled, fontsize=9, fontcolor=black, fontname=Helvetica, fillcolor=lightpink];
"<< XXXXXXXX\nPrimitive domain concept"  [shape=box, peripheries=1, style=filled, fontsize=9, fontcolor=black, fontname=Helvetica, fillcolor=lightpink];
"<< XXXXXXXX\nRange concept"  [shape=box, peripheries=1, style=filled, fontsize=9, fontcolor=black, fontname=Helvetica, fillcolor=lightblue1];
"Concrete\nrange"  [shape=box, peripheries=1, style=filled, fontsize=9, fontcolor=black, fontname=Helvetica, fillcolor=palegreen, style="diagonals,filled"];
"XXXXXXXX\nAttribute name" [shape=box, peripheries=2, style=filled, fontsize=9, fontname=Helvetica, fillcolor=lemonchiffon1];
"<< XXXXXXXX\nDomain and\n range concept\n(operators the same)" [shape=box, peripheries=2, style=filled, fontsize=9, fontcolor=black, fontname=Helvetica, fillcolor=violet];
"<< XXXXXXXX\nDomain and\n range concept\n(operators differ)" [shape=box, peripheries=1, style=filled, fontsize=9, fontcolor=white, fontname=Helvetica, fillcolor=violet];
"Domain and range\n relationships\n\nNote 1. Operators may differ between\ndomain and range\n\nNote 2. Dashed edge indicates\nattribute ungrouped for this domain in DL" [fontsize=9, style=filled, fillcolor=white, penwidth=0];
"<< XXXXXXXX\nConcept referenced in model" [shape=box, peripheries=1, style=filled, fontsize=9, fontcolor=black, fontname=Helvetica, fillcolor=lightblue1];
"<< XXXXXXXX\nAnother concept referenced in model" [shape=box, peripheries=1, style=filled, fontsize=9, fontcolor=black, fontname=Helvetica, fillcolor=lightblue1];
"XXXXXXXX\nConcept included in diagram but\nnot referenced in concept model" [fontsize=9, fillcolor=palegreen];
"Domain and range\nhierarchies\n\nNote: Filled arrows and diamonds\nindicate parent domains" [fontsize=9, style=filled, fillcolor=white, penwidth=0];
"XXXXXXXX\nInactive domain,\nrange or attribute" [shape=box, peripheries=1, style=filled, fontsize=9, fontname=Helvetica, fillcolor=orange];
"XXXXXXXX\nSub-attribute name" [shape=box, peripheries=2, style=filled, fontsize=9, fontname=Helvetica, fillcolor=yellow];
"XXXXXXXX\nSuper-attribute name" [shape=box, peripheries=2, style=filled, fontsize=9, fontname=Helvetica, fillcolor=lemonchiffon1];
"Attribute hierarchies\n(full path to root not shown)\n\nNote: yellow indicates attribute range\ndiffers for different domains"  [fontsize=9, style=filled, fillcolor=white, penwidth=0];
}}