digraph RF2_MRCM { rankdir=LR; splines=ortho; node [shape=box, peripheries=1, style=filled, fontsize=9, fontname=Helvetica, tooltip=" ", fillcolor=palegreen];

/* *** Model rows *** */
"<< 363787002\nObservable entity"->"246093002\nComponent" [arrowhead=open, color=red, tooltip="Observable entity -> Component [0..1]"];
"246093002\nComponent"->"<< 105590001\nSubstance" [arrowhead=open, color=blue, tooltip="Component -> Substance"];
"246093002\nComponent"->"<< 123037004\nBody structure" [arrowhead=open, color=blue, tooltip="Component -> Body structure"];
"246093002\nComponent"->"<< 123038009\nSpecimen" [arrowhead=open, color=blue, tooltip="Component -> Specimen"];
"246093002\nComponent"->"<< 260787004\nPhysical object" [arrowhead=open, color=blue, tooltip="Component -> Physical object"];
"246093002\nComponent"->"<< 373873005\nPharmaceutical / biologic product" [arrowhead=open, color=blue, tooltip="Component -> Pharmaceutical / biologic product"];
"246093002\nComponent"->"<< 410607006\nOrganism" [arrowhead=open, color=blue, tooltip="Component -> Organism"];
"246093002\nComponent"->"<< 419891008\nRecord artefact" [arrowhead=open, color=blue, tooltip="Component -> Record artefact"];
"<< 363787002\nObservable entity"->"246501002\nTechnique" [arrowhead=open, color=red, tooltip="Observable entity -> Technique [0..1]"];
"246501002\nTechnique"->"<< 254291000\nStaging and scales" [arrowhead=open, color=blue, tooltip="Technique -> Staging and scales"];
"246501002\nTechnique"->"<< 272394005\nTechnique" [arrowhead=open, color=blue, tooltip="Technique -> Technique"];
"<< 363787002\nObservable entity"->"246514001\nUnits" [arrowhead=open, color=red, tooltip="Observable entity -> Units [0..1]"];
"246514001\nUnits"->"< 767524001\nUnit of measure" [arrowhead=open, color=blue, tooltip="Units -> Unit of measure"];
"<< 363787002\nObservable entity"->"370130000\nProperty" [arrowhead=open, color=red, tooltip="Observable entity -> Property [0..1]"];
"370130000\nProperty"->"<< 118598001\nProperty" [arrowhead=open, color=blue, tooltip="Property -> Property"];
"<< 363787002\nObservable entity"->"370132008\nScale type" [arrowhead=open, color=red, tooltip="Observable entity -> Scale type [0..1]"];
"370132008\nScale type"->"<< 117362005\nNominal value" [arrowhead=open, color=blue, tooltip="Scale type -> Nominal value"];
"370132008\nScale type"->"<< 117363000\nOrdinal value" [arrowhead=open, color=blue, tooltip="Scale type -> Ordinal value"];
"370132008\nScale type"->"<< 117364006\nNarrative value" [arrowhead=open, color=blue, tooltip="Scale type -> Narrative value"];
"370132008\nScale type"->"<< 117444000\nText value" [arrowhead=open, color=blue, tooltip="Scale type -> Text value"];
"370132008\nScale type"->"<< 26716007\nQualitative" [arrowhead=open, color=blue, tooltip="Scale type -> Qualitative"];
"370132008\nScale type"->"<< 30766002\nQuantitative" [arrowhead=open, color=blue, tooltip="Scale type -> Quantitative"];
"<< 363787002\nObservable entity"->"370134009\nTime aspect" [arrowhead=open, color=red, tooltip="Observable entity -> Time aspect [0..1]"];
"370134009\nTime aspect"->"<< 7389001\nTime frame" [arrowhead=open, color=blue, tooltip="Time aspect -> Time frame"];
"<< 363787002\nObservable entity"->"405815000\nProcedure device" [arrowhead=open, color=red, tooltip="Observable entity -> Procedure device [0..1]"];
"405815000\nProcedure device"->"<< 49062001\nDevice" [arrowhead=open, color=blue, tooltip="Procedure device -> Device"];
"<< 363787002\nObservable entity"->"424226004\nUsing device" [arrowhead=open, color=red, tooltip="Observable entity -> Using device [0..1]"];
"424226004\nUsing device"->"<< 49062001\nDevice" [arrowhead=open, color=blue, tooltip="Using device -> Device"];
"<< 363787002\nObservable entity"->"704319004\nInheres in" [arrowhead=open, color=red, tooltip="Observable entity -> Inheres in [0..1]"];
"704319004\nInheres in"->"<< 105590001\nSubstance" [arrowhead=open, color=blue, tooltip="Inheres in -> Substance"];
"704319004\nInheres in"->"<< 123037004\nBody structure" [arrowhead=open, color=blue, tooltip="Inheres in -> Body structure"];
"704319004\nInheres in"->"<< 123038009\nSpecimen" [arrowhead=open, color=blue, tooltip="Inheres in -> Specimen"];
"704319004\nInheres in"->"<< 125676002\nPerson" [arrowhead=open, color=blue, tooltip="Inheres in -> Person"];
"704319004\nInheres in"->"<< 260787004\nPhysical object" [arrowhead=open, color=blue, tooltip="Inheres in -> Physical object"];
"704319004\nInheres in"->"<< 373873005\nPharmaceutical / biologic product" [arrowhead=open, color=blue, tooltip="Inheres in -> Pharmaceutical / biologic product"];
"704319004\nInheres in"->"<< 410607006\nOrganism" [arrowhead=open, color=blue, tooltip="Inheres in -> Organism"];
"704319004\nInheres in"->"<< 419891008\nRecord artefact" [arrowhead=open, color=blue, tooltip="Inheres in -> Record artefact"];
"<< 363787002\nObservable entity"->"704320005\nTowards" [arrowhead=open, color=red, tooltip="Observable entity -> Towards [0..1]"];
"704320005\nTowards"->"<< 105590001\nSubstance" [arrowhead=open, color=blue, tooltip="Towards -> Substance"];
"704320005\nTowards"->"<< 123037004\nBody structure" [arrowhead=open, color=blue, tooltip="Towards -> Body structure"];
"704320005\nTowards"->"<< 123038009\nSpecimen" [arrowhead=open, color=blue, tooltip="Towards -> Specimen"];
"704320005\nTowards"->"<< 260787004\nPhysical object" [arrowhead=open, color=blue, tooltip="Towards -> Physical object"];
"704320005\nTowards"->"<< 373873005\nPharmaceutical / biologic product" [arrowhead=open, color=blue, tooltip="Towards -> Pharmaceutical / biologic product"];
"704320005\nTowards"->"<< 410607006\nOrganism" [arrowhead=open, color=blue, tooltip="Towards -> Organism"];
"704320005\nTowards"->"<< 419891008\nRecord artefact" [arrowhead=open, color=blue, tooltip="Towards -> Record artefact"];
"<< 363787002\nObservable entity"->"704321009\nCharacterizes" [arrowhead=open, color=red, tooltip="Observable entity -> Characterizes [0..1]"];
"704321009\nCharacterizes"->"<< 71388002\nProcedure" [arrowhead=open, color=blue, tooltip="Characterizes -> Procedure"];
"704321009\nCharacterizes"->"<< 719982003\nProcess" [arrowhead=open, color=blue, tooltip="Characterizes -> Process"];
"<< 363787002\nObservable entity"->"704322002\nProcess agent" [arrowhead=open, color=red, tooltip="Observable entity -> Process agent [0..1]"];
"704322002\nProcess agent"->"<< 105590001\nSubstance" [arrowhead=open, color=blue, tooltip="Process agent -> Substance"];
"704322002\nProcess agent"->"<< 123037004\nBody structure" [arrowhead=open, color=blue, tooltip="Process agent -> Body structure"];
"704322002\nProcess agent"->"<< 260787004\nPhysical object" [arrowhead=open, color=blue, tooltip="Process agent -> Physical object"];
"704322002\nProcess agent"->"<< 373873005\nPharmaceutical / biologic product" [arrowhead=open, color=blue, tooltip="Process agent -> Pharmaceutical / biologic product"];
"704322002\nProcess agent"->"<< 410607006\nOrganism" [arrowhead=open, color=blue, tooltip="Process agent -> Organism"];
"<< 363787002\nObservable entity"->"704323007\nProcess duration" [arrowhead=open, color=red, tooltip="Observable entity -> Process duration [0..1]"];
"704323007\nProcess duration"->"<< 7389001\nTime frame" [arrowhead=open, color=blue, tooltip="Process duration -> Time frame"];
"<< 363787002\nObservable entity"->"704324001\nProcess output" [arrowhead=open, color=red, tooltip="Observable entity -> Process output [0..1]"];
"704324001\nProcess output"->"<< 105590001\nSubstance" [arrowhead=open, color=blue, tooltip="Process output -> Substance"];
"704324001\nProcess output"->"<< 719982003\nProcess" [arrowhead=open, color=blue, tooltip="Process output -> Process"];
"<< 363787002\nObservable entity"->"704325000\nRelative to" [arrowhead=open, color=red, tooltip="Observable entity -> Relative to [0..1]"];
"704325000\nRelative to"->"<< 105590001\nSubstance" [arrowhead=open, color=blue, tooltip="Relative to -> Substance"];
"704325000\nRelative to"->"<< 123037004\nBody structure" [arrowhead=open, color=blue, tooltip="Relative to -> Body structure"];
"704325000\nRelative to"->"<< 123038009\nSpecimen" [arrowhead=open, color=blue, tooltip="Relative to -> Specimen"];
"704325000\nRelative to"->"<< 260787004\nPhysical object" [arrowhead=open, color=blue, tooltip="Relative to -> Physical object"];
"704325000\nRelative to"->"<< 373873005\nPharmaceutical / biologic product" [arrowhead=open, color=blue, tooltip="Relative to -> Pharmaceutical / biologic product"];
"704325000\nRelative to"->"<< 410607006\nOrganism" [arrowhead=open, color=blue, tooltip="Relative to -> Organism"];
"704325000\nRelative to"->"<< 419891008\nRecord artefact" [arrowhead=open, color=blue, tooltip="Relative to -> Record artefact"];
"<< 363787002\nObservable entity"->"704326004\nPrecondition" [arrowhead=open, color=red, tooltip="Observable entity -> Precondition [0..1]"];
"704326004\nPrecondition"->"<< 404684003\nClinical finding" [arrowhead=open, color=blue, tooltip="Precondition -> Clinical finding"];
"704326004\nPrecondition"->"<< 703763000\nPrecondition value" [arrowhead=open, color=blue, tooltip="Precondition -> Precondition value"];
"704326004\nPrecondition"->"<< 71388002\nProcedure" [arrowhead=open, color=blue, tooltip="Precondition -> Procedure"];
"<< 363787002\nObservable entity"->"704327008\nDirect site" [arrowhead=open, color=red, tooltip="Observable entity -> Direct site [0..1]"];
"704327008\nDirect site"->"<< 105590001\nSubstance" [arrowhead=open, color=blue, tooltip="Direct site -> Substance"];
"704327008\nDirect site"->"<< 123037004\nBody structure" [arrowhead=open, color=blue, tooltip="Direct site -> Body structure"];
"704327008\nDirect site"->"<< 123038009\nSpecimen" [arrowhead=open, color=blue, tooltip="Direct site -> Specimen"];
"704327008\nDirect site"->"<< 260787004\nPhysical object" [arrowhead=open, color=blue, tooltip="Direct site -> Physical object"];
"704327008\nDirect site"->"<< 373873005\nPharmaceutical / biologic product" [arrowhead=open, color=blue, tooltip="Direct site -> Pharmaceutical / biologic product"];
"704327008\nDirect site"->"<< 410607006\nOrganism" [arrowhead=open, color=blue, tooltip="Direct site -> Organism"];
"704327008\nDirect site"->"<< 419891008\nRecord artefact" [arrowhead=open, color=blue, tooltip="Direct site -> Record artefact"];
"<< 363787002\nObservable entity"->"718497002\nInherent location" [arrowhead=open, color=red, tooltip="Observable entity -> Inherent location [0..1]"];
"718497002\nInherent location"->"<< 105590001\nSubstance" [arrowhead=open, color=blue, tooltip="Inherent location -> Substance"];
"718497002\nInherent location"->"<< 123037004\nBody structure" [arrowhead=open, color=blue, tooltip="Inherent location -> Body structure"];
"718497002\nInherent location"->"<< 123038009\nSpecimen" [arrowhead=open, color=blue, tooltip="Inherent location -> Specimen"];
"718497002\nInherent location"->"<< 260787004\nPhysical object" [arrowhead=open, color=blue, tooltip="Inherent location -> Physical object"];
"718497002\nInherent location"->"<< 373873005\nPharmaceutical / biologic product" [arrowhead=open, color=blue, tooltip="Inherent location -> Pharmaceutical / biologic product"];
"718497002\nInherent location"->"<< 410607006\nOrganism" [arrowhead=open, color=blue, tooltip="Inherent location -> Organism"];
"718497002\nInherent location"->"<< 419891008\nRecord artefact" [arrowhead=open, color=blue, tooltip="Inherent location -> Record artefact"];
"<< 363787002\nObservable entity"->"719715003\nRelative to part of" [arrowhead=open, color=red, tooltip="Observable entity -> Relative to part of [0..1]"];
"719715003\nRelative to part of"->"<< 105590001\nSubstance" [arrowhead=open, color=blue, tooltip="Relative to part of -> Substance"];
"719715003\nRelative to part of"->"<< 123037004\nBody structure" [arrowhead=open, color=blue, tooltip="Relative to part of -> Body structure"];
"719715003\nRelative to part of"->"<< 123038009\nSpecimen" [arrowhead=open, color=blue, tooltip="Relative to part of -> Specimen"];
"719715003\nRelative to part of"->"<< 260787004\nPhysical object" [arrowhead=open, color=blue, tooltip="Relative to part of -> Physical object"];
"719715003\nRelative to part of"->"<< 373873005\nPharmaceutical / biologic product" [arrowhead=open, color=blue, tooltip="Relative to part of -> Pharmaceutical / biologic product"];
"719715003\nRelative to part of"->"<< 410607006\nOrganism" [arrowhead=open, color=blue, tooltip="Relative to part of -> Organism"];
"719715003\nRelative to part of"->"<< 419891008\nRecord artefact" [arrowhead=open, color=blue, tooltip="Relative to part of -> Record artefact"];
"<< 363787002\nObservable entity"->"719722006\nHas realization" [arrowhead=open, color=red, tooltip="Observable entity -> Has realization [0..1]"];
"719722006\nHas realization"->"<< 719982003\nProcess" [arrowhead=open, color=blue, tooltip="Has realization -> Process"];

/* *** Domain and range/parent domain graph *** */
"<< 123037004\nBody structure"->"138875005\nSNOMED CT Concept" [arrowhead=onormal, color=black, tooltip="Body structure is_a SNOMED CT Concept"];
"<< 404684003\nClinical finding"->"138875005\nSNOMED CT Concept" [arrowhead=onormal, color=black, tooltip="Clinical finding is_a SNOMED CT Concept"];
"<< 363787002\nObservable entity"->"138875005\nSNOMED CT Concept" [arrowhead=onormal, color=black, tooltip="Observable entity is_a SNOMED CT Concept"];
"<< 410607006\nOrganism"->"138875005\nSNOMED CT Concept" [arrowhead=onormal, color=black, tooltip="Organism is_a SNOMED CT Concept"];
"<< 373873005\nPharmaceutical / biologic product"->"138875005\nSNOMED CT Concept" [arrowhead=onormal, color=black, tooltip="Pharmaceutical / biologic product is_a SNOMED CT Concept"];
"<< 49062001\nDevice"->"<< 260787004\nPhysical object" [arrowhead=onormal, color=black, tooltip="Device is_a Physical object"];
"<< 260787004\nPhysical object"->"138875005\nSNOMED CT Concept" [arrowhead=onormal, color=black, tooltip="Physical object is_a SNOMED CT Concept"];
"<< 71388002\nProcedure"->"138875005\nSNOMED CT Concept" [arrowhead=onormal, color=black, tooltip="Procedure is_a SNOMED CT Concept"];
"<< 7389001\nTime frame"->"362981000\nQualifier value" [arrowhead=onormal, color=black, tooltip="Time frame is_a Qualifier value"];
"<< 719982003\nProcess"->"362981000\nQualifier value" [arrowhead=onormal, color=black, tooltip="Process is_a Qualifier value"];
"<< 118598001\nProperty"->"362981000\nQualifier value" [arrowhead=onormal, color=black, tooltip="Property is_a Qualifier value"];
"<< 30766002\nQuantitative"->"362981000\nQualifier value" [arrowhead=onormal, color=black, tooltip="Quantitative is_a Qualifier value"];
"<< 117363000\nOrdinal value"->"<< 26716007\nQualitative" [arrowhead=onormal, color=black, tooltip="Ordinal value is_a Qualitative"];
"<< 703763000\nPrecondition value"->"362981000\nQualifier value" [arrowhead=onormal, color=black, tooltip="Precondition value is_a Qualifier value"];
"<< 117364006\nNarrative value"->"362981000\nQualifier value" [arrowhead=onormal, color=black, tooltip="Narrative value is_a Qualifier value"];
"<< 272394005\nTechnique"->"362981000\nQualifier value" [arrowhead=onormal, color=black, tooltip="Technique is_a Qualifier value"];
"<< 26716007\nQualitative"->"362981000\nQualifier value" [arrowhead=onormal, color=black, tooltip="Qualitative is_a Qualifier value"];
"<< 117362005\nNominal value"->"<< 26716007\nQualitative" [arrowhead=onormal, color=black, tooltip="Nominal value is_a Qualitative"];
"<< 117444000\nText value"->"362981000\nQualifier value" [arrowhead=onormal, color=black, tooltip="Text value is_a Qualifier value"];
"< 767524001\nUnit of measure"->"362981000\nQualifier value" [arrowhead=onormal, color=black, tooltip="Unit of measure is_a Qualifier value"];
"362981000\nQualifier value"->"138875005\nSNOMED CT Concept" [arrowhead=onormal, color=black, tooltip="Qualifier value is_a SNOMED CT Concept"];
"<< 419891008\nRecord artefact"->"138875005\nSNOMED CT Concept" [arrowhead=onormal, color=black, tooltip="Record artefact is_a SNOMED CT Concept"];
"<< 125676002\nPerson"->"48176007\nSocial context" [arrowhead=onormal, color=black, tooltip="Person is_a Social context"];
"48176007\nSocial context"->"138875005\nSNOMED CT Concept" [arrowhead=onormal, color=black, tooltip="Social context is_a SNOMED CT Concept"];
"<< 123038009\nSpecimen"->"138875005\nSNOMED CT Concept" [arrowhead=onormal, color=black, tooltip="Specimen is_a SNOMED CT Concept"];
"<< 254291000\nStaging and scales"->"138875005\nSNOMED CT Concept" [arrowhead=onormal, color=black, tooltip="Staging and scales is_a SNOMED CT Concept"];
"<< 105590001\nSubstance"->"138875005\nSNOMED CT Concept" [arrowhead=onormal, color=black, tooltip="Substance is_a SNOMED CT Concept"];

/* *** Domain and range classes *** */
"<< 105590001\nSubstance" [shape=box, peripheries=1, style=filled, fontsize=9, fontcolor=black, fontname=Helvetica, tooltip="<< 105590001 Substance\n", URL="http://snomed.info/id/105590001", fillcolor=lightblue1];
"<< 419891008\nRecord artefact" [shape=box, peripheries=1, style=filled, fontsize=9, fontcolor=black, fontname=Helvetica, tooltip="<< 419891008 Record artefact\n", URL="http://snomed.info/id/419891008", fillcolor=lightblue1];
"<< 49062001\nDevice" [shape=box, peripheries=1, style=filled, fontsize=9, fontcolor=black, fontname=Helvetica, tooltip="<< 49062001 Device\n", URL="http://snomed.info/id/49062001", fillcolor=lightblue1];
"<< 7389001\nTime frame" [shape=box, peripheries=1, style=filled, fontsize=9, fontcolor=black, fontname=Helvetica, tooltip="<< 7389001 Time frame\n", URL="http://snomed.info/id/7389001", fillcolor=lightblue1];
"<< 719982003\nProcess" [shape=box, peripheries=1, style=filled, fontsize=9, fontcolor=black, fontname=Helvetica, tooltip="<< 719982003 Process\n", URL="http://snomed.info/id/719982003", fillcolor=lightblue1];
"<< 118598001\nProperty" [shape=box, peripheries=1, style=filled, fontsize=9, fontcolor=black, fontname=Helvetica, tooltip="<< 118598001 Property\n", URL="http://snomed.info/id/118598001", fillcolor=lightblue1];
"<< 30766002\nQuantitative" [shape=box, peripheries=1, style=filled, fontsize=9, fontcolor=black, fontname=Helvetica, tooltip="<< 30766002 Quantitative\n", URL="http://snomed.info/id/30766002", fillcolor=lightblue1];
"<< 123037004\nBody structure" [shape=box, peripheries=1, style=filled, fontsize=9, fontcolor=black, fontname=Helvetica, tooltip="<< 123037004 Body structure\n", URL="http://snomed.info/id/123037004", fillcolor=lightblue1];
"<< 363787002\nObservable entity" [shape=box, peripheries=1, style=filled, fontsize=9, fontcolor=black, fontname=Helvetica, tooltip="<< 363787002 Observable entity\n", URL="http://snomed.info/id/363787002", fillcolor=lightpink];
"<< 117363000\nOrdinal value" [shape=box, peripheries=1, style=filled, fontsize=9, fontcolor=black, fontname=Helvetica, tooltip="<< 117363000 Ordinal value\n", URL="http://snomed.info/id/117363000", fillcolor=lightblue1];
"<< 404684003\nClinical finding" [shape=box, peripheries=1, style=filled, fontsize=9, fontcolor=black, fontname=Helvetica, tooltip="<< 404684003 Clinical finding\n", URL="http://snomed.info/id/404684003", fillcolor=lightblue1];
"<< 410607006\nOrganism" [shape=box, peripheries=1, style=filled, fontsize=9, fontcolor=black, fontname=Helvetica, tooltip="<< 410607006 Organism\n", URL="http://snomed.info/id/410607006", fillcolor=lightblue1];
"<< 71388002\nProcedure" [shape=box, peripheries=1, style=filled, fontsize=9, fontcolor=black, fontname=Helvetica, tooltip="<< 71388002 Procedure\n", URL="http://snomed.info/id/71388002", fillcolor=lightblue1];
"<< 703763000\nPrecondition value" [shape=box, peripheries=1, style=filled, fontsize=9, fontcolor=black, fontname=Helvetica, tooltip="<< 703763000 Precondition value\n", URL="http://snomed.info/id/703763000", fillcolor=lightblue1];
"<< 117364006\nNarrative value" [shape=box, peripheries=1, style=filled, fontsize=9, fontcolor=black, fontname=Helvetica, tooltip="<< 117364006 Narrative value\n", URL="http://snomed.info/id/117364006", fillcolor=lightblue1];
"<< 272394005\nTechnique" [shape=box, peripheries=1, style=filled, fontsize=9, fontcolor=black, fontname=Helvetica, tooltip="<< 272394005 Technique\n", URL="http://snomed.info/id/272394005", fillcolor=lightblue1];
"<< 373873005\nPharmaceutical / biologic product" [shape=box, peripheries=1, style=filled, fontsize=9, fontcolor=black, fontname=Helvetica, tooltip="<< 373873005 Pharmaceutical / biologic product\n", URL="http://snomed.info/id/373873005", fillcolor=lightblue1];
"<< 26716007\nQualitative" [shape=box, peripheries=1, style=filled, fontsize=9, fontcolor=black, fontname=Helvetica, tooltip="<< 26716007 Qualitative\n", URL="http://snomed.info/id/26716007", fillcolor=lightblue1];
"<< 117362005\nNominal value" [shape=box, peripheries=1, style=filled, fontsize=9, fontcolor=black, fontname=Helvetica, tooltip="<< 117362005 Nominal value\n", URL="http://snomed.info/id/117362005", fillcolor=lightblue1];
"<< 117444000\nText value" [shape=box, peripheries=1, style=filled, fontsize=9, fontcolor=black, fontname=Helvetica, tooltip="<< 117444000 Text value\n", URL="http://snomed.info/id/117444000", fillcolor=lightblue1];
"<< 125676002\nPerson" [shape=box, peripheries=1, style=filled, fontsize=9, fontcolor=black, fontname=Helvetica, tooltip="<< 125676002 Person\n", URL="http://snomed.info/id/125676002", fillcolor=lightblue1];
"<< 254291000\nStaging and scales" [shape=box, peripheries=1, style=filled, fontsize=9, fontcolor=black, fontname=Helvetica, tooltip="<< 254291000 Staging and scales\n", URL="http://snomed.info/id/254291000", fillcolor=lightblue1];
"< 767524001\nUnit of measure" [shape=box, peripheries=1, style=filled, fontsize=9, fontcolor=black, fontname=Helvetica, tooltip="< 767524001 Unit of measure\n", URL="http://snomed.info/id/767524001", fillcolor=lightblue1];
"<< 260787004\nPhysical object" [shape=box, peripheries=1, style=filled, fontsize=9, fontcolor=black, fontname=Helvetica, tooltip="<< 260787004 Physical object\n", URL="http://snomed.info/id/260787004", fillcolor=lightblue1];
"900000000000441003\nSNOMED CT Model Component" [style=invis];

/* *** Role hierarchy relationships *** */
"424226004\nUsing device"->"405815000\nProcedure device" [arrowhead=onormal, color=black, tooltip="Using device is_a Procedure device"];

/* *** Attribute classes *** */
"370130000\nProperty" [shape=box, peripheries=2, style=filled, fontsize=9, fontname=Helvetica, fontcolor=black, tooltip="370130000 Property\n\nThis attribute is used to specify the type of inherent\nquality, function, disposition or process characteristic\nthat is being observed or measured. Its values are abstract\ntypes of quality (length, odour, concentration) or abstract\ntypes of process characteristic (rate, speed, duration), and\ndo not include qualities that are located (length of arm,\nodour of urine), or given a value (elevated concentration).\n", URL="http://snomed.info/id/370130000", fillcolor=lemonchiffon1];
"424226004\nUsing device" [shape=box, peripheries=2, style=filled, fontsize=9, fontname=Helvetica, fontcolor=black, tooltip="424226004 Using device\n", URL="http://snomed.info/id/424226004", fillcolor=lemonchiffon1];
"704324001\nProcess output" [shape=box, peripheries=2, style=filled, fontsize=9, fontname=Helvetica, fontcolor=black, tooltip="704324001 Process output\n\nThis attribute specifies the resulting output of the process\ncharacterised by the observed feature.\n", URL="http://snomed.info/id/704324001", fillcolor=lemonchiffon1];
"405815000\nProcedure device" [shape=box, peripheries=2, style=filled, fontsize=9, fontname=Helvetica, fontcolor=black, tooltip="405815000 Procedure device\n", URL="http://snomed.info/id/405815000", fillcolor=lemonchiffon1];
"370134009\nTime aspect" [shape=box, peripheries=2, style=filled, fontsize=9, fontname=Helvetica, fontcolor=black, tooltip="370134009 Time aspect\n", URL="http://snomed.info/id/370134009", fillcolor=lemonchiffon1];
"704323007\nProcess duration" [shape=box, peripheries=2, style=filled, fontsize=9, fontname=Helvetica, fontcolor=black, tooltip="704323007 Process duration\n\nThis attribute specifies the duration of the process\ncharacterised by the observable property type.\n", URL="http://snomed.info/id/704323007", fillcolor=lemonchiffon1];
"246093002\nComponent" [shape=box, peripheries=2, style=filled, fontsize=9, fontname=Helvetica, fontcolor=black, tooltip="246093002 Component\n", URL="http://snomed.info/id/246093002", fillcolor=lemonchiffon1];

/* *** Addition changes *** */
"<< 363787002\nObservable entity"->"1003703000\nProcess extends to" [arrowhead=open, style=bold, color="magenta", tooltip="Observable entity -> Process extends to [0..1]"];
"1003703000\nProcess extends to"->"<< 123037004\nBody structure" [arrowhead=open, style=bold, color="cyan", tooltip="Process extends to -> Body structure"];
"<< 363787002\nObservable entity"->"1003735000\nProcess acts on" [arrowhead=open, style=bold, color="magenta", tooltip="Observable entity -> Process acts on [0..1]"];
"1003735000\nProcess acts on"->"<< 105590001\nSubstance" [arrowhead=open, style=bold, color="cyan", tooltip="Process acts on -> Substance"];
"1003735000\nProcess acts on"->"<< 123037004\nBody structure" [arrowhead=open, style=bold, color="cyan", tooltip="Process acts on -> Body structure"];
"1003735000\nProcess acts on"->"<< 373873005\nPharmaceutical / biologic product" [arrowhead=open, style=bold, color="cyan", tooltip="Process acts on -> Pharmaceutical / biologic product"];
"<< 123038009\nSpecimen" [shape=box, peripheries=1, style=filled, fontsize=9, fontcolor=black, fontname=Helvetica, tooltip="<< 123038009 Specimen\n\nMaterial (structure, substance, device) removed from a\nsource (patient, donor, physical location, product)\n", URL="http://snomed.info/id/123038009", fillcolor=lightblue1];
"719722006\nHas realization" [shape=box, peripheries=2, style=filled, fontsize=9, fontname=Helvetica, fontcolor=black, tooltip="719722006 Has realization\n\nThis attribute specifies the realization of a function\n", URL="http://snomed.info/id/719722006", fillcolor=lemonchiffon1];
"246514001\nUnits" [shape=box, peripheries=2, style=filled, fontsize=9, fontname=Helvetica, fontcolor=black, tooltip="246514001 Units\n\nThis attribute represents the units used in assigning a\nvalue to an observation.\n", URL="http://snomed.info/id/246514001", fillcolor=lemonchiffon1];
"704321009\nCharacterizes" [shape=box, peripheries=2, style=filled, fontsize=9, fontname=Helvetica, fontcolor=black, tooltip="704321009 Characterizes\n\nThis attribute specifies the process which the property\ndescribes, and on which the property (of this observable)\ndepends. The process can be very general.\n", URL="http://snomed.info/id/704321009", fillcolor=lemonchiffon1];
"704319004\nInheres in" [shape=box, peripheries=2, style=filled, fontsize=9, fontname=Helvetica, fontcolor=black, tooltip="704319004 Inheres in\n\nThis attribute specifies the independent continuant which\nbears the quality, and on which the dependent quality (of\nthis observable) depends.\n", URL="http://snomed.info/id/704319004", fillcolor=lemonchiffon1];
"704327008\nDirect site" [shape=box, peripheries=2, style=filled, fontsize=9, fontname=Helvetica, fontcolor=black, tooltip="704327008 Direct site\n\nThis attribute represents the specific entity on which the\nobservation is directly made, and is used when the\nobservation is indirect, such as when a direct observation\nis not possible to be done on the entity in which the\nobservable inheres.\n", URL="http://snomed.info/id/704327008", fillcolor=lemonchiffon1];
"704325000\nRelative to" [shape=box, peripheries=2, style=filled, fontsize=9, fontname=Helvetica, fontcolor=black, tooltip="704325000 Relative to\n\nThis attribute is used to specify the denominator of a\nrelational property type, such as a ratio or proportion.\n", URL="http://snomed.info/id/704325000", fillcolor=lemonchiffon1];
"246501002\nTechnique" [shape=box, peripheries=2, style=filled, fontsize=9, fontname=Helvetica, fontcolor=black, tooltip="246501002 Technique\n\nThis attribute is used to specify the systematic method of a\nprocedure used to accomplish a specific activity.\n", URL="http://snomed.info/id/246501002", fillcolor=lemonchiffon1];
"1003735000\nProcess acts on" [shape=box, peripheries=2, style=filled, fontsize=9, fontname=Helvetica, fontcolor=black, tooltip="1003735000 Process acts on\n\nThis attribute specifies an entity that the process which\nthe property characterizes specifically acts on.\n", URL="http://snomed.info/id/1003735000", fillcolor=lemonchiffon1];
"1003703000\nProcess extends to" [shape=box, peripheries=2, style=filled, fontsize=9, fontname=Helvetica, fontcolor=black, tooltip="1003703000 Process extends to\n\nThis attribute specifies that the process which the property\ncharacterises has led to the inclusion of a previously not\nincluded structure.\n", URL="http://snomed.info/id/1003703000", fillcolor=lemonchiffon1];
"704322002\nProcess agent" [shape=box, peripheries=2, style=filled, fontsize=9, fontname=Helvetica, fontcolor=black, tooltip="704322002 Process agent\n\nThis attribute is used to specify the continuant (such as a\nbody structure or organism) that is causally active in the\nprocess on which the property depends.\n", URL="http://snomed.info/id/704322002", fillcolor=lemonchiffon1];
"704326004\nPrecondition" [shape=box, peripheries=2, style=filled, fontsize=9, fontname=Helvetica, fontcolor=black, tooltip="704326004 Precondition\n\nThis attribute is used to specify body state, timing,\nchallenges, and other situations that must be true of the\nentity to be observed.\n", URL="http://snomed.info/id/704326004", fillcolor=lemonchiffon1];
"370132008\nScale type" [shape=box, peripheries=2, style=filled, fontsize=9, fontname=Helvetica, fontcolor=black, tooltip="370132008 Scale type\n\nThis attribute refers to the scale of the result of an\nobservation or a diagnostic test.\n", URL="http://snomed.info/id/370132008", fillcolor=lemonchiffon1];
"718497002\nInherent location" [shape=box, peripheries=2, style=filled, fontsize=9, fontname=Helvetica, fontcolor=black, tooltip="718497002 Inherent location\n\nThis attribute specifies the location of the entity\nspecified by the attribute 'Inheres in'.\n", URL="http://snomed.info/id/718497002", fillcolor=lemonchiffon1];
"704320005\nTowards" [shape=box, peripheries=2, style=filled, fontsize=9, fontname=Helvetica, fontcolor=black, tooltip="704320005 Towards\n\nThis attribute is used to specify the third element of a\nrelational quality, the first two elements being the type of\nproperty and the entity in which the quality inheres. The\ntype of property is typically a concentration, and the\nentity in which it inheres is typically a fluid such as\nplasma, serum or blood. The third element typically is the\nsubstance or molecule that is the thing being measured as a\nconcentration. The concentration of sodium in blood would be\n'property type' concentration, 'towards' sodium, 'inheres\nin' blood.\n", URL="http://snomed.info/id/704320005", fillcolor=lemonchiffon1];
"719715003\nRelative to part of" [shape=box, peripheries=2, style=filled, fontsize=9, fontname=Helvetica, fontcolor=black, tooltip="719715003 Relative to part of\n\nThis attribute is used to specify the denominator of a\nrelative relational property type, such as a ratio of ratios\n", URL="http://snomed.info/id/719715003", fillcolor=lemonchiffon1];

/* *** Removal changes *** */
"<< 123038009\nSpecimen" [shape=box, peripheries=1, style=filled, fontsize=9, fontcolor=black, fontname=Helvetica, tooltip="<< 123038009 Specimen\n\nMaterial (structure, substance, device) removed from a\nsource (patient, donor, physical location, product) (*)\n", URL="http://snomed.info/id/123038009", fillcolor=lightblue1];
"719722006\nHas realization" [shape=box, peripheries=2, style=filled, fontsize=9, fontname=Helvetica, fontcolor=black, tooltip="719722006 Has realization\n\nThis attribute specifies the realization of a function (*)\n", URL="http://snomed.info/id/719722006", fillcolor=lemonchiffon1];
"246514001\nUnits" [shape=box, peripheries=2, style=filled, fontsize=9, fontname=Helvetica, fontcolor=black, tooltip="246514001 Units\n\nThis attribute represents the units used in assigning a\nvalue to an observation. (*)\n", URL="http://snomed.info/id/246514001", fillcolor=lemonchiffon1];
"704321009\nCharacterizes" [shape=box, peripheries=2, style=filled, fontsize=9, fontname=Helvetica, fontcolor=black, tooltip="704321009 Characterizes\n\nThis attribute specifies the process which the property\ndescribes, and on which the property (of this observable)\ndepends. The process can be very general. (*)\n", URL="http://snomed.info/id/704321009", fillcolor=lemonchiffon1];
"704319004\nInheres in" [shape=box, peripheries=2, style=filled, fontsize=9, fontname=Helvetica, fontcolor=black, tooltip="704319004 Inheres in\n\nThis attribute specifies the independent continuant which\nbears the quality, and on which the dependent quality (of\nthis observable) depends. (*)\n", URL="http://snomed.info/id/704319004", fillcolor=lemonchiffon1];
"704327008\nDirect site" [shape=box, peripheries=2, style=filled, fontsize=9, fontname=Helvetica, fontcolor=black, tooltip="704327008 Direct site\n\nThis attribute represents the specific entity on which the\nobservation is directly made, and is used when the\nobservation is indirect, such as when a direct observation\nis not possible to be done on the entity in which the\nobservable inheres. (*)\n", URL="http://snomed.info/id/704327008", fillcolor=lemonchiffon1];
"704325000\nRelative to" [shape=box, peripheries=2, style=filled, fontsize=9, fontname=Helvetica, fontcolor=black, tooltip="704325000 Relative to\n\nThis attribute is used to specify the denominator of a\nrelational property type, such as a ratio or proportion. (*)\n", URL="http://snomed.info/id/704325000", fillcolor=lemonchiffon1];
"246501002\nTechnique" [shape=box, peripheries=2, style=filled, fontsize=9, fontname=Helvetica, fontcolor=black, tooltip="246501002 Technique\n\nThis attribute is used to specify the systematic method of a\nprocedure used to accomplish a specific activity. (*)\n", URL="http://snomed.info/id/246501002", fillcolor=lemonchiffon1];
"704322002\nProcess agent" [shape=box, peripheries=2, style=filled, fontsize=9, fontname=Helvetica, fontcolor=black, tooltip="704322002 Process agent\n\nThis attribute is used to specify the continuant (such as a\nbody structure or organism) that is causally active in the\nprocess on which the property depends. (*)\n", URL="http://snomed.info/id/704322002", fillcolor=lemonchiffon1];
"704326004\nPrecondition" [shape=box, peripheries=2, style=filled, fontsize=9, fontname=Helvetica, fontcolor=black, tooltip="704326004 Precondition\n\nThis attribute is used to specify body state, timing,\nchallenges, and other situations that must be true of the\nentity to be observed. (*)\n", URL="http://snomed.info/id/704326004", fillcolor=lemonchiffon1];
"370132008\nScale type" [shape=box, peripheries=2, style=filled, fontsize=9, fontname=Helvetica, fontcolor=black, tooltip="370132008 Scale type\n\nThis attribute refers to the scale of the result of an\nobservation or a diagnostic test. (*)\n", URL="http://snomed.info/id/370132008", fillcolor=lemonchiffon1];
"718497002\nInherent location" [shape=box, peripheries=2, style=filled, fontsize=9, fontname=Helvetica, fontcolor=black, tooltip="718497002 Inherent location\n\nThis attribute specifies the location of the entity\nspecified by the attribute 'Inheres in'. (*)\n", URL="http://snomed.info/id/718497002", fillcolor=lemonchiffon1];
"704320005\nTowards" [shape=box, peripheries=2, style=filled, fontsize=9, fontname=Helvetica, fontcolor=black, tooltip="704320005 Towards\n\nThis attribute is used to specify the third element of a\nrelational quality, the first two elements being the type of\nproperty and the entity in which the quality inheres. The\ntype of property is typically a concentration, and the\nentity in which it inheres is typically a fluid such as\nplasma, serum or blood. The third element typically is the\nsubstance or molecule that is the thing being measured as a\nconcentration. The concentration of sodium in blood would be\n'property type' concentration, 'towards' sodium, 'inheres\nin' blood. (*)\n", URL="http://snomed.info/id/704320005", fillcolor=lemonchiffon1];
"719715003\nRelative to part of" [shape=box, peripheries=2, style=filled, fontsize=9, fontname=Helvetica, fontcolor=black, tooltip="719715003 Relative to part of\n\nThis attribute is used to specify the denominator of a\nrelative relational property type, such as a ratio of ratios\n(*)\n", URL="http://snomed.info/id/719715003", fillcolor=lemonchiffon1];

/* *** Caption *** */
"diagramLabel" [label="Simplified diagram of SNOMED CT\nMRCM Domain and Range constraints|Pre-coordination comparison view |Between 20210131 and 20220228 |Showing domains:\n363787002 Observable entity| International data|Drawn February 28, 2022", shape=record, fontsize=12];

/* *** Key *** */
subgraph cluster_key {fontname=Helvetica; label = "Key"; style=filled; fillcolor="white"; fontsize=12; peripheries=2;
"<< XXXXXXXX\nDefined domain concept" -> "XXXXXXXX\nAttribute name" [arrowhead=open, color=red];
"<< XXXXXXXX\nDefined domain concept" -> "XXXXXXXX\nAttribute name" [arrowhead=open, color=sienna, style=bold];
"<< XXXXXXXX\nDefined domain concept" -> "XXXXXXXX\nAttribute name" [arrowhead=open, color=magenta, style=bold];
"<< XXXXXXXX\nPrimitive domain concept" -> "XXXXXXXX\nAttribute name"[arrowhead=open, style=dashed, color=red];
"XXXXXXXX\nAttribute name" -> "<< XXXXXXXX\nDomain and\n range concept\n(operators the same)" [arrowhead=open, color=purple, style=bold];
"XXXXXXXX\nAttribute name" -> "<< XXXXXXXX\nDomain and\n range concept\n(operators the same)" [arrowhead=open, color=cyan, style=bold];
"XXXXXXXX\nAttribute name" -> "<< XXXXXXXX\nDomain and\n range concept\n(operators differ)" [arrowhead=open, color=blue];
"<< XXXXXXXX\nDomain and\n range concept\n(operators differ)" -> "XXXXXXXX\nAttribute name" [arrowhead=open, color=red];
"XXXXXXXX\nAttribute name" -> "<< XXXXXXXX\nRange concept" [arrowhead=open, style=dashed, color=blue];
"XXXXXXXX\nAttribute name" -> "Concrete\nrange" [arrowhead=open, style=dashed, color=blue];
"<< XXXXXXXX\nDomain and\n range concept\n(operators the same)" -> "Domain and range\n relationships\n\nNote 1. Operators may differ between\ndomain and range\n\nNote 2. Dashed edge indicates\nattribute ungrouped for this domain in DL\n\nNote 3. Magenta and cyan = added constraints\n\nBrown and purple = removed constraints" [style=invis];
"<< XXXXXXXX\nDomain and\n range concept\n(operators differ)"  -> "Domain and range\n relationships\n\nNote 1. Operators may differ between\ndomain and range\n\nNote 2. Dashed edge indicates\nattribute ungrouped for this domain in DL\n\nNote 3. Magenta and cyan = added constraints\n\nBrown and purple = removed constraints" [style=invis];
"<< XXXXXXXX\nRange concept" -> "Domain and range\n relationships\n\nNote 1. Operators may differ between\ndomain and range\n\nNote 2. Dashed edge indicates\nattribute ungrouped for this domain in DL\n\nNote 3. Magenta and cyan = added constraints\n\nBrown and purple = removed constraints" [style=invis];
"Concrete\nrange" -> "Domain and range\n relationships\n\nNote 1. Operators may differ between\ndomain and range\n\nNote 2. Dashed edge indicates\nattribute ungrouped for this domain in DL\n\nNote 3. Magenta and cyan = added constraints\n\nBrown and purple = removed constraints" [style=invis];
"<< XXXXXXXX\nConcept referenced in model"->"<< XXXXXXXX\nAnother concept referenced in model" [arrowhead=normal, color=black];
"<< XXXXXXXX\nConcept referenced in model"->"<< XXXXXXXX\nAnother concept referenced in model" [arrowhead=diamond, color=black];
"<< XXXXXXXX\nAnother concept referenced in model"->"XXXXXXXX\nConcept included in diagram but\nnot referenced in concept model" [arrowhead=onormal, color=black];
"XXXXXXXX\nConcept included in diagram but\nnot referenced in concept model"->"Domain and range\nhierarchies\n\nNote: Filled arrows and diamonds\nindicate parent domains" [style=invis];
"XXXXXXXX\nInactive domain,\nrange or attribute"->"XXXXXXXX\nSub-attribute name" [style=invis];
"XXXXXXXX\nSub-attribute name"->"XXXXXXXX\nSuper-attribute name" [arrowhead=onormal, color=black];
"XXXXXXXX\nSuper-attribute name"->"Attribute hierarchies\n(full path to root not shown)\n\nNote: yellow indicates attribute range\ndiffers for different domains" [style=invis];
"<< XXXXXXXX\nDefined domain concept"  [shape=box, peripheries=2, style=filled, fontsize=9, fontcolor=black, fontname=Helvetica, fillcolor=lightpink];
"<< XXXXXXXX\nPrimitive domain concept"  [shape=box, peripheries=1, style=filled, fontsize=9, fontcolor=black, fontname=Helvetica, fillcolor=lightpink];
"<< XXXXXXXX\nRange concept"  [shape=box, peripheries=1, style=filled, fontsize=9, fontcolor=black, fontname=Helvetica, fillcolor=lightblue1];
"Concrete\nrange"  [shape=box, peripheries=1, style=filled, fontsize=9, fontcolor=black, fontname=Helvetica, fillcolor=palegreen, style="diagonals,filled"];
"XXXXXXXX\nAttribute name" [shape=box, peripheries=2, style=filled, fontsize=9, fontname=Helvetica, fillcolor=lemonchiffon1];
"<< XXXXXXXX\nDomain and\n range concept\n(operators the same)" [shape=box, peripheries=2, style=filled, fontsize=9, fontcolor=black, fontname=Helvetica, fillcolor=violet];
"<< XXXXXXXX\nDomain and\n range concept\n(operators differ)" [shape=box, peripheries=1, style=filled, fontsize=9, fontcolor=white, fontname=Helvetica, fillcolor=violet];
"Domain and range\n relationships\n\nNote 1. Operators may differ between\ndomain and range\n\nNote 2. Dashed edge indicates\nattribute ungrouped for this domain in DL\n\nNote 3. Magenta and cyan = added constraints\n\nBrown and purple = removed constraints" [fontsize=9, style=filled, fillcolor=white, penwidth=0];
"<< XXXXXXXX\nConcept referenced in model" [shape=box, peripheries=1, style=filled, fontsize=9, fontcolor=black, fontname=Helvetica, fillcolor=lightblue1];
"<< XXXXXXXX\nAnother concept referenced in model" [shape=box, peripheries=1, style=filled, fontsize=9, fontcolor=black, fontname=Helvetica, fillcolor=lightblue1];
"XXXXXXXX\nConcept included in diagram but\nnot referenced in concept model" [fontsize=9, fillcolor=palegreen];
"Domain and range\nhierarchies\n\nNote: Filled arrows and diamonds\nindicate parent domains" [fontsize=9, style=filled, fillcolor=white, penwidth=0];
"XXXXXXXX\nInactive domain,\nrange or attribute" [shape=box, peripheries=1, style=filled, fontsize=9, fontname=Helvetica, fillcolor=orange];
"XXXXXXXX\nSub-attribute name" [shape=box, peripheries=2, style=filled, fontsize=9, fontname=Helvetica, fillcolor=yellow];
"XXXXXXXX\nSuper-attribute name" [shape=box, peripheries=2, style=filled, fontsize=9, fontname=Helvetica, fillcolor=lemonchiffon1];
"Attribute hierarchies\n(full path to root not shown)\n\nNote: yellow indicates attribute range\ndiffers for different domains"  [fontsize=9, style=filled, fillcolor=white, penwidth=0];
}}