740514001
116142003
174039006
446679008
361222003
236891001
236888001
174045003
18932005
361223008
767611008
1299000
49438003
82730006
235313004
740515000
116140006
739673001
739672006
739671004
739674007
6025007
35955002
307771009
307581005
88144003
116143008
446446002
174036004
174041007
767610009
