(&&&:< 404684003 |clinical finding|:
    { 363698007 |finding site| = << 43899006 |Structure of popliteal artery|,
      116676008 | Associated morphology | = << 107658001 |Mechanical abnormality|})
8: < 404684003
44:  363698007
74: << 43899006
122:  116676008
163: << 107658001
nested first pass:
A: do order: 2 ['P', 0, 1, 1, 198, [['B', 0, 1, 42, 197]]]
A: do order: 1 ['B', 0, 1, 42, 197]
refineToBraces::=
B: match ref/marker to paren/brace:  ['B', 0, 1, 42, 197] ['R', 69, 44, '363698007', 74, '43899006']
B: match ref/marker to paren/brace:  ['B', 0, 1, 42, 197] ['R', 158, 122, '116676008', 163, '107658001']
B: match ref/marker to paren/brace:  ['P', 0, 1, 1, 198, [['B', 0, 1, 42, 197]]] ['M', 5, 4, '&', 8, '404684003'] BASE MARKER
B: match ref/marker to paren/brace:  ['P', 0, 1, 1, 198, [['B', 0, 1, 42, 197]]] ['M', 36, 8, '404684003', 42, '{']
C: refmarker+ref/brace match:  ['M', 36, 8, '404684003', 42, '{'] ['B', 0, 1, 42, 197]