770666006
897529004
699307007
554003
699254009
716709002
719651000
770756008
773494008
765140006
5982001
764518004
783619003
763277009
33706001
699308002
718687003
718689000
771340007
548004
76447002
719576009
890116005
770410004
717761005
782694003
83585001
763528002
783164002
733473000
890127007
4242009
719578005
764520001
1228890005
770793002
771439009
722429003
763274002
897510005
897528007
719684000
778000002
890128002
766755003
48760005
75893003
766766005
880079009
29257000
719658006
1229873009
1153430004
721881008
726707004
773547003
766052008
716381003
880086001
763276000
77527000
897509000
766053003
1003389000
37506004
26445008
719659003
81304006
764725008
50992006
718227006
1228886008
771477003
773670004
227035005
702346005
770542008
782674007
782669004
1003449005
717049005
890123006
766816008
770401007
719660008
764500002
782673001
897543009
4325000
719574007
720982007
719597005
763529005
778073001
719600006
43420005
764711007
783061008
19550003
890124000
717633007
764997000
897526006
897544003
1153583005
719575008
48812004
270889005
51819009
74008005
763275001
764512003
768471006
16129004
768555009
782676009
880078001
770719004
719686003
763530000
766050000
721158009
890110004
733521003
770663003
719808002
19419002
719649004
66985009
1229875002
719650004
763273008
770760006
717973004
719663005
1010613009
1010614003
890130000
897524009
1003380001
782877002
764454003
719582007
83721006
719657001
40389006
763527007
719661007
63247009
719046005
767263007
1228844002
733518000
716387004
1169362009
880093002
719580004
734349003
879939002
719652007
764703002
111311004
699311001
719599008
763062006
770629000
773326003
764459008
36369001
773346008
4135001
10572007
4199009
9527009
719662000
897511009
770902008
733520002
764519007
764524005
1216940001
1229882003
770905005
890180006
90866007
724147004
699305004
56653005
734016004
880081006
773325004
6002006
20348002
724098008
732259001
77497005
765171002
726706008
770754006
724070005
715438008
24786004
764435003
897527002
15841002
228050004
718615003
719646006
723332005
778007004
270890001
205687000
771072001
1229883008
726705007
716456000
719665003
724282009
30361005
768713003
722430008
717157006
70173007
770794008
718226002
699306003
890125004
719427001
897507003
716708005
734029004
716683005
765142003
719909009
4874006
1229891004
17122004
718688008
205686009
897546001
770411000
14091009
764447009
7586009
768927001
88894000
719664004
1229895008
764696007
719577000
49024004
766051001
726733007
766708008
1229872004
698849002
715530004
1172899000
764739008
718188007
717338006
82751009
771337007
770566002
719047001
720749004
733519008
699310000
763061004
702357000
719666002
764996009
111309008
766716004
768929003
715215007
763272003
719584008
718881004
719583002
449819002
1479009
734030009
770665005
787171006
890117001
897536003
789187001
771341006
773493002
26480007
29379007
22497004
73035005
716515000
764440006
