<?xml version="1.0" encoding="UTF-8" standalone="no"?>
<!DOCTYPE svg PUBLIC "-//W3C//DTD SVG 1.1//EN"
 "http://www.w3.org/Graphics/SVG/1.1/DTD/svg11.dtd">
<!-- Generated by graphviz version 2.43.0 (0)
 -->
<!-- Title: RF2_MRCM Pages: 1 -->
<svg width="1409pt" height="999pt"
 viewBox="0.00 0.00 1409.00 999.00" xmlns="http://www.w3.org/2000/svg" xmlns:xlink="http://www.w3.org/1999/xlink">
<g id="graph0" class="graph" transform="scale(1 1) rotate(0) translate(4 995)">
<title>RF2_MRCM</title>
<polygon fill="white" stroke="transparent" points="-4,4 -4,-995 1405,-995 1405,4 -4,4"/>
<g id="clust1" class="cluster">
<title>cluster_key</title>
<polygon fill="white" stroke="black" points="87,-598 87,-983 1014,-983 1014,-598 87,-598"/>
<text text-anchor="middle" x="550.5" y="-969.4" font-family="Helvetica,sans-Serif" font-size="12.00">Key</text>
</g>
<!-- &lt;&lt; 123037004\nBody structure -->
<g id="node1" class="node">
<title>&lt;&lt; 123037004\nBody structure</title>
<g id="a_node1"><a xlink:href="http://snomed.info/id/123037004" xlink:title="&lt;&lt; 123037004 Body structure&#10;&#10;IN DOMAIN OF:&#10;All or part of&#10;Constitutional part of&#10;Lateral half of&#10;Proper part of&#10;Regional part of&#10;Systemic part of&#10;&#10;IN RANGE OF:&#10;All or part of [1,2,3]&#10;Constitutional part of [1,2,3]&#10;Lateral half of [1,2,3]&#10;Proper part of [1,2,3]&#10;Regional part of [1,2,3]&#10;Systemic part of [1,2,3]&#10;&#10;FROM DOMAINS:&#10;1. Body structure&#10;2. Lateralisable body structure reference set&#10;3. Anatomical structure&#10;">
<polygon fill="violet" stroke="black" points="724,-217 635,-217 635,-181 724,-181 724,-217"/>
<text text-anchor="middle" x="679.5" y="-201.8" font-family="Helvetica,sans-Serif" font-size="9.00">&lt;&lt; 123037004</text>
<text text-anchor="middle" x="679.5" y="-191.8" font-family="Helvetica,sans-Serif" font-size="9.00">Body structure</text>
</a>
</g>
</g>
<!-- 733928003\nAll or part of -->
<g id="node2" class="node">
<title>733928003\nAll or part of</title>
<g id="a_node2"><a xlink:href="http://snomed.info/id/733928003" xlink:title="733928003 All or part of&#10;&#10;DOMAINS:&#10;Anatomical structure&#10;Body structure&#10;Lateralisable body structure reference set&#10;&#10;RANGE:&#10;Body structure&#10;">
<polygon fill="#fffacd" stroke="black" points="1397,-273 1325,-273 1325,-237 1397,-237 1397,-273"/>
<polygon fill="none" stroke="black" points="1401,-277 1321,-277 1321,-233 1401,-233 1401,-277"/>
<text text-anchor="middle" x="1361" y="-257.8" font-family="Helvetica,sans-Serif" font-size="9.00">733928003</text>
<text text-anchor="middle" x="1361" y="-247.8" font-family="Helvetica,sans-Serif" font-size="9.00">All or part of</text>
</a>
</g>
</g>
<!-- &lt;&lt; 123037004\nBody structure&#45;&gt;733928003\nAll or part of -->
<g id="edge1" class="edge">
<title>&lt;&lt; 123037004\nBody structure&#45;&gt;733928003\nAll or part of</title>
<g id="a_edge1"><a xlink:title="Body structure &#45;&gt; All or part of [0..*]">
<path fill="none" stroke="red" stroke-dasharray="5,2" d="M693,-217.01C693,-229.27 693,-243.29 693,-243.29 693,-243.29 1310.72,-243.29 1310.72,-243.29"/>
<polygon fill="red" stroke="red" points="1320.72,-243.29 1310.72,-247.79 1315.72,-243.29 1310.72,-243.29 1310.72,-243.29 1310.72,-243.29 1315.72,-243.29 1310.72,-238.79 1320.72,-243.29 1320.72,-243.29"/>
</a>
</g>
</g>
<!-- 733930001\nRegional part of -->
<g id="node3" class="node">
<title>733930001\nRegional part of</title>
<g id="a_node3"><a xlink:href="http://snomed.info/id/733930001" xlink:title="733930001 Regional part of&#10;&#10;DOMAINS:&#10;Anatomical structure&#10;Body structure&#10;Lateralisable body structure reference set&#10;&#10;RANGE:&#10;Body structure&#10;">
<polygon fill="#fffacd" stroke="black" points="1134,-214 1046,-214 1046,-178 1134,-178 1134,-214"/>
<polygon fill="none" stroke="black" points="1138,-218 1042,-218 1042,-174 1138,-174 1138,-218"/>
<text text-anchor="middle" x="1090" y="-198.8" font-family="Helvetica,sans-Serif" font-size="9.00">733930001</text>
<text text-anchor="middle" x="1090" y="-188.8" font-family="Helvetica,sans-Serif" font-size="9.00">Regional part of</text>
</a>
</g>
</g>
<!-- &lt;&lt; 123037004\nBody structure&#45;&gt;733930001\nRegional part of -->
<g id="edge3" class="edge">
<title>&lt;&lt; 123037004\nBody structure&#45;&gt;733930001\nRegional part of</title>
<g id="a_edge3"><a xlink:title="Body structure &#45;&gt; Regional part of [0..*]">
<path fill="none" stroke="red" stroke-dasharray="5,2" d="M724.21,-196.43C724.21,-196.43 1031.86,-196.43 1031.86,-196.43"/>
<polygon fill="red" stroke="red" points="1041.86,-196.43 1031.86,-200.93 1036.86,-196.43 1031.86,-196.43 1031.86,-196.43 1031.86,-196.43 1036.86,-196.43 1031.86,-191.93 1041.86,-196.43 1041.86,-196.43"/>
</a>
</g>
</g>
<!-- 733931002\nConstitutional part of -->
<g id="node4" class="node">
<title>733931002\nConstitutional part of</title>
<g id="a_node4"><a xlink:href="http://snomed.info/id/733931002" xlink:title="733931002 Constitutional part of&#10;&#10;DOMAINS:&#10;Anatomical structure&#10;Body structure&#10;Lateralisable body structure reference set&#10;&#10;RANGE:&#10;Body structure&#10;">
<polygon fill="#fffacd" stroke="black" points="958.5,-40 846.5,-40 846.5,-4 958.5,-4 958.5,-40"/>
<polygon fill="none" stroke="black" points="962.5,-44 842.5,-44 842.5,0 962.5,0 962.5,-44"/>
<text text-anchor="middle" x="902.5" y="-24.8" font-family="Helvetica,sans-Serif" font-size="9.00">733931002</text>
<text text-anchor="middle" x="902.5" y="-14.8" font-family="Helvetica,sans-Serif" font-size="9.00">Constitutional part of</text>
</a>
</g>
</g>
<!-- &lt;&lt; 123037004\nBody structure&#45;&gt;733931002\nConstitutional part of -->
<g id="edge5" class="edge">
<title>&lt;&lt; 123037004\nBody structure&#45;&gt;733931002\nConstitutional part of</title>
<g id="a_edge5"><a xlink:title="Body structure &#45;&gt; Constitutional part of [0..*]">
<path fill="none" stroke="red" stroke-dasharray="5,2" d="M724.12,-186.14C773.44,-186.14 846,-186.14 846,-186.14 846,-186.14 846,-54.14 846,-54.14"/>
<polygon fill="red" stroke="red" points="846,-44.14 850.5,-54.14 846,-49.14 846,-54.14 846,-54.14 846,-54.14 846,-49.14 841.5,-54.14 846,-44.14 846,-44.14"/>
</a>
</g>
</g>
<!-- 733932009\nSystemic part of -->
<g id="node5" class="node">
<title>733932009\nSystemic part of</title>
<g id="a_node5"><a xlink:href="http://snomed.info/id/733932009" xlink:title="733932009 Systemic part of&#10;&#10;DOMAINS:&#10;Anatomical structure&#10;Body structure&#10;Lateralisable body structure reference set&#10;&#10;RANGE:&#10;Body structure&#10;">
<polygon fill="#fffacd" stroke="black" points="948,-102 857,-102 857,-66 948,-66 948,-102"/>
<polygon fill="none" stroke="black" points="952,-106 853,-106 853,-62 952,-62 952,-106"/>
<text text-anchor="middle" x="902.5" y="-86.8" font-family="Helvetica,sans-Serif" font-size="9.00">733932009</text>
<text text-anchor="middle" x="902.5" y="-76.8" font-family="Helvetica,sans-Serif" font-size="9.00">Systemic part of</text>
</a>
</g>
</g>
<!-- &lt;&lt; 123037004\nBody structure&#45;&gt;733932009\nSystemic part of -->
<g id="edge7" class="edge">
<title>&lt;&lt; 123037004\nBody structure&#45;&gt;733932009\nSystemic part of</title>
<g id="a_edge7"><a xlink:title="Body structure &#45;&gt; Systemic part of [0..*]">
<path fill="none" stroke="red" stroke-dasharray="5,2" d="M653,-180.78C653,-148.35 653,-84 653,-84 653,-84 842.91,-84 842.91,-84"/>
<polygon fill="red" stroke="red" points="852.91,-84 842.91,-88.5 847.91,-84 842.91,-84 842.91,-84 842.91,-84 847.91,-84 842.91,-79.5 852.91,-84 852.91,-84"/>
</a>
</g>
</g>
<!-- 733933004\nLateral half of -->
<g id="node6" class="node">
<title>733933004\nLateral half of</title>
<g id="a_node6"><a xlink:href="http://snomed.info/id/733933004" xlink:title="733933004 Lateral half of&#10;&#10;DOMAINS:&#10;Anatomical structure&#10;Body structure&#10;Lateralisable body structure reference set&#10;&#10;RANGE:&#10;Body structure&#10;">
<polygon fill="#fffacd" stroke="black" points="941.5,-370 863.5,-370 863.5,-334 941.5,-334 941.5,-370"/>
<polygon fill="none" stroke="black" points="945.5,-374 859.5,-374 859.5,-330 945.5,-330 945.5,-374"/>
<text text-anchor="middle" x="902.5" y="-354.8" font-family="Helvetica,sans-Serif" font-size="9.00">733933004</text>
<text text-anchor="middle" x="902.5" y="-344.8" font-family="Helvetica,sans-Serif" font-size="9.00">Lateral half of</text>
</a>
</g>
</g>
<!-- &lt;&lt; 123037004\nBody structure&#45;&gt;733933004\nLateral half of -->
<g id="edge9" class="edge">
<title>&lt;&lt; 123037004\nBody structure&#45;&gt;733933004\nLateral half of</title>
<g id="a_edge9"><a xlink:title="Body structure &#45;&gt; Lateral half of [0..*]">
<path fill="none" stroke="red" stroke-dasharray="5,2" d="M724.05,-211.86C791.56,-211.86 912,-211.86 912,-211.86 912,-211.86 912,-319.79 912,-319.79"/>
<polygon fill="red" stroke="red" points="912,-329.79 907.5,-319.79 912,-324.79 912,-319.79 912,-319.79 912,-319.79 912,-324.79 916.5,-319.79 912,-329.79 912,-329.79"/>
</a>
</g>
</g>
<!-- 774081006\nProper part of -->
<g id="node7" class="node">
<title>774081006\nProper part of</title>
<g id="a_node7"><a xlink:href="http://snomed.info/id/774081006" xlink:title="774081006 Proper part of&#10;&#10;DOMAINS:&#10;Anatomical structure&#10;Body structure&#10;Lateralisable body structure reference set&#10;&#10;RANGE:&#10;Body structure&#10;">
<polygon fill="#fffacd" stroke="black" points="1269,-132 1190,-132 1190,-96 1269,-96 1269,-132"/>
<polygon fill="none" stroke="black" points="1273,-136 1186,-136 1186,-92 1273,-92 1273,-136"/>
<text text-anchor="middle" x="1229.5" y="-116.8" font-family="Helvetica,sans-Serif" font-size="9.00">774081006</text>
<text text-anchor="middle" x="1229.5" y="-106.8" font-family="Helvetica,sans-Serif" font-size="9.00">Proper part of</text>
</a>
</g>
</g>
<!-- &lt;&lt; 123037004\nBody structure&#45;&gt;774081006\nProper part of -->
<g id="edge11" class="edge">
<title>&lt;&lt; 123037004\nBody structure&#45;&gt;774081006\nProper part of</title>
<g id="a_edge11"><a xlink:title="Body structure &#45;&gt; Proper part of [0..*]">
<path fill="none" stroke="red" stroke-dasharray="5,2" d="M689,-180.62C689,-156.72 689,-118 689,-118 689,-118 1175.73,-118 1175.73,-118"/>
<polygon fill="red" stroke="red" points="1185.73,-118 1175.73,-122.5 1180.73,-118 1175.73,-118 1175.73,-118 1175.73,-118 1180.73,-118 1175.73,-113.5 1185.73,-118 1185.73,-118"/>
</a>
</g>
</g>
<!-- 138875005\nSNOMED CT Concept -->
<g id="node12" class="node">
<title>138875005\nSNOMED CT Concept</title>
<g id="a_node12"><a xlink:title=" ">
<polygon fill="palegreen" stroke="black" points="1285,-504 1174,-504 1174,-468 1285,-468 1285,-504"/>
<text text-anchor="middle" x="1229.5" y="-488.8" font-family="Helvetica,sans-Serif" font-size="9.00">138875005</text>
<text text-anchor="middle" x="1229.5" y="-478.8" font-family="Helvetica,sans-Serif" font-size="9.00">SNOMED CT Concept</text>
</a>
</g>
</g>
<!-- &lt;&lt; 123037004\nBody structure&#45;&gt;138875005\nSNOMED CT Concept -->
<g id="edge29" class="edge">
<title>&lt;&lt; 123037004\nBody structure&#45;&gt;138875005\nSNOMED CT Concept</title>
<g id="a_edge29"><a xlink:title="Body structure is_a SNOMED CT Concept">
<path fill="none" stroke="black" d="M680,-217.01C680,-279.02 680,-480 680,-480 680,-480 1163.79,-480 1163.79,-480"/>
<polygon fill="none" stroke="black" points="1163.79,-483.5 1173.79,-480 1163.79,-476.5 1163.79,-483.5"/>
</a>
</g>
</g>
<!-- 733928003\nAll or part of&#45;&gt;&lt;&lt; 123037004\nBody structure -->
<g id="edge2" class="edge">
<title>733928003\nAll or part of&#45;&gt;&lt;&lt; 123037004\nBody structure</title>
<g id="a_edge2"><a xlink:title="All or part of &#45;&gt; Body structure">
<path fill="none" stroke="blue" stroke-dasharray="5,2" d="M1320.52,-239.86C1177.72,-239.86 706,-239.86 706,-239.86 706,-239.86 706,-227.04 706,-227.04"/>
<polygon fill="blue" stroke="blue" points="706,-217.04 710.5,-227.04 706,-222.04 706,-227.04 706,-227.04 706,-227.04 706,-222.04 701.5,-227.04 706,-217.04 706,-217.04"/>
</a>
</g>
</g>
<!-- 733930001\nRegional part of&#45;&gt;&lt;&lt; 123037004\nBody structure -->
<g id="edge4" class="edge">
<title>733930001\nRegional part of&#45;&gt;&lt;&lt; 123037004\nBody structure</title>
<g id="a_edge4"><a xlink:title="Regional part of &#45;&gt; Body structure">
<path fill="none" stroke="blue" stroke-dasharray="5,2" d="M1041.7,-201.57C1041.7,-201.57 734.17,-201.57 734.17,-201.57"/>
<polygon fill="blue" stroke="blue" points="724.17,-201.57 734.17,-197.07 729.17,-201.57 734.17,-201.57 734.17,-201.57 734.17,-201.57 729.17,-201.57 734.17,-206.07 724.17,-201.57 724.17,-201.57"/>
</a>
</g>
</g>
<!-- 733930001\nRegional part of&#45;&gt;774081006\nProper part of -->
<g id="edge35" class="edge">
<title>733930001\nRegional part of&#45;&gt;774081006\nProper part of</title>
<g id="a_edge35"><a xlink:title="Regional part of is_a Proper part of">
<path fill="none" stroke="black" d="M1090,-173.66C1090,-154.51 1090,-130 1090,-130 1090,-130 1175.74,-130 1175.74,-130"/>
<polygon fill="none" stroke="black" points="1175.74,-133.5 1185.74,-130 1175.74,-126.5 1175.74,-133.5"/>
</a>
</g>
</g>
<!-- 733931002\nConstitutional part of&#45;&gt;&lt;&lt; 123037004\nBody structure -->
<g id="edge6" class="edge">
<title>733931002\nConstitutional part of&#45;&gt;&lt;&lt; 123037004\nBody structure</title>
<g id="a_edge6"><a xlink:title="Constitutional part of &#45;&gt; Body structure">
<path fill="none" stroke="blue" stroke-dasharray="5,2" d="M848,-44.13C848,-90.02 848,-191.29 848,-191.29 848,-191.29 734.21,-191.29 734.21,-191.29"/>
<polygon fill="blue" stroke="blue" points="724.21,-191.29 734.21,-186.79 729.21,-191.29 734.21,-191.29 734.21,-191.29 734.21,-191.29 729.21,-191.29 734.21,-195.79 724.21,-191.29 724.21,-191.29"/>
</a>
</g>
</g>
<!-- 733931002\nConstitutional part of&#45;&gt;774081006\nProper part of -->
<g id="edge39" class="edge">
<title>733931002\nConstitutional part of&#45;&gt;774081006\nProper part of</title>
<g id="a_edge39"><a xlink:title="Constitutional part of is_a Proper part of">
<path fill="none" stroke="black" d="M958,-44.4C958,-66.4 958,-96.67 958,-96.67 958,-96.67 1175.88,-96.67 1175.88,-96.67"/>
<polygon fill="none" stroke="black" points="1175.88,-100.17 1185.88,-96.67 1175.88,-93.17 1175.88,-100.17"/>
</a>
</g>
</g>
<!-- 733932009\nSystemic part of&#45;&gt;&lt;&lt; 123037004\nBody structure -->
<g id="edge8" class="edge">
<title>733932009\nSystemic part of&#45;&gt;&lt;&lt; 123037004\nBody structure</title>
<g id="a_edge8"><a xlink:title="Systemic part of &#45;&gt; Body structure">
<path fill="none" stroke="blue" stroke-dasharray="5,2" d="M852.84,-95C784.82,-95 671,-95 671,-95 671,-95 671,-170.88 671,-170.88"/>
<polygon fill="blue" stroke="blue" points="671,-180.88 666.5,-170.88 671,-175.88 671,-170.88 671,-170.88 671,-170.88 671,-175.88 675.5,-170.88 671,-180.88 671,-180.88"/>
</a>
</g>
</g>
<!-- 733932009\nSystemic part of&#45;&gt;774081006\nProper part of -->
<g id="edge36" class="edge">
<title>733932009\nSystemic part of&#45;&gt;774081006\nProper part of</title>
<g id="a_edge36"><a xlink:title="Systemic part of is_a Proper part of">
<path fill="none" stroke="black" d="M952.16,-101.33C952.16,-101.33 1175.92,-101.33 1175.92,-101.33"/>
<polygon fill="none" stroke="black" points="1175.92,-104.83 1185.92,-101.33 1175.92,-97.83 1175.92,-104.83"/>
</a>
</g>
</g>
<!-- 733933004\nLateral half of&#45;&gt;&lt;&lt; 123037004\nBody structure -->
<g id="edge10" class="edge">
<title>733933004\nLateral half of&#45;&gt;&lt;&lt; 123037004\nBody structure</title>
<g id="a_edge10"><a xlink:title="Lateral half of &#45;&gt; Body structure">
<path fill="none" stroke="blue" stroke-dasharray="5,2" d="M929,-329.93C929,-289.29 929,-206.71 929,-206.71 929,-206.71 734.11,-206.71 734.11,-206.71"/>
<polygon fill="blue" stroke="blue" points="724.11,-206.71 734.11,-202.21 729.11,-206.71 734.11,-206.71 734.11,-206.71 734.11,-206.71 729.11,-206.71 734.11,-211.21 724.11,-206.71 724.11,-206.71"/>
</a>
</g>
</g>
<!-- 733933004\nLateral half of&#45;&gt;733930001\nRegional part of -->
<g id="edge37" class="edge">
<title>733933004\nLateral half of&#45;&gt;733930001\nRegional part of</title>
<g id="a_edge37"><a xlink:title="Lateral half of is_a Regional part of">
<path fill="none" stroke="black" d="M945.85,-352C988.42,-352 1047,-352 1047,-352 1047,-352 1047,-228.02 1047,-228.02"/>
<polygon fill="none" stroke="black" points="1050.5,-228.02 1047,-218.02 1043.5,-228.02 1050.5,-228.02"/>
</a>
</g>
</g>
<!-- 774081006\nProper part of&#45;&gt;&lt;&lt; 123037004\nBody structure -->
<g id="edge12" class="edge">
<title>774081006\nProper part of&#45;&gt;&lt;&lt; 123037004\nBody structure</title>
<g id="a_edge12"><a xlink:title="Proper part of &#45;&gt; Body structure">
<path fill="none" stroke="blue" stroke-dasharray="5,2" d="M1185.85,-124C1060.27,-124 707,-124 707,-124 707,-124 707,-170.84 707,-170.84"/>
<polygon fill="blue" stroke="blue" points="707,-180.84 702.5,-170.84 707,-175.84 707,-170.84 707,-170.84 707,-170.84 707,-175.84 711.5,-170.84 707,-180.84 707,-180.84"/>
</a>
</g>
</g>
<!-- 774081006\nProper part of&#45;&gt;733928003\nAll or part of -->
<g id="edge38" class="edge">
<title>774081006\nProper part of&#45;&gt;733928003\nAll or part of</title>
<g id="a_edge38"><a xlink:title="Proper part of is_a All or part of">
<path fill="none" stroke="black" d="M1244,-136.17C1244,-171.45 1244,-236.43 1244,-236.43 1244,-236.43 1310.74,-236.43 1310.74,-236.43"/>
<polygon fill="none" stroke="black" points="1310.74,-239.93 1320.74,-236.43 1310.74,-232.93 1310.74,-239.93"/>
</a>
</g>
</g>
<!-- ^ 723264001\nLateralisable body structure reference set -->
<g id="node8" class="node">
<title>^ 723264001\nLateralisable body structure reference set</title>
<g id="a_node8"><a xlink:href="http://snomed.info/id/723264001" xlink:title="^ 723264001 Lateralisable body structure reference set&#10;&#10;IN DOMAIN OF:&#10;All or part of&#10;Constitutional part of&#10;Lateral half of&#10;Laterality&#10;Proper part of&#10;Regional part of&#10;Systemic part of&#10;">
<polygon fill="lightpink" stroke="black" points="272,-257 66,-257 66,-221 272,-221 272,-257"/>
<text text-anchor="middle" x="169" y="-241.8" font-family="Helvetica,sans-Serif" font-size="9.00">^ 723264001</text>
<text text-anchor="middle" x="169" y="-231.8" font-family="Helvetica,sans-Serif" font-size="9.00">Lateralisable body structure reference set</text>
</a>
</g>
</g>
<!-- ^ 723264001\nLateralisable body structure reference set&#45;&gt;733928003\nAll or part of -->
<g id="edge15" class="edge">
<title>^ 723264001\nLateralisable body structure reference set&#45;&gt;733928003\nAll or part of</title>
<g id="a_edge15"><a xlink:title="Lateralisable body structure reference set &#45;&gt; All or part of [0..*]">
<path fill="none" stroke="red" stroke-dasharray="5,2" d="M135,-257.21C135,-262.55 135,-267 135,-267 135,-267 1310.91,-267 1310.91,-267"/>
<polygon fill="red" stroke="red" points="1320.91,-267 1310.91,-271.5 1315.91,-267 1310.91,-267 1310.91,-267 1310.91,-267 1315.91,-267 1310.91,-262.5 1320.91,-267 1320.91,-267"/>
</a>
</g>
</g>
<!-- ^ 723264001\nLateralisable body structure reference set&#45;&gt;733930001\nRegional part of -->
<g id="edge16" class="edge">
<title>^ 723264001\nLateralisable body structure reference set&#45;&gt;733930001\nRegional part of</title>
<g id="a_edge16"><a xlink:title="Lateralisable body structure reference set &#45;&gt; Regional part of [0..*]">
<path fill="none" stroke="red" stroke-dasharray="5,2" d="M231,-220.88C231,-202.74 231,-177.5 231,-177.5 231,-177.5 1031.98,-177.5 1031.98,-177.5"/>
<polygon fill="red" stroke="red" points="1041.98,-177.5 1031.98,-182 1036.98,-177.5 1031.98,-177.5 1031.98,-177.5 1031.98,-177.5 1036.98,-177.5 1031.98,-173 1041.98,-177.5 1041.98,-177.5"/>
</a>
</g>
</g>
<!-- ^ 723264001\nLateralisable body structure reference set&#45;&gt;733931002\nConstitutional part of -->
<g id="edge17" class="edge">
<title>^ 723264001\nLateralisable body structure reference set&#45;&gt;733931002\nConstitutional part of</title>
<g id="a_edge17"><a xlink:title="Lateralisable body structure reference set &#45;&gt; Constitutional part of [0..*]">
<path fill="none" stroke="red" stroke-dasharray="5,2" d="M108,-220.87C108,-168.72 108,-22 108,-22 108,-22 832.46,-22 832.46,-22"/>
<polygon fill="red" stroke="red" points="842.46,-22 832.46,-26.5 837.46,-22 832.46,-22 832.46,-22 832.46,-22 837.46,-22 832.46,-17.5 842.46,-22 842.46,-22"/>
</a>
</g>
</g>
<!-- ^ 723264001\nLateralisable body structure reference set&#45;&gt;733932009\nSystemic part of -->
<g id="edge18" class="edge">
<title>^ 723264001\nLateralisable body structure reference set&#45;&gt;733932009\nSystemic part of</title>
<g id="a_edge18"><a xlink:title="Lateralisable body structure reference set &#45;&gt; Systemic part of [0..*]">
<path fill="none" stroke="red" stroke-dasharray="5,2" d="M149,-220.92C149,-177.9 149,-73 149,-73 149,-73 842.77,-73 842.77,-73"/>
<polygon fill="red" stroke="red" points="852.77,-73 842.77,-77.5 847.77,-73 842.77,-73 842.77,-73 842.77,-73 847.77,-73 842.77,-68.5 852.77,-73 852.77,-73"/>
</a>
</g>
</g>
<!-- ^ 723264001\nLateralisable body structure reference set&#45;&gt;733933004\nLateral half of -->
<g id="edge19" class="edge">
<title>^ 723264001\nLateralisable body structure reference set&#45;&gt;733933004\nLateral half of</title>
<g id="a_edge19"><a xlink:title="Lateralisable body structure reference set &#45;&gt; Lateral half of [0..*]">
<path fill="none" stroke="red" stroke-dasharray="5,2" d="M204,-257.08C204,-288.88 204,-351.5 204,-351.5 204,-351.5 849.33,-351.5 849.33,-351.5"/>
<polygon fill="red" stroke="red" points="859.33,-351.5 849.33,-356 854.33,-351.5 849.33,-351.5 849.33,-351.5 849.33,-351.5 854.33,-351.5 849.33,-347 859.33,-351.5 859.33,-351.5"/>
</a>
</g>
</g>
<!-- ^ 723264001\nLateralisable body structure reference set&#45;&gt;774081006\nProper part of -->
<g id="edge20" class="edge">
<title>^ 723264001\nLateralisable body structure reference set&#45;&gt;774081006\nProper part of</title>
<g id="a_edge20"><a xlink:title="Lateralisable body structure reference set &#45;&gt; Proper part of [0..*]">
<path fill="none" stroke="red" stroke-dasharray="5,2" d="M190,-220.8C190,-185.69 190,-112 190,-112 190,-112 1175.83,-112 1175.83,-112"/>
<polygon fill="red" stroke="red" points="1185.83,-112 1175.83,-116.5 1180.83,-112 1175.83,-112 1175.83,-112 1175.83,-112 1180.83,-112 1175.83,-107.5 1185.83,-112 1185.83,-112"/>
</a>
</g>
</g>
<!-- 272741003\nLaterality -->
<g id="node9" class="node">
<title>272741003\nLaterality</title>
<g id="a_node9"><a xlink:href="http://snomed.info/id/272741003" xlink:title="272741003 Laterality&#10;&#10;DOMAINS:&#10;Anatomical structure&#10;Lateralisable body structure reference set&#10;&#10;RANGE:&#10;Side&#10;">
<polygon fill="#fffacd" stroke="black" points="715,-546 644,-546 644,-510 715,-510 715,-546"/>
<polygon fill="none" stroke="black" points="719,-550 640,-550 640,-506 719,-506 719,-550"/>
<text text-anchor="middle" x="679.5" y="-530.8" font-family="Helvetica,sans-Serif" font-size="9.00">272741003</text>
<text text-anchor="middle" x="679.5" y="-520.8" font-family="Helvetica,sans-Serif" font-size="9.00">Laterality</text>
</a>
</g>
</g>
<!-- ^ 723264001\nLateralisable body structure reference set&#45;&gt;272741003\nLaterality -->
<g id="edge13" class="edge">
<title>^ 723264001\nLateralisable body structure reference set&#45;&gt;272741003\nLaterality</title>
<g id="a_edge13"><a xlink:title="Lateralisable body structure reference set &#45;&gt; Laterality [0..1]">
<path fill="none" stroke="red" stroke-dasharray="5,2" d="M272.07,-248C315.42,-248 356,-248 356,-248 356,-248 356,-518.5 356,-518.5 356,-518.5 629.83,-518.5 629.83,-518.5"/>
<polygon fill="red" stroke="red" points="639.83,-518.5 629.83,-523 634.83,-518.5 629.83,-518.5 629.83,-518.5 629.83,-518.5 634.83,-518.5 629.83,-514 639.83,-518.5 639.83,-518.5"/>
</a>
</g>
</g>
<!-- &lt;&lt; 91723000\nAnatomical structure -->
<g id="node11" class="node">
<title>&lt;&lt; 91723000\nAnatomical structure</title>
<g id="a_node11"><a xlink:href="http://snomed.info/id/91723000" xlink:title="&lt;&lt; 91723000 Anatomical structure&#10;&#10;IN DOMAIN OF:&#10;All or part of&#10;Constitutional part of&#10;Lateral half of&#10;Laterality&#10;Proper part of&#10;Regional part of&#10;Systemic part of&#10;">
<polygon fill="lightpink" stroke="black" points="523,-257 411,-257 411,-221 523,-221 523,-257"/>
<text text-anchor="middle" x="467" y="-241.8" font-family="Helvetica,sans-Serif" font-size="9.00">&lt;&lt; 91723000</text>
<text text-anchor="middle" x="467" y="-231.8" font-family="Helvetica,sans-Serif" font-size="9.00">Anatomical structure</text>
</a>
</g>
</g>
<!-- ^ 723264001\nLateralisable body structure reference set&#45;&gt;&lt;&lt; 91723000\nAnatomical structure -->
<g id="edge34" class="edge">
<title>^ 723264001\nLateralisable body structure reference set&#45;&gt;&lt;&lt; 91723000\nAnatomical structure</title>
<g id="a_edge34"><a xlink:title="Lateralisable body structure reference set has_parent_domain Anatomical structure">
<path fill="none" stroke="black" d="M272.39,-230C272.39,-230 398.65,-230 398.65,-230"/>
<polygon fill="black" stroke="black" points="398.65,-230 404.65,-226 410.65,-230 404.65,-234 398.65,-230"/>
</a>
</g>
</g>
<!-- 900000000000441003\nSNOMED CT Model Component -->
<g id="node14" class="node">
<title>900000000000441003\nSNOMED CT Model Component</title>
<g id="a_node14"><a xlink:title=" ">
<polygon fill="palegreen" stroke="black" points="544.5,-422 389.5,-422 389.5,-386 544.5,-386 544.5,-422"/>
<text text-anchor="middle" x="467" y="-406.8" font-family="Helvetica,sans-Serif" font-size="9.00">900000000000441003</text>
<text text-anchor="middle" x="467" y="-396.8" font-family="Helvetica,sans-Serif" font-size="9.00">SNOMED CT Model Component</text>
</a>
</g>
</g>
<!-- ^ 723264001\nLateralisable body structure reference set&#45;&gt;900000000000441003\nSNOMED CT Model Component -->
<g id="edge32" class="edge">
<title>^ 723264001\nLateralisable body structure reference set&#45;&gt;900000000000441003\nSNOMED CT Model Component</title>
<g id="a_edge32"><a xlink:title="Lateralisable body structure reference set is_a SNOMED CT Model Component">
<path fill="none" stroke="black" d="M272.11,-239C334.07,-239 401,-239 401,-239 401,-239 401,-375.71 401,-375.71"/>
<polygon fill="none" stroke="black" points="397.5,-375.71 401,-385.71 404.5,-375.71 397.5,-375.71"/>
</a>
</g>
</g>
<!-- &lt;&lt; 182353008\nSide -->
<g id="node10" class="node">
<title>&lt;&lt; 182353008\nSide</title>
<g id="a_node10"><a xlink:href="http://snomed.info/id/182353008" xlink:title="&lt;&lt; 182353008 Side&#10;&#10;IN RANGE OF:&#10;Laterality [1,2]&#10;&#10;FROM DOMAINS:&#10;1. Lateralisable body structure reference set&#10;2. Anatomical structure&#10;">
<polygon fill="#bfefff" stroke="black" points="947,-544 858,-544 858,-508 947,-508 947,-544"/>
<text text-anchor="middle" x="902.5" y="-528.8" font-family="Helvetica,sans-Serif" font-size="9.00">&lt;&lt; 182353008</text>
<text text-anchor="middle" x="902.5" y="-518.8" font-family="Helvetica,sans-Serif" font-size="9.00">Side</text>
</a>
</g>
</g>
<!-- 272741003\nLaterality&#45;&gt;&lt;&lt; 182353008\nSide -->
<g id="edge14" class="edge">
<title>272741003\nLaterality&#45;&gt;&lt;&lt; 182353008\nSide</title>
<g id="a_edge14"><a xlink:title="Laterality &#45;&gt; Side">
<path fill="none" stroke="blue" stroke-dasharray="5,2" d="M719.11,-526C719.11,-526 847.9,-526 847.9,-526"/>
<polygon fill="blue" stroke="blue" points="857.9,-526 847.9,-530.5 852.9,-526 847.9,-526 847.9,-526 847.9,-526 852.9,-526 847.9,-521.5 857.9,-526 857.9,-526"/>
</a>
</g>
</g>
<!-- 362981000\nQualifier value -->
<g id="node13" class="node">
<title>362981000\nQualifier value</title>
<g id="a_node13"><a xlink:title=" ">
<polygon fill="palegreen" stroke="black" points="1130.5,-543 1049.5,-543 1049.5,-507 1130.5,-507 1130.5,-543"/>
<text text-anchor="middle" x="1090" y="-527.8" font-family="Helvetica,sans-Serif" font-size="9.00">362981000</text>
<text text-anchor="middle" x="1090" y="-517.8" font-family="Helvetica,sans-Serif" font-size="9.00">Qualifier value</text>
</a>
</g>
</g>
<!-- &lt;&lt; 182353008\nSide&#45;&gt;362981000\nQualifier value -->
<g id="edge30" class="edge">
<title>&lt;&lt; 182353008\nSide&#45;&gt;362981000\nQualifier value</title>
<g id="a_edge30"><a xlink:title="Side is_a Qualifier value">
<path fill="none" stroke="black" d="M947.41,-525.5C947.41,-525.5 1039.29,-525.5 1039.29,-525.5"/>
<polygon fill="none" stroke="black" points="1039.29,-529 1049.29,-525.5 1039.29,-522 1039.29,-529"/>
</a>
</g>
</g>
<!-- &lt;&lt; 91723000\nAnatomical structure&#45;&gt;&lt;&lt; 123037004\nBody structure -->
<g id="edge28" class="edge">
<title>&lt;&lt; 91723000\nAnatomical structure&#45;&gt;&lt;&lt; 123037004\nBody structure</title>
<g id="a_edge28"><a xlink:title="Anatomical structure is_a/has_parent_domain Body structure">
<path fill="none" stroke="black" d="M523.24,-223C582.4,-223 667,-223 667,-223 667,-223 667,-222.42 667,-222.42"/>
<polygon fill="black" stroke="black" points="670.5,-227.19 667,-217.19 663.5,-227.19 670.5,-227.19"/>
</a>
</g>
</g>
<!-- &lt;&lt; 91723000\nAnatomical structure&#45;&gt;733928003\nAll or part of -->
<g id="edge22" class="edge">
<title>&lt;&lt; 91723000\nAnatomical structure&#45;&gt;733928003\nAll or part of</title>
<g id="a_edge22"><a xlink:title="Anatomical structure &#45;&gt; All or part of [0..*]">
<path fill="none" stroke="red" stroke-dasharray="5,2" d="M523.26,-246.71C523.26,-246.71 1310.67,-246.71 1310.67,-246.71"/>
<polygon fill="red" stroke="red" points="1320.67,-246.71 1310.67,-251.21 1315.67,-246.71 1310.67,-246.71 1310.67,-246.71 1310.67,-246.71 1315.67,-246.71 1310.67,-242.21 1320.67,-246.71 1320.67,-246.71"/>
</a>
</g>
</g>
<!-- &lt;&lt; 91723000\nAnatomical structure&#45;&gt;733930001\nRegional part of -->
<g id="edge23" class="edge">
<title>&lt;&lt; 91723000\nAnatomical structure&#45;&gt;733930001\nRegional part of</title>
<g id="a_edge23"><a xlink:title="Anatomical structure &#45;&gt; Regional part of [0..*]">
<path fill="none" stroke="red" stroke-dasharray="5,2" d="M523.21,-229C668.46,-229 1045,-229 1045,-229 1045,-229 1045,-227.92 1045,-227.92"/>
<polygon fill="red" stroke="red" points="1045,-218.19 1049.5,-228.19 1045,-223.19 1045,-228.19 1045,-228.19 1045,-228.19 1045,-223.19 1040.5,-228.19 1045,-218.19 1045,-218.19"/>
</a>
</g>
</g>
<!-- &lt;&lt; 91723000\nAnatomical structure&#45;&gt;733931002\nConstitutional part of -->
<g id="edge24" class="edge">
<title>&lt;&lt; 91723000\nAnatomical structure&#45;&gt;733931002\nConstitutional part of</title>
<g id="a_edge24"><a xlink:title="Anatomical structure &#45;&gt; Constitutional part of [0..*]">
<path fill="none" stroke="red" stroke-dasharray="5,2" d="M523.25,-225C629.91,-225 851,-225 851,-225 851,-225 851,-54.11 851,-54.11"/>
<polygon fill="red" stroke="red" points="851,-44.11 855.5,-54.11 851,-49.11 851,-54.11 851,-54.11 851,-54.11 851,-49.11 846.5,-54.11 851,-44.11 851,-44.11"/>
</a>
</g>
</g>
<!-- &lt;&lt; 91723000\nAnatomical structure&#45;&gt;733932009\nSystemic part of -->
<g id="edge25" class="edge">
<title>&lt;&lt; 91723000\nAnatomical structure&#45;&gt;733932009\nSystemic part of</title>
<g id="a_edge25"><a xlink:title="Anatomical structure &#45;&gt; Systemic part of [0..*]">
<path fill="none" stroke="red" stroke-dasharray="5,2" d="M523.15,-227C635.44,-227 877,-227 877,-227 877,-227 877,-116.03 877,-116.03"/>
<polygon fill="red" stroke="red" points="877,-106.03 881.5,-116.03 877,-111.03 877,-116.03 877,-116.03 877,-116.03 877,-111.03 872.5,-116.03 877,-106.03 877,-106.03"/>
</a>
</g>
</g>
<!-- &lt;&lt; 91723000\nAnatomical structure&#45;&gt;733933004\nLateral half of -->
<g id="edge26" class="edge">
<title>&lt;&lt; 91723000\nAnatomical structure&#45;&gt;733933004\nLateral half of</title>
<g id="a_edge26"><a xlink:title="Anatomical structure &#45;&gt; Lateral half of [0..*]">
<path fill="none" stroke="red" stroke-dasharray="5,2" d="M523.26,-250.14C639.21,-250.14 894,-250.14 894,-250.14 894,-250.14 894,-319.9 894,-319.9"/>
<polygon fill="red" stroke="red" points="894,-329.9 889.5,-319.9 894,-324.9 894,-319.9 894,-319.9 894,-319.9 894,-324.9 898.5,-319.9 894,-329.9 894,-329.9"/>
</a>
</g>
</g>
<!-- &lt;&lt; 91723000\nAnatomical structure&#45;&gt;774081006\nProper part of -->
<g id="edge27" class="edge">
<title>&lt;&lt; 91723000\nAnatomical structure&#45;&gt;774081006\nProper part of</title>
<g id="a_edge27"><a xlink:title="Anatomical structure &#45;&gt; Proper part of [0..*]">
<path fill="none" stroke="red" stroke-dasharray="5,2" d="M523.22,-231C697.18,-231 1215,-231 1215,-231 1215,-231 1215,-146.01 1215,-146.01"/>
<polygon fill="red" stroke="red" points="1215,-136.01 1219.5,-146.01 1215,-141.01 1215,-146.01 1215,-146.01 1215,-146.01 1215,-141.01 1210.5,-146.01 1215,-136.01 1215,-136.01"/>
</a>
</g>
</g>
<!-- &lt;&lt; 91723000\nAnatomical structure&#45;&gt;272741003\nLaterality -->
<g id="edge21" class="edge">
<title>&lt;&lt; 91723000\nAnatomical structure&#45;&gt;272741003\nLaterality</title>
<g id="a_edge21"><a xlink:title="Anatomical structure &#45;&gt; Laterality [0..1]">
<path fill="none" stroke="red" stroke-dasharray="5,2" d="M523.11,-253.57C578.19,-253.57 654,-253.57 654,-253.57 654,-253.57 654,-495.54 654,-495.54"/>
<polygon fill="red" stroke="red" points="654,-505.54 649.5,-495.54 654,-500.54 654,-495.54 654,-495.54 654,-495.54 654,-500.54 658.5,-495.54 654,-505.54 654,-505.54"/>
</a>
</g>
</g>
<!-- 362981000\nQualifier value&#45;&gt;138875005\nSNOMED CT Concept -->
<g id="edge31" class="edge">
<title>362981000\nQualifier value&#45;&gt;138875005\nSNOMED CT Concept</title>
<g id="a_edge31"><a xlink:title="Qualifier value is_a SNOMED CT Concept">
<path fill="none" stroke="black" d="M1090,-506.96C1090,-499.25 1090,-492 1090,-492 1090,-492 1163.97,-492 1163.97,-492"/>
<polygon fill="none" stroke="black" points="1163.97,-495.5 1173.97,-492 1163.97,-488.5 1163.97,-495.5"/>
</a>
</g>
</g>
<!-- 900000000000441003\nSNOMED CT Model Component&#45;&gt;138875005\nSNOMED CT Concept -->
<g id="edge33" class="edge">
<title>900000000000441003\nSNOMED CT Model Component&#45;&gt;138875005\nSNOMED CT Concept</title>
<g id="a_edge33"><a xlink:title="SNOMED CT Model Component is_a SNOMED CT Concept">
<path fill="none" stroke="black" d="M544.66,-404C729.45,-404 1180,-404 1180,-404 1180,-404 1180,-457.8 1180,-457.8"/>
<polygon fill="none" stroke="black" points="1176.5,-457.8 1180,-467.8 1183.5,-457.8 1176.5,-457.8"/>
</a>
</g>
</g>
<!-- diagramLabel -->
<g id="node15" class="node">
<title>diagramLabel</title>
<g id="a_node15"><a xlink:title=" ">
<polygon fill="palegreen" stroke="black" points="0,-373.5 0,-530.5 338,-530.5 338,-373.5 0,-373.5"/>
<text text-anchor="middle" x="169" y="-516.9" font-family="Helvetica,sans-Serif" font-size="12.00">Simplified diagram of SNOMED CT</text>
<text text-anchor="middle" x="169" y="-503.9" font-family="Helvetica,sans-Serif" font-size="12.00">MRCM Domain and Range constraints</text>
<polyline fill="none" stroke="black" points="0,-496.5 338,-496.5 "/>
<text text-anchor="middle" x="169" y="-482.9" font-family="Helvetica,sans-Serif" font-size="12.00">Pre&#45;coordination view</text>
<polyline fill="none" stroke="black" points="0,-475.5 338,-475.5 "/>
<text text-anchor="middle" x="169" y="-461.9" font-family="Helvetica,sans-Serif" font-size="12.00">Showing domains:</text>
<text text-anchor="middle" x="169" y="-448.9" font-family="Helvetica,sans-Serif" font-size="12.00">123037004 Body structure</text>
<text text-anchor="middle" x="169" y="-435.9" font-family="Helvetica,sans-Serif" font-size="12.00">723264001 Lateralisable body structure reference set</text>
<text text-anchor="middle" x="169" y="-422.9" font-family="Helvetica,sans-Serif" font-size="12.00">91723000 Anatomical structure</text>
<polyline fill="none" stroke="black" points="0,-415.5 338,-415.5 "/>
<text text-anchor="middle" x="169" y="-401.9" font-family="Helvetica,sans-Serif" font-size="12.00">20210731 International data</text>
<polyline fill="none" stroke="black" points="0,-394.5 338,-394.5 "/>
<text text-anchor="middle" x="169" y="-380.9" font-family="Helvetica,sans-Serif" font-size="12.00">Drawn September 22, 2021</text>
</a>
</g>
</g>
<!-- &lt;&lt; XXXXXXXX\nDefined domain concept -->
<g id="node16" class="node">
<title>&lt;&lt; XXXXXXXX\nDefined domain concept</title>
<g id="a_node16"><a xlink:title=" ">
<polygon fill="lightpink" stroke="black" points="233,-907 105,-907 105,-871 233,-871 233,-907"/>
<polygon fill="none" stroke="black" points="237,-911 101,-911 101,-867 237,-867 237,-911"/>
<text text-anchor="middle" x="169" y="-891.8" font-family="Helvetica,sans-Serif" font-size="9.00">&lt;&lt; XXXXXXXX</text>
<text text-anchor="middle" x="169" y="-881.8" font-family="Helvetica,sans-Serif" font-size="9.00">Defined domain concept</text>
</a>
</g>
</g>
<!-- XXXXXXXX\nAttribute name -->
<g id="node17" class="node">
<title>XXXXXXXX\nAttribute name</title>
<g id="a_node17"><a xlink:title=" ">
<polygon fill="#fffacd" stroke="black" points="510,-878 424,-878 424,-842 510,-842 510,-878"/>
<polygon fill="none" stroke="black" points="514,-882 420,-882 420,-838 514,-838 514,-882"/>
<text text-anchor="middle" x="467" y="-862.8" font-family="Helvetica,sans-Serif" font-size="9.00">XXXXXXXX</text>
<text text-anchor="middle" x="467" y="-852.8" font-family="Helvetica,sans-Serif" font-size="9.00">Attribute name</text>
</a>
</g>
</g>
<!-- &lt;&lt; XXXXXXXX\nDefined domain concept&#45;&gt;XXXXXXXX\nAttribute name -->
<g id="edge40" class="edge">
<title>&lt;&lt; XXXXXXXX\nDefined domain concept&#45;&gt;XXXXXXXX\nAttribute name</title>
<path fill="none" stroke="red" d="M237.37,-874.5C237.37,-874.5 409.83,-874.5 409.83,-874.5"/>
<polygon fill="red" stroke="red" points="419.83,-874.5 409.83,-879 414.83,-874.5 409.83,-874.5 409.83,-874.5 409.83,-874.5 414.83,-874.5 409.83,-870 419.83,-874.5 419.83,-874.5"/>
</g>
<!-- &lt;&lt; XXXXXXXX\nDomain and\n range concept\n(operators the same) -->
<g id="node19" class="node">
<title>&lt;&lt; XXXXXXXX\nDomain and\n range concept\n(operators the same)</title>
<g id="a_node19"><a xlink:title=" ">
<polygon fill="violet" stroke="black" points="735.5,-884 623.5,-884 623.5,-836 735.5,-836 735.5,-884"/>
<polygon fill="none" stroke="black" points="739.5,-888 619.5,-888 619.5,-832 739.5,-832 739.5,-888"/>
<text text-anchor="middle" x="679.5" y="-872.8" font-family="Helvetica,sans-Serif" font-size="9.00">&lt;&lt; XXXXXXXX</text>
<text text-anchor="middle" x="679.5" y="-862.8" font-family="Helvetica,sans-Serif" font-size="9.00">Domain and</text>
<text text-anchor="middle" x="679.5" y="-852.8" font-family="Helvetica,sans-Serif" font-size="9.00"> range concept</text>
<text text-anchor="middle" x="679.5" y="-842.8" font-family="Helvetica,sans-Serif" font-size="9.00">(operators the same)</text>
</a>
</g>
</g>
<!-- XXXXXXXX\nAttribute name&#45;&gt;&lt;&lt; XXXXXXXX\nDomain and\n range concept\n(operators the same) -->
<g id="edge42" class="edge">
<title>XXXXXXXX\nAttribute name&#45;&gt;&lt;&lt; XXXXXXXX\nDomain and\n range concept\n(operators the same)</title>
<path fill="none" stroke="blue" d="M514.16,-852.67C514.16,-852.67 609.13,-852.67 609.13,-852.67"/>
<polygon fill="blue" stroke="blue" points="619.13,-852.67 609.13,-857.17 614.13,-852.67 609.13,-852.67 609.13,-852.67 609.13,-852.67 614.13,-852.67 609.13,-848.17 619.13,-852.67 619.13,-852.67"/>
</g>
<!-- &lt;&lt; XXXXXXXX\nDomain and\n range concept\n(operators differ) -->
<g id="node20" class="node">
<title>&lt;&lt; XXXXXXXX\nDomain and\n range concept\n(operators differ)</title>
<g id="a_node20"><a xlink:title=" ">
<polygon fill="violet" stroke="black" points="726,-954 633,-954 633,-906 726,-906 726,-954"/>
<text text-anchor="middle" x="679.5" y="-942.8" font-family="Helvetica,sans-Serif" font-size="9.00" fill="white">&lt;&lt; XXXXXXXX</text>
<text text-anchor="middle" x="679.5" y="-932.8" font-family="Helvetica,sans-Serif" font-size="9.00" fill="white">Domain and</text>
<text text-anchor="middle" x="679.5" y="-922.8" font-family="Helvetica,sans-Serif" font-size="9.00" fill="white"> range concept</text>
<text text-anchor="middle" x="679.5" y="-912.8" font-family="Helvetica,sans-Serif" font-size="9.00" fill="white">(operators differ)</text>
</a>
</g>
</g>
<!-- XXXXXXXX\nAttribute name&#45;&gt;&lt;&lt; XXXXXXXX\nDomain and\n range concept\n(operators differ) -->
<g id="edge43" class="edge">
<title>XXXXXXXX\nAttribute name&#45;&gt;&lt;&lt; XXXXXXXX\nDomain and\n range concept\n(operators differ)</title>
<path fill="none" stroke="blue" d="M452,-882.19C452,-905.76 452,-939.67 452,-939.67 452,-939.67 622.91,-939.67 622.91,-939.67"/>
<polygon fill="blue" stroke="blue" points="632.91,-939.67 622.91,-944.17 627.91,-939.67 622.91,-939.67 622.91,-939.67 622.91,-939.67 627.91,-939.67 622.91,-935.17 632.91,-939.67 632.91,-939.67"/>
</g>
<!-- &lt;&lt; XXXXXXXX\nRange concept -->
<g id="node21" class="node">
<title>&lt;&lt; XXXXXXXX\nRange concept</title>
<g id="a_node21"><a xlink:title=" ">
<polygon fill="#bfefff" stroke="black" points="722,-760 637,-760 637,-724 722,-724 722,-760"/>
<text text-anchor="middle" x="679.5" y="-744.8" font-family="Helvetica,sans-Serif" font-size="9.00">&lt;&lt; XXXXXXXX</text>
<text text-anchor="middle" x="679.5" y="-734.8" font-family="Helvetica,sans-Serif" font-size="9.00">Range concept</text>
</a>
</g>
</g>
<!-- XXXXXXXX\nAttribute name&#45;&gt;&lt;&lt; XXXXXXXX\nRange concept -->
<g id="edge46" class="edge">
<title>XXXXXXXX\nAttribute name&#45;&gt;&lt;&lt; XXXXXXXX\nRange concept</title>
<path fill="none" stroke="blue" stroke-dasharray="5,2" d="M452,-837.81C452,-803.62 452,-742 452,-742 452,-742 626.98,-742 626.98,-742"/>
<polygon fill="blue" stroke="blue" points="636.98,-742 626.98,-746.5 631.98,-742 626.98,-742 626.98,-742 626.98,-742 631.98,-742 626.98,-737.5 636.98,-742 636.98,-742"/>
</g>
<!-- Concrete\nrange -->
<g id="node22" class="node">
<title>Concrete\nrange</title>
<g id="a_node22"><a xlink:title=" ">
<polygon fill="palegreen" stroke="black" points="708,-814 651,-814 651,-778 708,-778 708,-814"/>
<polyline fill="none" stroke="black" points="663,-814 651,-802 "/>
<polyline fill="none" stroke="black" points="651,-790 663,-778 "/>
<polyline fill="none" stroke="black" points="696,-778 708,-790 "/>
<polyline fill="none" stroke="black" points="708,-802 696,-814 "/>
<text text-anchor="middle" x="679.5" y="-798.8" font-family="Helvetica,sans-Serif" font-size="9.00">Concrete</text>
<text text-anchor="middle" x="679.5" y="-788.8" font-family="Helvetica,sans-Serif" font-size="9.00">range</text>
</a>
</g>
</g>
<!-- XXXXXXXX\nAttribute name&#45;&gt;Concrete\nrange -->
<g id="edge47" class="edge">
<title>XXXXXXXX\nAttribute name&#45;&gt;Concrete\nrange</title>
<path fill="none" stroke="blue" stroke-dasharray="5,2" d="M483,-837.8C483,-819.15 483,-795.5 483,-795.5 483,-795.5 640.93,-795.5 640.93,-795.5"/>
<polygon fill="blue" stroke="blue" points="650.93,-795.5 640.93,-800 645.93,-795.5 640.93,-795.5 640.93,-795.5 640.93,-795.5 645.93,-795.5 640.93,-791 650.93,-795.5 650.93,-795.5"/>
</g>
<!-- &lt;&lt; XXXXXXXX\nPrimitive domain concept -->
<g id="node18" class="node">
<title>&lt;&lt; XXXXXXXX\nPrimitive domain concept</title>
<g id="a_node18"><a xlink:title=" ">
<polygon fill="lightpink" stroke="black" points="235,-849 103,-849 103,-813 235,-813 235,-849"/>
<text text-anchor="middle" x="169" y="-833.8" font-family="Helvetica,sans-Serif" font-size="9.00">&lt;&lt; XXXXXXXX</text>
<text text-anchor="middle" x="169" y="-823.8" font-family="Helvetica,sans-Serif" font-size="9.00">Primitive domain concept</text>
</a>
</g>
</g>
<!-- &lt;&lt; XXXXXXXX\nPrimitive domain concept&#45;&gt;XXXXXXXX\nAttribute name -->
<g id="edge41" class="edge">
<title>&lt;&lt; XXXXXXXX\nPrimitive domain concept&#45;&gt;XXXXXXXX\nAttribute name</title>
<path fill="none" stroke="red" stroke-dasharray="5,2" d="M235.14,-843.5C235.14,-843.5 409.56,-843.5 409.56,-843.5"/>
<polygon fill="red" stroke="red" points="419.56,-843.5 409.56,-848 414.56,-843.5 409.56,-843.5 409.56,-843.5 409.56,-843.5 414.56,-843.5 409.56,-839 419.56,-843.5 419.56,-843.5"/>
</g>
<!-- &lt;&lt; XXXXXXXX\nDomain and\n range concept\n(operators the same)&#45;&gt;XXXXXXXX\nAttribute name -->
<g id="edge44" class="edge">
<title>&lt;&lt; XXXXXXXX\nDomain and\n range concept\n(operators the same)&#45;&gt;XXXXXXXX\nAttribute name</title>
<path fill="none" stroke="red" d="M619.46,-867.33C619.46,-867.33 524.09,-867.33 524.09,-867.33"/>
<polygon fill="red" stroke="red" points="514.09,-867.33 524.09,-862.83 519.09,-867.33 524.09,-867.33 524.09,-867.33 524.09,-867.33 519.09,-867.33 524.09,-871.83 514.09,-867.33 514.09,-867.33"/>
</g>
<!-- Domain and range\n relationships\n\nNote 1. Operators may differ between\ndomain and range\n\nNote 2. Dashed edge indicates\nattribute ungrouped for this domain in DL -->
<g id="node23" class="node">
<title>Domain and range\n relationships\n\nNote 1. Operators may differ between\ndomain and range\n\nNote 2. Dashed edge indicates\nattribute ungrouped for this domain in DL</title>
<g id="a_node23"><a xlink:title=" ">
<polygon fill="white" stroke="black" stroke-width="0" points="1006,-875 799,-875 799,-787 1006,-787 1006,-875"/>
<text text-anchor="middle" x="902.5" y="-863.8" font-family="Helvetica,sans-Serif" font-size="9.00">Domain and range</text>
<text text-anchor="middle" x="902.5" y="-853.8" font-family="Helvetica,sans-Serif" font-size="9.00"> relationships</text>
<text text-anchor="middle" x="902.5" y="-833.8" font-family="Helvetica,sans-Serif" font-size="9.00">Note 1. Operators may differ between</text>
<text text-anchor="middle" x="902.5" y="-823.8" font-family="Helvetica,sans-Serif" font-size="9.00">domain and range</text>
<text text-anchor="middle" x="902.5" y="-803.8" font-family="Helvetica,sans-Serif" font-size="9.00">Note 2. Dashed edge indicates</text>
<text text-anchor="middle" x="902.5" y="-793.8" font-family="Helvetica,sans-Serif" font-size="9.00">attribute ungrouped for this domain in DL</text>
</a>
</g>
</g>
<!-- &lt;&lt; XXXXXXXX\nDomain and\n range concept\n(operators the same)&#45;&gt;Domain and range\n relationships\n\nNote 1. Operators may differ between\ndomain and range\n\nNote 2. Dashed edge indicates\nattribute ungrouped for this domain in DL -->
<!-- &lt;&lt; XXXXXXXX\nDomain and\n range concept\n(operators differ)&#45;&gt;XXXXXXXX\nAttribute name -->
<g id="edge45" class="edge">
<title>&lt;&lt; XXXXXXXX\nDomain and\n range concept\n(operators differ)&#45;&gt;XXXXXXXX\nAttribute name</title>
<path fill="none" stroke="red" d="M632.93,-925.33C574.82,-925.33 483,-925.33 483,-925.33 483,-925.33 483,-892.12 483,-892.12"/>
<polygon fill="red" stroke="red" points="483,-882.12 487.5,-892.12 483,-887.12 483,-892.12 483,-892.12 483,-892.12 483,-887.12 478.5,-892.12 483,-882.12 483,-882.12"/>
</g>
<!-- &lt;&lt; XXXXXXXX\nDomain and\n range concept\n(operators differ)&#45;&gt;Domain and range\n relationships\n\nNote 1. Operators may differ between\ndomain and range\n\nNote 2. Dashed edge indicates\nattribute ungrouped for this domain in DL -->
<!-- &lt;&lt; XXXXXXXX\nRange concept&#45;&gt;Domain and range\n relationships\n\nNote 1. Operators may differ between\ndomain and range\n\nNote 2. Dashed edge indicates\nattribute ungrouped for this domain in DL -->
<!-- Concrete\nrange&#45;&gt;Domain and range\n relationships\n\nNote 1. Operators may differ between\ndomain and range\n\nNote 2. Dashed edge indicates\nattribute ungrouped for this domain in DL -->
<!-- &lt;&lt; XXXXXXXX\nConcept referenced in model -->
<g id="node24" class="node">
<title>&lt;&lt; XXXXXXXX\nConcept referenced in model</title>
<g id="a_node24"><a xlink:title=" ">
<polygon fill="#bfefff" stroke="black" points="243,-705 95,-705 95,-669 243,-669 243,-705"/>
<text text-anchor="middle" x="169" y="-689.8" font-family="Helvetica,sans-Serif" font-size="9.00">&lt;&lt; XXXXXXXX</text>
<text text-anchor="middle" x="169" y="-679.8" font-family="Helvetica,sans-Serif" font-size="9.00">Concept referenced in model</text>
</a>
</g>
</g>
<!-- &lt;&lt; XXXXXXXX\nAnother concept referenced in model -->
<g id="node25" class="node">
<title>&lt;&lt; XXXXXXXX\nAnother concept referenced in model</title>
<g id="a_node25"><a xlink:title=" ">
<polygon fill="#bfefff" stroke="black" points="560,-705 374,-705 374,-669 560,-669 560,-705"/>
<text text-anchor="middle" x="467" y="-689.8" font-family="Helvetica,sans-Serif" font-size="9.00">&lt;&lt; XXXXXXXX</text>
<text text-anchor="middle" x="467" y="-679.8" font-family="Helvetica,sans-Serif" font-size="9.00">Another concept referenced in model</text>
</a>
</g>
</g>
<!-- &lt;&lt; XXXXXXXX\nConcept referenced in model&#45;&gt;&lt;&lt; XXXXXXXX\nAnother concept referenced in model -->
<g id="edge52" class="edge">
<title>&lt;&lt; XXXXXXXX\nConcept referenced in model&#45;&gt;&lt;&lt; XXXXXXXX\nAnother concept referenced in model</title>
<path fill="none" stroke="black" d="M243.05,-681C243.05,-681 363.83,-681 363.83,-681"/>
<polygon fill="black" stroke="black" points="363.83,-684.5 373.83,-681 363.83,-677.5 363.83,-684.5"/>
</g>
<!-- &lt;&lt; XXXXXXXX\nConcept referenced in model&#45;&gt;&lt;&lt; XXXXXXXX\nAnother concept referenced in model -->
<g id="edge53" class="edge">
<title>&lt;&lt; XXXXXXXX\nConcept referenced in model&#45;&gt;&lt;&lt; XXXXXXXX\nAnother concept referenced in model</title>
<path fill="none" stroke="black" d="M243.05,-693C243.05,-693 361.83,-693 361.83,-693"/>
<polygon fill="black" stroke="black" points="361.83,-693 367.83,-689 373.83,-693 367.83,-697 361.83,-693"/>
</g>
<!-- XXXXXXXX\nConcept included in diagram but\nnot referenced in concept model -->
<g id="node26" class="node">
<title>XXXXXXXX\nConcept included in diagram but\nnot referenced in concept model</title>
<g id="a_node26"><a xlink:title=" ">
<polygon fill="palegreen" stroke="black" points="763,-706 596,-706 596,-668 763,-668 763,-706"/>
<text text-anchor="middle" x="679.5" y="-694.8" font-family="Helvetica,sans-Serif" font-size="9.00">XXXXXXXX</text>
<text text-anchor="middle" x="679.5" y="-684.8" font-family="Helvetica,sans-Serif" font-size="9.00">Concept included in diagram but</text>
<text text-anchor="middle" x="679.5" y="-674.8" font-family="Helvetica,sans-Serif" font-size="9.00">not referenced in concept model</text>
</a>
</g>
</g>
<!-- &lt;&lt; XXXXXXXX\nAnother concept referenced in model&#45;&gt;XXXXXXXX\nConcept included in diagram but\nnot referenced in concept model -->
<g id="edge54" class="edge">
<title>&lt;&lt; XXXXXXXX\nAnother concept referenced in model&#45;&gt;XXXXXXXX\nConcept included in diagram but\nnot referenced in concept model</title>
<path fill="none" stroke="black" d="M560.21,-687C560.21,-687 585.73,-687 585.73,-687"/>
<polygon fill="none" stroke="black" points="585.73,-690.5 595.73,-687 585.73,-683.5 585.73,-690.5"/>
</g>
<!-- Domain and range\nhierarchies\n\nNote: Filled arrows and diamonds\nindicate parent domains -->
<g id="node27" class="node">
<title>Domain and range\nhierarchies\n\nNote: Filled arrows and diamonds\nindicate parent domains</title>
<g id="a_node27"><a xlink:title=" ">
<polygon fill="white" stroke="black" stroke-width="0" points="986,-740 819,-740 819,-682 986,-682 986,-740"/>
<text text-anchor="middle" x="902.5" y="-728.8" font-family="Helvetica,sans-Serif" font-size="9.00">Domain and range</text>
<text text-anchor="middle" x="902.5" y="-718.8" font-family="Helvetica,sans-Serif" font-size="9.00">hierarchies</text>
<text text-anchor="middle" x="902.5" y="-698.8" font-family="Helvetica,sans-Serif" font-size="9.00">Note: Filled arrows and diamonds</text>
<text text-anchor="middle" x="902.5" y="-688.8" font-family="Helvetica,sans-Serif" font-size="9.00">indicate parent domains</text>
</a>
</g>
</g>
<!-- XXXXXXXX\nConcept included in diagram but\nnot referenced in concept model&#45;&gt;Domain and range\nhierarchies\n\nNote: Filled arrows and diamonds\nindicate parent domains -->
<!-- XXXXXXXX\nInactive domain,\nrange or attribute -->
<g id="node28" class="node">
<title>XXXXXXXX\nInactive domain,\nrange or attribute</title>
<g id="a_node28"><a xlink:title=" ">
<polygon fill="orange" stroke="black" points="218,-647 120,-647 120,-609 218,-609 218,-647"/>
<text text-anchor="middle" x="169" y="-635.8" font-family="Helvetica,sans-Serif" font-size="9.00">XXXXXXXX</text>
<text text-anchor="middle" x="169" y="-625.8" font-family="Helvetica,sans-Serif" font-size="9.00">Inactive domain,</text>
<text text-anchor="middle" x="169" y="-615.8" font-family="Helvetica,sans-Serif" font-size="9.00">range or attribute</text>
</a>
</g>
</g>
<!-- XXXXXXXX\nSub&#45;attribute name -->
<g id="node29" class="node">
<title>XXXXXXXX\nSub&#45;attribute name</title>
<g id="a_node29"><a xlink:title=" ">
<polygon fill="yellow" stroke="black" points="520,-646 414,-646 414,-610 520,-610 520,-646"/>
<polygon fill="none" stroke="black" points="524,-650 410,-650 410,-606 524,-606 524,-650"/>
<text text-anchor="middle" x="467" y="-630.8" font-family="Helvetica,sans-Serif" font-size="9.00">XXXXXXXX</text>
<text text-anchor="middle" x="467" y="-620.8" font-family="Helvetica,sans-Serif" font-size="9.00">Sub&#45;attribute name</text>
</a>
</g>
</g>
<!-- XXXXXXXX\nInactive domain,\nrange or attribute&#45;&gt;XXXXXXXX\nSub&#45;attribute name -->
<!-- XXXXXXXX\nSuper&#45;attribute name -->
<g id="node30" class="node">
<title>XXXXXXXX\nSuper&#45;attribute name</title>
<g id="a_node30"><a xlink:title=" ">
<polygon fill="#fffacd" stroke="black" points="736.5,-646 622.5,-646 622.5,-610 736.5,-610 736.5,-646"/>
<polygon fill="none" stroke="black" points="740.5,-650 618.5,-650 618.5,-606 740.5,-606 740.5,-650"/>
<text text-anchor="middle" x="679.5" y="-630.8" font-family="Helvetica,sans-Serif" font-size="9.00">XXXXXXXX</text>
<text text-anchor="middle" x="679.5" y="-620.8" font-family="Helvetica,sans-Serif" font-size="9.00">Super&#45;attribute name</text>
</a>
</g>
</g>
<!-- XXXXXXXX\nSub&#45;attribute name&#45;&gt;XXXXXXXX\nSuper&#45;attribute name -->
<g id="edge57" class="edge">
<title>XXXXXXXX\nSub&#45;attribute name&#45;&gt;XXXXXXXX\nSuper&#45;attribute name</title>
<path fill="none" stroke="black" d="M524.23,-628C524.23,-628 608.45,-628 608.45,-628"/>
<polygon fill="none" stroke="black" points="608.45,-631.5 618.45,-628 608.45,-624.5 608.45,-631.5"/>
</g>
<!-- Attribute hierarchies\n(full path to root not shown)\n\nNote: yellow indicates attribute range\ndiffers for different domains -->
<g id="node31" class="node">
<title>Attribute hierarchies\n(full path to root not shown)\n\nNote: yellow indicates attribute range\ndiffers for different domains</title>
<g id="a_node31"><a xlink:title=" ">
<polygon fill="white" stroke="black" stroke-width="0" points="996,-664 809,-664 809,-606 996,-606 996,-664"/>
<text text-anchor="middle" x="902.5" y="-652.8" font-family="Helvetica,sans-Serif" font-size="9.00">Attribute hierarchies</text>
<text text-anchor="middle" x="902.5" y="-642.8" font-family="Helvetica,sans-Serif" font-size="9.00">(full path to root not shown)</text>
<text text-anchor="middle" x="902.5" y="-622.8" font-family="Helvetica,sans-Serif" font-size="9.00">Note: yellow indicates attribute range</text>
<text text-anchor="middle" x="902.5" y="-612.8" font-family="Helvetica,sans-Serif" font-size="9.00">differs for different domains</text>
</a>
</g>
</g>
<!-- XXXXXXXX\nSuper&#45;attribute name&#45;&gt;Attribute hierarchies\n(full path to root not shown)\n\nNote: yellow indicates attribute range\ndiffers for different domains -->
</g>
</svg>
