<?xml version="1.0" encoding="UTF-8" standalone="no"?>
<!DOCTYPE svg PUBLIC "-//W3C//DTD SVG 1.1//EN"
 "http://www.w3.org/Graphics/SVG/1.1/DTD/svg11.dtd">
<!-- Generated by graphviz version 2.43.0 (0)
 -->
<!-- Title: RF2_MRCM Pages: 1 -->
<svg width="1438pt" height="929pt"
 viewBox="0.00 0.00 1438.00 929.00" xmlns="http://www.w3.org/2000/svg" xmlns:xlink="http://www.w3.org/1999/xlink">
<g id="graph0" class="graph" transform="scale(1 1) rotate(0) translate(4 925)">
<title>RF2_MRCM</title>
<polygon fill="white" stroke="transparent" points="-4,4 -4,-925 1434,-925 1434,4 -4,4"/>
<g id="clust1" class="cluster">
<title>cluster_key</title>
<polygon fill="white" stroke="black" points="39,-528 39,-913 943,-913 943,-528 39,-528"/>
<text text-anchor="middle" x="491" y="-899.4" font-family="Helvetica,sans-Serif" font-size="12.00">Key</text>
</g>
<!-- &lt;&lt; 105590001\nSubstance -->
<g id="node1" class="node">
<title>&lt;&lt; 105590001\nSubstance</title>
<g id="a_node1"><a xlink:href="http://snomed.info/id/105590001" xlink:title="&lt;&lt; 105590001 Substance&#10;&#10;IN DOMAIN OF:&#10;Has disposition&#10;Is modification of&#10;&#10;IN RANGE OF:&#10;Is modification of [1]&#10;Specimen substance [2]&#10;&#10;FROM DOMAINS:&#10;1. Substance&#10;2. Specimen&#10;">
<polygon fill="violet" stroke="black" points="640.5,-232 551.5,-232 551.5,-196 640.5,-196 640.5,-232"/>
<text text-anchor="middle" x="596" y="-216.8" font-family="Helvetica,sans-Serif" font-size="9.00">&lt;&lt; 105590001</text>
<text text-anchor="middle" x="596" y="-206.8" font-family="Helvetica,sans-Serif" font-size="9.00">Substance</text>
</a>
</g>
</g>
<!-- 726542003\nHas disposition -->
<g id="node2" class="node">
<title>726542003\nHas disposition</title>
<g id="a_node2"><a xlink:href="http://snomed.info/id/726542003" xlink:title="726542003 Has disposition&#10;&#10;This attribute specifies the behaviour that a substance will&#10;exhibit or participate in, given the appropriate context.&#10;&#10;DOMAIN:&#10;Substance&#10;&#10;RANGE:&#10;Disposition&#10;">
<polygon fill="#fffacd" stroke="black" points="873.5,-170 789.5,-170 789.5,-134 873.5,-134 873.5,-170"/>
<polygon fill="none" stroke="black" points="877.5,-174 785.5,-174 785.5,-130 877.5,-130 877.5,-174"/>
<text text-anchor="middle" x="831.5" y="-154.8" font-family="Helvetica,sans-Serif" font-size="9.00">726542003</text>
<text text-anchor="middle" x="831.5" y="-144.8" font-family="Helvetica,sans-Serif" font-size="9.00">Has disposition</text>
</a>
</g>
</g>
<!-- &lt;&lt; 105590001\nSubstance&#45;&gt;726542003\nHas disposition -->
<g id="edge1" class="edge">
<title>&lt;&lt; 105590001\nSubstance&#45;&gt;726542003\nHas disposition</title>
<g id="a_edge1"><a xlink:title="Substance &#45;&gt; Has disposition [0..*]">
<path fill="none" stroke="red" stroke-dasharray="5,2" d="M640.59,-205C664.46,-205 689,-205 689,-205 689,-205 689,-156 689,-156 689,-156 775.23,-156 775.23,-156"/>
<polygon fill="red" stroke="red" points="785.23,-156 775.23,-160.5 780.23,-156 775.23,-156 775.23,-156 775.23,-156 780.23,-156 775.23,-151.5 785.23,-156 785.23,-156"/>
</a>
</g>
</g>
<!-- 738774007\nIs modification of -->
<g id="node4" class="node">
<title>738774007\nIs modification of</title>
<g id="a_node4"><a xlink:href="http://snomed.info/id/738774007" xlink:title="738774007 Is modification of&#10;&#10;This attribute indicates that the concept is a structural&#10;modification of another concept.&#10;&#10;DOMAIN:&#10;Substance&#10;&#10;RANGE:&#10;Substance&#10;">
<polygon fill="#fffacd" stroke="black" points="879,-232 784,-232 784,-196 879,-196 879,-232"/>
<polygon fill="none" stroke="black" points="883,-236 780,-236 780,-192 883,-192 883,-236"/>
<text text-anchor="middle" x="831.5" y="-216.8" font-family="Helvetica,sans-Serif" font-size="9.00">738774007</text>
<text text-anchor="middle" x="831.5" y="-206.8" font-family="Helvetica,sans-Serif" font-size="9.00">Is modification of</text>
</a>
</g>
</g>
<!-- &lt;&lt; 105590001\nSubstance&#45;&gt;738774007\nIs modification of -->
<g id="edge3" class="edge">
<title>&lt;&lt; 105590001\nSubstance&#45;&gt;738774007\nIs modification of</title>
<g id="a_edge3"><a xlink:title="Substance &#45;&gt; Is modification of [0..*]">
<path fill="none" stroke="red" stroke-dasharray="5,2" d="M640.57,-214C640.57,-214 769.72,-214 769.72,-214"/>
<polygon fill="red" stroke="red" points="779.72,-214 769.72,-218.5 774.72,-214 769.72,-214 769.72,-214 769.72,-214 774.72,-214 769.72,-209.5 779.72,-214 779.72,-214"/>
</a>
</g>
</g>
<!-- 138875005\nSNOMED CT Concept -->
<g id="node21" class="node">
<title>138875005\nSNOMED CT Concept</title>
<g id="a_node21"><a xlink:title=" ">
<polygon fill="palegreen" stroke="black" points="1430,-226 1319,-226 1319,-190 1430,-190 1430,-226"/>
<text text-anchor="middle" x="1374.5" y="-210.8" font-family="Helvetica,sans-Serif" font-size="9.00">138875005</text>
<text text-anchor="middle" x="1374.5" y="-200.8" font-family="Helvetica,sans-Serif" font-size="9.00">SNOMED CT Concept</text>
</a>
</g>
</g>
<!-- &lt;&lt; 105590001\nSubstance&#45;&gt;138875005\nSNOMED CT Concept -->
<g id="edge36" class="edge">
<title>&lt;&lt; 105590001\nSubstance&#45;&gt;138875005\nSNOMED CT Concept</title>
<g id="a_edge36"><a xlink:title="Substance is_a SNOMED CT Concept">
<path fill="none" stroke="black" d="M596,-195.68C596,-188.75 596,-182.5 596,-182.5 596,-182.5 1347,-182.5 1347,-182.5 1347,-182.5 1347,-183.22 1347,-183.22"/>
<polygon fill="none" stroke="black" points="1343.5,-179.74 1347,-189.74 1350.5,-179.74 1343.5,-179.74"/>
</a>
</g>
</g>
<!-- &lt;&lt; 726711005\nDisposition -->
<g id="node3" class="node">
<title>&lt;&lt; 726711005\nDisposition</title>
<g id="a_node3"><a xlink:href="http://snomed.info/id/726711005" xlink:title="&lt;&lt; 726711005 Disposition&#10;&#10;IN RANGE OF:&#10;Has disposition&#10;&#10;FROM DOMAIN:&#10;Substance&#10;">
<polygon fill="#bfefff" stroke="black" points="1060,-171 971,-171 971,-135 1060,-135 1060,-171"/>
<text text-anchor="middle" x="1015.5" y="-155.8" font-family="Helvetica,sans-Serif" font-size="9.00">&lt;&lt; 726711005</text>
<text text-anchor="middle" x="1015.5" y="-145.8" font-family="Helvetica,sans-Serif" font-size="9.00">Disposition</text>
</a>
</g>
</g>
<!-- 726542003\nHas disposition&#45;&gt;&lt;&lt; 726711005\nDisposition -->
<g id="edge2" class="edge">
<title>726542003\nHas disposition&#45;&gt;&lt;&lt; 726711005\nDisposition</title>
<g id="a_edge2"><a xlink:title="Has disposition &#45;&gt; Disposition">
<path fill="none" stroke="blue" stroke-dasharray="5,2" d="M877.93,-153C877.93,-153 960.99,-153 960.99,-153"/>
<polygon fill="blue" stroke="blue" points="970.99,-153 960.99,-157.5 965.99,-153 960.99,-153 960.99,-153 960.99,-153 965.99,-153 960.99,-148.5 970.99,-153 970.99,-153"/>
</a>
</g>
</g>
<!-- 362981000\nQualifier value -->
<g id="node23" class="node">
<title>362981000\nQualifier value</title>
<g id="a_node23"><a xlink:title=" ">
<polygon fill="palegreen" stroke="black" points="1230,-175 1149,-175 1149,-139 1230,-139 1230,-175"/>
<text text-anchor="middle" x="1189.5" y="-159.8" font-family="Helvetica,sans-Serif" font-size="9.00">362981000</text>
<text text-anchor="middle" x="1189.5" y="-149.8" font-family="Helvetica,sans-Serif" font-size="9.00">Qualifier value</text>
</a>
</g>
</g>
<!-- &lt;&lt; 726711005\nDisposition&#45;&gt;362981000\nQualifier value -->
<g id="edge29" class="edge">
<title>&lt;&lt; 726711005\nDisposition&#45;&gt;362981000\nQualifier value</title>
<g id="a_edge29"><a xlink:title="Disposition is_a Qualifier value">
<path fill="none" stroke="black" d="M1060.31,-155C1060.31,-155 1138.71,-155 1138.71,-155"/>
<polygon fill="none" stroke="black" points="1138.71,-158.5 1148.71,-155 1138.71,-151.5 1138.71,-158.5"/>
</a>
</g>
</g>
<!-- 738774007\nIs modification of&#45;&gt;&lt;&lt; 105590001\nSubstance -->
<g id="edge4" class="edge">
<title>738774007\nIs modification of&#45;&gt;&lt;&lt; 105590001\nSubstance</title>
<g id="a_edge4"><a xlink:title="Is modification of &#45;&gt; Substance">
<path fill="none" stroke="blue" stroke-dasharray="5,2" d="M779.82,-223C779.82,-223 650.82,-223 650.82,-223"/>
<polygon fill="blue" stroke="blue" points="640.82,-223 650.82,-218.5 645.82,-223 650.82,-223 650.82,-223 650.82,-223 645.82,-223 650.82,-227.5 640.82,-223 640.82,-223"/>
</a>
</g>
</g>
<!-- &lt;&lt; 123038009\nSpecimen -->
<g id="node5" class="node">
<title>&lt;&lt; 123038009\nSpecimen</title>
<g id="a_node5"><a xlink:href="http://snomed.info/id/123038009" xlink:title="&lt;&lt; 123038009 Specimen&#10;&#10;Material (structure, substance, device) removed from a&#10;source (patient, donor, physical location, product)&#10;&#10;IN DOMAIN OF:&#10;Specimen procedure&#10;Specimen source identity&#10;Specimen source morphology&#10;Specimen source topography&#10;Specimen substance&#10;">
<polygon fill="lightpink" stroke="black" points="165.5,-271 76.5,-271 76.5,-235 165.5,-235 165.5,-271"/>
<text text-anchor="middle" x="121" y="-255.8" font-family="Helvetica,sans-Serif" font-size="9.00">&lt;&lt; 123038009</text>
<text text-anchor="middle" x="121" y="-245.8" font-family="Helvetica,sans-Serif" font-size="9.00">Specimen</text>
</a>
</g>
</g>
<!-- 118168003\nSpecimen source morphology -->
<g id="node6" class="node">
<title>118168003\nSpecimen source morphology</title>
<g id="a_node6"><a xlink:href="http://snomed.info/id/118168003" xlink:title="118168003 Specimen source morphology&#10;&#10;DOMAIN:&#10;Specimen&#10;&#10;RANGE:&#10;Morphologically abnormal structure&#10;">
<polygon fill="#fffacd" stroke="black" points="447,-166 295,-166 295,-130 447,-130 447,-166"/>
<polygon fill="none" stroke="black" points="451,-170 291,-170 291,-126 451,-126 451,-170"/>
<text text-anchor="middle" x="371" y="-150.8" font-family="Helvetica,sans-Serif" font-size="9.00">118168003</text>
<text text-anchor="middle" x="371" y="-140.8" font-family="Helvetica,sans-Serif" font-size="9.00">Specimen source morphology</text>
</a>
</g>
</g>
<!-- &lt;&lt; 123038009\nSpecimen&#45;&gt;118168003\nSpecimen source morphology -->
<g id="edge5" class="edge">
<title>&lt;&lt; 123038009\nSpecimen&#45;&gt;118168003\nSpecimen source morphology</title>
<g id="a_edge5"><a xlink:title="Specimen &#45;&gt; Specimen source morphology [0..1]">
<path fill="none" stroke="red" d="M165.74,-248C219.34,-248 302,-248 302,-248 302,-248 302,-180.19 302,-180.19"/>
<polygon fill="red" stroke="red" points="302,-170.19 306.5,-180.19 302,-175.19 302,-180.19 302,-180.19 302,-180.19 302,-175.19 297.5,-180.19 302,-170.19 302,-170.19"/>
</a>
</g>
</g>
<!-- 118169006\nSpecimen source topography -->
<g id="node8" class="node">
<title>118169006\nSpecimen source topography</title>
<g id="a_node8"><a xlink:href="http://snomed.info/id/118169006" xlink:title="118169006 Specimen source topography&#10;&#10;DOMAIN:&#10;Specimen&#10;&#10;RANGE:&#10;Anatomical or acquired body structure&#10;">
<polygon fill="#fffacd" stroke="black" points="446,-85 296,-85 296,-49 446,-49 446,-85"/>
<polygon fill="none" stroke="black" points="450,-89 292,-89 292,-45 450,-45 450,-89"/>
<text text-anchor="middle" x="371" y="-69.8" font-family="Helvetica,sans-Serif" font-size="9.00">118169006</text>
<text text-anchor="middle" x="371" y="-59.8" font-family="Helvetica,sans-Serif" font-size="9.00">Specimen source topography</text>
</a>
</g>
</g>
<!-- &lt;&lt; 123038009\nSpecimen&#45;&gt;118169006\nSpecimen source topography -->
<g id="edge7" class="edge">
<title>&lt;&lt; 123038009\nSpecimen&#45;&gt;118169006\nSpecimen source topography</title>
<g id="a_edge7"><a xlink:title="Specimen &#45;&gt; Specimen source topography [0..1]">
<path fill="none" stroke="red" d="M107,-234.83C107,-188.02 107,-67 107,-67 107,-67 281.79,-67 281.79,-67"/>
<polygon fill="red" stroke="red" points="291.79,-67 281.79,-71.5 286.79,-67 281.79,-67 281.79,-67 281.79,-67 286.79,-67 281.79,-62.5 291.79,-67 291.79,-67"/>
</a>
</g>
</g>
<!-- 118170007\nSpecimen source identity -->
<g id="node10" class="node">
<title>118170007\nSpecimen source identity</title>
<g id="a_node10"><a xlink:href="http://snomed.info/id/118170007" xlink:title="118170007 Specimen source identity&#10;&#10;DOMAIN:&#10;Specimen&#10;&#10;RANGES:&#10;Community&#10;Environment&#10;Family&#10;Person&#10;Physical object&#10;">
<polygon fill="#fffacd" stroke="black" points="897.5,-372 765.5,-372 765.5,-336 897.5,-336 897.5,-372"/>
<polygon fill="none" stroke="black" points="901.5,-376 761.5,-376 761.5,-332 901.5,-332 901.5,-376"/>
<text text-anchor="middle" x="831.5" y="-356.8" font-family="Helvetica,sans-Serif" font-size="9.00">118170007</text>
<text text-anchor="middle" x="831.5" y="-346.8" font-family="Helvetica,sans-Serif" font-size="9.00">Specimen source identity</text>
</a>
</g>
</g>
<!-- &lt;&lt; 123038009\nSpecimen&#45;&gt;118170007\nSpecimen source identity -->
<g id="edge9" class="edge">
<title>&lt;&lt; 123038009\nSpecimen&#45;&gt;118170007\nSpecimen source identity</title>
<g id="a_edge9"><a xlink:title="Specimen &#45;&gt; Specimen source identity [0..1]">
<path fill="none" stroke="red" d="M165.68,-262C312.53,-262 771,-262 771,-262 771,-262 771,-321.73 771,-321.73"/>
<polygon fill="red" stroke="red" points="771,-331.73 766.5,-321.73 771,-326.73 771,-321.73 771,-321.73 771,-321.73 771,-326.73 775.5,-321.73 771,-331.73 771,-331.73"/>
</a>
</g>
</g>
<!-- 118171006\nSpecimen procedure -->
<g id="node16" class="node">
<title>118171006\nSpecimen procedure</title>
<g id="a_node16"><a xlink:href="http://snomed.info/id/118171006" xlink:title="118171006 Specimen procedure&#10;&#10;DOMAIN:&#10;Specimen&#10;&#10;RANGE:&#10;Procedure&#10;">
<polygon fill="#fffacd" stroke="black" points="426.5,-309 315.5,-309 315.5,-273 426.5,-273 426.5,-309"/>
<polygon fill="none" stroke="black" points="430.5,-313 311.5,-313 311.5,-269 430.5,-269 430.5,-313"/>
<text text-anchor="middle" x="371" y="-293.8" font-family="Helvetica,sans-Serif" font-size="9.00">118171006</text>
<text text-anchor="middle" x="371" y="-283.8" font-family="Helvetica,sans-Serif" font-size="9.00">Specimen procedure</text>
</a>
</g>
</g>
<!-- &lt;&lt; 123038009\nSpecimen&#45;&gt;118171006\nSpecimen procedure -->
<g id="edge15" class="edge">
<title>&lt;&lt; 123038009\nSpecimen&#45;&gt;118171006\nSpecimen procedure</title>
<g id="a_edge15"><a xlink:title="Specimen &#45;&gt; Specimen procedure [0..1]">
<path fill="none" stroke="red" d="M121,-271.17C121,-279.9 121,-288.5 121,-288.5 121,-288.5 301.44,-288.5 301.44,-288.5"/>
<polygon fill="red" stroke="red" points="311.44,-288.5 301.44,-293 306.44,-288.5 301.44,-288.5 301.44,-288.5 301.44,-288.5 306.44,-288.5 301.44,-284 311.44,-288.5 311.44,-288.5"/>
</a>
</g>
</g>
<!-- 370133003\nSpecimen substance -->
<g id="node18" class="node">
<title>370133003\nSpecimen substance</title>
<g id="a_node18"><a xlink:href="http://snomed.info/id/370133003" xlink:title="370133003 Specimen substance&#10;&#10;DOMAIN:&#10;Specimen&#10;&#10;RANGES:&#10;Pharmaceutical / biologic product&#10;Physical object&#10;Substance&#10;">
<polygon fill="#fffacd" stroke="black" points="426.5,-237 315.5,-237 315.5,-201 426.5,-201 426.5,-237"/>
<polygon fill="none" stroke="black" points="430.5,-241 311.5,-241 311.5,-197 430.5,-197 430.5,-241"/>
<text text-anchor="middle" x="371" y="-221.8" font-family="Helvetica,sans-Serif" font-size="9.00">370133003</text>
<text text-anchor="middle" x="371" y="-211.8" font-family="Helvetica,sans-Serif" font-size="9.00">Specimen substance</text>
</a>
</g>
</g>
<!-- &lt;&lt; 123038009\nSpecimen&#45;&gt;370133003\nSpecimen substance -->
<g id="edge17" class="edge">
<title>&lt;&lt; 123038009\nSpecimen&#45;&gt;370133003\nSpecimen substance</title>
<g id="a_edge17"><a xlink:title="Specimen &#45;&gt; Specimen substance [0..1]">
<path fill="none" stroke="red" d="M136,-234.93C136,-225.54 136,-216 136,-216 136,-216 301.4,-216 301.4,-216"/>
<polygon fill="red" stroke="red" points="311.4,-216 301.4,-220.5 306.4,-216 301.4,-216 301.4,-216 301.4,-216 306.4,-216 301.4,-211.5 311.4,-216 311.4,-216"/>
</a>
</g>
</g>
<!-- &lt;&lt; 123038009\nSpecimen&#45;&gt;138875005\nSNOMED CT Concept -->
<g id="edge35" class="edge">
<title>&lt;&lt; 123038009\nSpecimen&#45;&gt;138875005\nSNOMED CT Concept</title>
<g id="a_edge35"><a xlink:title="Specimen is_a SNOMED CT Concept">
<path fill="none" stroke="black" d="M165.72,-255C386.22,-255 1347,-255 1347,-255 1347,-255 1347,-236.04 1347,-236.04"/>
<polygon fill="none" stroke="black" points="1350.5,-236.04 1347,-226.04 1343.5,-236.04 1350.5,-236.04"/>
</a>
</g>
</g>
<!-- &lt;&lt; 49755003\nMorphologically abnormal structure -->
<g id="node7" class="node">
<title>&lt;&lt; 49755003\nMorphologically abnormal structure</title>
<g id="a_node7"><a xlink:href="http://snomed.info/id/49755003" xlink:title="&lt;&lt; 49755003 Morphologically abnormal structure&#10;&#10;IN RANGE OF:&#10;Specimen source morphology&#10;&#10;FROM DOMAIN:&#10;Specimen&#10;">
<polygon fill="#bfefff" stroke="black" points="684.5,-112 507.5,-112 507.5,-76 684.5,-76 684.5,-112"/>
<text text-anchor="middle" x="596" y="-96.8" font-family="Helvetica,sans-Serif" font-size="9.00">&lt;&lt; 49755003</text>
<text text-anchor="middle" x="596" y="-86.8" font-family="Helvetica,sans-Serif" font-size="9.00">Morphologically abnormal structure</text>
</a>
</g>
</g>
<!-- 118168003\nSpecimen source morphology&#45;&gt;&lt;&lt; 49755003\nMorphologically abnormal structure -->
<g id="edge6" class="edge">
<title>118168003\nSpecimen source morphology&#45;&gt;&lt;&lt; 49755003\nMorphologically abnormal structure</title>
<g id="a_edge6"><a xlink:title="Specimen source morphology &#45;&gt; Morphologically abnormal structure">
<path fill="none" stroke="blue" d="M371,-125.92C371,-113.51 371,-100.5 371,-100.5 371,-100.5 497.4,-100.5 497.4,-100.5"/>
<polygon fill="blue" stroke="blue" points="507.4,-100.5 497.4,-105 502.4,-100.5 497.4,-100.5 497.4,-100.5 497.4,-100.5 502.4,-100.5 497.4,-96 507.4,-100.5 507.4,-100.5"/>
</a>
</g>
</g>
<!-- 123037004\nBody structure -->
<g id="node20" class="node">
<title>123037004\nBody structure</title>
<g id="a_node20"><a xlink:title=" ">
<polygon fill="palegreen" stroke="black" points="873.5,-36 789.5,-36 789.5,0 873.5,0 873.5,-36"/>
<text text-anchor="middle" x="831.5" y="-20.8" font-family="Helvetica,sans-Serif" font-size="9.00">123037004</text>
<text text-anchor="middle" x="831.5" y="-10.8" font-family="Helvetica,sans-Serif" font-size="9.00">Body structure</text>
</a>
</g>
</g>
<!-- &lt;&lt; 49755003\nMorphologically abnormal structure&#45;&gt;123037004\nBody structure -->
<g id="edge22" class="edge">
<title>&lt;&lt; 49755003\nMorphologically abnormal structure&#45;&gt;123037004\nBody structure</title>
<g id="a_edge22"><a xlink:title="Morphologically abnormal structure is_a Body structure">
<path fill="none" stroke="black" d="M684.55,-94C751.52,-94 832,-94 832,-94 832,-94 832,-46.01 832,-46.01"/>
<polygon fill="none" stroke="black" points="835.5,-46.01 832,-36.01 828.5,-46.01 835.5,-46.01"/>
</a>
</g>
</g>
<!-- &lt;&lt; 442083009\nAnatomical or acquired body structure -->
<g id="node9" class="node">
<title>&lt;&lt; 442083009\nAnatomical or acquired body structure</title>
<g id="a_node9"><a xlink:href="http://snomed.info/id/442083009" xlink:title="&lt;&lt; 442083009 Anatomical or acquired body structure&#10;&#10;IN RANGE OF:&#10;Specimen source topography&#10;&#10;FROM DOMAIN:&#10;Specimen&#10;">
<polygon fill="#bfefff" stroke="black" points="692,-41 500,-41 500,-5 692,-5 692,-41"/>
<text text-anchor="middle" x="596" y="-25.8" font-family="Helvetica,sans-Serif" font-size="9.00">&lt;&lt; 442083009</text>
<text text-anchor="middle" x="596" y="-15.8" font-family="Helvetica,sans-Serif" font-size="9.00">Anatomical or acquired body structure</text>
</a>
</g>
</g>
<!-- 118169006\nSpecimen source topography&#45;&gt;&lt;&lt; 442083009\nAnatomical or acquired body structure -->
<g id="edge8" class="edge">
<title>118169006\nSpecimen source topography&#45;&gt;&lt;&lt; 442083009\nAnatomical or acquired body structure</title>
<g id="a_edge8"><a xlink:title="Specimen source topography &#45;&gt; Anatomical or acquired body structure">
<path fill="none" stroke="blue" d="M450.29,-60.5C478.77,-60.5 504,-60.5 504,-60.5 504,-60.5 504,-51.31 504,-51.31"/>
<polygon fill="blue" stroke="blue" points="504,-41.31 508.5,-51.31 504,-46.31 504,-51.31 504,-51.31 504,-51.31 504,-46.31 499.5,-51.31 504,-41.31 504,-41.31"/>
</a>
</g>
</g>
<!-- &lt;&lt; 442083009\nAnatomical or acquired body structure&#45;&gt;123037004\nBody structure -->
<g id="edge21" class="edge">
<title>&lt;&lt; 442083009\nAnatomical or acquired body structure&#45;&gt;123037004\nBody structure</title>
<g id="a_edge21"><a xlink:title="Anatomical or acquired body structure is_a Body structure">
<path fill="none" stroke="black" d="M692.13,-20.5C692.13,-20.5 779.32,-20.5 779.32,-20.5"/>
<polygon fill="none" stroke="black" points="779.32,-24 789.32,-20.5 779.32,-17 779.32,-24"/>
</a>
</g>
</g>
<!-- &lt;&lt; 125676002\nPerson -->
<g id="node11" class="node">
<title>&lt;&lt; 125676002\nPerson</title>
<g id="a_node11"><a xlink:href="http://snomed.info/id/125676002" xlink:title="&lt;&lt; 125676002 Person&#10;&#10;IN RANGE OF:&#10;Specimen source identity&#10;&#10;FROM DOMAIN:&#10;Specimen&#10;">
<polygon fill="#bfefff" stroke="black" points="1060,-480 971,-480 971,-444 1060,-444 1060,-480"/>
<text text-anchor="middle" x="1015.5" y="-464.8" font-family="Helvetica,sans-Serif" font-size="9.00">&lt;&lt; 125676002</text>
<text text-anchor="middle" x="1015.5" y="-454.8" font-family="Helvetica,sans-Serif" font-size="9.00">Person</text>
</a>
</g>
</g>
<!-- 118170007\nSpecimen source identity&#45;&gt;&lt;&lt; 125676002\nPerson -->
<g id="edge10" class="edge">
<title>118170007\nSpecimen source identity&#45;&gt;&lt;&lt; 125676002\nPerson</title>
<g id="a_edge10"><a xlink:title="Specimen source identity &#45;&gt; Person">
<path fill="none" stroke="blue" d="M809,-376.12C809,-407.71 809,-462 809,-462 809,-462 960.95,-462 960.95,-462"/>
<polygon fill="blue" stroke="blue" points="970.95,-462 960.95,-466.5 965.95,-462 960.95,-462 960.95,-462 960.95,-462 965.95,-462 960.95,-457.5 970.95,-462 970.95,-462"/>
</a>
</g>
</g>
<!-- &lt;&lt; 133928008\nCommunity -->
<g id="node12" class="node">
<title>&lt;&lt; 133928008\nCommunity</title>
<g id="a_node12"><a xlink:href="http://snomed.info/id/133928008" xlink:title="&lt;&lt; 133928008 Community&#10;&#10;IN RANGE OF:&#10;Specimen source identity&#10;&#10;FROM DOMAIN:&#10;Specimen&#10;">
<polygon fill="#bfefff" stroke="black" points="1060,-426 971,-426 971,-390 1060,-390 1060,-426"/>
<text text-anchor="middle" x="1015.5" y="-410.8" font-family="Helvetica,sans-Serif" font-size="9.00">&lt;&lt; 133928008</text>
<text text-anchor="middle" x="1015.5" y="-400.8" font-family="Helvetica,sans-Serif" font-size="9.00">Community</text>
</a>
</g>
</g>
<!-- 118170007\nSpecimen source identity&#45;&gt;&lt;&lt; 133928008\nCommunity -->
<g id="edge11" class="edge">
<title>118170007\nSpecimen source identity&#45;&gt;&lt;&lt; 133928008\nCommunity</title>
<g id="a_edge11"><a xlink:title="Specimen source identity &#45;&gt; Community">
<path fill="none" stroke="blue" d="M855,-376.28C855,-391.15 855,-408 855,-408 855,-408 960.79,-408 960.79,-408"/>
<polygon fill="blue" stroke="blue" points="970.79,-408 960.79,-412.5 965.79,-408 960.79,-408 960.79,-408 960.79,-408 965.79,-408 960.79,-403.5 970.79,-408 970.79,-408"/>
</a>
</g>
</g>
<!-- &lt;&lt; 260787004\nPhysical object -->
<g id="node13" class="node">
<title>&lt;&lt; 260787004\nPhysical object</title>
<g id="a_node13"><a xlink:href="http://snomed.info/id/260787004" xlink:title="&lt;&lt; 260787004 Physical object&#10;&#10;IN RANGE OF:&#10;Specimen source identity&#10;Specimen substance&#10;&#10;FROM DOMAIN:&#10;Specimen&#10;">
<polygon fill="#bfefff" stroke="black" points="1060,-226 971,-226 971,-190 1060,-190 1060,-226"/>
<text text-anchor="middle" x="1015.5" y="-210.8" font-family="Helvetica,sans-Serif" font-size="9.00">&lt;&lt; 260787004</text>
<text text-anchor="middle" x="1015.5" y="-200.8" font-family="Helvetica,sans-Serif" font-size="9.00">Physical object</text>
</a>
</g>
</g>
<!-- 118170007\nSpecimen source identity&#45;&gt;&lt;&lt; 260787004\nPhysical object -->
<g id="edge12" class="edge">
<title>118170007\nSpecimen source identity&#45;&gt;&lt;&lt; 260787004\nPhysical object</title>
<g id="a_edge12"><a xlink:title="Specimen source identity &#45;&gt; Physical object">
<path fill="none" stroke="blue" d="M890,-331.98C890,-291.41 890,-209 890,-209 890,-209 960.9,-209 960.9,-209"/>
<polygon fill="blue" stroke="blue" points="970.9,-209 960.9,-213.5 965.9,-209 960.9,-209 960.9,-209 960.9,-209 965.9,-209 960.9,-204.5 970.9,-209 970.9,-209"/>
</a>
</g>
</g>
<!-- &lt;&lt; 276339004\nEnvironment -->
<g id="node14" class="node">
<title>&lt;&lt; 276339004\nEnvironment</title>
<g id="a_node14"><a xlink:href="http://snomed.info/id/276339004" xlink:title="&lt;&lt; 276339004 Environment&#10;&#10;IN RANGE OF:&#10;Specimen source identity&#10;&#10;FROM DOMAIN:&#10;Specimen&#10;">
<polygon fill="#bfefff" stroke="black" points="1060,-318 971,-318 971,-282 1060,-282 1060,-318"/>
<text text-anchor="middle" x="1015.5" y="-302.8" font-family="Helvetica,sans-Serif" font-size="9.00">&lt;&lt; 276339004</text>
<text text-anchor="middle" x="1015.5" y="-292.8" font-family="Helvetica,sans-Serif" font-size="9.00">Environment</text>
</a>
</g>
</g>
<!-- 118170007\nSpecimen source identity&#45;&gt;&lt;&lt; 276339004\nEnvironment -->
<g id="edge13" class="edge">
<title>118170007\nSpecimen source identity&#45;&gt;&lt;&lt; 276339004\nEnvironment</title>
<g id="a_edge13"><a xlink:title="Specimen source identity &#45;&gt; Environment">
<path fill="none" stroke="blue" d="M896,-331.92C896,-318.53 896,-304 896,-304 896,-304 960.66,-304 960.66,-304"/>
<polygon fill="blue" stroke="blue" points="970.66,-304 960.66,-308.5 965.66,-304 960.66,-304 960.66,-304 960.66,-304 965.66,-304 960.66,-299.5 970.66,-304 970.66,-304"/>
</a>
</g>
</g>
<!-- &lt;&lt; 35359004\nFamily -->
<g id="node15" class="node">
<title>&lt;&lt; 35359004\nFamily</title>
<g id="a_node15"><a xlink:href="http://snomed.info/id/35359004" xlink:title="&lt;&lt; 35359004 Family&#10;&#10;IN RANGE OF:&#10;Specimen source identity&#10;&#10;FROM DOMAIN:&#10;Specimen&#10;">
<polygon fill="#bfefff" stroke="black" points="1057,-372 974,-372 974,-336 1057,-336 1057,-372"/>
<text text-anchor="middle" x="1015.5" y="-356.8" font-family="Helvetica,sans-Serif" font-size="9.00">&lt;&lt; 35359004</text>
<text text-anchor="middle" x="1015.5" y="-346.8" font-family="Helvetica,sans-Serif" font-size="9.00">Family</text>
</a>
</g>
</g>
<!-- 118170007\nSpecimen source identity&#45;&gt;&lt;&lt; 35359004\nFamily -->
<g id="edge14" class="edge">
<title>118170007\nSpecimen source identity&#45;&gt;&lt;&lt; 35359004\nFamily</title>
<g id="a_edge14"><a xlink:title="Specimen source identity &#45;&gt; Family">
<path fill="none" stroke="blue" d="M901.59,-354C901.59,-354 963.85,-354 963.85,-354"/>
<polygon fill="blue" stroke="blue" points="973.85,-354 963.85,-358.5 968.85,-354 963.85,-354 963.85,-354 963.85,-354 968.85,-354 963.85,-349.5 973.85,-354 973.85,-354"/>
</a>
</g>
</g>
<!-- 48176007\nSocial context -->
<g id="node24" class="node">
<title>48176007\nSocial context</title>
<g id="a_node24"><a xlink:title=" ">
<polygon fill="palegreen" stroke="black" points="1229.5,-399 1149.5,-399 1149.5,-363 1229.5,-363 1229.5,-399"/>
<text text-anchor="middle" x="1189.5" y="-383.8" font-family="Helvetica,sans-Serif" font-size="9.00">48176007</text>
<text text-anchor="middle" x="1189.5" y="-373.8" font-family="Helvetica,sans-Serif" font-size="9.00">Social context</text>
</a>
</g>
</g>
<!-- &lt;&lt; 125676002\nPerson&#45;&gt;48176007\nSocial context -->
<g id="edge31" class="edge">
<title>&lt;&lt; 125676002\nPerson&#45;&gt;48176007\nSocial context</title>
<g id="a_edge31"><a xlink:title="Person is_a Social context">
<path fill="none" stroke="black" d="M1060.44,-462C1112.14,-462 1190,-462 1190,-462 1190,-462 1190,-409.38 1190,-409.38"/>
<polygon fill="none" stroke="black" points="1193.5,-409.38 1190,-399.38 1186.5,-409.38 1193.5,-409.38"/>
</a>
</g>
</g>
<!-- &lt;&lt; 133928008\nCommunity&#45;&gt;48176007\nSocial context -->
<g id="edge32" class="edge">
<title>&lt;&lt; 133928008\nCommunity&#45;&gt;48176007\nSocial context</title>
<g id="a_edge32"><a xlink:title="Community is_a Social context">
<path fill="none" stroke="black" d="M1060.31,-394.5C1060.31,-394.5 1139.3,-394.5 1139.3,-394.5"/>
<polygon fill="none" stroke="black" points="1139.3,-398 1149.3,-394.5 1139.3,-391 1139.3,-398"/>
</a>
</g>
</g>
<!-- &lt;&lt; 260787004\nPhysical object&#45;&gt;138875005\nSNOMED CT Concept -->
<g id="edge27" class="edge">
<title>&lt;&lt; 260787004\nPhysical object&#45;&gt;138875005\nSNOMED CT Concept</title>
<g id="a_edge27"><a xlink:title="Physical object is_a SNOMED CT Concept">
<path fill="none" stroke="black" d="M1060.24,-208C1060.24,-208 1308.87,-208 1308.87,-208"/>
<polygon fill="none" stroke="black" points="1308.87,-211.5 1318.87,-208 1308.87,-204.5 1308.87,-211.5"/>
</a>
</g>
</g>
<!-- 308916002\nEnvironment or geographical location -->
<g id="node22" class="node">
<title>308916002\nEnvironment or geographical location</title>
<g id="a_node22"><a xlink:title=" ">
<polygon fill="palegreen" stroke="black" points="1283,-318 1096,-318 1096,-282 1283,-282 1283,-318"/>
<text text-anchor="middle" x="1189.5" y="-302.8" font-family="Helvetica,sans-Serif" font-size="9.00">308916002</text>
<text text-anchor="middle" x="1189.5" y="-292.8" font-family="Helvetica,sans-Serif" font-size="9.00">Environment or geographical location</text>
</a>
</g>
</g>
<!-- &lt;&lt; 276339004\nEnvironment&#45;&gt;308916002\nEnvironment or geographical location -->
<g id="edge24" class="edge">
<title>&lt;&lt; 276339004\nEnvironment&#45;&gt;308916002\nEnvironment or geographical location</title>
<g id="a_edge24"><a xlink:title="Environment is_a Environment or geographical location">
<path fill="none" stroke="black" d="M1060.31,-300C1060.31,-300 1085.78,-300 1085.78,-300"/>
<polygon fill="none" stroke="black" points="1085.78,-303.5 1095.78,-300 1085.78,-296.5 1085.78,-303.5"/>
</a>
</g>
</g>
<!-- &lt;&lt; 35359004\nFamily&#45;&gt;48176007\nSocial context -->
<g id="edge33" class="edge">
<title>&lt;&lt; 35359004\nFamily&#45;&gt;48176007\nSocial context</title>
<g id="a_edge33"><a xlink:title="Family is_a Social context">
<path fill="none" stroke="black" d="M1057.18,-367.5C1057.18,-367.5 1139.36,-367.5 1139.36,-367.5"/>
<polygon fill="none" stroke="black" points="1139.36,-371 1149.36,-367.5 1139.36,-364 1139.36,-371"/>
</a>
</g>
</g>
<!-- &lt;&lt; 71388002\nProcedure -->
<g id="node17" class="node">
<title>&lt;&lt; 71388002\nProcedure</title>
<g id="a_node17"><a xlink:href="http://snomed.info/id/71388002" xlink:title="&lt;&lt; 71388002 Procedure&#10;&#10;IN RANGE OF:&#10;Specimen procedure&#10;&#10;FROM DOMAIN:&#10;Specimen&#10;">
<polygon fill="#bfefff" stroke="black" points="637.5,-326 554.5,-326 554.5,-290 637.5,-290 637.5,-326"/>
<text text-anchor="middle" x="596" y="-310.8" font-family="Helvetica,sans-Serif" font-size="9.00">&lt;&lt; 71388002</text>
<text text-anchor="middle" x="596" y="-300.8" font-family="Helvetica,sans-Serif" font-size="9.00">Procedure</text>
</a>
</g>
</g>
<!-- 118171006\nSpecimen procedure&#45;&gt;&lt;&lt; 71388002\nProcedure -->
<g id="edge16" class="edge">
<title>118171006\nSpecimen procedure&#45;&gt;&lt;&lt; 71388002\nProcedure</title>
<g id="a_edge16"><a xlink:title="Specimen procedure &#45;&gt; Procedure">
<path fill="none" stroke="blue" d="M430.71,-301.5C430.71,-301.5 544.19,-301.5 544.19,-301.5"/>
<polygon fill="blue" stroke="blue" points="554.19,-301.5 544.19,-306 549.19,-301.5 544.19,-301.5 544.19,-301.5 544.19,-301.5 549.19,-301.5 544.19,-297 554.19,-301.5 554.19,-301.5"/>
</a>
</g>
</g>
<!-- &lt;&lt; 71388002\nProcedure&#45;&gt;138875005\nSNOMED CT Concept -->
<g id="edge28" class="edge">
<title>&lt;&lt; 71388002\nProcedure&#45;&gt;138875005\nSNOMED CT Concept</title>
<g id="a_edge28"><a xlink:title="Procedure is_a SNOMED CT Concept">
<path fill="none" stroke="black" d="M637.61,-322C799.03,-322 1375,-322 1375,-322 1375,-322 1375,-236.06 1375,-236.06"/>
<polygon fill="none" stroke="black" points="1378.5,-236.06 1375,-226.06 1371.5,-236.06 1378.5,-236.06"/>
</a>
</g>
</g>
<!-- 370133003\nSpecimen substance&#45;&gt;&lt;&lt; 105590001\nSubstance -->
<g id="edge18" class="edge">
<title>370133003\nSpecimen substance&#45;&gt;&lt;&lt; 105590001\nSubstance</title>
<g id="a_edge18"><a xlink:title="Specimen substance &#45;&gt; Substance">
<path fill="none" stroke="blue" d="M430.71,-220.33C430.71,-220.33 541.37,-220.33 541.37,-220.33"/>
<polygon fill="blue" stroke="blue" points="551.37,-220.33 541.37,-224.83 546.37,-220.33 541.37,-220.33 541.37,-220.33 541.37,-220.33 546.37,-220.33 541.37,-215.83 551.37,-220.33 551.37,-220.33"/>
</a>
</g>
</g>
<!-- 370133003\nSpecimen substance&#45;&gt;&lt;&lt; 260787004\nPhysical object -->
<g id="edge19" class="edge">
<title>370133003\nSpecimen substance&#45;&gt;&lt;&lt; 260787004\nPhysical object</title>
<g id="a_edge19"><a xlink:title="Specimen substance &#45;&gt; Physical object">
<path fill="none" stroke="blue" d="M371,-196.97C371,-191.05 371,-186.25 371,-186.25 371,-186.25 1016,-186.25 1016,-186.25 1016,-186.25 1016,-186.59 1016,-186.59"/>
<polygon fill="blue" stroke="blue" points="1016,-189.65 1011.5,-179.65 1016,-184.65 1016,-179.65 1016,-179.65 1016,-179.65 1016,-184.65 1020.5,-179.65 1016,-189.65 1016,-189.65"/>
</a>
</g>
</g>
<!-- &lt;&lt; 373873005\nPharmaceutical / biologic product -->
<g id="node19" class="node">
<title>&lt;&lt; 373873005\nPharmaceutical / biologic product</title>
<g id="a_node19"><a xlink:href="http://snomed.info/id/373873005" xlink:title="&lt;&lt; 373873005 Pharmaceutical / biologic product&#10;&#10;IN RANGE OF:&#10;Specimen substance&#10;&#10;FROM DOMAIN:&#10;Specimen&#10;">
<polygon fill="#bfefff" stroke="black" points="680.5,-174 511.5,-174 511.5,-138 680.5,-138 680.5,-174"/>
<text text-anchor="middle" x="596" y="-158.8" font-family="Helvetica,sans-Serif" font-size="9.00">&lt;&lt; 373873005</text>
<text text-anchor="middle" x="596" y="-148.8" font-family="Helvetica,sans-Serif" font-size="9.00">Pharmaceutical / biologic product</text>
</a>
</g>
</g>
<!-- 370133003\nSpecimen substance&#45;&gt;&lt;&lt; 373873005\nPharmaceutical / biologic product -->
<g id="edge20" class="edge">
<title>370133003\nSpecimen substance&#45;&gt;&lt;&lt; 373873005\nPharmaceutical / biologic product</title>
<g id="a_edge20"><a xlink:title="Specimen substance &#45;&gt; Pharmaceutical / biologic product">
<path fill="none" stroke="blue" d="M430.59,-208.67C473.55,-208.67 524,-208.67 524,-208.67 524,-208.67 524,-184.12 524,-184.12"/>
<polygon fill="blue" stroke="blue" points="524,-174.12 528.5,-184.12 524,-179.12 524,-184.12 524,-184.12 524,-184.12 524,-179.12 519.5,-184.12 524,-174.12 524,-174.12"/>
</a>
</g>
</g>
<!-- &lt;&lt; 373873005\nPharmaceutical / biologic product&#45;&gt;138875005\nSNOMED CT Concept -->
<g id="edge26" class="edge">
<title>&lt;&lt; 373873005\nPharmaceutical / biologic product&#45;&gt;138875005\nSNOMED CT Concept</title>
<g id="a_edge26"><a xlink:title="Pharmaceutical / biologic product is_a SNOMED CT Concept">
<path fill="none" stroke="black" d="M669,-174.36C669,-176.95 669,-178.75 669,-178.75 669,-178.75 1375,-178.75 1375,-178.75 1375,-178.75 1375,-179.98 1375,-179.98"/>
<polygon fill="none" stroke="black" points="1371.5,-179.98 1375,-189.98 1378.5,-179.98 1371.5,-179.98"/>
</a>
</g>
</g>
<!-- 123037004\nBody structure&#45;&gt;138875005\nSNOMED CT Concept -->
<g id="edge23" class="edge">
<title>123037004\nBody structure&#45;&gt;138875005\nSNOMED CT Concept</title>
<g id="a_edge23"><a xlink:title="Body structure is_a SNOMED CT Concept">
<path fill="none" stroke="black" d="M873.52,-18C1005.5,-18 1403,-18 1403,-18 1403,-18 1403,-179.78 1403,-179.78"/>
<polygon fill="none" stroke="black" points="1399.5,-179.78 1403,-189.78 1406.5,-179.78 1399.5,-179.78"/>
</a>
</g>
</g>
<!-- 308916002\nEnvironment or geographical location&#45;&gt;138875005\nSNOMED CT Concept -->
<g id="edge25" class="edge">
<title>308916002\nEnvironment or geographical location&#45;&gt;138875005\nSNOMED CT Concept</title>
<g id="a_edge25"><a xlink:title="Environment or geographical location is_a SNOMED CT Concept">
<path fill="none" stroke="black" d="M1257,-281.99C1257,-257.58 1257,-217 1257,-217 1257,-217 1308.85,-217 1308.85,-217"/>
<polygon fill="none" stroke="black" points="1308.85,-220.5 1318.85,-217 1308.85,-213.5 1308.85,-220.5"/>
</a>
</g>
</g>
<!-- 362981000\nQualifier value&#45;&gt;138875005\nSNOMED CT Concept -->
<g id="edge30" class="edge">
<title>362981000\nQualifier value&#45;&gt;138875005\nSNOMED CT Concept</title>
<g id="a_edge30"><a xlink:title="Qualifier value is_a SNOMED CT Concept">
<path fill="none" stroke="black" d="M1190,-175.06C1190,-186.44 1190,-199 1190,-199 1190,-199 1308.89,-199 1308.89,-199"/>
<polygon fill="none" stroke="black" points="1308.89,-202.5 1318.89,-199 1308.89,-195.5 1308.89,-202.5"/>
</a>
</g>
</g>
<!-- 48176007\nSocial context&#45;&gt;138875005\nSNOMED CT Concept -->
<g id="edge34" class="edge">
<title>48176007\nSocial context&#45;&gt;138875005\nSNOMED CT Concept</title>
<g id="a_edge34"><a xlink:title="Social context is_a SNOMED CT Concept">
<path fill="none" stroke="black" d="M1229.66,-381C1291.5,-381 1403,-381 1403,-381 1403,-381 1403,-236.19 1403,-236.19"/>
<polygon fill="none" stroke="black" points="1406.5,-236.19 1403,-226.19 1399.5,-236.19 1406.5,-236.19"/>
</a>
</g>
</g>
<!-- 900000000000441003\nSNOMED CT Model Component -->
<!-- diagramLabel -->
<g id="node26" class="node">
<title>diagramLabel</title>
<g id="a_node26"><a xlink:title=" ">
<polygon fill="palegreen" stroke="black" points="0,-369 0,-513 242,-513 242,-369 0,-369"/>
<text text-anchor="middle" x="121" y="-499.4" font-family="Helvetica,sans-Serif" font-size="12.00">Simplified diagram of SNOMED CT</text>
<text text-anchor="middle" x="121" y="-486.4" font-family="Helvetica,sans-Serif" font-size="12.00">MRCM Domain and Range constraints</text>
<polyline fill="none" stroke="black" points="0,-479 242,-479 "/>
<text text-anchor="middle" x="121" y="-465.4" font-family="Helvetica,sans-Serif" font-size="12.00">Pre&#45;coordination view</text>
<polyline fill="none" stroke="black" points="0,-458 242,-458 "/>
<text text-anchor="middle" x="121" y="-444.4" font-family="Helvetica,sans-Serif" font-size="12.00">Showing domains:</text>
<text text-anchor="middle" x="121" y="-431.4" font-family="Helvetica,sans-Serif" font-size="12.00">105590001 Substance</text>
<text text-anchor="middle" x="121" y="-418.4" font-family="Helvetica,sans-Serif" font-size="12.00">123038009 Specimen</text>
<polyline fill="none" stroke="black" points="0,-411 242,-411 "/>
<text text-anchor="middle" x="121" y="-397.4" font-family="Helvetica,sans-Serif" font-size="12.00">20210731 International data</text>
<polyline fill="none" stroke="black" points="0,-390 242,-390 "/>
<text text-anchor="middle" x="121" y="-376.4" font-family="Helvetica,sans-Serif" font-size="12.00">Drawn September 22, 2021</text>
</a>
</g>
</g>
<!-- &lt;&lt; XXXXXXXX\nDefined domain concept -->
<g id="node27" class="node">
<title>&lt;&lt; XXXXXXXX\nDefined domain concept</title>
<g id="a_node27"><a xlink:title=" ">
<polygon fill="lightpink" stroke="black" points="185,-799 57,-799 57,-763 185,-763 185,-799"/>
<polygon fill="none" stroke="black" points="189,-803 53,-803 53,-759 189,-759 189,-803"/>
<text text-anchor="middle" x="121" y="-783.8" font-family="Helvetica,sans-Serif" font-size="9.00">&lt;&lt; XXXXXXXX</text>
<text text-anchor="middle" x="121" y="-773.8" font-family="Helvetica,sans-Serif" font-size="9.00">Defined domain concept</text>
</a>
</g>
</g>
<!-- XXXXXXXX\nAttribute name -->
<g id="node28" class="node">
<title>XXXXXXXX\nAttribute name</title>
<g id="a_node28"><a xlink:title=" ">
<polygon fill="#fffacd" stroke="black" points="414,-770 328,-770 328,-734 414,-734 414,-770"/>
<polygon fill="none" stroke="black" points="418,-774 324,-774 324,-730 418,-730 418,-774"/>
<text text-anchor="middle" x="371" y="-754.8" font-family="Helvetica,sans-Serif" font-size="9.00">XXXXXXXX</text>
<text text-anchor="middle" x="371" y="-744.8" font-family="Helvetica,sans-Serif" font-size="9.00">Attribute name</text>
</a>
</g>
</g>
<!-- &lt;&lt; XXXXXXXX\nDefined domain concept&#45;&gt;XXXXXXXX\nAttribute name -->
<g id="edge37" class="edge">
<title>&lt;&lt; XXXXXXXX\nDefined domain concept&#45;&gt;XXXXXXXX\nAttribute name</title>
<path fill="none" stroke="red" d="M189.31,-766.5C189.31,-766.5 313.74,-766.5 313.74,-766.5"/>
<polygon fill="red" stroke="red" points="323.74,-766.5 313.74,-771 318.74,-766.5 313.74,-766.5 313.74,-766.5 313.74,-766.5 318.74,-766.5 313.74,-762 323.74,-766.5 323.74,-766.5"/>
</g>
<!-- &lt;&lt; XXXXXXXX\nDomain and\n range concept\n(operators the same) -->
<g id="node30" class="node">
<title>&lt;&lt; XXXXXXXX\nDomain and\n range concept\n(operators the same)</title>
<g id="a_node30"><a xlink:title=" ">
<polygon fill="violet" stroke="black" points="652,-706 540,-706 540,-658 652,-658 652,-706"/>
<polygon fill="none" stroke="black" points="656,-710 536,-710 536,-654 656,-654 656,-710"/>
<text text-anchor="middle" x="596" y="-694.8" font-family="Helvetica,sans-Serif" font-size="9.00">&lt;&lt; XXXXXXXX</text>
<text text-anchor="middle" x="596" y="-684.8" font-family="Helvetica,sans-Serif" font-size="9.00">Domain and</text>
<text text-anchor="middle" x="596" y="-674.8" font-family="Helvetica,sans-Serif" font-size="9.00"> range concept</text>
<text text-anchor="middle" x="596" y="-664.8" font-family="Helvetica,sans-Serif" font-size="9.00">(operators the same)</text>
</a>
</g>
</g>
<!-- XXXXXXXX\nAttribute name&#45;&gt;&lt;&lt; XXXXXXXX\nDomain and\n range concept\n(operators the same) -->
<g id="edge39" class="edge">
<title>XXXXXXXX\nAttribute name&#45;&gt;&lt;&lt; XXXXXXXX\nDomain and\n range concept\n(operators the same)</title>
<path fill="none" stroke="blue" d="M418.35,-738.8C468.66,-738.8 541,-738.8 541,-738.8 541,-738.8 541,-720.07 541,-720.07"/>
<polygon fill="blue" stroke="blue" points="541,-710.07 545.5,-720.07 541,-715.07 541,-720.07 541,-720.07 541,-720.07 541,-715.07 536.5,-720.07 541,-710.07 541,-710.07"/>
</g>
<!-- &lt;&lt; XXXXXXXX\nDomain and\n range concept\n(operators differ) -->
<g id="node31" class="node">
<title>&lt;&lt; XXXXXXXX\nDomain and\n range concept\n(operators differ)</title>
<g id="a_node31"><a xlink:title=" ">
<polygon fill="violet" stroke="black" points="642.5,-776 549.5,-776 549.5,-728 642.5,-728 642.5,-776"/>
<text text-anchor="middle" x="596" y="-764.8" font-family="Helvetica,sans-Serif" font-size="9.00" fill="white">&lt;&lt; XXXXXXXX</text>
<text text-anchor="middle" x="596" y="-754.8" font-family="Helvetica,sans-Serif" font-size="9.00" fill="white">Domain and</text>
<text text-anchor="middle" x="596" y="-744.8" font-family="Helvetica,sans-Serif" font-size="9.00" fill="white"> range concept</text>
<text text-anchor="middle" x="596" y="-734.8" font-family="Helvetica,sans-Serif" font-size="9.00" fill="white">(operators differ)</text>
</a>
</g>
</g>
<!-- XXXXXXXX\nAttribute name&#45;&gt;&lt;&lt; XXXXXXXX\nDomain and\n range concept\n(operators differ) -->
<g id="edge40" class="edge">
<title>XXXXXXXX\nAttribute name&#45;&gt;&lt;&lt; XXXXXXXX\nDomain and\n range concept\n(operators differ)</title>
<path fill="none" stroke="blue" d="M418.17,-756.4C418.17,-756.4 539.28,-756.4 539.28,-756.4"/>
<polygon fill="blue" stroke="blue" points="549.28,-756.4 539.28,-760.9 544.28,-756.4 539.28,-756.4 539.28,-756.4 539.28,-756.4 544.28,-756.4 539.28,-751.9 549.28,-756.4 549.28,-756.4"/>
</g>
<!-- &lt;&lt; XXXXXXXX\nRange concept -->
<g id="node32" class="node">
<title>&lt;&lt; XXXXXXXX\nRange concept</title>
<g id="a_node32"><a xlink:title=" ">
<polygon fill="#bfefff" stroke="black" points="638.5,-830 553.5,-830 553.5,-794 638.5,-794 638.5,-830"/>
<text text-anchor="middle" x="596" y="-814.8" font-family="Helvetica,sans-Serif" font-size="9.00">&lt;&lt; XXXXXXXX</text>
<text text-anchor="middle" x="596" y="-804.8" font-family="Helvetica,sans-Serif" font-size="9.00">Range concept</text>
</a>
</g>
</g>
<!-- XXXXXXXX\nAttribute name&#45;&gt;&lt;&lt; XXXXXXXX\nRange concept -->
<g id="edge43" class="edge">
<title>XXXXXXXX\nAttribute name&#45;&gt;&lt;&lt; XXXXXXXX\nRange concept</title>
<path fill="none" stroke="blue" stroke-dasharray="5,2" d="M387,-774.16C387,-786.14 387,-798.5 387,-798.5 387,-798.5 543.45,-798.5 543.45,-798.5"/>
<polygon fill="blue" stroke="blue" points="553.45,-798.5 543.45,-803 548.45,-798.5 543.45,-798.5 543.45,-798.5 543.45,-798.5 548.45,-798.5 543.45,-794 553.45,-798.5 553.45,-798.5"/>
</g>
<!-- Concrete\nrange -->
<g id="node33" class="node">
<title>Concrete\nrange</title>
<g id="a_node33"><a xlink:title=" ">
<polygon fill="palegreen" stroke="black" points="624.5,-884 567.5,-884 567.5,-848 624.5,-848 624.5,-884"/>
<polyline fill="none" stroke="black" points="579.5,-884 567.5,-872 "/>
<polyline fill="none" stroke="black" points="567.5,-860 579.5,-848 "/>
<polyline fill="none" stroke="black" points="612.5,-848 624.5,-860 "/>
<polyline fill="none" stroke="black" points="624.5,-872 612.5,-884 "/>
<text text-anchor="middle" x="596" y="-868.8" font-family="Helvetica,sans-Serif" font-size="9.00">Concrete</text>
<text text-anchor="middle" x="596" y="-858.8" font-family="Helvetica,sans-Serif" font-size="9.00">range</text>
</a>
</g>
</g>
<!-- XXXXXXXX\nAttribute name&#45;&gt;Concrete\nrange -->
<g id="edge44" class="edge">
<title>XXXXXXXX\nAttribute name&#45;&gt;Concrete\nrange</title>
<path fill="none" stroke="blue" stroke-dasharray="5,2" d="M356,-774.25C356,-807.43 356,-866 356,-866 356,-866 557.05,-866 557.05,-866"/>
<polygon fill="blue" stroke="blue" points="567.05,-866 557.05,-870.5 562.05,-866 557.05,-866 557.05,-866 557.05,-866 562.05,-866 557.05,-861.5 567.05,-866 567.05,-866"/>
</g>
<!-- &lt;&lt; XXXXXXXX\nPrimitive domain concept -->
<g id="node29" class="node">
<title>&lt;&lt; XXXXXXXX\nPrimitive domain concept</title>
<g id="a_node29"><a xlink:title=" ">
<polygon fill="lightpink" stroke="black" points="187,-741 55,-741 55,-705 187,-705 187,-741"/>
<text text-anchor="middle" x="121" y="-725.8" font-family="Helvetica,sans-Serif" font-size="9.00">&lt;&lt; XXXXXXXX</text>
<text text-anchor="middle" x="121" y="-715.8" font-family="Helvetica,sans-Serif" font-size="9.00">Primitive domain concept</text>
</a>
</g>
</g>
<!-- &lt;&lt; XXXXXXXX\nPrimitive domain concept&#45;&gt;XXXXXXXX\nAttribute name -->
<g id="edge38" class="edge">
<title>&lt;&lt; XXXXXXXX\nPrimitive domain concept&#45;&gt;XXXXXXXX\nAttribute name</title>
<path fill="none" stroke="red" stroke-dasharray="5,2" d="M187.01,-735.5C187.01,-735.5 313.65,-735.5 313.65,-735.5"/>
<polygon fill="red" stroke="red" points="323.65,-735.5 313.65,-740 318.65,-735.5 313.65,-735.5 313.65,-735.5 313.65,-735.5 318.65,-735.5 313.65,-731 323.65,-735.5 323.65,-735.5"/>
</g>
<!-- &lt;&lt; XXXXXXXX\nDomain and\n range concept\n(operators the same)&#45;&gt;XXXXXXXX\nAttribute name -->
<g id="edge41" class="edge">
<title>&lt;&lt; XXXXXXXX\nDomain and\n range concept\n(operators the same)&#45;&gt;XXXXXXXX\nAttribute name</title>
<path fill="none" stroke="red" d="M545,-710.2C545,-727.98 545,-747.6 545,-747.6 545,-747.6 428.09,-747.6 428.09,-747.6"/>
<polygon fill="red" stroke="red" points="418.09,-747.6 428.09,-743.1 423.09,-747.6 428.09,-747.6 428.09,-747.6 428.09,-747.6 423.09,-747.6 428.09,-752.1 418.09,-747.6 418.09,-747.6"/>
</g>
<!-- Domain and range\n relationships\n\nNote 1. Operators may differ between\ndomain and range\n\nNote 2. Dashed edge indicates\nattribute ungrouped for this domain in DL -->
<g id="node34" class="node">
<title>Domain and range\n relationships\n\nNote 1. Operators may differ between\ndomain and range\n\nNote 2. Dashed edge indicates\nattribute ungrouped for this domain in DL</title>
<g id="a_node34"><a xlink:title=" ">
<polygon fill="white" stroke="black" stroke-width="0" points="935,-826 728,-826 728,-738 935,-738 935,-826"/>
<text text-anchor="middle" x="831.5" y="-814.8" font-family="Helvetica,sans-Serif" font-size="9.00">Domain and range</text>
<text text-anchor="middle" x="831.5" y="-804.8" font-family="Helvetica,sans-Serif" font-size="9.00"> relationships</text>
<text text-anchor="middle" x="831.5" y="-784.8" font-family="Helvetica,sans-Serif" font-size="9.00">Note 1. Operators may differ between</text>
<text text-anchor="middle" x="831.5" y="-774.8" font-family="Helvetica,sans-Serif" font-size="9.00">domain and range</text>
<text text-anchor="middle" x="831.5" y="-754.8" font-family="Helvetica,sans-Serif" font-size="9.00">Note 2. Dashed edge indicates</text>
<text text-anchor="middle" x="831.5" y="-744.8" font-family="Helvetica,sans-Serif" font-size="9.00">attribute ungrouped for this domain in DL</text>
</a>
</g>
</g>
<!-- &lt;&lt; XXXXXXXX\nDomain and\n range concept\n(operators the same)&#45;&gt;Domain and range\n relationships\n\nNote 1. Operators may differ between\ndomain and range\n\nNote 2. Dashed edge indicates\nattribute ungrouped for this domain in DL -->
<!-- &lt;&lt; XXXXXXXX\nDomain and\n range concept\n(operators differ)&#45;&gt;XXXXXXXX\nAttribute name -->
<g id="edge42" class="edge">
<title>&lt;&lt; XXXXXXXX\nDomain and\n range concept\n(operators differ)&#45;&gt;XXXXXXXX\nAttribute name</title>
<path fill="none" stroke="red" d="M549.38,-765.2C549.38,-765.2 428.33,-765.2 428.33,-765.2"/>
<polygon fill="red" stroke="red" points="418.33,-765.2 428.33,-760.7 423.33,-765.2 428.33,-765.2 428.33,-765.2 428.33,-765.2 423.33,-765.2 428.33,-769.7 418.33,-765.2 418.33,-765.2"/>
</g>
<!-- &lt;&lt; XXXXXXXX\nDomain and\n range concept\n(operators differ)&#45;&gt;Domain and range\n relationships\n\nNote 1. Operators may differ between\ndomain and range\n\nNote 2. Dashed edge indicates\nattribute ungrouped for this domain in DL -->
<!-- &lt;&lt; XXXXXXXX\nRange concept&#45;&gt;Domain and range\n relationships\n\nNote 1. Operators may differ between\ndomain and range\n\nNote 2. Dashed edge indicates\nattribute ungrouped for this domain in DL -->
<!-- Concrete\nrange&#45;&gt;Domain and range\n relationships\n\nNote 1. Operators may differ between\ndomain and range\n\nNote 2. Dashed edge indicates\nattribute ungrouped for this domain in DL -->
<!-- &lt;&lt; XXXXXXXX\nConcept referenced in model -->
<g id="node35" class="node">
<title>&lt;&lt; XXXXXXXX\nConcept referenced in model</title>
<g id="a_node35"><a xlink:title=" ">
<polygon fill="#bfefff" stroke="black" points="195,-635 47,-635 47,-599 195,-599 195,-635"/>
<text text-anchor="middle" x="121" y="-619.8" font-family="Helvetica,sans-Serif" font-size="9.00">&lt;&lt; XXXXXXXX</text>
<text text-anchor="middle" x="121" y="-609.8" font-family="Helvetica,sans-Serif" font-size="9.00">Concept referenced in model</text>
</a>
</g>
</g>
<!-- &lt;&lt; XXXXXXXX\nAnother concept referenced in model -->
<g id="node36" class="node">
<title>&lt;&lt; XXXXXXXX\nAnother concept referenced in model</title>
<g id="a_node36"><a xlink:title=" ">
<polygon fill="#bfefff" stroke="black" points="464,-635 278,-635 278,-599 464,-599 464,-635"/>
<text text-anchor="middle" x="371" y="-619.8" font-family="Helvetica,sans-Serif" font-size="9.00">&lt;&lt; XXXXXXXX</text>
<text text-anchor="middle" x="371" y="-609.8" font-family="Helvetica,sans-Serif" font-size="9.00">Another concept referenced in model</text>
</a>
</g>
</g>
<!-- &lt;&lt; XXXXXXXX\nConcept referenced in model&#45;&gt;&lt;&lt; XXXXXXXX\nAnother concept referenced in model -->
<g id="edge49" class="edge">
<title>&lt;&lt; XXXXXXXX\nConcept referenced in model&#45;&gt;&lt;&lt; XXXXXXXX\nAnother concept referenced in model</title>
<path fill="none" stroke="black" d="M195.33,-611C195.33,-611 267.88,-611 267.88,-611"/>
<polygon fill="black" stroke="black" points="267.88,-614.5 277.88,-611 267.88,-607.5 267.88,-614.5"/>
</g>
<!-- &lt;&lt; XXXXXXXX\nConcept referenced in model&#45;&gt;&lt;&lt; XXXXXXXX\nAnother concept referenced in model -->
<g id="edge50" class="edge">
<title>&lt;&lt; XXXXXXXX\nConcept referenced in model&#45;&gt;&lt;&lt; XXXXXXXX\nAnother concept referenced in model</title>
<path fill="none" stroke="black" d="M195.33,-623C195.33,-623 265.88,-623 265.88,-623"/>
<polygon fill="black" stroke="black" points="265.88,-623 271.88,-619 277.88,-623 271.88,-627 265.88,-623"/>
</g>
<!-- XXXXXXXX\nConcept included in diagram but\nnot referenced in concept model -->
<g id="node37" class="node">
<title>XXXXXXXX\nConcept included in diagram but\nnot referenced in concept model</title>
<g id="a_node37"><a xlink:title=" ">
<polygon fill="palegreen" stroke="black" points="679.5,-636 512.5,-636 512.5,-598 679.5,-598 679.5,-636"/>
<text text-anchor="middle" x="596" y="-624.8" font-family="Helvetica,sans-Serif" font-size="9.00">XXXXXXXX</text>
<text text-anchor="middle" x="596" y="-614.8" font-family="Helvetica,sans-Serif" font-size="9.00">Concept included in diagram but</text>
<text text-anchor="middle" x="596" y="-604.8" font-family="Helvetica,sans-Serif" font-size="9.00">not referenced in concept model</text>
</a>
</g>
</g>
<!-- &lt;&lt; XXXXXXXX\nAnother concept referenced in model&#45;&gt;XXXXXXXX\nConcept included in diagram but\nnot referenced in concept model -->
<g id="edge51" class="edge">
<title>&lt;&lt; XXXXXXXX\nAnother concept referenced in model&#45;&gt;XXXXXXXX\nConcept included in diagram but\nnot referenced in concept model</title>
<path fill="none" stroke="black" d="M464.14,-617C464.14,-617 502.29,-617 502.29,-617"/>
<polygon fill="none" stroke="black" points="502.29,-620.5 512.29,-617 502.29,-613.5 502.29,-620.5"/>
</g>
<!-- Domain and range\nhierarchies\n\nNote: Filled arrows and diamonds\nindicate parent domains -->
<g id="node38" class="node">
<title>Domain and range\nhierarchies\n\nNote: Filled arrows and diamonds\nindicate parent domains</title>
<g id="a_node38"><a xlink:title=" ">
<polygon fill="white" stroke="black" stroke-width="0" points="915,-670 748,-670 748,-612 915,-612 915,-670"/>
<text text-anchor="middle" x="831.5" y="-658.8" font-family="Helvetica,sans-Serif" font-size="9.00">Domain and range</text>
<text text-anchor="middle" x="831.5" y="-648.8" font-family="Helvetica,sans-Serif" font-size="9.00">hierarchies</text>
<text text-anchor="middle" x="831.5" y="-628.8" font-family="Helvetica,sans-Serif" font-size="9.00">Note: Filled arrows and diamonds</text>
<text text-anchor="middle" x="831.5" y="-618.8" font-family="Helvetica,sans-Serif" font-size="9.00">indicate parent domains</text>
</a>
</g>
</g>
<!-- XXXXXXXX\nConcept included in diagram but\nnot referenced in concept model&#45;&gt;Domain and range\nhierarchies\n\nNote: Filled arrows and diamonds\nindicate parent domains -->
<!-- XXXXXXXX\nInactive domain,\nrange or attribute -->
<g id="node39" class="node">
<title>XXXXXXXX\nInactive domain,\nrange or attribute</title>
<g id="a_node39"><a xlink:title=" ">
<polygon fill="orange" stroke="black" points="170,-577 72,-577 72,-539 170,-539 170,-577"/>
<text text-anchor="middle" x="121" y="-565.8" font-family="Helvetica,sans-Serif" font-size="9.00">XXXXXXXX</text>
<text text-anchor="middle" x="121" y="-555.8" font-family="Helvetica,sans-Serif" font-size="9.00">Inactive domain,</text>
<text text-anchor="middle" x="121" y="-545.8" font-family="Helvetica,sans-Serif" font-size="9.00">range or attribute</text>
</a>
</g>
</g>
<!-- XXXXXXXX\nSub&#45;attribute name -->
<g id="node40" class="node">
<title>XXXXXXXX\nSub&#45;attribute name</title>
<g id="a_node40"><a xlink:title=" ">
<polygon fill="yellow" stroke="black" points="424,-576 318,-576 318,-540 424,-540 424,-576"/>
<polygon fill="none" stroke="black" points="428,-580 314,-580 314,-536 428,-536 428,-580"/>
<text text-anchor="middle" x="371" y="-560.8" font-family="Helvetica,sans-Serif" font-size="9.00">XXXXXXXX</text>
<text text-anchor="middle" x="371" y="-550.8" font-family="Helvetica,sans-Serif" font-size="9.00">Sub&#45;attribute name</text>
</a>
</g>
</g>
<!-- XXXXXXXX\nInactive domain,\nrange or attribute&#45;&gt;XXXXXXXX\nSub&#45;attribute name -->
<!-- XXXXXXXX\nSuper&#45;attribute name -->
<g id="node41" class="node">
<title>XXXXXXXX\nSuper&#45;attribute name</title>
<g id="a_node41"><a xlink:title=" ">
<polygon fill="#fffacd" stroke="black" points="653,-576 539,-576 539,-540 653,-540 653,-576"/>
<polygon fill="none" stroke="black" points="657,-580 535,-580 535,-536 657,-536 657,-580"/>
<text text-anchor="middle" x="596" y="-560.8" font-family="Helvetica,sans-Serif" font-size="9.00">XXXXXXXX</text>
<text text-anchor="middle" x="596" y="-550.8" font-family="Helvetica,sans-Serif" font-size="9.00">Super&#45;attribute name</text>
</a>
</g>
</g>
<!-- XXXXXXXX\nSub&#45;attribute name&#45;&gt;XXXXXXXX\nSuper&#45;attribute name -->
<g id="edge54" class="edge">
<title>XXXXXXXX\nSub&#45;attribute name&#45;&gt;XXXXXXXX\nSuper&#45;attribute name</title>
<path fill="none" stroke="black" d="M428.07,-558C428.07,-558 524.65,-558 524.65,-558"/>
<polygon fill="none" stroke="black" points="524.65,-561.5 534.65,-558 524.65,-554.5 524.65,-561.5"/>
</g>
<!-- Attribute hierarchies\n(full path to root not shown)\n\nNote: yellow indicates attribute range\ndiffers for different domains -->
<g id="node42" class="node">
<title>Attribute hierarchies\n(full path to root not shown)\n\nNote: yellow indicates attribute range\ndiffers for different domains</title>
<g id="a_node42"><a xlink:title=" ">
<polygon fill="white" stroke="black" stroke-width="0" points="925,-594 738,-594 738,-536 925,-536 925,-594"/>
<text text-anchor="middle" x="831.5" y="-582.8" font-family="Helvetica,sans-Serif" font-size="9.00">Attribute hierarchies</text>
<text text-anchor="middle" x="831.5" y="-572.8" font-family="Helvetica,sans-Serif" font-size="9.00">(full path to root not shown)</text>
<text text-anchor="middle" x="831.5" y="-552.8" font-family="Helvetica,sans-Serif" font-size="9.00">Note: yellow indicates attribute range</text>
<text text-anchor="middle" x="831.5" y="-542.8" font-family="Helvetica,sans-Serif" font-size="9.00">differs for different domains</text>
</a>
</g>
</g>
<!-- XXXXXXXX\nSuper&#45;attribute name&#45;&gt;Attribute hierarchies\n(full path to root not shown)\n\nNote: yellow indicates attribute range\ndiffers for different domains -->
</g>
</svg>
