<?xml version="1.0" encoding="UTF-8" standalone="no"?>
<!DOCTYPE svg PUBLIC "-//W3C//DTD SVG 1.1//EN"
 "http://www.w3.org/Graphics/SVG/1.1/DTD/svg11.dtd">
<!-- Generated by graphviz version 2.43.0 (0)
 -->
<!-- Title: RF2_MRCM Pages: 1 -->
<svg width="1190pt" height="948pt"
 viewBox="0.00 0.00 1190.00 948.00" xmlns="http://www.w3.org/2000/svg" xmlns:xlink="http://www.w3.org/1999/xlink">
<g id="graph0" class="graph" transform="scale(1 1) rotate(0) translate(4 944)">
<title>RF2_MRCM</title>
<polygon fill="white" stroke="transparent" points="-4,4 -4,-944 1186,-944 1186,4 -4,4"/>
<g id="clust1" class="cluster">
<title>cluster_key</title>
<polygon fill="white" stroke="black" points="39,-601 39,-932 918,-932 918,-601 39,-601"/>
<text text-anchor="middle" x="478.5" y="-918.4" font-family="Helvetica,sans-Serif" font-size="12.00">Key</text>
</g>
<!-- &lt;&lt; 272379006\nEvent -->
<g id="node1" class="node">
<title>&lt;&lt; 272379006\nEvent</title>
<g id="a_node1"><a xlink:href="http://snomed.info/id/272379006" xlink:title="&lt;&lt; 272379006 Event&#10;&#10;IN DOMAIN OF:&#10;After&#10;Associated with&#10;Before&#10;Causative agent&#10;Due to&#10;During&#10;Occurrence&#10;Temporally related to&#10;&#10;IN RANGE OF:&#10;After&#10;Associated with&#10;Due to&#10;&#10;FROM DOMAIN:&#10;Event&#10;">
<polygon fill="violet" stroke="black" points="165.5,-238 76.5,-238 76.5,-202 165.5,-202 165.5,-238"/>
<text text-anchor="middle" x="121" y="-222.8" font-family="Helvetica,sans-Serif" font-size="9.00">&lt;&lt; 272379006</text>
<text text-anchor="middle" x="121" y="-212.8" font-family="Helvetica,sans-Serif" font-size="9.00">Event</text>
</a>
</g>
</g>
<!-- 246075003\nCausative agent -->
<g id="node2" class="node">
<title>246075003\nCausative agent</title>
<g id="a_node2"><a xlink:href="http://snomed.info/id/246075003" xlink:title="246075003 Causative agent&#10;&#10;DOMAIN:&#10;Event&#10;&#10;RANGES:&#10;Organism&#10;Pharmaceutical / biologic product&#10;Physical force&#10;Physical object&#10;Substance&#10;">
<polygon fill="#fffacd" stroke="black" points="628,-415 539,-415 539,-379 628,-379 628,-415"/>
<polygon fill="none" stroke="black" points="632,-419 535,-419 535,-375 632,-375 632,-419"/>
<text text-anchor="middle" x="583.5" y="-399.8" font-family="Helvetica,sans-Serif" font-size="9.00">246075003</text>
<text text-anchor="middle" x="583.5" y="-389.8" font-family="Helvetica,sans-Serif" font-size="9.00">Causative agent</text>
</a>
</g>
</g>
<!-- &lt;&lt; 272379006\nEvent&#45;&gt;246075003\nCausative agent -->
<g id="edge1" class="edge">
<title>&lt;&lt; 272379006\nEvent&#45;&gt;246075003\nCausative agent</title>
<g id="a_edge1"><a xlink:title="Event &#45;&gt; Causative agent [0..1]">
<path fill="none" stroke="red" d="M165.55,-234C273.64,-234 541,-234 541,-234 541,-234 541,-364.68 541,-364.68"/>
<polygon fill="red" stroke="red" points="541,-374.68 536.5,-364.68 541,-369.68 541,-364.68 541,-364.68 541,-364.68 541,-369.68 545.5,-364.68 541,-374.68 541,-374.68"/>
</a>
</g>
</g>
<!-- 246454002\nOccurrence -->
<g id="node8" class="node">
<title>246454002\nOccurrence</title>
<g id="a_node8"><a xlink:href="http://snomed.info/id/246454002" xlink:title="246454002 Occurrence&#10;&#10;DOMAIN:&#10;Event&#10;&#10;RANGE:&#10;Periods of life&#10;">
<polygon fill="#fffacd" stroke="black" points="406.5,-458 335.5,-458 335.5,-422 406.5,-422 406.5,-458"/>
<polygon fill="none" stroke="black" points="410.5,-462 331.5,-462 331.5,-418 410.5,-418 410.5,-462"/>
<text text-anchor="middle" x="371" y="-442.8" font-family="Helvetica,sans-Serif" font-size="9.00">246454002</text>
<text text-anchor="middle" x="371" y="-432.8" font-family="Helvetica,sans-Serif" font-size="9.00">Occurrence</text>
</a>
</g>
</g>
<!-- &lt;&lt; 272379006\nEvent&#45;&gt;246454002\nOccurrence -->
<g id="edge7" class="edge">
<title>&lt;&lt; 272379006\nEvent&#45;&gt;246454002\nOccurrence</title>
<g id="a_edge7"><a xlink:title="Event &#45;&gt; Occurrence [0..1]">
<path fill="none" stroke="red" d="M165.69,-236C237.6,-236 371,-236 371,-236 371,-236 371,-407.78 371,-407.78"/>
<polygon fill="red" stroke="red" points="371,-417.78 366.5,-407.78 371,-412.78 371,-407.78 371,-407.78 371,-407.78 371,-412.78 375.5,-407.78 371,-417.78 371,-417.78"/>
</a>
</g>
</g>
<!-- 255234002\nAfter -->
<g id="node10" class="node">
<title>255234002\nAfter</title>
<g id="a_node10"><a xlink:href="http://snomed.info/id/255234002" xlink:title="255234002 After&#10;&#10;DOMAIN:&#10;Event&#10;&#10;RANGES:&#10;Clinical finding&#10;Event&#10;Procedure&#10;">
<polygon fill="#fffacd" stroke="black" points="406.5,-209 335.5,-209 335.5,-173 406.5,-173 406.5,-209"/>
<polygon fill="none" stroke="black" points="410.5,-213 331.5,-213 331.5,-169 410.5,-169 410.5,-213"/>
<text text-anchor="middle" x="371" y="-193.8" font-family="Helvetica,sans-Serif" font-size="9.00">255234002</text>
<text text-anchor="middle" x="371" y="-183.8" font-family="Helvetica,sans-Serif" font-size="9.00">After</text>
</a>
</g>
</g>
<!-- &lt;&lt; 272379006\nEvent&#45;&gt;255234002\nAfter -->
<g id="edge9" class="edge">
<title>&lt;&lt; 272379006\nEvent&#45;&gt;255234002\nAfter</title>
<g id="a_edge9"><a xlink:title="Event &#45;&gt; After [0..1]">
<path fill="none" stroke="red" d="M165.69,-205.67C165.69,-205.67 321.22,-205.67 321.22,-205.67"/>
<polygon fill="red" stroke="red" points="331.22,-205.67 321.22,-210.17 326.22,-205.67 321.22,-205.67 321.22,-205.67 321.22,-205.67 326.22,-205.67 321.22,-201.17 331.22,-205.67 331.22,-205.67"/>
</a>
</g>
</g>
<!-- 288556008\nBefore -->
<g id="node13" class="node">
<title>288556008\nBefore</title>
<g id="a_node13"><a xlink:href="http://snomed.info/id/288556008" xlink:title="288556008 Before&#10;&#10;DOMAIN:&#10;Event&#10;&#10;RANGE:&#10;Procedure&#10;">
<polygon fill="#fffacd" stroke="black" points="406.5,-102 335.5,-102 335.5,-66 406.5,-66 406.5,-102"/>
<polygon fill="none" stroke="black" points="410.5,-106 331.5,-106 331.5,-62 410.5,-62 410.5,-106"/>
<text text-anchor="middle" x="371" y="-86.8" font-family="Helvetica,sans-Serif" font-size="9.00">288556008</text>
<text text-anchor="middle" x="371" y="-76.8" font-family="Helvetica,sans-Serif" font-size="9.00">Before</text>
</a>
</g>
</g>
<!-- &lt;&lt; 272379006\nEvent&#45;&gt;288556008\nBefore -->
<g id="edge13" class="edge">
<title>&lt;&lt; 272379006\nEvent&#45;&gt;288556008\nBefore</title>
<g id="a_edge13"><a xlink:title="Event &#45;&gt; Before [0..1]">
<path fill="none" stroke="red" d="M136,-201.94C136,-164.95 136,-84 136,-84 136,-84 321.4,-84 321.4,-84"/>
<polygon fill="red" stroke="red" points="331.4,-84 321.4,-88.5 326.4,-84 321.4,-84 321.4,-84 321.4,-84 326.4,-84 321.4,-79.5 331.4,-84 331.4,-84"/>
</a>
</g>
</g>
<!-- 371881003\nDuring -->
<g id="node14" class="node">
<title>371881003\nDuring</title>
<g id="a_node14"><a xlink:href="http://snomed.info/id/371881003" xlink:title="371881003 During&#10;&#10;DOMAIN:&#10;Event&#10;&#10;RANGE:&#10;Procedure&#10;">
<polygon fill="#fffacd" stroke="black" points="406.5,-40 335.5,-40 335.5,-4 406.5,-4 406.5,-40"/>
<polygon fill="none" stroke="black" points="410.5,-44 331.5,-44 331.5,0 410.5,0 410.5,-44"/>
<text text-anchor="middle" x="371" y="-24.8" font-family="Helvetica,sans-Serif" font-size="9.00">371881003</text>
<text text-anchor="middle" x="371" y="-14.8" font-family="Helvetica,sans-Serif" font-size="9.00">During</text>
</a>
</g>
</g>
<!-- &lt;&lt; 272379006\nEvent&#45;&gt;371881003\nDuring -->
<g id="edge15" class="edge">
<title>&lt;&lt; 272379006\nEvent&#45;&gt;371881003\nDuring</title>
<g id="a_edge15"><a xlink:title="Event &#45;&gt; During [0..1]">
<path fill="none" stroke="red" d="M107,-201.73C107,-152.71 107,-22 107,-22 107,-22 321.48,-22 321.48,-22"/>
<polygon fill="red" stroke="red" points="331.48,-22 321.48,-26.5 326.48,-22 321.48,-22 321.48,-22 321.48,-22 326.48,-22 321.48,-17.5 331.48,-22 331.48,-22"/>
</a>
</g>
</g>
<!-- 42752001\nDue to -->
<g id="node15" class="node">
<title>42752001\nDue to</title>
<g id="a_node15"><a xlink:href="http://snomed.info/id/42752001" xlink:title="42752001 Due to&#10;&#10;DOMAIN:&#10;Event&#10;&#10;RANGES:&#10;Clinical finding&#10;Event&#10;Procedure&#10;">
<polygon fill="#fffacd" stroke="black" points="616,-268 551,-268 551,-232 616,-232 616,-268"/>
<polygon fill="none" stroke="black" points="620,-272 547,-272 547,-228 620,-228 620,-272"/>
<text text-anchor="middle" x="583.5" y="-252.8" font-family="Helvetica,sans-Serif" font-size="9.00">42752001</text>
<text text-anchor="middle" x="583.5" y="-242.8" font-family="Helvetica,sans-Serif" font-size="9.00">Due to</text>
</a>
</g>
</g>
<!-- &lt;&lt; 272379006\nEvent&#45;&gt;42752001\nDue to -->
<g id="edge17" class="edge">
<title>&lt;&lt; 272379006\nEvent&#45;&gt;42752001\nDue to</title>
<g id="a_edge17"><a xlink:title="Event &#45;&gt; Due to [0..1]">
<path fill="none" stroke="red" d="M165.77,-230C165.77,-230 536.87,-230 536.87,-230"/>
<polygon fill="red" stroke="red" points="546.87,-230 536.87,-234.5 541.87,-230 536.87,-230 536.87,-230 536.87,-230 541.87,-230 536.87,-225.5 546.87,-230 546.87,-230"/>
</a>
</g>
</g>
<!-- 47429007\nAssociated with -->
<g id="node16" class="node">
<title>47429007\nAssociated with</title>
<g id="a_node16"><a xlink:href="http://snomed.info/id/47429007" xlink:title="47429007 Associated with&#10;&#10;DOMAIN:&#10;Event&#10;&#10;RANGES:&#10;Clinical finding&#10;Event&#10;Organism&#10;Physical force&#10;Physical object&#10;Procedure&#10;Substance&#10;">
<polygon fill="#fffacd" stroke="black" points="850,-327 763,-327 763,-291 850,-291 850,-327"/>
<polygon fill="none" stroke="black" points="854,-331 759,-331 759,-287 854,-287 854,-331"/>
<text text-anchor="middle" x="806.5" y="-311.8" font-family="Helvetica,sans-Serif" font-size="9.00">47429007</text>
<text text-anchor="middle" x="806.5" y="-301.8" font-family="Helvetica,sans-Serif" font-size="9.00">Associated with</text>
</a>
</g>
</g>
<!-- &lt;&lt; 272379006\nEvent&#45;&gt;47429007\nAssociated with -->
<g id="edge21" class="edge">
<title>&lt;&lt; 272379006\nEvent&#45;&gt;47429007\nAssociated with</title>
<g id="a_edge21"><a xlink:title="Event &#45;&gt; Associated with [0..*]">
<path fill="none" stroke="red" d="M165.64,-225C313.51,-225 778,-225 778,-225 778,-225 778,-276.93 778,-276.93"/>
<polygon fill="red" stroke="red" points="778,-286.93 773.5,-276.93 778,-281.93 778,-276.93 778,-276.93 778,-276.93 778,-281.93 782.5,-276.93 778,-286.93 778,-286.93"/>
</a>
</g>
</g>
<!-- 726633004\nTemporally related to -->
<g id="node17" class="node">
<title>726633004\nTemporally related to</title>
<g id="a_node17"><a xlink:href="http://snomed.info/id/726633004" xlink:title="726633004 Temporally related to&#10;&#10;A period of time occurring before, during and or after a&#10;clinical entity&#10;&#10;DOMAIN:&#10;Event&#10;&#10;RANGES:&#10;Clinical finding&#10;Procedure&#10;">
<polygon fill="#fffacd" stroke="black" points="639,-101 528,-101 528,-65 639,-65 639,-101"/>
<polygon fill="none" stroke="black" points="643,-105 524,-105 524,-61 643,-61 643,-105"/>
<text text-anchor="middle" x="583.5" y="-85.8" font-family="Helvetica,sans-Serif" font-size="9.00">726633004</text>
<text text-anchor="middle" x="583.5" y="-75.8" font-family="Helvetica,sans-Serif" font-size="9.00">Temporally related to</text>
</a>
</g>
</g>
<!-- &lt;&lt; 272379006\nEvent&#45;&gt;726633004\nTemporally related to -->
<g id="edge29" class="edge">
<title>&lt;&lt; 272379006\nEvent&#45;&gt;726633004\nTemporally related to</title>
<g id="a_edge29"><a xlink:title="Event &#45;&gt; Temporally related to [0..*]">
<path fill="none" stroke="red" d="M165.77,-216C272.29,-216 532,-216 532,-216 532,-216 532,-115.26 532,-115.26"/>
<polygon fill="red" stroke="red" points="532,-105.26 536.5,-115.26 532,-110.26 532,-115.26 532,-115.26 532,-115.26 532,-110.26 527.5,-115.26 532,-105.26 532,-105.26"/>
</a>
</g>
</g>
<!-- 138875005\nSNOMED CT Concept -->
<g id="node18" class="node">
<title>138875005\nSNOMED CT Concept</title>
<g id="a_node18"><a xlink:title=" ">
<polygon fill="palegreen" stroke="black" points="1182,-381 1071,-381 1071,-345 1182,-345 1182,-381"/>
<text text-anchor="middle" x="1126.5" y="-365.8" font-family="Helvetica,sans-Serif" font-size="9.00">138875005</text>
<text text-anchor="middle" x="1126.5" y="-355.8" font-family="Helvetica,sans-Serif" font-size="9.00">SNOMED CT Concept</text>
</a>
</g>
</g>
<!-- &lt;&lt; 272379006\nEvent&#45;&gt;138875005\nSNOMED CT Concept -->
<g id="edge33" class="edge">
<title>&lt;&lt; 272379006\nEvent&#45;&gt;138875005\nSNOMED CT Concept</title>
<g id="a_edge33"><a xlink:title="Event is_a SNOMED CT Concept">
<path fill="none" stroke="black" d="M165.68,-219C361.96,-219 1138,-219 1138,-219 1138,-219 1138,-334.76 1138,-334.76"/>
<polygon fill="none" stroke="black" points="1134.5,-334.76 1138,-344.76 1141.5,-334.76 1134.5,-334.76"/>
</a>
</g>
</g>
<!-- &lt;&lt; 105590001\nSubstance -->
<g id="node3" class="node">
<title>&lt;&lt; 105590001\nSubstance</title>
<g id="a_node3"><a xlink:href="http://snomed.info/id/105590001" xlink:title="&lt;&lt; 105590001 Substance&#10;&#10;IN RANGE OF:&#10;Associated with&#10;Causative agent&#10;&#10;FROM DOMAIN:&#10;Event&#10;">
<polygon fill="#bfefff" stroke="black" points="1035,-327 946,-327 946,-291 1035,-291 1035,-327"/>
<text text-anchor="middle" x="990.5" y="-311.8" font-family="Helvetica,sans-Serif" font-size="9.00">&lt;&lt; 105590001</text>
<text text-anchor="middle" x="990.5" y="-301.8" font-family="Helvetica,sans-Serif" font-size="9.00">Substance</text>
</a>
</g>
</g>
<!-- 246075003\nCausative agent&#45;&gt;&lt;&lt; 105590001\nSubstance -->
<g id="edge2" class="edge">
<title>246075003\nCausative agent&#45;&gt;&lt;&lt; 105590001\nSubstance</title>
<g id="a_edge2"><a xlink:title="Causative agent &#45;&gt; Substance">
<path fill="none" stroke="blue" d="M632.28,-390C714.79,-390 873,-390 873,-390 873,-390 873,-315 873,-315 873,-315 935.74,-315 935.74,-315"/>
<polygon fill="blue" stroke="blue" points="945.74,-315 935.74,-319.5 940.74,-315 935.74,-315 935.74,-315 935.74,-315 940.74,-315 935.74,-310.5 945.74,-315 945.74,-315"/>
</a>
</g>
</g>
<!-- &lt;&lt; 260787004\nPhysical object -->
<g id="node4" class="node">
<title>&lt;&lt; 260787004\nPhysical object</title>
<g id="a_node4"><a xlink:href="http://snomed.info/id/260787004" xlink:title="&lt;&lt; 260787004 Physical object&#10;&#10;IN RANGE OF:&#10;Associated with&#10;Causative agent&#10;&#10;FROM DOMAIN:&#10;Event&#10;">
<polygon fill="#bfefff" stroke="black" points="1035,-489 946,-489 946,-453 1035,-453 1035,-489"/>
<text text-anchor="middle" x="990.5" y="-473.8" font-family="Helvetica,sans-Serif" font-size="9.00">&lt;&lt; 260787004</text>
<text text-anchor="middle" x="990.5" y="-463.8" font-family="Helvetica,sans-Serif" font-size="9.00">Physical object</text>
</a>
</g>
</g>
<!-- 246075003\nCausative agent&#45;&gt;&lt;&lt; 260787004\nPhysical object -->
<g id="edge3" class="edge">
<title>246075003\nCausative agent&#45;&gt;&lt;&lt; 260787004\nPhysical object</title>
<g id="a_edge3"><a xlink:title="Causative agent &#45;&gt; Physical object">
<path fill="none" stroke="blue" d="M599,-419.18C599,-436.45 599,-457.5 599,-457.5 599,-457.5 935.97,-457.5 935.97,-457.5"/>
<polygon fill="blue" stroke="blue" points="945.97,-457.5 935.97,-462 940.97,-457.5 935.97,-457.5 935.97,-457.5 935.97,-457.5 940.97,-457.5 935.97,-453 945.97,-457.5 945.97,-457.5"/>
</a>
</g>
</g>
<!-- &lt;&lt; 373873005\nPharmaceutical / biologic product -->
<g id="node5" class="node">
<title>&lt;&lt; 373873005\nPharmaceutical / biologic product</title>
<g id="a_node5"><a xlink:href="http://snomed.info/id/373873005" xlink:title="&lt;&lt; 373873005 Pharmaceutical / biologic product&#10;&#10;IN RANGE OF:&#10;Causative agent&#10;&#10;FROM DOMAIN:&#10;Event&#10;">
<polygon fill="#bfefff" stroke="black" points="891,-537 722,-537 722,-501 891,-501 891,-537"/>
<text text-anchor="middle" x="806.5" y="-521.8" font-family="Helvetica,sans-Serif" font-size="9.00">&lt;&lt; 373873005</text>
<text text-anchor="middle" x="806.5" y="-511.8" font-family="Helvetica,sans-Serif" font-size="9.00">Pharmaceutical / biologic product</text>
</a>
</g>
</g>
<!-- 246075003\nCausative agent&#45;&gt;&lt;&lt; 373873005\nPharmaceutical / biologic product -->
<g id="edge4" class="edge">
<title>246075003\nCausative agent&#45;&gt;&lt;&lt; 373873005\nPharmaceutical / biologic product</title>
<g id="a_edge4"><a xlink:title="Causative agent &#45;&gt; Pharmaceutical / biologic product">
<path fill="none" stroke="blue" d="M632.04,-414C678.32,-414 741,-414 741,-414 741,-414 741,-490.71 741,-490.71"/>
<polygon fill="blue" stroke="blue" points="741,-500.71 736.5,-490.71 741,-495.71 741,-490.71 741,-490.71 741,-490.71 741,-495.71 745.5,-490.71 741,-500.71 741,-500.71"/>
</a>
</g>
</g>
<!-- &lt;&lt; 410607006\nOrganism -->
<g id="node6" class="node">
<title>&lt;&lt; 410607006\nOrganism</title>
<g id="a_node6"><a xlink:href="http://snomed.info/id/410607006" xlink:title="&lt;&lt; 410607006 Organism&#10;&#10;IN RANGE OF:&#10;Associated with&#10;Causative agent&#10;&#10;FROM DOMAIN:&#10;Event&#10;">
<polygon fill="#bfefff" stroke="black" points="1035,-435 946,-435 946,-399 1035,-399 1035,-435"/>
<text text-anchor="middle" x="990.5" y="-419.8" font-family="Helvetica,sans-Serif" font-size="9.00">&lt;&lt; 410607006</text>
<text text-anchor="middle" x="990.5" y="-409.8" font-family="Helvetica,sans-Serif" font-size="9.00">Organism</text>
</a>
</g>
</g>
<!-- 246075003\nCausative agent&#45;&gt;&lt;&lt; 410607006\nOrganism -->
<g id="edge5" class="edge">
<title>246075003\nCausative agent&#45;&gt;&lt;&lt; 410607006\nOrganism</title>
<g id="a_edge5"><a xlink:title="Causative agent &#45;&gt; Organism">
<path fill="none" stroke="blue" d="M632.19,-409C632.19,-409 935.8,-409 935.8,-409"/>
<polygon fill="blue" stroke="blue" points="945.8,-409 935.8,-413.5 940.8,-409 935.8,-409 935.8,-409 935.8,-409 940.8,-409 935.8,-404.5 945.8,-409 945.8,-409"/>
</a>
</g>
</g>
<!-- &lt;&lt; 78621006\nPhysical force -->
<g id="node7" class="node">
<title>&lt;&lt; 78621006\nPhysical force</title>
<g id="a_node7"><a xlink:href="http://snomed.info/id/78621006" xlink:title="&lt;&lt; 78621006 Physical force&#10;&#10;IN RANGE OF:&#10;Associated with&#10;Causative agent&#10;&#10;FROM DOMAIN:&#10;Event&#10;">
<polygon fill="#bfefff" stroke="black" points="1032,-381 949,-381 949,-345 1032,-345 1032,-381"/>
<text text-anchor="middle" x="990.5" y="-365.8" font-family="Helvetica,sans-Serif" font-size="9.00">&lt;&lt; 78621006</text>
<text text-anchor="middle" x="990.5" y="-355.8" font-family="Helvetica,sans-Serif" font-size="9.00">Physical force</text>
</a>
</g>
</g>
<!-- 246075003\nCausative agent&#45;&gt;&lt;&lt; 78621006\nPhysical force -->
<g id="edge6" class="edge">
<title>246075003\nCausative agent&#45;&gt;&lt;&lt; 78621006\nPhysical force</title>
<g id="a_edge6"><a xlink:title="Causative agent &#45;&gt; Physical force">
<path fill="none" stroke="blue" d="M624,-374.62C624,-372.43 624,-371 624,-371 624,-371 938.81,-371 938.81,-371"/>
<polygon fill="blue" stroke="blue" points="948.81,-371 938.81,-375.5 943.81,-371 938.81,-371 938.81,-371 938.81,-371 943.81,-371 938.81,-366.5 948.81,-371 948.81,-371"/>
</a>
</g>
</g>
<!-- 246075003\nCausative agent&#45;&gt;47429007\nAssociated with -->
<g id="edge47" class="edge">
<title>246075003\nCausative agent&#45;&gt;47429007\nAssociated with</title>
<g id="a_edge47"><a xlink:title="Causative agent is_a Associated with">
<path fill="none" stroke="black" d="M628,-374.73C628,-351.99 628,-320 628,-320 628,-320 748.67,-320 748.67,-320"/>
<polygon fill="none" stroke="black" points="748.67,-323.5 758.67,-320 748.67,-316.5 748.67,-323.5"/>
</a>
</g>
</g>
<!-- &lt;&lt; 105590001\nSubstance&#45;&gt;138875005\nSNOMED CT Concept -->
<g id="edge41" class="edge">
<title>&lt;&lt; 105590001\nSubstance&#45;&gt;138875005\nSNOMED CT Concept</title>
<g id="a_edge41"><a xlink:title="Substance is_a SNOMED CT Concept">
<path fill="none" stroke="black" d="M1035.29,-309C1063.27,-309 1094,-309 1094,-309 1094,-309 1094,-334.72 1094,-334.72"/>
<polygon fill="none" stroke="black" points="1090.5,-334.72 1094,-344.72 1097.5,-334.72 1090.5,-334.72"/>
</a>
</g>
</g>
<!-- &lt;&lt; 260787004\nPhysical object&#45;&gt;138875005\nSNOMED CT Concept -->
<g id="edge37" class="edge">
<title>&lt;&lt; 260787004\nPhysical object&#45;&gt;138875005\nSNOMED CT Concept</title>
<g id="a_edge37"><a xlink:title="Physical object is_a SNOMED CT Concept">
<path fill="none" stroke="black" d="M1035.1,-471C1071.17,-471 1116,-471 1116,-471 1116,-471 1116,-391.32 1116,-391.32"/>
<polygon fill="none" stroke="black" points="1119.5,-391.32 1116,-381.32 1112.5,-391.32 1119.5,-391.32"/>
</a>
</g>
</g>
<!-- &lt;&lt; 373873005\nPharmaceutical / biologic product&#45;&gt;138875005\nSNOMED CT Concept -->
<g id="edge35" class="edge">
<title>&lt;&lt; 373873005\nPharmaceutical / biologic product&#45;&gt;138875005\nSNOMED CT Concept</title>
<g id="a_edge35"><a xlink:title="Pharmaceutical / biologic product is_a SNOMED CT Concept">
<path fill="none" stroke="black" d="M891.01,-519C989.22,-519 1138,-519 1138,-519 1138,-519 1138,-391.2 1138,-391.2"/>
<polygon fill="none" stroke="black" points="1141.5,-391.2 1138,-381.2 1134.5,-391.2 1141.5,-391.2"/>
</a>
</g>
</g>
<!-- &lt;&lt; 410607006\nOrganism&#45;&gt;138875005\nSNOMED CT Concept -->
<g id="edge34" class="edge">
<title>&lt;&lt; 410607006\nOrganism&#45;&gt;138875005\nSNOMED CT Concept</title>
<g id="a_edge34"><a xlink:title="Organism is_a SNOMED CT Concept">
<path fill="none" stroke="black" d="M1035.29,-417C1063.27,-417 1094,-417 1094,-417 1094,-417 1094,-391.28 1094,-391.28"/>
<polygon fill="none" stroke="black" points="1097.5,-391.28 1094,-381.28 1090.5,-391.28 1097.5,-391.28"/>
</a>
</g>
</g>
<!-- &lt;&lt; 78621006\nPhysical force&#45;&gt;138875005\nSNOMED CT Concept -->
<g id="edge36" class="edge">
<title>&lt;&lt; 78621006\nPhysical force&#45;&gt;138875005\nSNOMED CT Concept</title>
<g id="a_edge36"><a xlink:title="Physical force is_a SNOMED CT Concept">
<path fill="none" stroke="black" d="M1032.04,-363C1032.04,-363 1060.68,-363 1060.68,-363"/>
<polygon fill="none" stroke="black" points="1060.68,-366.5 1070.68,-363 1060.68,-359.5 1060.68,-366.5"/>
</a>
</g>
</g>
<!-- &lt;&lt; 282032007\nPeriods of life -->
<g id="node9" class="node">
<title>&lt;&lt; 282032007\nPeriods of life</title>
<g id="a_node9"><a xlink:href="http://snomed.info/id/282032007" xlink:title="&lt;&lt; 282032007 Periods of life&#10;&#10;IN RANGE OF:&#10;Occurrence&#10;&#10;FROM DOMAIN:&#10;Event&#10;">
<polygon fill="#bfefff" stroke="black" points="628,-532 539,-532 539,-496 628,-496 628,-532"/>
<text text-anchor="middle" x="583.5" y="-516.8" font-family="Helvetica,sans-Serif" font-size="9.00">&lt;&lt; 282032007</text>
<text text-anchor="middle" x="583.5" y="-506.8" font-family="Helvetica,sans-Serif" font-size="9.00">Periods of life</text>
</a>
</g>
</g>
<!-- 246454002\nOccurrence&#45;&gt;&lt;&lt; 282032007\nPeriods of life -->
<g id="edge8" class="edge">
<title>246454002\nOccurrence&#45;&gt;&lt;&lt; 282032007\nPeriods of life</title>
<g id="a_edge8"><a xlink:title="Occurrence &#45;&gt; Periods of life">
<path fill="none" stroke="blue" d="M410.59,-459.75C468.37,-459.75 569,-459.75 569,-459.75 569,-459.75 569,-485.94 569,-485.94"/>
<polygon fill="blue" stroke="blue" points="569,-495.94 564.5,-485.94 569,-490.94 569,-485.94 569,-485.94 569,-485.94 569,-490.94 573.5,-485.94 569,-495.94 569,-495.94"/>
</a>
</g>
</g>
<!-- 362981000\nQualifier value -->
<g id="node19" class="node">
<title>362981000\nQualifier value</title>
<g id="a_node19"><a xlink:title=" ">
<polygon fill="palegreen" stroke="black" points="847,-591 766,-591 766,-555 847,-555 847,-591"/>
<text text-anchor="middle" x="806.5" y="-575.8" font-family="Helvetica,sans-Serif" font-size="9.00">362981000</text>
<text text-anchor="middle" x="806.5" y="-565.8" font-family="Helvetica,sans-Serif" font-size="9.00">Qualifier value</text>
</a>
</g>
</g>
<!-- &lt;&lt; 282032007\nPeriods of life&#45;&gt;362981000\nQualifier value -->
<g id="edge39" class="edge">
<title>&lt;&lt; 282032007\nPeriods of life&#45;&gt;362981000\nQualifier value</title>
<g id="a_edge39"><a xlink:title="Periods of life is_a Qualifier value">
<path fill="none" stroke="black" d="M584,-532.02C584,-549.37 584,-573 584,-573 584,-573 755.95,-573 755.95,-573"/>
<polygon fill="none" stroke="black" points="755.95,-576.5 765.95,-573 755.95,-569.5 755.95,-576.5"/>
</a>
</g>
</g>
<!-- 255234002\nAfter&#45;&gt;&lt;&lt; 272379006\nEvent -->
<g id="edge10" class="edge">
<title>255234002\nAfter&#45;&gt;&lt;&lt; 272379006\nEvent</title>
<g id="a_edge10"><a xlink:title="After &#45;&gt; Event">
<path fill="none" stroke="blue" d="M331.39,-209.33C331.39,-209.33 175.92,-209.33 175.92,-209.33"/>
<polygon fill="blue" stroke="blue" points="165.92,-209.33 175.92,-204.83 170.92,-209.33 175.92,-209.33 175.92,-209.33 175.92,-209.33 170.92,-209.33 175.92,-213.83 165.92,-209.33 165.92,-209.33"/>
</a>
</g>
</g>
<!-- &lt;&lt; 404684003\nClinical finding -->
<g id="node11" class="node">
<title>&lt;&lt; 404684003\nClinical finding</title>
<g id="a_node11"><a xlink:href="http://snomed.info/id/404684003" xlink:title="&lt;&lt; 404684003 Clinical finding&#10;&#10;IN RANGE OF:&#10;After&#10;Associated with&#10;Due to&#10;Temporally related to&#10;&#10;FROM DOMAIN:&#10;Event&#10;">
<polygon fill="#bfefff" stroke="black" points="1035,-273 946,-273 946,-237 1035,-237 1035,-273"/>
<text text-anchor="middle" x="990.5" y="-257.8" font-family="Helvetica,sans-Serif" font-size="9.00">&lt;&lt; 404684003</text>
<text text-anchor="middle" x="990.5" y="-247.8" font-family="Helvetica,sans-Serif" font-size="9.00">Clinical finding</text>
</a>
</g>
</g>
<!-- 255234002\nAfter&#45;&gt;&lt;&lt; 404684003\nClinical finding -->
<g id="edge11" class="edge">
<title>255234002\nAfter&#45;&gt;&lt;&lt; 404684003\nClinical finding</title>
<g id="a_edge11"><a xlink:title="After &#45;&gt; Clinical finding">
<path fill="none" stroke="blue" d="M410.73,-198.33C547.57,-198.33 991,-198.33 991,-198.33 991,-198.33 991,-226.76 991,-226.76"/>
<polygon fill="blue" stroke="blue" points="991,-236.76 986.5,-226.76 991,-231.76 991,-226.76 991,-226.76 991,-226.76 991,-231.76 995.5,-226.76 991,-236.76 991,-236.76"/>
</a>
</g>
</g>
<!-- &lt;&lt; 71388002\nProcedure -->
<g id="node12" class="node">
<title>&lt;&lt; 71388002\nProcedure</title>
<g id="a_node12"><a xlink:href="http://snomed.info/id/71388002" xlink:title="&lt;&lt; 71388002 Procedure&#10;&#10;IN RANGE OF:&#10;After&#10;Associated with&#10;Before&#10;Due to&#10;During&#10;Temporally related to&#10;&#10;FROM DOMAIN:&#10;Event&#10;">
<polygon fill="#bfefff" stroke="black" points="1032,-125 949,-125 949,-89 1032,-89 1032,-125"/>
<text text-anchor="middle" x="990.5" y="-109.8" font-family="Helvetica,sans-Serif" font-size="9.00">&lt;&lt; 71388002</text>
<text text-anchor="middle" x="990.5" y="-99.8" font-family="Helvetica,sans-Serif" font-size="9.00">Procedure</text>
</a>
</g>
</g>
<!-- 255234002\nAfter&#45;&gt;&lt;&lt; 71388002\nProcedure -->
<g id="edge12" class="edge">
<title>255234002\nAfter&#45;&gt;&lt;&lt; 71388002\nProcedure</title>
<g id="a_edge12"><a xlink:title="After &#45;&gt; Procedure">
<path fill="none" stroke="blue" d="M385,-168.61C385,-145.75 385,-113.6 385,-113.6 385,-113.6 938.88,-113.6 938.88,-113.6"/>
<polygon fill="blue" stroke="blue" points="948.88,-113.6 938.88,-118.1 943.88,-113.6 938.88,-113.6 938.88,-113.6 938.88,-113.6 943.88,-113.6 938.88,-109.1 948.88,-113.6 948.88,-113.6"/>
</a>
</g>
</g>
<!-- 255234002\nAfter&#45;&gt;726633004\nTemporally related to -->
<g id="edge42" class="edge">
<title>255234002\nAfter&#45;&gt;726633004\nTemporally related to</title>
<g id="a_edge42"><a xlink:title="After is_a Temporally related to">
<path fill="none" stroke="black" d="M410.62,-183.67C457.13,-183.67 528,-183.67 528,-183.67 528,-183.67 528,-115.34 528,-115.34"/>
<polygon fill="none" stroke="black" points="531.5,-115.34 528,-105.34 524.5,-115.34 531.5,-115.34"/>
</a>
</g>
</g>
<!-- &lt;&lt; 404684003\nClinical finding&#45;&gt;138875005\nSNOMED CT Concept -->
<g id="edge32" class="edge">
<title>&lt;&lt; 404684003\nClinical finding&#45;&gt;138875005\nSNOMED CT Concept</title>
<g id="a_edge32"><a xlink:title="Clinical finding is_a SNOMED CT Concept">
<path fill="none" stroke="black" d="M1035.1,-255C1071.17,-255 1116,-255 1116,-255 1116,-255 1116,-334.68 1116,-334.68"/>
<polygon fill="none" stroke="black" points="1112.5,-334.68 1116,-344.68 1119.5,-334.68 1112.5,-334.68"/>
</a>
</g>
</g>
<!-- &lt;&lt; 71388002\nProcedure&#45;&gt;138875005\nSNOMED CT Concept -->
<g id="edge38" class="edge">
<title>&lt;&lt; 71388002\nProcedure&#45;&gt;138875005\nSNOMED CT Concept</title>
<g id="a_edge38"><a xlink:title="Procedure is_a SNOMED CT Concept">
<path fill="none" stroke="black" d="M1032.4,-107C1082.59,-107 1160,-107 1160,-107 1160,-107 1160,-335 1160,-335"/>
<polygon fill="none" stroke="black" points="1156.5,-335 1160,-345 1163.5,-335 1156.5,-335"/>
</a>
</g>
</g>
<!-- 288556008\nBefore&#45;&gt;&lt;&lt; 71388002\nProcedure -->
<g id="edge14" class="edge">
<title>288556008\nBefore&#45;&gt;&lt;&lt; 71388002\nProcedure</title>
<g id="a_edge14"><a xlink:title="Before &#45;&gt; Procedure">
<path fill="none" stroke="blue" d="M358,-106.21C358,-108.38 358,-109.8 358,-109.8 358,-109.8 939,-109.8 939,-109.8"/>
<polygon fill="blue" stroke="blue" points="949,-109.8 939,-114.3 944,-109.8 939,-109.8 939,-109.8 939,-109.8 944,-109.8 939,-105.3 949,-109.8 949,-109.8"/>
</a>
</g>
</g>
<!-- 288556008\nBefore&#45;&gt;726633004\nTemporally related to -->
<g id="edge44" class="edge">
<title>288556008\nBefore&#45;&gt;726633004\nTemporally related to</title>
<g id="a_edge44"><a xlink:title="Before is_a Temporally related to">
<path fill="none" stroke="black" d="M410.97,-83.5C410.97,-83.5 513.62,-83.5 513.62,-83.5"/>
<polygon fill="none" stroke="black" points="513.62,-87 523.62,-83.5 513.62,-80 513.62,-87"/>
</a>
</g>
</g>
<!-- 371881003\nDuring&#45;&gt;&lt;&lt; 71388002\nProcedure -->
<g id="edge16" class="edge">
<title>371881003\nDuring&#45;&gt;&lt;&lt; 71388002\nProcedure</title>
<g id="a_edge16"><a xlink:title="During &#45;&gt; Procedure">
<path fill="none" stroke="blue" d="M410.73,-14.67C547.57,-14.67 991,-14.67 991,-14.67 991,-14.67 991,-78.76 991,-78.76"/>
<polygon fill="blue" stroke="blue" points="991,-88.76 986.5,-78.76 991,-83.76 991,-78.76 991,-78.76 991,-78.76 991,-83.76 995.5,-78.76 991,-88.76 991,-88.76"/>
</a>
</g>
</g>
<!-- 371881003\nDuring&#45;&gt;726633004\nTemporally related to -->
<g id="edge46" class="edge">
<title>371881003\nDuring&#45;&gt;726633004\nTemporally related to</title>
<g id="a_edge46"><a xlink:title="During is_a Temporally related to">
<path fill="none" stroke="black" d="M410.56,-29.33C472.16,-29.33 584,-29.33 584,-29.33 584,-29.33 584,-50.86 584,-50.86"/>
<polygon fill="none" stroke="black" points="580.5,-50.86 584,-60.86 587.5,-50.86 580.5,-50.86"/>
</a>
</g>
</g>
<!-- 42752001\nDue to&#45;&gt;&lt;&lt; 272379006\nEvent -->
<g id="edge18" class="edge">
<title>42752001\nDue to&#45;&gt;&lt;&lt; 272379006\nEvent</title>
<g id="a_edge18"><a xlink:title="Due to &#45;&gt; Event">
<path fill="none" stroke="blue" d="M546.82,-232C546.82,-232 175.71,-232 175.71,-232"/>
<polygon fill="blue" stroke="blue" points="165.71,-232 175.71,-227.5 170.71,-232 175.71,-232 175.71,-232 175.71,-232 170.71,-232 175.71,-236.5 165.71,-232 165.71,-232"/>
</a>
</g>
</g>
<!-- 42752001\nDue to&#45;&gt;&lt;&lt; 404684003\nClinical finding -->
<g id="edge19" class="edge">
<title>42752001\nDue to&#45;&gt;&lt;&lt; 404684003\nClinical finding</title>
<g id="a_edge19"><a xlink:title="Due to &#45;&gt; Clinical finding">
<path fill="none" stroke="blue" d="M620.34,-254.5C620.34,-254.5 935.8,-254.5 935.8,-254.5"/>
<polygon fill="blue" stroke="blue" points="945.8,-254.5 935.8,-259 940.8,-254.5 935.8,-254.5 935.8,-254.5 935.8,-254.5 940.8,-254.5 935.8,-250 945.8,-254.5 945.8,-254.5"/>
</a>
</g>
</g>
<!-- 42752001\nDue to&#45;&gt;&lt;&lt; 71388002\nProcedure -->
<g id="edge20" class="edge">
<title>42752001\nDue to&#45;&gt;&lt;&lt; 71388002\nProcedure</title>
<g id="a_edge20"><a xlink:title="Due to &#45;&gt; Procedure">
<path fill="none" stroke="blue" d="M584,-227.81C584,-190.06 584,-117.4 584,-117.4 584,-117.4 938.91,-117.4 938.91,-117.4"/>
<polygon fill="blue" stroke="blue" points="948.91,-117.4 938.91,-121.9 943.91,-117.4 938.91,-117.4 938.91,-117.4 938.91,-117.4 943.91,-117.4 938.91,-112.9 948.91,-117.4 948.91,-117.4"/>
</a>
</g>
</g>
<!-- 42752001\nDue to&#45;&gt;47429007\nAssociated with -->
<g id="edge45" class="edge">
<title>42752001\nDue to&#45;&gt;47429007\nAssociated with</title>
<g id="a_edge45"><a xlink:title="Due to is_a Associated with">
<path fill="none" stroke="black" d="M584,-272.31C584,-289.01 584,-309 584,-309 584,-309 748.77,-309 748.77,-309"/>
<polygon fill="none" stroke="black" points="748.77,-312.5 758.77,-309 748.77,-305.5 748.77,-312.5"/>
</a>
</g>
</g>
<!-- 47429007\nAssociated with&#45;&gt;&lt;&lt; 272379006\nEvent -->
<g id="edge24" class="edge">
<title>47429007\nAssociated with&#45;&gt;&lt;&lt; 272379006\nEvent</title>
<g id="a_edge24"><a xlink:title="Associated with &#45;&gt; Event">
<path fill="none" stroke="blue" d="M797,-286.6C797,-260.82 797,-222 797,-222 797,-222 175.62,-222 175.62,-222"/>
<polygon fill="blue" stroke="blue" points="165.62,-222 175.62,-217.5 170.62,-222 175.62,-222 175.62,-222 175.62,-222 170.62,-222 175.62,-226.5 165.62,-222 165.62,-222"/>
</a>
</g>
</g>
<!-- 47429007\nAssociated with&#45;&gt;&lt;&lt; 105590001\nSubstance -->
<g id="edge22" class="edge">
<title>47429007\nAssociated with&#45;&gt;&lt;&lt; 105590001\nSubstance</title>
<g id="a_edge22"><a xlink:title="Associated with &#45;&gt; Substance">
<path fill="none" stroke="blue" d="M854.36,-303C854.36,-303 935.72,-303 935.72,-303"/>
<polygon fill="blue" stroke="blue" points="945.72,-303 935.72,-307.5 940.72,-303 935.72,-303 935.72,-303 935.72,-303 940.72,-303 935.72,-298.5 945.72,-303 945.72,-303"/>
</a>
</g>
</g>
<!-- 47429007\nAssociated with&#45;&gt;&lt;&lt; 260787004\nPhysical object -->
<g id="edge23" class="edge">
<title>47429007\nAssociated with&#45;&gt;&lt;&lt; 260787004\nPhysical object</title>
<g id="a_edge23"><a xlink:title="Associated with &#45;&gt; Physical object">
<path fill="none" stroke="blue" d="M783,-331.21C783,-372.13 783,-455.25 783,-455.25 783,-455.25 935.99,-455.25 935.99,-455.25"/>
<polygon fill="blue" stroke="blue" points="945.99,-455.25 935.99,-459.75 940.99,-455.25 935.99,-455.25 935.99,-455.25 935.99,-455.25 940.99,-455.25 935.99,-450.75 945.99,-455.25 945.99,-455.25"/>
</a>
</g>
</g>
<!-- 47429007\nAssociated with&#45;&gt;&lt;&lt; 410607006\nOrganism -->
<g id="edge26" class="edge">
<title>47429007\nAssociated with&#45;&gt;&lt;&lt; 410607006\nOrganism</title>
<g id="a_edge26"><a xlink:title="Associated with &#45;&gt; Organism">
<path fill="none" stroke="blue" d="M807,-331.03C807,-359.1 807,-404 807,-404 807,-404 935.61,-404 935.61,-404"/>
<polygon fill="blue" stroke="blue" points="945.61,-404 935.61,-408.5 940.61,-404 935.61,-404 935.61,-404 935.61,-404 940.61,-404 935.61,-399.5 945.61,-404 945.61,-404"/>
</a>
</g>
</g>
<!-- 47429007\nAssociated with&#45;&gt;&lt;&lt; 78621006\nPhysical force -->
<g id="edge28" class="edge">
<title>47429007\nAssociated with&#45;&gt;&lt;&lt; 78621006\nPhysical force</title>
<g id="a_edge28"><a xlink:title="Associated with &#45;&gt; Physical force">
<path fill="none" stroke="blue" d="M831,-331.12C831,-343.31 831,-356 831,-356 831,-356 938.59,-356 938.59,-356"/>
<polygon fill="blue" stroke="blue" points="948.59,-356 938.59,-360.5 943.59,-356 938.59,-356 938.59,-356 938.59,-356 943.59,-356 938.59,-351.5 948.59,-356 948.59,-356"/>
</a>
</g>
</g>
<!-- 47429007\nAssociated with&#45;&gt;&lt;&lt; 404684003\nClinical finding -->
<g id="edge25" class="edge">
<title>47429007\nAssociated with&#45;&gt;&lt;&lt; 404684003\nClinical finding</title>
<g id="a_edge25"><a xlink:title="Associated with &#45;&gt; Clinical finding">
<path fill="none" stroke="blue" d="M835,-286.93C835,-275.23 835,-263.25 835,-263.25 835,-263.25 935.94,-263.25 935.94,-263.25"/>
<polygon fill="blue" stroke="blue" points="945.94,-263.25 935.94,-267.75 940.94,-263.25 935.94,-263.25 935.94,-263.25 935.94,-263.25 940.94,-263.25 935.94,-258.75 945.94,-263.25 945.94,-263.25"/>
</a>
</g>
</g>
<!-- 47429007\nAssociated with&#45;&gt;&lt;&lt; 71388002\nProcedure -->
<g id="edge27" class="edge">
<title>47429007\nAssociated with&#45;&gt;&lt;&lt; 71388002\nProcedure</title>
<g id="a_edge27"><a xlink:title="Associated with &#45;&gt; Procedure">
<path fill="none" stroke="blue" d="M816,-286.72C816,-236.97 816,-121.2 816,-121.2 816,-121.2 938.7,-121.2 938.7,-121.2"/>
<polygon fill="blue" stroke="blue" points="948.7,-121.2 938.7,-125.7 943.7,-121.2 938.7,-121.2 938.7,-121.2 938.7,-121.2 943.7,-121.2 938.7,-116.7 948.7,-121.2 948.7,-121.2"/>
</a>
</g>
</g>
<!-- 726633004\nTemporally related to&#45;&gt;&lt;&lt; 404684003\nClinical finding -->
<g id="edge30" class="edge">
<title>726633004\nTemporally related to&#45;&gt;&lt;&lt; 404684003\nClinical finding</title>
<g id="a_edge30"><a xlink:title="Temporally related to &#45;&gt; Clinical finding">
<path fill="none" stroke="blue" d="M640,-105.29C640,-149.86 640,-245.75 640,-245.75 640,-245.75 935.75,-245.75 935.75,-245.75"/>
<polygon fill="blue" stroke="blue" points="945.75,-245.75 935.75,-250.25 940.75,-245.75 935.75,-245.75 935.75,-245.75 935.75,-245.75 940.75,-245.75 935.75,-241.25 945.75,-245.75 945.75,-245.75"/>
</a>
</g>
</g>
<!-- 726633004\nTemporally related to&#45;&gt;&lt;&lt; 71388002\nProcedure -->
<g id="edge31" class="edge">
<title>726633004\nTemporally related to&#45;&gt;&lt;&lt; 71388002\nProcedure</title>
<g id="a_edge31"><a xlink:title="Temporally related to &#45;&gt; Procedure">
<path fill="none" stroke="blue" d="M643.12,-97C643.12,-97 938.72,-97 938.72,-97"/>
<polygon fill="blue" stroke="blue" points="948.72,-97 938.72,-101.5 943.72,-97 938.72,-97 938.72,-97 938.72,-97 943.72,-97 938.72,-92.5 948.72,-97 948.72,-97"/>
</a>
</g>
</g>
<!-- 726633004\nTemporally related to&#45;&gt;47429007\nAssociated with -->
<g id="edge43" class="edge">
<title>726633004\nTemporally related to&#45;&gt;47429007\nAssociated with</title>
<g id="a_edge43"><a xlink:title="Temporally related to is_a Associated with">
<path fill="none" stroke="black" d="M636,-105.2C636,-160.13 636,-298 636,-298 636,-298 748.55,-298 748.55,-298"/>
<polygon fill="none" stroke="black" points="748.55,-301.5 758.55,-298 748.55,-294.5 748.55,-301.5"/>
</a>
</g>
</g>
<!-- 362981000\nQualifier value&#45;&gt;138875005\nSNOMED CT Concept -->
<g id="edge40" class="edge">
<title>362981000\nQualifier value&#45;&gt;138875005\nSNOMED CT Concept</title>
<g id="a_edge40"><a xlink:title="Qualifier value is_a SNOMED CT Concept">
<path fill="none" stroke="black" d="M847.05,-573C939.9,-573 1160,-573 1160,-573 1160,-573 1160,-391.27 1160,-391.27"/>
<polygon fill="none" stroke="black" points="1163.5,-391.27 1160,-381.27 1156.5,-391.27 1163.5,-391.27"/>
</a>
</g>
</g>
<!-- 900000000000441003\nSNOMED CT Model Component -->
<!-- diagramLabel -->
<g id="node21" class="node">
<title>diagramLabel</title>
<g id="a_node21"><a xlink:title=" ">
<polygon fill="palegreen" stroke="black" points="0,-423.5 0,-554.5 242,-554.5 242,-423.5 0,-423.5"/>
<text text-anchor="middle" x="121" y="-540.9" font-family="Helvetica,sans-Serif" font-size="12.00">Simplified diagram of SNOMED CT</text>
<text text-anchor="middle" x="121" y="-527.9" font-family="Helvetica,sans-Serif" font-size="12.00">MRCM Domain and Range constraints</text>
<polyline fill="none" stroke="black" points="0,-520.5 242,-520.5 "/>
<text text-anchor="middle" x="121" y="-506.9" font-family="Helvetica,sans-Serif" font-size="12.00">Pre&#45;coordination view</text>
<polyline fill="none" stroke="black" points="0,-499.5 242,-499.5 "/>
<text text-anchor="middle" x="121" y="-485.9" font-family="Helvetica,sans-Serif" font-size="12.00">Showing domains:</text>
<text text-anchor="middle" x="121" y="-472.9" font-family="Helvetica,sans-Serif" font-size="12.00">272379006 Event</text>
<polyline fill="none" stroke="black" points="0,-465.5 242,-465.5 "/>
<text text-anchor="middle" x="121" y="-451.9" font-family="Helvetica,sans-Serif" font-size="12.00">20210131 International data</text>
<polyline fill="none" stroke="black" points="0,-444.5 242,-444.5 "/>
<text text-anchor="middle" x="121" y="-430.9" font-family="Helvetica,sans-Serif" font-size="12.00">Drawn September 22, 2021</text>
</a>
</g>
</g>
<!-- &lt;&lt; XXXXXXXX\nDefined domain concept -->
<g id="node22" class="node">
<title>&lt;&lt; XXXXXXXX\nDefined domain concept</title>
<g id="a_node22"><a xlink:title=" ">
<polygon fill="lightpink" stroke="black" points="185,-856 57,-856 57,-820 185,-820 185,-856"/>
<polygon fill="none" stroke="black" points="189,-860 53,-860 53,-816 189,-816 189,-860"/>
<text text-anchor="middle" x="121" y="-840.8" font-family="Helvetica,sans-Serif" font-size="9.00">&lt;&lt; XXXXXXXX</text>
<text text-anchor="middle" x="121" y="-830.8" font-family="Helvetica,sans-Serif" font-size="9.00">Defined domain concept</text>
</a>
</g>
</g>
<!-- XXXXXXXX\nAttribute name -->
<g id="node23" class="node">
<title>XXXXXXXX\nAttribute name</title>
<g id="a_node23"><a xlink:title=" ">
<polygon fill="#fffacd" stroke="black" points="414,-827 328,-827 328,-791 414,-791 414,-827"/>
<polygon fill="none" stroke="black" points="418,-831 324,-831 324,-787 418,-787 418,-831"/>
<text text-anchor="middle" x="371" y="-811.8" font-family="Helvetica,sans-Serif" font-size="9.00">XXXXXXXX</text>
<text text-anchor="middle" x="371" y="-801.8" font-family="Helvetica,sans-Serif" font-size="9.00">Attribute name</text>
</a>
</g>
</g>
<!-- &lt;&lt; XXXXXXXX\nDefined domain concept&#45;&gt;XXXXXXXX\nAttribute name -->
<g id="edge48" class="edge">
<title>&lt;&lt; XXXXXXXX\nDefined domain concept&#45;&gt;XXXXXXXX\nAttribute name</title>
<path fill="none" stroke="red" d="M189.31,-823.5C189.31,-823.5 313.74,-823.5 313.74,-823.5"/>
<polygon fill="red" stroke="red" points="323.74,-823.5 313.74,-828 318.74,-823.5 313.74,-823.5 313.74,-823.5 313.74,-823.5 318.74,-823.5 313.74,-819 323.74,-823.5 323.74,-823.5"/>
</g>
<!-- &lt;&lt; XXXXXXXX\nDomain and\n range concept\n(operators the same) -->
<g id="node25" class="node">
<title>&lt;&lt; XXXXXXXX\nDomain and\n range concept\n(operators the same)</title>
<g id="a_node25"><a xlink:title=" ">
<polygon fill="violet" stroke="black" points="639.5,-833 527.5,-833 527.5,-785 639.5,-785 639.5,-833"/>
<polygon fill="none" stroke="black" points="643.5,-837 523.5,-837 523.5,-781 643.5,-781 643.5,-837"/>
<text text-anchor="middle" x="583.5" y="-821.8" font-family="Helvetica,sans-Serif" font-size="9.00">&lt;&lt; XXXXXXXX</text>
<text text-anchor="middle" x="583.5" y="-811.8" font-family="Helvetica,sans-Serif" font-size="9.00">Domain and</text>
<text text-anchor="middle" x="583.5" y="-801.8" font-family="Helvetica,sans-Serif" font-size="9.00"> range concept</text>
<text text-anchor="middle" x="583.5" y="-791.8" font-family="Helvetica,sans-Serif" font-size="9.00">(operators the same)</text>
</a>
</g>
</g>
<!-- XXXXXXXX\nAttribute name&#45;&gt;&lt;&lt; XXXXXXXX\nDomain and\n range concept\n(operators the same) -->
<g id="edge50" class="edge">
<title>XXXXXXXX\nAttribute name&#45;&gt;&lt;&lt; XXXXXXXX\nDomain and\n range concept\n(operators the same)</title>
<path fill="none" stroke="blue" d="M418.16,-801.67C418.16,-801.67 513.13,-801.67 513.13,-801.67"/>
<polygon fill="blue" stroke="blue" points="523.13,-801.67 513.13,-806.17 518.13,-801.67 513.13,-801.67 513.13,-801.67 513.13,-801.67 518.13,-801.67 513.13,-797.17 523.13,-801.67 523.13,-801.67"/>
</g>
<!-- &lt;&lt; XXXXXXXX\nDomain and\n range concept\n(operators differ) -->
<g id="node26" class="node">
<title>&lt;&lt; XXXXXXXX\nDomain and\n range concept\n(operators differ)</title>
<g id="a_node26"><a xlink:title=" ">
<polygon fill="violet" stroke="black" points="630,-903 537,-903 537,-855 630,-855 630,-903"/>
<text text-anchor="middle" x="583.5" y="-891.8" font-family="Helvetica,sans-Serif" font-size="9.00" fill="white">&lt;&lt; XXXXXXXX</text>
<text text-anchor="middle" x="583.5" y="-881.8" font-family="Helvetica,sans-Serif" font-size="9.00" fill="white">Domain and</text>
<text text-anchor="middle" x="583.5" y="-871.8" font-family="Helvetica,sans-Serif" font-size="9.00" fill="white"> range concept</text>
<text text-anchor="middle" x="583.5" y="-861.8" font-family="Helvetica,sans-Serif" font-size="9.00" fill="white">(operators differ)</text>
</a>
</g>
</g>
<!-- XXXXXXXX\nAttribute name&#45;&gt;&lt;&lt; XXXXXXXX\nDomain and\n range concept\n(operators differ) -->
<g id="edge51" class="edge">
<title>XXXXXXXX\nAttribute name&#45;&gt;&lt;&lt; XXXXXXXX\nDomain and\n range concept\n(operators differ)</title>
<path fill="none" stroke="blue" d="M356,-831.19C356,-854.76 356,-888.67 356,-888.67 356,-888.67 526.91,-888.67 526.91,-888.67"/>
<polygon fill="blue" stroke="blue" points="536.91,-888.67 526.91,-893.17 531.91,-888.67 526.91,-888.67 526.91,-888.67 526.91,-888.67 531.91,-888.67 526.91,-884.17 536.91,-888.67 536.91,-888.67"/>
</g>
<!-- &lt;&lt; XXXXXXXX\nRange concept -->
<g id="node27" class="node">
<title>&lt;&lt; XXXXXXXX\nRange concept</title>
<g id="a_node27"><a xlink:title=" ">
<polygon fill="#bfefff" stroke="black" points="626,-763 541,-763 541,-727 626,-727 626,-763"/>
<text text-anchor="middle" x="583.5" y="-747.8" font-family="Helvetica,sans-Serif" font-size="9.00">&lt;&lt; XXXXXXXX</text>
<text text-anchor="middle" x="583.5" y="-737.8" font-family="Helvetica,sans-Serif" font-size="9.00">Range concept</text>
</a>
</g>
</g>
<!-- XXXXXXXX\nAttribute name&#45;&gt;&lt;&lt; XXXXXXXX\nRange concept -->
<g id="edge54" class="edge">
<title>XXXXXXXX\nAttribute name&#45;&gt;&lt;&lt; XXXXXXXX\nRange concept</title>
<path fill="none" stroke="blue" stroke-dasharray="5,2" d="M371,-786.8C371,-768.15 371,-744.5 371,-744.5 371,-744.5 530.75,-744.5 530.75,-744.5"/>
<polygon fill="blue" stroke="blue" points="540.75,-744.5 530.75,-749 535.75,-744.5 530.75,-744.5 530.75,-744.5 530.75,-744.5 535.75,-744.5 530.75,-740 540.75,-744.5 540.75,-744.5"/>
</g>
<!-- &lt;&lt; XXXXXXXX\nPrimitive domain concept -->
<g id="node24" class="node">
<title>&lt;&lt; XXXXXXXX\nPrimitive domain concept</title>
<g id="a_node24"><a xlink:title=" ">
<polygon fill="lightpink" stroke="black" points="187,-798 55,-798 55,-762 187,-762 187,-798"/>
<text text-anchor="middle" x="121" y="-782.8" font-family="Helvetica,sans-Serif" font-size="9.00">&lt;&lt; XXXXXXXX</text>
<text text-anchor="middle" x="121" y="-772.8" font-family="Helvetica,sans-Serif" font-size="9.00">Primitive domain concept</text>
</a>
</g>
</g>
<!-- &lt;&lt; XXXXXXXX\nPrimitive domain concept&#45;&gt;XXXXXXXX\nAttribute name -->
<g id="edge49" class="edge">
<title>&lt;&lt; XXXXXXXX\nPrimitive domain concept&#45;&gt;XXXXXXXX\nAttribute name</title>
<path fill="none" stroke="red" stroke-dasharray="5,2" d="M187.01,-792.5C187.01,-792.5 313.65,-792.5 313.65,-792.5"/>
<polygon fill="red" stroke="red" points="323.65,-792.5 313.65,-797 318.65,-792.5 313.65,-792.5 313.65,-792.5 313.65,-792.5 318.65,-792.5 313.65,-788 323.65,-792.5 323.65,-792.5"/>
</g>
<!-- &lt;&lt; XXXXXXXX\nDomain and\n range concept\n(operators the same)&#45;&gt;XXXXXXXX\nAttribute name -->
<g id="edge52" class="edge">
<title>&lt;&lt; XXXXXXXX\nDomain and\n range concept\n(operators the same)&#45;&gt;XXXXXXXX\nAttribute name</title>
<path fill="none" stroke="red" d="M523.46,-816.33C523.46,-816.33 428.09,-816.33 428.09,-816.33"/>
<polygon fill="red" stroke="red" points="418.09,-816.33 428.09,-811.83 423.09,-816.33 428.09,-816.33 428.09,-816.33 428.09,-816.33 423.09,-816.33 428.09,-820.83 418.09,-816.33 418.09,-816.33"/>
</g>
<!-- Domain and range\n relationships\n\nNote 1. Operators may differ between\ndomain and range\n\nNote 2. Dashed edge indicates\nattribute ungrouped for this domain in DL -->
<g id="node28" class="node">
<title>Domain and range\n relationships\n\nNote 1. Operators may differ between\ndomain and range\n\nNote 2. Dashed edge indicates\nattribute ungrouped for this domain in DL</title>
<g id="a_node28"><a xlink:title=" ">
<polygon fill="white" stroke="black" stroke-width="0" points="910,-853 703,-853 703,-765 910,-765 910,-853"/>
<text text-anchor="middle" x="806.5" y="-841.8" font-family="Helvetica,sans-Serif" font-size="9.00">Domain and range</text>
<text text-anchor="middle" x="806.5" y="-831.8" font-family="Helvetica,sans-Serif" font-size="9.00"> relationships</text>
<text text-anchor="middle" x="806.5" y="-811.8" font-family="Helvetica,sans-Serif" font-size="9.00">Note 1. Operators may differ between</text>
<text text-anchor="middle" x="806.5" y="-801.8" font-family="Helvetica,sans-Serif" font-size="9.00">domain and range</text>
<text text-anchor="middle" x="806.5" y="-781.8" font-family="Helvetica,sans-Serif" font-size="9.00">Note 2. Dashed edge indicates</text>
<text text-anchor="middle" x="806.5" y="-771.8" font-family="Helvetica,sans-Serif" font-size="9.00">attribute ungrouped for this domain in DL</text>
</a>
</g>
</g>
<!-- &lt;&lt; XXXXXXXX\nDomain and\n range concept\n(operators the same)&#45;&gt;Domain and range\n relationships\n\nNote 1. Operators may differ between\ndomain and range\n\nNote 2. Dashed edge indicates\nattribute ungrouped for this domain in DL -->
<!-- &lt;&lt; XXXXXXXX\nDomain and\n range concept\n(operators differ)&#45;&gt;XXXXXXXX\nAttribute name -->
<g id="edge53" class="edge">
<title>&lt;&lt; XXXXXXXX\nDomain and\n range concept\n(operators differ)&#45;&gt;XXXXXXXX\nAttribute name</title>
<path fill="none" stroke="red" d="M536.93,-874.33C478.82,-874.33 387,-874.33 387,-874.33 387,-874.33 387,-841.12 387,-841.12"/>
<polygon fill="red" stroke="red" points="387,-831.12 391.5,-841.12 387,-836.12 387,-841.12 387,-841.12 387,-841.12 387,-836.12 382.5,-841.12 387,-831.12 387,-831.12"/>
</g>
<!-- &lt;&lt; XXXXXXXX\nDomain and\n range concept\n(operators differ)&#45;&gt;Domain and range\n relationships\n\nNote 1. Operators may differ between\ndomain and range\n\nNote 2. Dashed edge indicates\nattribute ungrouped for this domain in DL -->
<!-- &lt;&lt; XXXXXXXX\nRange concept&#45;&gt;Domain and range\n relationships\n\nNote 1. Operators may differ between\ndomain and range\n\nNote 2. Dashed edge indicates\nattribute ungrouped for this domain in DL -->
<!-- &lt;&lt; XXXXXXXX\nConcept referenced in model -->
<g id="node29" class="node">
<title>&lt;&lt; XXXXXXXX\nConcept referenced in model</title>
<g id="a_node29"><a xlink:title=" ">
<polygon fill="#bfefff" stroke="black" points="195,-708 47,-708 47,-672 195,-672 195,-708"/>
<text text-anchor="middle" x="121" y="-692.8" font-family="Helvetica,sans-Serif" font-size="9.00">&lt;&lt; XXXXXXXX</text>
<text text-anchor="middle" x="121" y="-682.8" font-family="Helvetica,sans-Serif" font-size="9.00">Concept referenced in model</text>
</a>
</g>
</g>
<!-- &lt;&lt; XXXXXXXX\nAnother concept referenced in model -->
<g id="node30" class="node">
<title>&lt;&lt; XXXXXXXX\nAnother concept referenced in model</title>
<g id="a_node30"><a xlink:title=" ">
<polygon fill="#bfefff" stroke="black" points="464,-708 278,-708 278,-672 464,-672 464,-708"/>
<text text-anchor="middle" x="371" y="-692.8" font-family="Helvetica,sans-Serif" font-size="9.00">&lt;&lt; XXXXXXXX</text>
<text text-anchor="middle" x="371" y="-682.8" font-family="Helvetica,sans-Serif" font-size="9.00">Another concept referenced in model</text>
</a>
</g>
</g>
<!-- &lt;&lt; XXXXXXXX\nConcept referenced in model&#45;&gt;&lt;&lt; XXXXXXXX\nAnother concept referenced in model -->
<g id="edge58" class="edge">
<title>&lt;&lt; XXXXXXXX\nConcept referenced in model&#45;&gt;&lt;&lt; XXXXXXXX\nAnother concept referenced in model</title>
<path fill="none" stroke="black" d="M195.33,-684C195.33,-684 267.88,-684 267.88,-684"/>
<polygon fill="black" stroke="black" points="267.88,-687.5 277.88,-684 267.88,-680.5 267.88,-687.5"/>
</g>
<!-- &lt;&lt; XXXXXXXX\nConcept referenced in model&#45;&gt;&lt;&lt; XXXXXXXX\nAnother concept referenced in model -->
<g id="edge59" class="edge">
<title>&lt;&lt; XXXXXXXX\nConcept referenced in model&#45;&gt;&lt;&lt; XXXXXXXX\nAnother concept referenced in model</title>
<path fill="none" stroke="black" d="M195.33,-696C195.33,-696 265.88,-696 265.88,-696"/>
<polygon fill="black" stroke="black" points="265.88,-696 271.88,-692 277.88,-696 271.88,-700 265.88,-696"/>
</g>
<!-- XXXXXXXX\nConcept included in diagram but\nnot referenced in concept model -->
<g id="node31" class="node">
<title>XXXXXXXX\nConcept included in diagram but\nnot referenced in concept model</title>
<g id="a_node31"><a xlink:title=" ">
<polygon fill="palegreen" stroke="black" points="667,-709 500,-709 500,-671 667,-671 667,-709"/>
<text text-anchor="middle" x="583.5" y="-697.8" font-family="Helvetica,sans-Serif" font-size="9.00">XXXXXXXX</text>
<text text-anchor="middle" x="583.5" y="-687.8" font-family="Helvetica,sans-Serif" font-size="9.00">Concept included in diagram but</text>
<text text-anchor="middle" x="583.5" y="-677.8" font-family="Helvetica,sans-Serif" font-size="9.00">not referenced in concept model</text>
</a>
</g>
</g>
<!-- &lt;&lt; XXXXXXXX\nAnother concept referenced in model&#45;&gt;XXXXXXXX\nConcept included in diagram but\nnot referenced in concept model -->
<g id="edge60" class="edge">
<title>&lt;&lt; XXXXXXXX\nAnother concept referenced in model&#45;&gt;XXXXXXXX\nConcept included in diagram but\nnot referenced in concept model</title>
<path fill="none" stroke="black" d="M464.21,-690C464.21,-690 489.73,-690 489.73,-690"/>
<polygon fill="none" stroke="black" points="489.73,-693.5 499.73,-690 489.73,-686.5 489.73,-693.5"/>
</g>
<!-- Domain and range\nhierarchies\n\nNote: Filled arrows and diamonds\nindicate parent domains -->
<g id="node32" class="node">
<title>Domain and range\nhierarchies\n\nNote: Filled arrows and diamonds\nindicate parent domains</title>
<g id="a_node32"><a xlink:title=" ">
<polygon fill="white" stroke="black" stroke-width="0" points="890,-743 723,-743 723,-685 890,-685 890,-743"/>
<text text-anchor="middle" x="806.5" y="-731.8" font-family="Helvetica,sans-Serif" font-size="9.00">Domain and range</text>
<text text-anchor="middle" x="806.5" y="-721.8" font-family="Helvetica,sans-Serif" font-size="9.00">hierarchies</text>
<text text-anchor="middle" x="806.5" y="-701.8" font-family="Helvetica,sans-Serif" font-size="9.00">Note: Filled arrows and diamonds</text>
<text text-anchor="middle" x="806.5" y="-691.8" font-family="Helvetica,sans-Serif" font-size="9.00">indicate parent domains</text>
</a>
</g>
</g>
<!-- XXXXXXXX\nConcept included in diagram but\nnot referenced in concept model&#45;&gt;Domain and range\nhierarchies\n\nNote: Filled arrows and diamonds\nindicate parent domains -->
<!-- XXXXXXXX\nInactive domain,\nrange or attribute -->
<g id="node33" class="node">
<title>XXXXXXXX\nInactive domain,\nrange or attribute</title>
<g id="a_node33"><a xlink:title=" ">
<polygon fill="orange" stroke="black" points="170,-650 72,-650 72,-612 170,-612 170,-650"/>
<text text-anchor="middle" x="121" y="-638.8" font-family="Helvetica,sans-Serif" font-size="9.00">XXXXXXXX</text>
<text text-anchor="middle" x="121" y="-628.8" font-family="Helvetica,sans-Serif" font-size="9.00">Inactive domain,</text>
<text text-anchor="middle" x="121" y="-618.8" font-family="Helvetica,sans-Serif" font-size="9.00">range or attribute</text>
</a>
</g>
</g>
<!-- XXXXXXXX\nSub&#45;attribute name -->
<g id="node34" class="node">
<title>XXXXXXXX\nSub&#45;attribute name</title>
<g id="a_node34"><a xlink:title=" ">
<polygon fill="yellow" stroke="black" points="424,-649 318,-649 318,-613 424,-613 424,-649"/>
<polygon fill="none" stroke="black" points="428,-653 314,-653 314,-609 428,-609 428,-653"/>
<text text-anchor="middle" x="371" y="-633.8" font-family="Helvetica,sans-Serif" font-size="9.00">XXXXXXXX</text>
<text text-anchor="middle" x="371" y="-623.8" font-family="Helvetica,sans-Serif" font-size="9.00">Sub&#45;attribute name</text>
</a>
</g>
</g>
<!-- XXXXXXXX\nInactive domain,\nrange or attribute&#45;&gt;XXXXXXXX\nSub&#45;attribute name -->
<!-- XXXXXXXX\nSuper&#45;attribute name -->
<g id="node35" class="node">
<title>XXXXXXXX\nSuper&#45;attribute name</title>
<g id="a_node35"><a xlink:title=" ">
<polygon fill="#fffacd" stroke="black" points="640.5,-649 526.5,-649 526.5,-613 640.5,-613 640.5,-649"/>
<polygon fill="none" stroke="black" points="644.5,-653 522.5,-653 522.5,-609 644.5,-609 644.5,-653"/>
<text text-anchor="middle" x="583.5" y="-633.8" font-family="Helvetica,sans-Serif" font-size="9.00">XXXXXXXX</text>
<text text-anchor="middle" x="583.5" y="-623.8" font-family="Helvetica,sans-Serif" font-size="9.00">Super&#45;attribute name</text>
</a>
</g>
</g>
<!-- XXXXXXXX\nSub&#45;attribute name&#45;&gt;XXXXXXXX\nSuper&#45;attribute name -->
<g id="edge63" class="edge">
<title>XXXXXXXX\nSub&#45;attribute name&#45;&gt;XXXXXXXX\nSuper&#45;attribute name</title>
<path fill="none" stroke="black" d="M428.23,-631C428.23,-631 512.45,-631 512.45,-631"/>
<polygon fill="none" stroke="black" points="512.45,-634.5 522.45,-631 512.45,-627.5 512.45,-634.5"/>
</g>
<!-- Attribute hierarchies\n(full path to root not shown)\n\nNote: yellow indicates attribute range\ndiffers for different domains -->
<g id="node36" class="node">
<title>Attribute hierarchies\n(full path to root not shown)\n\nNote: yellow indicates attribute range\ndiffers for different domains</title>
<g id="a_node36"><a xlink:title=" ">
<polygon fill="white" stroke="black" stroke-width="0" points="900,-667 713,-667 713,-609 900,-609 900,-667"/>
<text text-anchor="middle" x="806.5" y="-655.8" font-family="Helvetica,sans-Serif" font-size="9.00">Attribute hierarchies</text>
<text text-anchor="middle" x="806.5" y="-645.8" font-family="Helvetica,sans-Serif" font-size="9.00">(full path to root not shown)</text>
<text text-anchor="middle" x="806.5" y="-625.8" font-family="Helvetica,sans-Serif" font-size="9.00">Note: yellow indicates attribute range</text>
<text text-anchor="middle" x="806.5" y="-615.8" font-family="Helvetica,sans-Serif" font-size="9.00">differs for different domains</text>
</a>
</g>
</g>
<!-- XXXXXXXX\nSuper&#45;attribute name&#45;&gt;Attribute hierarchies\n(full path to root not shown)\n\nNote: yellow indicates attribute range\ndiffers for different domains -->
</g>
</svg>
