<< 118807008 | Procedure on artery of head and neck |
EXCLUDE
<< 118807008 | Procedure on artery of head and neck |:$$$$${<< 363704007 | Procedure site | =  47990007 | Structure of artery of head, neck AND/OR brain |}
