^ SET_A | Local set A |
EXCLUDE
<< 373873005 | Pharmaceutical / biologic product (product) |:$$$$${127489000 | Has active ingredient | = << 105590001 | Substance |}
<< 373873005 | Pharmaceutical / biologic product (product) |:$$$$${762949000 | Has precise active ingredient | = << 105590001 | Substance |}
<< 373873005 | Pharmaceutical / biologic product (product) |:$$$$$411116001 | Has manufactured dose form | = << 736542009 | Pharmaceutical dose form |
