<< 119264001 | Diencephalon part |
< 58590008 | Limbic system structure |
<< 303456008 | Hindbrain structure |
<< 7742001 | Structure of palatine duct |
<< 9625005 | Lanugo hair |
279328001 | Entire diencephalon |
372072005 | Entire telencephalon |
258032009 | Persistent branchial cleft |
87563008 | Structure of diencephalon |
11628009 | Structure of telencephalon |
EXCLUDE
<< 423918008 | Structure of archicortex |
<< 279209006 | Structure of limbic gyrus |
<< 89718004 | Hypophyseal diverticulum structure |
<< 279215006 | Limbic lobe |
<< 27140001 | Structure of gyrus fornicatus |
<< 4958002 | Amygdaloid structure |
<< 67606001 | Structure of infundibular diverticulum |
361342009 | Entire limbic system |
