<< 138875005 | SNOMED CT Concept |:$$$$${363713009 | Has interpretation | =  52101004 | Present |}
<< 138875005 | SNOMED CT Concept |:$$$$${363713009 | Has interpretation | =  2667000 | Absent |}
EXCLUDE
