<?xml version="1.0" encoding="UTF-8" standalone="no"?>
<!DOCTYPE svg PUBLIC "-//W3C//DTD SVG 1.1//EN"
 "http://www.w3.org/Graphics/SVG/1.1/DTD/svg11.dtd">
<!-- Generated by graphviz version 2.43.0 (0)
 -->
<!-- Title: Tags Pages: 1 -->
<svg width="663pt" height="1879pt"
 viewBox="0.00 0.00 663.00 1879.00" xmlns="http://www.w3.org/2000/svg" xmlns:xlink="http://www.w3.org/1999/xlink">
<g id="graph0" class="graph" transform="scale(1 1) rotate(0) translate(4 1875)">
<title>Tags</title>
<polygon fill="white" stroke="transparent" points="-4,4 -4,-1875 659,-1875 659,4 -4,4"/>
<!-- finding -->
<g id="node1" class="node">
<title>finding</title>
<g id="a_node1"><a xlink:title=" ">
<polygon fill="violet" stroke="black" points="209.5,-61 155.5,-61 155.5,-25 209.5,-25 209.5,-61"/>
<text text-anchor="middle" x="182.5" y="-40.8" font-family="Helvetica,sans-Serif" font-size="9.00">finding</text>
</a>
</g>
</g>
<!-- SNOMED RT+CTV3 -->
<g id="node2" class="node">
<title>SNOMED RT+CTV3</title>
<g id="a_node2"><a xlink:title=" ">
<polygon fill="palegreen" stroke="black" points="101,-738 0,-738 0,-702 101,-702 101,-738"/>
<text text-anchor="middle" x="50.5" y="-717.8" font-family="Helvetica,sans-Serif" font-size="9.00">SNOMED RT+CTV3</text>
</a>
</g>
</g>
<!-- finding&#45;&gt;SNOMED RT+CTV3 -->
<g id="edge1" class="edge">
<title>finding&#45;&gt;SNOMED RT+CTV3</title>
<path fill="none" stroke="black" d="M155.33,-43C106.97,-43 11,-43 11,-43 11,-43 11,-691.89 11,-691.89"/>
<polygon fill="black" stroke="black" points="7.5,-691.89 11,-701.89 14.5,-691.89 7.5,-691.89"/>
</g>
<!-- disorder -->
<g id="node3" class="node">
<title>disorder</title>
<g id="a_node3"><a xlink:title=" ">
<polygon fill="palegreen" stroke="black" points="367,-36 313,-36 313,0 367,0 367,-36"/>
<text text-anchor="middle" x="340" y="-15.8" font-family="Helvetica,sans-Serif" font-size="9.00">disorder</text>
</a>
</g>
</g>
<!-- disorder&#45;&gt;finding -->
<g id="edge2" class="edge">
<title>disorder&#45;&gt;finding</title>
<path fill="none" stroke="black" d="M312.92,-30.5C312.92,-30.5 219.75,-30.5 219.75,-30.5"/>
<polygon fill="black" stroke="black" points="219.75,-27 209.75,-30.5 219.75,-34 219.75,-27"/>
</g>
<!-- procedure -->
<g id="node4" class="node">
<title>procedure</title>
<g id="a_node4"><a xlink:title=" ">
<polygon fill="violet" stroke="black" points="214,-1857 151,-1857 151,-1821 214,-1821 214,-1857"/>
<text text-anchor="middle" x="182.5" y="-1836.8" font-family="Helvetica,sans-Serif" font-size="9.00">procedure</text>
</a>
</g>
</g>
<!-- procedure&#45;&gt;SNOMED RT+CTV3 -->
<g id="edge3" class="edge">
<title>procedure&#45;&gt;SNOMED RT+CTV3</title>
<path fill="none" stroke="black" d="M150.64,-1839C101.05,-1839 11,-1839 11,-1839 11,-1839 11,-748.03 11,-748.03"/>
<polygon fill="black" stroke="black" points="14.5,-748.03 11,-738.03 7.5,-748.03 14.5,-748.03"/>
</g>
<!-- body structure -->
<g id="node5" class="node">
<title>body structure</title>
<g id="a_node5"><a xlink:title=" ">
<polygon fill="violet" stroke="black" points="224.5,-1790 140.5,-1790 140.5,-1754 224.5,-1754 224.5,-1790"/>
<text text-anchor="middle" x="182.5" y="-1769.8" font-family="Helvetica,sans-Serif" font-size="9.00">body structure</text>
</a>
</g>
</g>
<!-- body structure&#45;&gt;SNOMED RT+CTV3 -->
<g id="edge4" class="edge">
<title>body structure&#45;&gt;SNOMED RT+CTV3</title>
<path fill="none" stroke="black" d="M140.33,-1772C92.78,-1772 22,-1772 22,-1772 22,-1772 22,-748.26 22,-748.26"/>
<polygon fill="black" stroke="black" points="25.5,-748.26 22,-738.26 18.5,-748.26 25.5,-748.26"/>
</g>
<!-- organism -->
<g id="node6" class="node">
<title>organism</title>
<g id="a_node6"><a xlink:title=" ">
<polygon fill="#bfefff" stroke="black" points="212,-1736 153,-1736 153,-1700 212,-1700 212,-1736"/>
<text text-anchor="middle" x="182.5" y="-1715.8" font-family="Helvetica,sans-Serif" font-size="9.00">organism</text>
</a>
</g>
</g>
<!-- organism&#45;&gt;SNOMED RT+CTV3 -->
<g id="edge5" class="edge">
<title>organism&#45;&gt;SNOMED RT+CTV3</title>
<path fill="none" stroke="black" d="M152.96,-1718C109.39,-1718 33,-1718 33,-1718 33,-1718 33,-748.17 33,-748.17"/>
<polygon fill="black" stroke="black" points="36.5,-748.17 33,-738.17 29.5,-748.17 36.5,-748.17"/>
</g>
<!-- substance -->
<g id="node7" class="node">
<title>substance</title>
<g id="a_node7"><a xlink:title=" ">
<polygon fill="violet" stroke="black" points="214,-1682 151,-1682 151,-1646 214,-1646 214,-1682"/>
<text text-anchor="middle" x="182.5" y="-1661.8" font-family="Helvetica,sans-Serif" font-size="9.00">substance</text>
</a>
</g>
</g>
<!-- substance&#45;&gt;SNOMED RT+CTV3 -->
<g id="edge6" class="edge">
<title>substance&#45;&gt;SNOMED RT+CTV3</title>
<path fill="none" stroke="black" d="M150.73,-1664C109.84,-1664 44,-1664 44,-1664 44,-1664 44,-748.01 44,-748.01"/>
<polygon fill="black" stroke="black" points="47.5,-748.01 44,-738.01 40.5,-748.01 47.5,-748.01"/>
</g>
<!-- product -->
<g id="node8" class="node">
<title>product</title>
<g id="a_node8"><a xlink:title=" ">
<polygon fill="violet" stroke="black" points="367,-1648 313,-1648 313,-1612 367,-1612 367,-1648"/>
<text text-anchor="middle" x="340" y="-1627.8" font-family="Helvetica,sans-Serif" font-size="9.00" fill="red">product</text>
</a>
</g>
</g>
<!-- product&#45;&gt;SNOMED RT+CTV3 -->
<g id="edge7" class="edge">
<title>product&#45;&gt;SNOMED RT+CTV3</title>
<path fill="none" stroke="black" d="M312.77,-1640.33C241.69,-1640.33 56,-1640.33 56,-1640.33 56,-1640.33 56,-748.38 56,-748.38"/>
<polygon fill="black" stroke="black" points="59.5,-748.38 56,-738.38 52.5,-748.38 59.5,-748.38"/>
</g>
<!-- physical object -->
<g id="node9" class="node">
<title>physical object</title>
<g id="a_node9"><a xlink:title=" ">
<polygon fill="violet" stroke="black" points="224.5,-1590 140.5,-1590 140.5,-1554 224.5,-1554 224.5,-1590"/>
<text text-anchor="middle" x="182.5" y="-1569.8" font-family="Helvetica,sans-Serif" font-size="9.00" fill="red">physical object</text>
</a>
</g>
</g>
<!-- product&#45;&gt;physical object -->
<g id="edge52" class="edge">
<title>product&#45;&gt;physical object</title>
<path fill="none" stroke="black" d="M312.85,-1623.33C277.17,-1623.33 219,-1623.33 219,-1623.33 219,-1623.33 219,-1600.24 219,-1600.24"/>
<polygon fill="black" stroke="black" points="222.5,-1600.24 219,-1590.24 215.5,-1600.24 222.5,-1600.24"/>
</g>
<!-- medicinal product -->
<g id="node40" class="node">
<title>medicinal product</title>
<g id="a_node40"><a xlink:title=" ">
<polygon fill="palegreen" stroke="black" points="232,-1536 133,-1536 133,-1500 232,-1500 232,-1536"/>
<text text-anchor="middle" x="182.5" y="-1515.8" font-family="Helvetica,sans-Serif" font-size="9.00" fill="red">medicinal product</text>
</a>
</g>
</g>
<!-- product&#45;&gt;medicinal product -->
<g id="edge65" class="edge">
<title>product&#45;&gt;medicinal product</title>
<path fill="none" stroke="black" d="M312.93,-1617.67C279.5,-1617.67 227,-1617.67 227,-1617.67 227,-1617.67 227,-1546.28 227,-1546.28"/>
<polygon fill="black" stroke="black" points="230.5,-1546.28 227,-1536.28 223.5,-1546.28 230.5,-1546.28"/>
</g>
<!-- physical object&#45;&gt;SNOMED RT+CTV3 -->
<g id="edge8" class="edge">
<title>physical object&#45;&gt;SNOMED RT+CTV3</title>
<path fill="none" stroke="black" d="M140.48,-1572C107.45,-1572 67,-1572 67,-1572 67,-1572 67,-748.19 67,-748.19"/>
<polygon fill="black" stroke="black" points="70.5,-748.19 67,-738.19 63.5,-748.19 70.5,-748.19"/>
</g>
<!-- physical object&#45;&gt;product -->
<g id="edge61" class="edge">
<title>physical object&#45;&gt;product</title>
<path fill="none" stroke="black" d="M216,-1590.04C216,-1606.73 216,-1629 216,-1629 216,-1629 302.79,-1629 302.79,-1629"/>
<polygon fill="black" stroke="black" points="302.79,-1632.5 312.79,-1629 302.79,-1625.5 302.79,-1632.5"/>
</g>
<!-- qualifier value -->
<g id="node10" class="node">
<title>qualifier value</title>
<g id="a_node10"><a xlink:title=" ">
<polygon fill="#bfefff" stroke="black" points="222.5,-1232 142.5,-1232 142.5,-1196 222.5,-1196 222.5,-1232"/>
<text text-anchor="middle" x="182.5" y="-1211.8" font-family="Helvetica,sans-Serif" font-size="9.00">qualifier value</text>
</a>
</g>
</g>
<!-- qualifier value&#45;&gt;SNOMED RT+CTV3 -->
<g id="edge9" class="edge">
<title>qualifier value&#45;&gt;SNOMED RT+CTV3</title>
<path fill="none" stroke="black" d="M142.4,-1214C112.93,-1214 78,-1214 78,-1214 78,-1214 78,-748.17 78,-748.17"/>
<polygon fill="black" stroke="black" points="81.5,-748.17 78,-738.17 74.5,-748.17 81.5,-748.17"/>
</g>
<!-- observable entity -->
<g id="node11" class="node">
<title>observable entity</title>
<g id="a_node11"><a xlink:title=" ">
<polygon fill="violet" stroke="black" points="230,-846 135,-846 135,-810 230,-810 230,-846"/>
<text text-anchor="middle" x="182.5" y="-825.8" font-family="Helvetica,sans-Serif" font-size="9.00">observable entity</text>
</a>
</g>
</g>
<!-- observable entity&#45;&gt;SNOMED RT+CTV3 -->
<g id="edge10" class="edge">
<title>observable entity&#45;&gt;SNOMED RT+CTV3</title>
<path fill="none" stroke="black" d="M138,-809.84C138,-781.26 138,-729 138,-729 138,-729 111.15,-729 111.15,-729"/>
<polygon fill="black" stroke="black" points="111.15,-725.5 101.15,-729 111.15,-732.5 111.15,-725.5"/>
</g>
<!-- morphologic abnormality -->
<g id="node12" class="node">
<title>morphologic abnormality</title>
<g id="a_node12"><a xlink:title=" ">
<polygon fill="palegreen" stroke="black" points="405,-1779 275,-1779 275,-1743 405,-1743 405,-1779"/>
<text text-anchor="middle" x="340" y="-1758.8" font-family="Helvetica,sans-Serif" font-size="9.00" fill="red">morphologic abnormality</text>
</a>
</g>
</g>
<!-- morphologic abnormality&#45;&gt;body structure -->
<g id="edge11" class="edge">
<title>morphologic abnormality&#45;&gt;body structure</title>
<path fill="none" stroke="black" d="M274.57,-1766.5C274.57,-1766.5 234.57,-1766.5 234.57,-1766.5"/>
<polygon fill="black" stroke="black" points="234.57,-1763 224.57,-1766.5 234.57,-1770 234.57,-1763"/>
</g>
<!-- situation -->
<g id="node13" class="node">
<title>situation</title>
<g id="a_node13"><a xlink:title=" ">
<polygon fill="lightpink" stroke="black" points="210.5,-792 154.5,-792 154.5,-756 210.5,-756 210.5,-792"/>
<text text-anchor="middle" x="182.5" y="-771.8" font-family="Helvetica,sans-Serif" font-size="9.00">situation</text>
</a>
</g>
</g>
<!-- situation&#45;&gt;SNOMED RT+CTV3 -->
<g id="edge12" class="edge">
<title>situation&#45;&gt;SNOMED RT+CTV3</title>
<path fill="none" stroke="black" d="M154.45,-774C126.91,-774 89,-774 89,-774 89,-774 89,-748.28 89,-748.28"/>
<polygon fill="black" stroke="black" points="92.5,-748.28 89,-738.28 85.5,-748.28 92.5,-748.28"/>
</g>
<!-- social concept -->
<g id="node14" class="node">
<title>social concept</title>
<g id="a_node14"><a xlink:title=" ">
<polygon fill="palegreen" stroke="black" points="223,-738 142,-738 142,-702 223,-702 223,-738"/>
<text text-anchor="middle" x="182.5" y="-717.8" font-family="Helvetica,sans-Serif" font-size="9.00">social concept</text>
</a>
</g>
</g>
<!-- social concept&#45;&gt;SNOMED RT+CTV3 -->
<g id="edge13" class="edge">
<title>social concept&#45;&gt;SNOMED RT+CTV3</title>
<path fill="none" stroke="black" d="M141.82,-720C141.82,-720 111.06,-720 111.06,-720"/>
<polygon fill="black" stroke="black" points="111.06,-716.5 101.06,-720 111.06,-723.5 111.06,-716.5"/>
</g>
<!-- occupation -->
<g id="node15" class="node">
<title>occupation</title>
<g id="a_node15"><a xlink:title=" ">
<polygon fill="palegreen" stroke="black" points="533,-869 466,-869 466,-833 533,-833 533,-869"/>
<text text-anchor="middle" x="499.5" y="-848.8" font-family="Helvetica,sans-Serif" font-size="9.00">occupation</text>
</a>
</g>
</g>
<!-- occupation&#45;&gt;social concept -->
<g id="edge14" class="edge">
<title>occupation&#45;&gt;social concept</title>
<path fill="none" stroke="black" d="M499,-832.76C499,-817.43 499,-798 499,-798 499,-798 216,-798 216,-798 216,-798 216,-748.09 216,-748.09"/>
<polygon fill="black" stroke="black" points="219.5,-748.09 216,-738.09 212.5,-748.09 219.5,-748.09"/>
</g>
<!-- person -->
<g id="node32" class="node">
<title>person</title>
<g id="a_node32"><a xlink:title=" ">
<polygon fill="#bfefff" stroke="black" points="367,-846 313,-846 313,-810 367,-810 367,-846"/>
<text text-anchor="middle" x="340" y="-825.8" font-family="Helvetica,sans-Serif" font-size="9.00" fill="red">person</text>
</a>
</g>
</g>
<!-- occupation&#45;&gt;person -->
<g id="edge58" class="edge">
<title>occupation&#45;&gt;person</title>
<path fill="none" stroke="black" d="M465.67,-839.5C465.67,-839.5 377.16,-839.5 377.16,-839.5"/>
<polygon fill="black" stroke="black" points="377.16,-836 367.16,-839.5 377.16,-843 377.16,-836"/>
</g>
<!-- event -->
<g id="node16" class="node">
<title>event</title>
<g id="a_node16"><a xlink:title=" ">
<polygon fill="violet" stroke="black" points="209.5,-684 155.5,-684 155.5,-648 209.5,-648 209.5,-684"/>
<text text-anchor="middle" x="182.5" y="-663.8" font-family="Helvetica,sans-Serif" font-size="9.00">event</text>
</a>
</g>
</g>
<!-- event&#45;&gt;SNOMED RT+CTV3 -->
<g id="edge15" class="edge">
<title>event&#45;&gt;SNOMED RT+CTV3</title>
<path fill="none" stroke="black" d="M155.46,-666C127.84,-666 89,-666 89,-666 89,-666 89,-691.72 89,-691.72"/>
<polygon fill="black" stroke="black" points="85.5,-691.72 89,-701.72 92.5,-691.72 85.5,-691.72"/>
</g>
<!-- regime/therapy -->
<g id="node17" class="node">
<title>regime/therapy</title>
<g id="a_node17"><a xlink:title=" ">
<polygon fill="palegreen" stroke="black" points="383,-1871 297,-1871 297,-1835 383,-1835 383,-1871"/>
<text text-anchor="middle" x="340" y="-1850.8" font-family="Helvetica,sans-Serif" font-size="9.00">regime/therapy</text>
</a>
</g>
</g>
<!-- regime/therapy&#45;&gt;procedure -->
<g id="edge16" class="edge">
<title>regime/therapy&#45;&gt;procedure</title>
<path fill="none" stroke="black" d="M296.96,-1846C296.96,-1846 224.49,-1846 224.49,-1846"/>
<polygon fill="black" stroke="black" points="224.49,-1842.5 214.49,-1846 224.49,-1849.5 224.49,-1842.5"/>
</g>
<!-- environment / location -->
<g id="node18" class="node">
<title>environment / location</title>
<g id="a_node18"><a xlink:title=" ">
<polygon fill="#bfefff" stroke="black" points="242,-576 123,-576 123,-540 242,-540 242,-576"/>
<text text-anchor="middle" x="182.5" y="-555.8" font-family="Helvetica,sans-Serif" font-size="9.00">environment / location</text>
</a>
</g>
</g>
<!-- environment / location&#45;&gt;SNOMED RT+CTV3 -->
<g id="edge17" class="edge">
<title>environment / location&#45;&gt;SNOMED RT+CTV3</title>
<path fill="none" stroke="black" d="M128,-576.15C128,-616.68 128,-711 128,-711 128,-711 111.33,-711 111.33,-711"/>
<polygon fill="black" stroke="black" points="111.33,-707.5 101.33,-711 111.33,-714.5 111.33,-707.5"/>
</g>
<!-- metadata -->
<g id="node19" class="node">
<title>metadata</title>
<g id="a_node19"><a xlink:title=" ">
<polygon fill="palegreen" stroke="black" points="212.5,-443 152.5,-443 152.5,-407 212.5,-407 212.5,-443"/>
<text text-anchor="middle" x="182.5" y="-422.8" font-family="Helvetica,sans-Serif" font-size="9.00">metadata</text>
</a>
</g>
</g>
<!-- metadata&#45;&gt;SNOMED RT+CTV3 -->
<g id="edge18" class="edge">
<title>metadata&#45;&gt;SNOMED RT+CTV3</title>
<path fill="none" stroke="black" d="M152.27,-425C121.41,-425 78,-425 78,-425 78,-425 78,-691.99 78,-691.99"/>
<polygon fill="black" stroke="black" points="74.5,-691.99 78,-701.99 81.5,-691.99 74.5,-691.99"/>
</g>
<!-- specimen -->
<g id="node20" class="node">
<title>specimen</title>
<g id="a_node20"><a xlink:title=" ">
<polygon fill="violet" stroke="orange" points="212.5,-385 152.5,-385 152.5,-349 212.5,-349 212.5,-385"/>
<polygon fill="none" stroke="orange" points="216.5,-389 148.5,-389 148.5,-345 216.5,-345 216.5,-389"/>
<text text-anchor="middle" x="182.5" y="-364.8" font-family="Helvetica,sans-Serif" font-size="9.00">specimen</text>
</a>
</g>
</g>
<!-- specimen&#45;&gt;SNOMED RT+CTV3 -->
<g id="edge19" class="edge">
<title>specimen&#45;&gt;SNOMED RT+CTV3</title>
<path fill="none" stroke="black" d="M148.47,-367C114.4,-367 67,-367 67,-367 67,-367 67,-691.52 67,-691.52"/>
<polygon fill="black" stroke="black" points="63.5,-691.52 67,-701.52 70.5,-691.52 63.5,-691.52"/>
</g>
<!-- staging scale -->
<g id="node21" class="node">
<title>staging scale</title>
<g id="a_node21"><a xlink:title=" ">
<polygon fill="#bfefff" stroke="black" points="220.5,-327 144.5,-327 144.5,-291 220.5,-291 220.5,-327"/>
<text text-anchor="middle" x="182.5" y="-306.8" font-family="Helvetica,sans-Serif" font-size="9.00">staging scale</text>
</a>
</g>
</g>
<!-- staging scale&#45;&gt;SNOMED RT+CTV3 -->
<g id="edge20" class="edge">
<title>staging scale&#45;&gt;SNOMED RT+CTV3</title>
<path fill="none" stroke="black" d="M144.2,-309C106.97,-309 56,-309 56,-309 56,-309 56,-691.81 56,-691.81"/>
<polygon fill="black" stroke="black" points="52.5,-691.81 56,-701.81 59.5,-691.81 52.5,-691.81"/>
</g>
<!-- assessment scale -->
<g id="node22" class="node">
<title>assessment scale</title>
<g id="a_node22"><a xlink:title=" ">
<polygon fill="palegreen" stroke="black" points="387.5,-198 292.5,-198 292.5,-162 387.5,-162 387.5,-198"/>
<text text-anchor="middle" x="340" y="-177.8" font-family="Helvetica,sans-Serif" font-size="9.00">assessment scale</text>
</a>
</g>
</g>
<!-- assessment scale&#45;&gt;staging scale -->
<g id="edge21" class="edge">
<title>assessment scale&#45;&gt;staging scale</title>
<path fill="none" stroke="black" d="M292.38,-190.5C281.98,-190.5 274,-190.5 274,-190.5 274,-190.5 274,-298.5 274,-298.5 274,-298.5 230.51,-298.5 230.51,-298.5"/>
<polygon fill="black" stroke="black" points="230.51,-295 220.51,-298.5 230.51,-302 230.51,-295"/>
</g>
<!-- cell structure -->
<g id="node23" class="node">
<title>cell structure</title>
<g id="a_node23"><a xlink:title=" ">
<polygon fill="palegreen" stroke="black" points="378.5,-1725 301.5,-1725 301.5,-1689 378.5,-1689 378.5,-1725"/>
<text text-anchor="middle" x="340" y="-1704.8" font-family="Helvetica,sans-Serif" font-size="9.00">cell structure</text>
</a>
</g>
</g>
<!-- cell structure&#45;&gt;body structure -->
<g id="edge22" class="edge">
<title>cell structure&#45;&gt;body structure</title>
<path fill="none" stroke="black" d="M301.36,-1712.5C266.62,-1712.5 221,-1712.5 221,-1712.5 221,-1712.5 221,-1743.82 221,-1743.82"/>
<polygon fill="black" stroke="black" points="217.5,-1743.82 221,-1753.82 224.5,-1743.82 217.5,-1743.82"/>
</g>
<!-- environment -->
<g id="node24" class="node">
<title>environment</title>
<g id="a_node24"><a xlink:title=" ">
<polygon fill="#bfefff" stroke="black" points="377,-576 303,-576 303,-540 377,-540 377,-576"/>
<text text-anchor="middle" x="340" y="-555.8" font-family="Helvetica,sans-Serif" font-size="9.00">environment</text>
</a>
</g>
</g>
<!-- environment&#45;&gt;environment / location -->
<g id="edge23" class="edge">
<title>environment&#45;&gt;environment / location</title>
<path fill="none" stroke="black" d="M302.67,-564C302.67,-564 252.03,-564 252.03,-564"/>
<polygon fill="black" stroke="black" points="252.03,-560.5 242.03,-564 252.03,-567.5 252.03,-560.5"/>
</g>
<!-- linkage concept -->
<g id="node25" class="node">
<title>linkage concept</title>
<g id="a_node25"><a xlink:title=" ">
<polygon fill="palegreen" stroke="black" points="384.5,-468 295.5,-468 295.5,-432 384.5,-432 384.5,-468"/>
<text text-anchor="middle" x="340" y="-447.8" font-family="Helvetica,sans-Serif" font-size="9.00">linkage concept</text>
</a>
</g>
</g>
<!-- linkage concept&#45;&gt;metadata -->
<g id="edge24" class="edge">
<title>linkage concept&#45;&gt;metadata</title>
<path fill="none" stroke="black" d="M295.29,-437.5C295.29,-437.5 222.85,-437.5 222.85,-437.5"/>
<polygon fill="black" stroke="black" points="222.85,-434 212.85,-437.5 222.85,-441 222.85,-434"/>
</g>
<!-- attribute -->
<g id="node26" class="node">
<title>attribute</title>
<g id="a_node26"><a xlink:title=" ">
<polygon fill="palegreen" stroke="black" points="527.5,-495 471.5,-495 471.5,-459 527.5,-459 527.5,-495"/>
<text text-anchor="middle" x="499.5" y="-474.8" font-family="Helvetica,sans-Serif" font-size="9.00">attribute</text>
</a>
</g>
</g>
<!-- attribute&#45;&gt;linkage concept -->
<g id="edge25" class="edge">
<title>attribute&#45;&gt;linkage concept</title>
<path fill="none" stroke="black" d="M471.35,-463.5C471.35,-463.5 394.73,-463.5 394.73,-463.5"/>
<polygon fill="black" stroke="black" points="394.73,-460 384.73,-463.5 394.73,-467 394.73,-460"/>
</g>
<!-- cell -->
<g id="node27" class="node">
<title>cell</title>
<g id="a_node27"><a xlink:title=" ">
<polygon fill="palegreen" stroke="black" points="526.5,-1779 472.5,-1779 472.5,-1743 526.5,-1743 526.5,-1779"/>
<text text-anchor="middle" x="499.5" y="-1758.8" font-family="Helvetica,sans-Serif" font-size="9.00" fill="red">cell</text>
</a>
</g>
</g>
<!-- cell&#45;&gt;body structure -->
<g id="edge33" class="edge">
<title>cell&#45;&gt;body structure</title>
<path fill="none" stroke="black" d="M499,-1779.05C499,-1782.21 499,-1784.5 499,-1784.5 499,-1784.5 234.53,-1784.5 234.53,-1784.5"/>
<polygon fill="black" stroke="black" points="234.53,-1781 224.53,-1784.5 234.53,-1788 234.53,-1781"/>
</g>
<!-- cell&#45;&gt;morphologic abnormality -->
<g id="edge44" class="edge">
<title>cell&#45;&gt;morphologic abnormality</title>
<path fill="none" stroke="black" d="M472.44,-1761C472.44,-1761 415.08,-1761 415.08,-1761"/>
<polygon fill="black" stroke="black" points="415.08,-1757.5 405.08,-1761 415.08,-1764.5 415.08,-1757.5"/>
</g>
<!-- cell&#45;&gt;cell structure -->
<g id="edge26" class="edge">
<title>cell&#45;&gt;cell structure</title>
<path fill="none" stroke="black" d="M499,-1742.72C499,-1727.05 499,-1707 499,-1707 499,-1707 388.9,-1707 388.9,-1707"/>
<polygon fill="black" stroke="black" points="388.9,-1703.5 378.9,-1707 388.9,-1710.5 388.9,-1703.5"/>
</g>
<!-- special concept -->
<g id="node28" class="node">
<title>special concept</title>
<g id="a_node28"><a xlink:title=" ">
<polygon fill="palegreen" stroke="black" points="226,-273 139,-273 139,-237 226,-237 226,-273"/>
<text text-anchor="middle" x="182.5" y="-252.8" font-family="Helvetica,sans-Serif" font-size="9.00">special concept</text>
</a>
</g>
</g>
<!-- special concept&#45;&gt;SNOMED RT+CTV3 -->
<g id="edge27" class="edge">
<title>special concept&#45;&gt;SNOMED RT+CTV3</title>
<path fill="none" stroke="black" d="M138.68,-255C98.1,-255 44,-255 44,-255 44,-255 44,-691.77 44,-691.77"/>
<polygon fill="black" stroke="black" points="40.5,-691.77 44,-701.77 47.5,-691.77 40.5,-691.77"/>
</g>
<!-- navigational concept -->
<g id="node29" class="node">
<title>navigational concept</title>
<g id="a_node29"><a xlink:title=" ">
<polygon fill="palegreen" stroke="black" points="395.5,-90 284.5,-90 284.5,-54 395.5,-54 395.5,-90"/>
<text text-anchor="middle" x="340" y="-69.8" font-family="Helvetica,sans-Serif" font-size="9.00">navigational concept</text>
</a>
</g>
</g>
<!-- navigational concept&#45;&gt;special concept -->
<g id="edge28" class="edge">
<title>navigational concept&#45;&gt;special concept</title>
<path fill="none" stroke="black" d="M284.3,-75.5C274.31,-75.5 267,-75.5 267,-75.5 267,-75.5 267,-242 267,-242 267,-242 236.24,-242 236.24,-242"/>
<polygon fill="black" stroke="black" points="236.24,-238.5 226.24,-242 236.24,-245.5 236.24,-238.5"/>
</g>
<!-- geographic location -->
<g id="node30" class="node">
<title>geographic location</title>
<g id="a_node30"><a xlink:title=" ">
<polygon fill="palegreen" stroke="black" points="393,-522 287,-522 287,-486 393,-486 393,-522"/>
<text text-anchor="middle" x="340" y="-501.8" font-family="Helvetica,sans-Serif" font-size="9.00">geographic location</text>
</a>
</g>
</g>
<!-- geographic location&#45;&gt;environment / location -->
<g id="edge29" class="edge">
<title>geographic location&#45;&gt;environment / location</title>
<path fill="none" stroke="black" d="M296,-522.15C296,-535.74 296,-552 296,-552 296,-552 252.24,-552 252.24,-552"/>
<polygon fill="black" stroke="black" points="252.24,-548.5 242.24,-552 252.24,-555.5 252.24,-548.5"/>
</g>
<!-- record artifact -->
<g id="node31" class="node">
<title>record artifact</title>
<g id="a_node31"><a xlink:title=" ">
<polygon fill="#bfefff" stroke="black" points="223,-219 142,-219 142,-183 223,-183 223,-219"/>
<text text-anchor="middle" x="182.5" y="-198.8" font-family="Helvetica,sans-Serif" font-size="9.00">record artifact</text>
</a>
</g>
</g>
<!-- record artifact&#45;&gt;SNOMED RT+CTV3 -->
<g id="edge30" class="edge">
<title>record artifact&#45;&gt;SNOMED RT+CTV3</title>
<path fill="none" stroke="black" d="M141.65,-201C97.38,-201 33,-201 33,-201 33,-201 33,-691.83 33,-691.83"/>
<polygon fill="black" stroke="black" points="29.5,-691.83 33,-701.83 36.5,-691.83 29.5,-691.83"/>
</g>
<!-- person&#45;&gt;social concept -->
<g id="edge31" class="edge">
<title>person&#45;&gt;social concept</title>
<path fill="none" stroke="black" d="M340,-809.81C340,-806.46 340,-804 340,-804 340,-804 213,-804 213,-804 213,-804 213,-748.23 213,-748.23"/>
<polygon fill="black" stroke="black" points="216.5,-748.23 213,-738.23 209.5,-748.23 216.5,-748.23"/>
</g>
<!-- disposition -->
<g id="node33" class="node">
<title>disposition</title>
<g id="a_node33"><a xlink:title=" ">
<polygon fill="#bfefff" stroke="black" points="372.5,-1556 307.5,-1556 307.5,-1520 372.5,-1520 372.5,-1556"/>
<text text-anchor="middle" x="340" y="-1535.8" font-family="Helvetica,sans-Serif" font-size="9.00">disposition</text>
</a>
</g>
</g>
<!-- disposition&#45;&gt;qualifier value -->
<g id="edge32" class="edge">
<title>disposition&#45;&gt;qualifier value</title>
<path fill="none" stroke="black" d="M307.12,-1528C289.34,-1528 271,-1528 271,-1528 271,-1528 271,-1220 271,-1220 271,-1220 232.61,-1220 232.61,-1220"/>
<polygon fill="black" stroke="black" points="232.61,-1216.5 222.61,-1220 232.61,-1223.5 232.61,-1216.5"/>
</g>
<!-- dose form -->
<g id="node34" class="node">
<title>dose form</title>
<g id="a_node34"><a xlink:title=" ">
<polygon fill="violet" stroke="black" points="371,-1502 309,-1502 309,-1466 371,-1466 371,-1502"/>
<text text-anchor="middle" x="340" y="-1481.8" font-family="Helvetica,sans-Serif" font-size="9.00">dose form</text>
</a>
</g>
</g>
<!-- dose form&#45;&gt;qualifier value -->
<g id="edge34" class="edge">
<title>dose form&#45;&gt;qualifier value</title>
<path fill="none" stroke="black" d="M308.62,-1483C255.84,-1483 155,-1483 155,-1483 155,-1483 155,-1242.07 155,-1242.07"/>
<polygon fill="black" stroke="black" points="158.5,-1242.07 155,-1232.07 151.5,-1242.07 158.5,-1242.07"/>
</g>
<!-- namespace concept -->
<g id="node35" class="node">
<title>namespace concept</title>
<g id="a_node35"><a xlink:title=" ">
<polygon fill="palegreen" stroke="black" points="394,-414 286,-414 286,-378 394,-378 394,-414"/>
<text text-anchor="middle" x="340" y="-393.8" font-family="Helvetica,sans-Serif" font-size="9.00">namespace concept</text>
</a>
</g>
</g>
<!-- namespace concept&#45;&gt;metadata -->
<g id="edge35" class="edge">
<title>namespace concept&#45;&gt;metadata</title>
<path fill="none" stroke="black" d="M285.8,-412.25C285.8,-412.25 222.91,-412.25 222.91,-412.25"/>
<polygon fill="black" stroke="black" points="222.91,-408.75 212.91,-412.25 222.91,-415.75 222.91,-408.75"/>
</g>
<!-- foundation metadata concept -->
<g id="node36" class="node">
<title>foundation metadata concept</title>
<g id="a_node36"><a xlink:title=" ">
<polygon fill="palegreen" stroke="black" points="416,-360 264,-360 264,-324 416,-324 416,-360"/>
<text text-anchor="middle" x="340" y="-339.8" font-family="Helvetica,sans-Serif" font-size="9.00">foundation metadata concept</text>
</a>
</g>
</g>
<!-- foundation metadata concept&#45;&gt;metadata -->
<g id="edge36" class="edge">
<title>foundation metadata concept&#45;&gt;metadata</title>
<path fill="none" stroke="black" d="M267,-360.36C267,-380.65 267,-410.5 267,-410.5 267,-410.5 222.53,-410.5 222.53,-410.5"/>
<polygon fill="black" stroke="black" points="222.53,-407 212.53,-410.5 222.53,-414 222.53,-407"/>
</g>
<!-- ethnic group -->
<g id="node37" class="node">
<title>ethnic group</title>
<g id="a_node37"><a xlink:title=" ">
<polygon fill="palegreen" stroke="black" points="377.5,-792 302.5,-792 302.5,-756 377.5,-756 377.5,-792"/>
<text text-anchor="middle" x="340" y="-771.8" font-family="Helvetica,sans-Serif" font-size="9.00">ethnic group</text>
</a>
</g>
</g>
<!-- ethnic group&#45;&gt;social concept -->
<g id="edge37" class="edge">
<title>ethnic group&#45;&gt;social concept</title>
<path fill="none" stroke="black" d="M302.38,-774C266.86,-774 219,-774 219,-774 219,-774 219,-748.28 219,-748.28"/>
<polygon fill="black" stroke="black" points="222.5,-748.28 219,-738.28 215.5,-748.28 222.5,-748.28"/>
</g>
<!-- tumor staging -->
<g id="node38" class="node">
<title>tumor staging</title>
<g id="a_node38"><a xlink:title=" ">
<polygon fill="palegreen" stroke="black" points="380.5,-144 299.5,-144 299.5,-108 380.5,-108 380.5,-144"/>
<text text-anchor="middle" x="340" y="-123.8" font-family="Helvetica,sans-Serif" font-size="9.00">tumor staging</text>
</a>
</g>
</g>
<!-- tumor staging&#45;&gt;staging scale -->
<g id="edge38" class="edge">
<title>tumor staging&#45;&gt;staging scale</title>
<path fill="none" stroke="black" d="M299.46,-136.5C284.44,-136.5 271,-136.5 271,-136.5 271,-136.5 271,-294.75 271,-294.75 271,-294.75 230.55,-294.75 230.55,-294.75"/>
<polygon fill="black" stroke="black" points="230.55,-291.25 220.55,-294.75 230.55,-298.25 230.55,-291.25"/>
</g>
<!-- religion/philosophy -->
<g id="node39" class="node">
<title>religion/philosophy</title>
<g id="a_node39"><a xlink:title=" ">
<polygon fill="palegreen" stroke="black" points="390.5,-738 289.5,-738 289.5,-702 390.5,-702 390.5,-738"/>
<text text-anchor="middle" x="340" y="-717.8" font-family="Helvetica,sans-Serif" font-size="9.00">religion/philosophy</text>
</a>
</g>
</g>
<!-- religion/philosophy&#45;&gt;social concept -->
<g id="edge39" class="edge">
<title>religion/philosophy&#45;&gt;social concept</title>
<path fill="none" stroke="black" d="M289.3,-720C289.3,-720 233.13,-720 233.13,-720"/>
<polygon fill="black" stroke="black" points="233.13,-716.5 223.13,-720 233.13,-723.5 233.13,-716.5"/>
</g>
<!-- medicinal product&#45;&gt;product -->
<g id="edge40" class="edge">
<title>medicinal product&#45;&gt;product</title>
<path fill="none" stroke="black" d="M136,-1536.23C136,-1569.04 136,-1634.67 136,-1634.67 136,-1634.67 302.91,-1634.67 302.91,-1634.67"/>
<polygon fill="black" stroke="black" points="302.91,-1638.17 312.91,-1634.67 302.91,-1631.17 302.91,-1638.17"/>
</g>
<!-- medicinal product form -->
<g id="node41" class="node">
<title>medicinal product form</title>
<g id="a_node41"><a xlink:title=" ">
<polygon fill="palegreen" stroke="black" points="561,-1602 438,-1602 438,-1566 561,-1566 561,-1602"/>
<text text-anchor="middle" x="499.5" y="-1581.8" font-family="Helvetica,sans-Serif" font-size="9.00" fill="red">medicinal product form</text>
</a>
</g>
</g>
<!-- medicinal product form&#45;&gt;product -->
<g id="edge62" class="edge">
<title>medicinal product form&#45;&gt;product</title>
<path fill="none" stroke="black" d="M455,-1602.06C455,-1609.46 455,-1616.33 455,-1616.33 455,-1616.33 377.25,-1616.33 377.25,-1616.33"/>
<polygon fill="black" stroke="black" points="377.25,-1612.83 367.25,-1616.33 377.25,-1619.83 377.25,-1612.83"/>
</g>
<!-- medicinal product form&#45;&gt;medicinal product -->
<g id="edge41" class="edge">
<title>medicinal product form&#45;&gt;medicinal product</title>
<path fill="none" stroke="black" d="M437.78,-1578C357.95,-1578 229,-1578 229,-1578 229,-1578 229,-1546 229,-1546"/>
<polygon fill="black" stroke="black" points="232.5,-1546 229,-1536 225.5,-1546 232.5,-1546"/>
</g>
<!-- physical force -->
<g id="node42" class="node">
<title>physical force</title>
<g id="a_node42"><a xlink:title=" ">
<polygon fill="#bfefff" stroke="black" points="222,-165 143,-165 143,-129 222,-129 222,-165"/>
<text text-anchor="middle" x="182.5" y="-144.8" font-family="Helvetica,sans-Serif" font-size="9.00">physical force</text>
</a>
</g>
</g>
<!-- physical force&#45;&gt;SNOMED RT+CTV3 -->
<g id="edge42" class="edge">
<title>physical force&#45;&gt;SNOMED RT+CTV3</title>
<path fill="none" stroke="black" d="M142.83,-147C95.3,-147 22,-147 22,-147 22,-147 22,-691.9 22,-691.9"/>
<polygon fill="black" stroke="black" points="18.5,-691.9 22,-701.9 25.5,-691.9 18.5,-691.9"/>
</g>
<!-- role -->
<g id="node43" class="node">
<title>role</title>
<g id="a_node43"><a xlink:title=" ">
<polygon fill="#bfefff" stroke="black" points="367,-1448 313,-1448 313,-1412 367,-1412 367,-1448"/>
<text text-anchor="middle" x="340" y="-1427.8" font-family="Helvetica,sans-Serif" font-size="9.00">role</text>
</a>
</g>
</g>
<!-- role&#45;&gt;qualifier value -->
<g id="edge43" class="edge">
<title>role&#45;&gt;qualifier value</title>
<path fill="none" stroke="black" d="M312.9,-1430C264.69,-1430 169,-1430 169,-1430 169,-1430 169,-1242.04 169,-1242.04"/>
<polygon fill="black" stroke="black" points="172.5,-1242.04 169,-1232.04 165.5,-1242.04 172.5,-1242.04"/>
</g>
<!-- basic dose form -->
<g id="node44" class="node">
<title>basic dose form</title>
<g id="a_node44"><a xlink:title=" ">
<polygon fill="violet" stroke="black" points="384,-1394 296,-1394 296,-1358 384,-1358 384,-1394"/>
<text text-anchor="middle" x="340" y="-1373.8" font-family="Helvetica,sans-Serif" font-size="9.00">basic dose form</text>
</a>
</g>
</g>
<!-- basic dose form&#45;&gt;qualifier value -->
<g id="edge45" class="edge">
<title>basic dose form&#45;&gt;qualifier value</title>
<path fill="none" stroke="black" d="M295.99,-1376C249.24,-1376 182,-1376 182,-1376 182,-1376 182,-1242.27 182,-1242.27"/>
<polygon fill="black" stroke="black" points="185.5,-1242.27 182,-1232.27 178.5,-1242.27 185.5,-1242.27"/>
</g>
<!-- core metadata concept -->
<g id="node45" class="node">
<title>core metadata concept</title>
<g id="a_node45"><a xlink:title=" ">
<polygon fill="palegreen" stroke="black" points="401,-306 279,-306 279,-270 401,-270 401,-306"/>
<text text-anchor="middle" x="340" y="-285.8" font-family="Helvetica,sans-Serif" font-size="9.00">core metadata concept</text>
</a>
</g>
</g>
<!-- core metadata concept&#45;&gt;metadata -->
<g id="edge46" class="edge">
<title>core metadata concept&#45;&gt;metadata</title>
<path fill="none" stroke="black" d="M278.8,-302.25C262.34,-302.25 249,-302.25 249,-302.25 249,-302.25 249,-408.75 249,-408.75 249,-408.75 222.64,-408.75 222.64,-408.75"/>
<polygon fill="black" stroke="black" points="222.64,-405.25 212.64,-408.75 222.64,-412.25 222.64,-405.25"/>
</g>
<!-- unit of presentation -->
<g id="node46" class="node">
<title>unit of presentation</title>
<g id="a_node46"><a xlink:title=" ">
<polygon fill="#bfefff" stroke="black" points="393,-1340 287,-1340 287,-1304 393,-1304 393,-1340"/>
<text text-anchor="middle" x="340" y="-1319.8" font-family="Helvetica,sans-Serif" font-size="9.00">unit of presentation</text>
</a>
</g>
</g>
<!-- unit of presentation&#45;&gt;qualifier value -->
<g id="edge47" class="edge">
<title>unit of presentation&#45;&gt;qualifier value</title>
<path fill="none" stroke="black" d="M286.83,-1322C245.45,-1322 195,-1322 195,-1322 195,-1322 195,-1242.32 195,-1242.32"/>
<polygon fill="black" stroke="black" points="198.5,-1242.32 195,-1232.32 191.5,-1242.32 198.5,-1242.32"/>
</g>
<!-- intended site -->
<g id="node47" class="node">
<title>intended site</title>
<g id="a_node47"><a xlink:title=" ">
<polygon fill="#bfefff" stroke="black" points="378,-1286 302,-1286 302,-1250 378,-1250 378,-1286"/>
<text text-anchor="middle" x="340" y="-1265.8" font-family="Helvetica,sans-Serif" font-size="9.00">intended site</text>
</a>
</g>
</g>
<!-- intended site&#45;&gt;qualifier value -->
<g id="edge48" class="edge">
<title>intended site&#45;&gt;qualifier value</title>
<path fill="none" stroke="black" d="M301.76,-1268C263.09,-1268 209,-1268 209,-1268 209,-1268 209,-1242.28 209,-1242.28"/>
<polygon fill="black" stroke="black" points="212.5,-1242.28 209,-1232.28 205.5,-1242.28 212.5,-1242.28"/>
</g>
<!-- life style -->
<g id="node48" class="node">
<title>life style</title>
<g id="a_node48"><a xlink:title=" ">
<polygon fill="palegreen" stroke="black" points="367,-684 313,-684 313,-648 367,-648 367,-684"/>
<text text-anchor="middle" x="340" y="-663.8" font-family="Helvetica,sans-Serif" font-size="9.00">life style</text>
</a>
</g>
</g>
<!-- life style&#45;&gt;social concept -->
<g id="edge49" class="edge">
<title>life style&#45;&gt;social concept</title>
<path fill="none" stroke="black" d="M312.92,-666C276.98,-666 218,-666 218,-666 218,-666 218,-691.72 218,-691.72"/>
<polygon fill="black" stroke="black" points="214.5,-691.72 218,-701.72 221.5,-691.72 214.5,-691.72"/>
</g>
<!-- racial group -->
<g id="node49" class="node">
<title>racial group</title>
<g id="a_node49"><a xlink:title=" ">
<polygon fill="palegreen" stroke="black" points="375.5,-630 304.5,-630 304.5,-594 375.5,-594 375.5,-630"/>
<text text-anchor="middle" x="340" y="-609.8" font-family="Helvetica,sans-Serif" font-size="9.00">racial group</text>
</a>
</g>
</g>
<!-- racial group&#45;&gt;social concept -->
<g id="edge50" class="edge">
<title>racial group&#45;&gt;social concept</title>
<path fill="none" stroke="black" d="M304.23,-612C266.98,-612 214,-612 214,-612 214,-612 214,-691.68 214,-691.68"/>
<polygon fill="black" stroke="black" points="210.5,-691.68 214,-701.68 217.5,-691.68 210.5,-691.68"/>
</g>
<!-- administration method -->
<g id="node50" class="node">
<title>administration method</title>
<g id="a_node50"><a xlink:title=" ">
<polygon fill="#bfefff" stroke="black" points="400,-1232 280,-1232 280,-1196 400,-1196 400,-1232"/>
<text text-anchor="middle" x="340" y="-1211.8" font-family="Helvetica,sans-Serif" font-size="9.00">administration method</text>
</a>
</g>
</g>
<!-- administration method&#45;&gt;qualifier value -->
<g id="edge51" class="edge">
<title>administration method&#45;&gt;qualifier value</title>
<path fill="none" stroke="black" d="M279.56,-1208C279.56,-1208 232.57,-1208 232.57,-1208"/>
<polygon fill="black" stroke="black" points="232.57,-1204.5 222.57,-1208 232.57,-1211.5 232.57,-1204.5"/>
</g>
<!-- link assertion -->
<g id="node51" class="node">
<title>link assertion</title>
<g id="a_node51"><a xlink:title=" ">
<polygon fill="palegreen" stroke="black" points="537.5,-441 461.5,-441 461.5,-405 537.5,-405 537.5,-441"/>
<text text-anchor="middle" x="499.5" y="-420.8" font-family="Helvetica,sans-Serif" font-size="9.00">link assertion</text>
</a>
</g>
</g>
<!-- link assertion&#45;&gt;linkage concept -->
<g id="edge53" class="edge">
<title>link assertion&#45;&gt;linkage concept</title>
<path fill="none" stroke="black" d="M461.3,-436.5C461.3,-436.5 394.68,-436.5 394.68,-436.5"/>
<polygon fill="black" stroke="black" points="394.68,-433 384.68,-436.5 394.68,-440 394.68,-433"/>
</g>
<!-- release characteristic -->
<g id="node52" class="node">
<title>release characteristic</title>
<g id="a_node52"><a xlink:title=" ">
<polygon fill="#bfefff" stroke="black" points="396.5,-1178 283.5,-1178 283.5,-1142 396.5,-1142 396.5,-1178"/>
<text text-anchor="middle" x="340" y="-1157.8" font-family="Helvetica,sans-Serif" font-size="9.00">release characteristic</text>
</a>
</g>
</g>
<!-- release characteristic&#45;&gt;qualifier value -->
<g id="edge54" class="edge">
<title>release characteristic&#45;&gt;qualifier value</title>
<path fill="none" stroke="black" d="M283.3,-1160C247.9,-1160 209,-1160 209,-1160 209,-1160 209,-1185.72 209,-1185.72"/>
<polygon fill="black" stroke="black" points="205.5,-1185.72 209,-1195.72 212.5,-1185.72 205.5,-1185.72"/>
</g>
<!-- state of matter -->
<g id="node53" class="node">
<title>state of matter</title>
<g id="a_node53"><a xlink:title=" ">
<polygon fill="#bfefff" stroke="black" points="382,-1124 298,-1124 298,-1088 382,-1088 382,-1124"/>
<text text-anchor="middle" x="340" y="-1103.8" font-family="Helvetica,sans-Serif" font-size="9.00">state of matter</text>
</a>
</g>
</g>
<!-- state of matter&#45;&gt;qualifier value -->
<g id="edge55" class="edge">
<title>state of matter&#45;&gt;qualifier value</title>
<path fill="none" stroke="black" d="M297.67,-1106C254.87,-1106 195,-1106 195,-1106 195,-1106 195,-1185.68 195,-1185.68"/>
<polygon fill="black" stroke="black" points="191.5,-1185.68 195,-1195.68 198.5,-1185.68 191.5,-1185.68"/>
</g>
<!-- transformation -->
<g id="node54" class="node">
<title>transformation</title>
<g id="a_node54"><a xlink:title=" ">
<polygon fill="#bfefff" stroke="orange" points="381.5,-1066 298.5,-1066 298.5,-1030 381.5,-1030 381.5,-1066"/>
<polygon fill="none" stroke="orange" points="385.5,-1070 294.5,-1070 294.5,-1026 385.5,-1026 385.5,-1070"/>
<text text-anchor="middle" x="340" y="-1045.8" font-family="Helvetica,sans-Serif" font-size="9.00">transformation</text>
</a>
</g>
</g>
<!-- transformation&#45;&gt;qualifier value -->
<g id="edge56" class="edge">
<title>transformation&#45;&gt;qualifier value</title>
<path fill="none" stroke="black" d="M294.3,-1048C247.64,-1048 182,-1048 182,-1048 182,-1048 182,-1185.92 182,-1185.92"/>
<polygon fill="black" stroke="black" points="178.5,-1185.92 182,-1195.92 185.5,-1185.92 178.5,-1185.92"/>
</g>
<!-- OWL metadata concept -->
<g id="node55" class="node">
<title>OWL metadata concept</title>
<g id="a_node55"><a xlink:title=" ">
<polygon fill="palegreen" stroke="black" points="402,-252 278,-252 278,-216 402,-216 402,-252"/>
<text text-anchor="middle" x="340" y="-231.8" font-family="Helvetica,sans-Serif" font-size="9.00">OWL metadata concept</text>
</a>
</g>
</g>
<!-- OWL metadata concept&#45;&gt;metadata -->
<g id="edge57" class="edge">
<title>OWL metadata concept&#45;&gt;metadata</title>
<path fill="none" stroke="black" d="M277.63,-247C265.26,-247 256,-247 256,-247 256,-247 256,-423 256,-423 256,-423 222.82,-423 222.82,-423"/>
<polygon fill="black" stroke="black" points="222.82,-419.5 212.82,-423 222.82,-426.5 222.82,-419.5"/>
</g>
<!-- clinical drug -->
<g id="node56" class="node">
<title>clinical drug</title>
<g id="a_node56"><a xlink:title=" ">
<polygon fill="palegreen" stroke="black" points="655,-1625 583,-1625 583,-1589 655,-1589 655,-1625"/>
<text text-anchor="middle" x="619" y="-1604.8" font-family="Helvetica,sans-Serif" font-size="9.00" fill="red">clinical drug</text>
</a>
</g>
</g>
<!-- clinical drug&#45;&gt;product -->
<g id="edge59" class="edge">
<title>clinical drug&#45;&gt;product</title>
<path fill="none" stroke="black" d="M582.81,-1620.67C582.81,-1620.67 377.32,-1620.67 377.32,-1620.67"/>
<polygon fill="black" stroke="black" points="377.32,-1617.17 367.32,-1620.67 377.32,-1624.17 377.32,-1617.17"/>
</g>
<!-- clinical drug&#45;&gt;medicinal product form -->
<g id="edge60" class="edge">
<title>clinical drug&#45;&gt;medicinal product form</title>
<path fill="none" stroke="black" d="M582.82,-1595.5C582.82,-1595.5 571.18,-1595.5 571.18,-1595.5"/>
<polygon fill="black" stroke="black" points="571.18,-1592 561.18,-1595.5 571.18,-1599 571.18,-1592"/>
</g>
<!-- supplier -->
<g id="node57" class="node">
<title>supplier</title>
<g id="a_node57"><a xlink:title=" ">
<polygon fill="#bfefff" stroke="orange" points="367,-1004 313,-1004 313,-968 367,-968 367,-1004"/>
<polygon fill="none" stroke="orange" points="371,-1008 309,-1008 309,-964 371,-964 371,-1008"/>
<text text-anchor="middle" x="340" y="-983.8" font-family="Helvetica,sans-Serif" font-size="9.00">supplier</text>
</a>
</g>
</g>
<!-- supplier&#45;&gt;qualifier value -->
<g id="edge63" class="edge">
<title>supplier&#45;&gt;qualifier value</title>
<path fill="none" stroke="black" d="M308.64,-986C259.27,-986 169,-986 169,-986 169,-986 169,-1185.73 169,-1185.73"/>
<polygon fill="black" stroke="black" points="165.5,-1185.73 169,-1195.73 172.5,-1185.73 165.5,-1185.73"/>
</g>
<!-- product name -->
<g id="node58" class="node">
<title>product name</title>
<g id="a_node58"><a xlink:title=" ">
<polygon fill="#bfefff" stroke="orange" points="380.5,-942 299.5,-942 299.5,-906 380.5,-906 380.5,-942"/>
<polygon fill="none" stroke="orange" points="384.5,-946 295.5,-946 295.5,-902 384.5,-902 384.5,-946"/>
<text text-anchor="middle" x="340" y="-921.8" font-family="Helvetica,sans-Serif" font-size="9.00">product name</text>
</a>
</g>
</g>
<!-- product name&#45;&gt;qualifier value -->
<g id="edge64" class="edge">
<title>product name&#45;&gt;qualifier value</title>
<path fill="none" stroke="black" d="M295.22,-924C240.47,-924 155,-924 155,-924 155,-924 155,-1185.86 155,-1185.86"/>
<polygon fill="black" stroke="black" points="151.5,-1185.86 155,-1195.86 158.5,-1185.86 151.5,-1185.86"/>
</g>
</g>
</svg>
