<?xml version="1.0" encoding="UTF-8" standalone="no"?>
<!DOCTYPE svg PUBLIC "-//W3C//DTD SVG 1.1//EN"
 "http://www.w3.org/Graphics/SVG/1.1/DTD/svg11.dtd">
<!-- Generated by graphviz version 2.43.0 (0)
 -->
<!-- Title: G Pages: 1 -->
<svg width="1166pt" height="660pt"
 viewBox="0.00 0.00 1165.50 660.00" xmlns="http://www.w3.org/2000/svg" xmlns:xlink="http://www.w3.org/1999/xlink">
<g id="graph0" class="graph" transform="scale(1 1) rotate(0) translate(4 656)">
<title>G</title>
<polygon fill="white" stroke="transparent" points="-4,4 -4,-656 1161.5,-656 1161.5,4 -4,4"/>
<!-- 107733003 -->
<g id="node1" class="node">
<title>107733003</title>
<polygon fill="#ccccff" stroke="black" points="904,-213 668,-213 668,-155 904,-155 904,-213"/>
<polygon fill="none" stroke="black" points="908,-217 664,-217 664,-151 908,-151 908,-217"/>
<text text-anchor="start" x="676" y="-201.8" font-family="Helvetica,sans-Serif" font-size="9.00" fill="blue">107733003</text>
<text text-anchor="start" x="676" y="-191.8" font-family="Helvetica,sans-Serif" font-size="9.00" fill="blue">Introduction procedure (procedure)</text>
<text text-anchor="middle" x="786" y="-171.8" font-family="Helvetica,sans-Serif" font-size="9.00" fill="blue">The act of putting or inserting an object AND/OR</text>
<text text-anchor="middle" x="786" y="-161.8" font-family="Helvetica,sans-Serif" font-size="9.00" fill="blue">substance into or onto the body.</text>
</g>
<!-- 71388002 -->
<g id="node2" class="node">
<title>71388002</title>
<polygon fill="#99ccff" stroke="black" points="465.5,-594 346.5,-594 346.5,-558 465.5,-558 465.5,-594"/>
<text text-anchor="start" x="354.5" y="-578.8" font-family="Helvetica,sans-Serif" font-size="9.00">71388002</text>
<text text-anchor="start" x="354.5" y="-568.8" font-family="Helvetica,sans-Serif" font-size="9.00">Procedure (procedure)</text>
</g>
<!-- 107733003&#45;&gt;71388002 -->
<g id="edge1" class="edge">
<title>107733003&#45;&gt;71388002</title>
<path fill="none" stroke="black" d="M808,-217.08C808,-311.59 808,-576 808,-576 808,-576 475.75,-576 475.75,-576"/>
<polygon fill="none" stroke="black" points="475.75,-572.5 465.75,-576 475.75,-579.5 475.75,-572.5"/>
</g>
<!-- 138875005 -->
<g id="node14" class="node">
<title>138875005</title>
<polygon fill="#99ccff" stroke="black" points="509,-652 303,-652 303,-616 509,-616 509,-652"/>
<text text-anchor="start" x="311" y="-636.8" font-family="Helvetica,sans-Serif" font-size="9.00">138875005</text>
<text text-anchor="start" x="311" y="-626.8" font-family="Helvetica,sans-Serif" font-size="9.00">SNOMED CT Concept (SNOMED RT+CTV3)</text>
</g>
<!-- 71388002&#45;&gt;138875005 -->
<g id="edge14" class="edge">
<title>71388002&#45;&gt;138875005</title>
<path fill="none" stroke="black" d="M406,-594.03C406,-594.03 406,-605.78 406,-605.78"/>
<polygon fill="none" stroke="black" points="402.5,-605.78 406,-615.78 409.5,-605.78 402.5,-605.78"/>
</g>
<!-- 112695004 -->
<g id="node3" class="node">
<title>112695004</title>
<polygon fill="#ccccff" stroke="black" points="332.5,-208 175.5,-208 175.5,-160 332.5,-160 332.5,-208"/>
<polygon fill="none" stroke="black" points="336.5,-212 171.5,-212 171.5,-156 336.5,-156 336.5,-212"/>
<text text-anchor="start" x="183.5" y="-196.8" font-family="Helvetica,sans-Serif" font-size="9.00" fill="blue">112695004</text>
<text text-anchor="start" x="183.5" y="-186.8" font-family="Helvetica,sans-Serif" font-size="9.00" fill="blue">Reparative closure (procedure)</text>
<text text-anchor="middle" x="254" y="-166.8" font-family="Helvetica,sans-Serif" font-size="9.00" fill="blue">A repair that unites structures</text>
</g>
<!-- 4365001 -->
<g id="node4" class="node">
<title>4365001</title>
<polygon fill="#ccccff" stroke="black" points="516,-404 296,-404 296,-346 516,-346 516,-404"/>
<polygon fill="none" stroke="black" points="520,-408 292,-408 292,-342 520,-342 520,-408"/>
<text text-anchor="start" x="304" y="-392.8" font-family="Helvetica,sans-Serif" font-size="9.00" fill="blue">4365001</text>
<text text-anchor="start" x="304" y="-382.8" font-family="Helvetica,sans-Serif" font-size="9.00" fill="blue">Surgical repair (procedure)</text>
<text text-anchor="middle" x="406" y="-362.8" font-family="Helvetica,sans-Serif" font-size="9.00" fill="blue">Restoring, to the extent possible, the natural</text>
<text text-anchor="middle" x="406" y="-352.8" font-family="Helvetica,sans-Serif" font-size="9.00" fill="blue">anatomical structure</text>
</g>
<!-- 112695004&#45;&gt;4365001 -->
<g id="edge2" class="edge">
<title>112695004&#45;&gt;4365001</title>
<path fill="none" stroke="black" d="M251.75,-212.18C251.75,-265.31 251.75,-375 251.75,-375 251.75,-375 281.87,-375 281.87,-375"/>
<polygon fill="none" stroke="black" points="281.87,-378.5 291.87,-375 281.87,-371.5 281.87,-378.5"/>
</g>
<!-- 387713003 -->
<g id="node11" class="node">
<title>387713003</title>
<polygon fill="#ccccff" stroke="black" points="530.5,-532 281.5,-532 281.5,-434 530.5,-434 530.5,-532"/>
<polygon fill="none" stroke="black" points="534.5,-536 277.5,-536 277.5,-430 534.5,-430 534.5,-536"/>
<text text-anchor="start" x="289.5" y="-520.8" font-family="Helvetica,sans-Serif" font-size="9.00" fill="blue">387713003</text>
<text text-anchor="start" x="289.5" y="-510.8" font-family="Helvetica,sans-Serif" font-size="9.00" fill="blue">Surgical procedure (procedure)</text>
<text text-anchor="middle" x="406" y="-490.8" font-family="Helvetica,sans-Serif" font-size="9.00" fill="blue">Intentional, structural alteration of the human</text>
<text text-anchor="middle" x="406" y="-480.8" font-family="Helvetica,sans-Serif" font-size="9.00" fill="blue">body by mechanical, thermal, light&#45;based,</text>
<text text-anchor="middle" x="406" y="-470.8" font-family="Helvetica,sans-Serif" font-size="9.00" fill="blue">electromagnetic, or chemical means, and/or by the</text>
<text text-anchor="middle" x="406" y="-460.8" font-family="Helvetica,sans-Serif" font-size="9.00" fill="blue">incision or destruction of tissues using</text>
<text text-anchor="middle" x="406" y="-450.8" font-family="Helvetica,sans-Serif" font-size="9.00" fill="blue">instruments to cut, burn, vaporise, freeze,</text>
<text text-anchor="middle" x="406" y="-440.8" font-family="Helvetica,sans-Serif" font-size="9.00" fill="blue">suture, probe, or manipulate by closed reductions.</text>
</g>
<!-- 4365001&#45;&gt;387713003 -->
<g id="edge12" class="edge">
<title>4365001&#45;&gt;387713003</title>
<path fill="none" stroke="black" d="M406,-408.28C406,-408.28 406,-419.76 406,-419.76"/>
<polygon fill="none" stroke="black" points="402.5,-419.76 406,-429.76 409.5,-419.76 402.5,-419.76"/>
</g>
<!-- 118292001 -->
<g id="node5" class="node">
<title>118292001</title>
<polygon fill="#ccccff" stroke="black" points="222,-311 4,-311 4,-253 222,-253 222,-311"/>
<polygon fill="none" stroke="black" points="226,-315 0,-315 0,-249 226,-249 226,-315"/>
<text text-anchor="start" x="12" y="-299.8" font-family="Helvetica,sans-Serif" font-size="9.00" fill="blue">118292001</text>
<text text-anchor="start" x="12" y="-289.8" font-family="Helvetica,sans-Serif" font-size="9.00" fill="blue">Removal (procedure)</text>
<text text-anchor="middle" x="113" y="-269.8" font-family="Helvetica,sans-Serif" font-size="9.00" fill="blue">To take something off or out, to get rid of, to</text>
<text text-anchor="middle" x="113" y="-259.8" font-family="Helvetica,sans-Serif" font-size="9.00" fill="blue">eliminate</text>
</g>
<!-- 118292001&#45;&gt;71388002 -->
<g id="edge3" class="edge">
<title>118292001&#45;&gt;71388002</title>
<path fill="none" stroke="black" d="M113,-315.15C113,-392.04 113,-576 113,-576 113,-576 336.35,-576 336.35,-576"/>
<polygon fill="none" stroke="black" points="336.35,-579.5 346.35,-576 336.35,-572.5 336.35,-579.5"/>
</g>
<!-- 18932005 -->
<g id="node6" class="node">
<title>18932005</title>
<polygon fill="#99ccff" stroke="black" points="608.5,-36 271.5,-36 271.5,0 608.5,0 608.5,-36"/>
<text text-anchor="start" x="279.5" y="-20.8" font-family="Helvetica,sans-Serif" font-size="9.00">18932005</text>
<text text-anchor="start" x="279.5" y="-10.8" font-family="Helvetica,sans-Serif" font-size="9.00">Rastelli operation in repair of transposition of great vessels (procedure)</text>
</g>
<!-- 18932005&#45;&gt;112695004 -->
<g id="edge4" class="edge">
<title>18932005&#45;&gt;112695004</title>
<path fill="none" stroke="black" d="M304,-36.08C304,-36.08 304,-145.71 304,-145.71"/>
<polygon fill="none" stroke="black" points="300.5,-145.71 304,-155.71 307.5,-145.71 300.5,-145.71"/>
</g>
<!-- 18932005&#45;&gt;118292001 -->
<g id="edge5" class="edge">
<title>18932005&#45;&gt;118292001</title>
<path fill="none" stroke="black" d="M271.43,-18C180.11,-18 85.75,-18 85.75,-18 85.75,-18 85.75,-238.83 85.75,-238.83"/>
<polygon fill="none" stroke="black" points="82.25,-238.83 85.75,-248.83 89.25,-238.83 82.25,-238.83"/>
</g>
<!-- 48537004 -->
<g id="node7" class="node">
<title>48537004</title>
<polygon fill="#ccccff" stroke="black" points="635,-120 397,-120 397,-62 635,-62 635,-120"/>
<polygon fill="none" stroke="black" points="639,-124 393,-124 393,-58 639,-58 639,-124"/>
<text text-anchor="start" x="405" y="-108.8" font-family="Helvetica,sans-Serif" font-size="9.00" fill="blue">48537004</text>
<text text-anchor="start" x="405" y="-98.8" font-family="Helvetica,sans-Serif" font-size="9.00" fill="blue">Bypass graft (procedure)</text>
<text text-anchor="middle" x="516" y="-78.8" font-family="Helvetica,sans-Serif" font-size="9.00" fill="blue">A construction of a shunt using either biologic or</text>
<text text-anchor="middle" x="516" y="-68.8" font-family="Helvetica,sans-Serif" font-size="9.00" fill="blue">synthetic material</text>
</g>
<!-- 18932005&#45;&gt;48537004 -->
<g id="edge6" class="edge">
<title>18932005&#45;&gt;48537004</title>
<path fill="none" stroke="black" d="M500.75,-36.04C500.75,-36.04 500.75,-47.79 500.75,-47.79"/>
<polygon fill="none" stroke="black" points="497.25,-47.79 500.75,-57.79 504.25,-47.79 497.25,-47.79"/>
</g>
<!-- 782901001 -->
<g id="node8" class="node">
<title>782901001</title>
<polygon fill="#ccccff" stroke="black" points="910.5,-120 661.5,-120 661.5,-62 910.5,-62 910.5,-120"/>
<polygon fill="none" stroke="black" points="914.5,-124 657.5,-124 657.5,-58 914.5,-58 914.5,-124"/>
<text text-anchor="start" x="669.5" y="-108.8" font-family="Helvetica,sans-Serif" font-size="9.00" fill="blue">782901001</text>
<text text-anchor="start" x="669.5" y="-98.8" font-family="Helvetica,sans-Serif" font-size="9.00" fill="blue">Insertion procedure (procedure)</text>
<text text-anchor="middle" x="786" y="-78.8" font-family="Helvetica,sans-Serif" font-size="9.00" fill="blue">The act of putting something into or in between an</text>
<text text-anchor="middle" x="786" y="-68.8" font-family="Helvetica,sans-Serif" font-size="9.00" fill="blue">area(s) of the body.</text>
</g>
<!-- 18932005&#45;&gt;782901001 -->
<g id="edge7" class="edge">
<title>18932005&#45;&gt;782901001</title>
<path fill="none" stroke="black" d="M608.69,-24C696.6,-24 786,-24 786,-24 786,-24 786,-47.89 786,-47.89"/>
<polygon fill="none" stroke="black" points="782.5,-47.89 786,-57.89 789.5,-47.89 782.5,-47.89"/>
</g>
<!-- 782902008 -->
<g id="node9" class="node">
<title>782902008</title>
<polygon fill="#ccccff" stroke="black" points="1153.5,-120 936.5,-120 936.5,-62 1153.5,-62 1153.5,-120"/>
<polygon fill="none" stroke="black" points="1157.5,-124 932.5,-124 932.5,-58 1157.5,-58 1157.5,-124"/>
<text text-anchor="start" x="944.5" y="-108.8" font-family="Helvetica,sans-Serif" font-size="9.00" fill="blue">782902008</text>
<text text-anchor="start" x="944.5" y="-98.8" font-family="Helvetica,sans-Serif" font-size="9.00" fill="blue">Implantation procedure (procedure)</text>
<text text-anchor="middle" x="1045" y="-78.8" font-family="Helvetica,sans-Serif" font-size="9.00" fill="blue">The act of fixing something firmly or setting</text>
<text text-anchor="middle" x="1045" y="-68.8" font-family="Helvetica,sans-Serif" font-size="9.00" fill="blue">something securely or deeply into the body.</text>
</g>
<!-- 18932005&#45;&gt;782902008 -->
<g id="edge8" class="edge">
<title>18932005&#45;&gt;782902008</title>
<path fill="none" stroke="black" d="M608.53,-12C787.54,-12 1045,-12 1045,-12 1045,-12 1045,-47.95 1045,-47.95"/>
<polygon fill="none" stroke="black" points="1041.5,-47.95 1045,-57.95 1048.5,-47.95 1041.5,-47.95"/>
</g>
<!-- 85830006 -->
<g id="node10" class="node">
<title>85830006</title>
<polygon fill="#ccccff" stroke="black" points="525.5,-316 286.5,-316 286.5,-248 525.5,-248 525.5,-316"/>
<polygon fill="none" stroke="black" points="529.5,-320 282.5,-320 282.5,-244 529.5,-244 529.5,-320"/>
<text text-anchor="start" x="294.5" y="-304.8" font-family="Helvetica,sans-Serif" font-size="9.00" fill="blue">85830006</text>
<text text-anchor="start" x="294.5" y="-294.8" font-family="Helvetica,sans-Serif" font-size="9.00" fill="blue">Repair of heart valve (procedure)</text>
<text text-anchor="middle" x="406" y="-274.8" font-family="Helvetica,sans-Serif" font-size="9.00" fill="blue">Restoring to the extent possible the natural</text>
<text text-anchor="middle" x="406" y="-264.8" font-family="Helvetica,sans-Serif" font-size="9.00" fill="blue">anatomical structure of the heart valve. Does not</text>
<text text-anchor="middle" x="406" y="-254.8" font-family="Helvetica,sans-Serif" font-size="9.00" fill="blue">include heart valve replacement.</text>
</g>
<!-- 18932005&#45;&gt;85830006 -->
<g id="edge9" class="edge">
<title>18932005&#45;&gt;85830006</title>
<path fill="none" stroke="black" d="M364.75,-36.15C364.75,-36.15 364.75,-233.83 364.75,-233.83"/>
<polygon fill="none" stroke="black" points="361.25,-233.83 364.75,-243.83 368.25,-233.83 361.25,-233.83"/>
</g>
<!-- 78817002 -->
<g id="node13" class="node">
<title>78817002</title>
<polygon fill="#ccccff" stroke="black" points="640.5,-218 399.5,-218 399.5,-150 640.5,-150 640.5,-218"/>
<polygon fill="none" stroke="black" points="644.5,-222 395.5,-222 395.5,-146 644.5,-146 644.5,-222"/>
<text text-anchor="start" x="407.5" y="-206.8" font-family="Helvetica,sans-Serif" font-size="9.00" fill="blue">78817002</text>
<text text-anchor="start" x="407.5" y="-196.8" font-family="Helvetica,sans-Serif" font-size="9.00" fill="blue">Construction of anastomosis (procedure)</text>
<text text-anchor="middle" x="520" y="-176.8" font-family="Helvetica,sans-Serif" font-size="9.00" fill="blue">A construction of an opening between two hollow</text>
<text text-anchor="middle" x="520" y="-166.8" font-family="Helvetica,sans-Serif" font-size="9.00" fill="blue">structures, organs, or spaces, be they real or</text>
<text text-anchor="middle" x="520" y="-156.8" font-family="Helvetica,sans-Serif" font-size="9.00" fill="blue">artificial</text>
</g>
<!-- 48537004&#45;&gt;78817002 -->
<g id="edge13" class="edge">
<title>48537004&#45;&gt;78817002</title>
<path fill="none" stroke="black" d="M517.25,-124.05C517.25,-124.05 517.25,-135.98 517.25,-135.98"/>
<polygon fill="none" stroke="black" points="513.75,-135.98 517.25,-145.98 520.75,-135.98 513.75,-135.98"/>
</g>
<!-- 782901001&#45;&gt;107733003 -->
<g id="edge15" class="edge">
<title>782901001&#45;&gt;107733003</title>
<path fill="none" stroke="black" d="M786,-124.05C786,-124.05 786,-140.74 786,-140.74"/>
<polygon fill="none" stroke="black" points="782.5,-140.74 786,-150.74 789.5,-140.74 782.5,-140.74"/>
</g>
<!-- 782902008&#45;&gt;107733003 -->
<g id="edge16" class="edge">
<title>782902008&#45;&gt;107733003</title>
<path fill="none" stroke="black" d="M1045,-124.05C1045,-150.78 1045,-184 1045,-184 1045,-184 918.29,-184 918.29,-184"/>
<polygon fill="none" stroke="black" points="918.29,-180.5 908.29,-184 918.29,-187.5 918.29,-180.5"/>
</g>
<!-- 85830006&#45;&gt;4365001 -->
<g id="edge18" class="edge">
<title>85830006&#45;&gt;4365001</title>
<path fill="none" stroke="black" d="M406,-320.09C406,-320.09 406,-331.88 406,-331.88"/>
<polygon fill="none" stroke="black" points="402.5,-331.88 406,-341.88 409.5,-331.88 402.5,-331.88"/>
</g>
<!-- 387713003&#45;&gt;71388002 -->
<g id="edge10" class="edge">
<title>387713003&#45;&gt;71388002</title>
<path fill="none" stroke="black" d="M406,-536.02C406,-536.02 406,-547.85 406,-547.85"/>
<polygon fill="none" stroke="black" points="402.5,-547.85 406,-557.85 409.5,-547.85 402.5,-547.85"/>
</g>
<!-- 410614008 -->
<g id="node12" class="node">
<title>410614008</title>
<polygon fill="#ccccff" stroke="black" points="704,-306 552,-306 552,-258 704,-258 704,-306"/>
<polygon fill="none" stroke="black" points="708,-310 548,-310 548,-254 708,-254 708,-310"/>
<text text-anchor="start" x="560" y="-294.8" font-family="Helvetica,sans-Serif" font-size="9.00" fill="blue">410614008</text>
<text text-anchor="start" x="560" y="-284.8" font-family="Helvetica,sans-Serif" font-size="9.00" fill="blue">Construction (procedure)</text>
<text text-anchor="middle" x="628" y="-264.8" font-family="Helvetica,sans-Serif" font-size="9.00" fill="blue">The act of building something</text>
</g>
<!-- 410614008&#45;&gt;4365001 -->
<g id="edge11" class="edge">
<title>410614008&#45;&gt;4365001</title>
<path fill="none" stroke="black" d="M628,-310.16C628,-337.53 628,-375 628,-375 628,-375 530.25,-375 530.25,-375"/>
<polygon fill="none" stroke="black" points="530.25,-371.5 520.25,-375 530.25,-378.5 530.25,-371.5"/>
</g>
<!-- 78817002&#45;&gt;410614008 -->
<g id="edge17" class="edge">
<title>78817002&#45;&gt;410614008</title>
<path fill="none" stroke="black" d="M596.25,-222.17C596.25,-222.17 596.25,-243.8 596.25,-243.8"/>
<polygon fill="none" stroke="black" points="592.75,-243.8 596.25,-253.8 599.75,-243.8 592.75,-243.8"/>
</g>
</g>
</svg>
