740514001	740514001
740514001	116140006
740514001	71388002
740514001	138875005
739671004	739671004
739671004	116140006
739671004	71388002
739671004	138875005
6025007	6025007
6025007	80146002
6025007	71388002
6025007	138875005
361223008	361223008
361223008	116143008
361223008	116140006
361223008	71388002
361223008	138875005
35955002	35955002
35955002	116142003
35955002	116140006
35955002	71388002
35955002	138875005
35955002	767610009
235313004	235313004
235313004	80146002
235313004	71388002
235313004	138875005
446679008	446679008
446679008	236888001
446679008	116140006
446679008	71388002
446679008	138875005
446679008	116143008
236888001	236888001
236888001	116140006
236888001	71388002
236888001	138875005
88144003	88144003
88144003	116140006
88144003	71388002
88144003	138875005
739672006	739672006
739672006	116140006
739672006	71388002
739672006	138875005
307771009	307771009
307771009	116142003
307771009	116140006
307771009	71388002
307771009	138875005
307771009	116143008
767610009	767610009
767610009	116140006
767610009	71388002
767610009	138875005
174036004	174036004
174036004	80146002
174036004	71388002
174036004	138875005
361222003	361222003
361222003	307771009
361222003	116142003
361222003	116140006
361222003	71388002
361222003	138875005
361222003	116143008
174039006	174039006
174039006	174036004
174039006	80146002
174039006	71388002
174039006	138875005
1299000	1299000
1299000	80146002
1299000	71388002
1299000	138875005
71388002	71388002
71388002	138875005
739673001	739673001
739673001	739671004
739673001	116140006
739673001	71388002
739673001	138875005
739673001	740515000
446446002	446446002
446446002	116143008
446446002	116140006
446446002	71388002
446446002	138875005
116140006	116140006
116140006	71388002
116140006	138875005
739674007	739674007
739674007	739672006
739674007	116140006
739674007	71388002
739674007	138875005
739674007	740514001
236891001	236891001
236891001	116142003
236891001	116140006
236891001	71388002
236891001	138875005
236891001	236888001
82730006	82730006
82730006	80146002
82730006	71388002
82730006	138875005
116142003	116142003
116142003	116140006
116142003	71388002
116142003	138875005
174041007	174041007
174041007	174036004
174041007	80146002
174041007	71388002
174041007	138875005
174041007	6025007
307581005	307581005
307581005	6025007
307581005	80146002
307581005	71388002
307581005	138875005
18932005	18932005
18932005	71388002
18932005	138875005
116143008	116143008
116143008	116140006
116143008	71388002
116143008	138875005
740515000	740515000
740515000	116140006
740515000	71388002
740515000	138875005
174045003	174045003
174045003	80146002
174045003	71388002
174045003	138875005
767611008	767611008
767611008	116143008
767611008	116140006
767611008	71388002
767611008	138875005
80146002	80146002
80146002	71388002
80146002	138875005
49438003	49438003
49438003	80146002
49438003	71388002
49438003	138875005
