strict digraph G { rankdir=RL; ranksep=.3; node [shape=box, fontsize=9, fontname=Helvetica, style=filled, fillcolor=white];
"740514001"->"116140006" [arrowhead=onormal];
"116142003"->"116140006" [arrowhead=onormal];
"174039006"->"174036004" [arrowhead=onormal];
"446679008"->"236888001" [arrowhead=onormal];
"446679008"->"116143008" [arrowhead=onormal];
"361222003"->"307771009" [arrowhead=onormal];
"236891001"->"116142003" [arrowhead=onormal];
"236891001"->"236888001" [arrowhead=onormal];
"236888001"->"116140006" [arrowhead=onormal];
"174045003"->"80146002" [arrowhead=onormal];
"18932005"->"71388002" [arrowhead=onormal];
"361223008"->"116143008" [arrowhead=onormal];
"767611008"->"116143008" [arrowhead=onormal];
"1299000"->"80146002" [arrowhead=onormal];
"49438003"->"80146002" [arrowhead=onormal];
"82730006"->"80146002" [arrowhead=onormal];
"235313004"->"80146002" [arrowhead=onormal];
"740515000"->"116140006" [arrowhead=onormal];
"116140006"->"71388002" [arrowhead=onormal];
"739673001"->"739671004" [arrowhead=onormal];
"739673001"->"740515000" [arrowhead=onormal];
"739672006"->"116140006" [arrowhead=onormal];
"739671004"->"116140006" [arrowhead=onormal];
"739674007"->"739672006" [arrowhead=onormal];
"739674007"->"740514001" [arrowhead=onormal];
"6025007"->"80146002" [arrowhead=onormal];
"35955002"->"116142003" [arrowhead=onormal];
"35955002"->"767610009" [arrowhead=onormal];
"307771009"->"116142003" [arrowhead=onormal];
"307771009"->"116143008" [arrowhead=onormal];
"307581005"->"6025007" [arrowhead=onormal];
"88144003"->"116140006" [arrowhead=onormal];
"116143008"->"116140006" [arrowhead=onormal];
"446446002"->"116143008" [arrowhead=onormal];
"174036004"->"80146002" [arrowhead=onormal];
"174041007"->"174036004" [arrowhead=onormal];
"174041007"->"6025007" [arrowhead=onormal];
"767610009"->"116140006" [arrowhead=onormal];
"80146002"->"71388002" [arrowhead=onormal];
"71388002"->"138875005" [arrowhead=onormal];
"71388002" [label="71388002\nProcedure", shape=box, peripheries=2, style=filled, fillcolor=pink];
"138875005" [label="138875005\nSNOMED CT Concept", shape=box, peripheries=2, style=filled, fillcolor=pink];
"80146002" [label="80146002\nAppendicectomy", shape=box, peripheries=2, style=filled, fillcolor=pink];
"740514001" [label="740514001\lTotal hysterectomy with right salpingectomy", shape=box, peripheries=2, style=filled, fillcolor="#CCCCFF"];
"116142003" [label="116142003\lRadical hysterectomy", shape=box, peripheries=1, style=filled, fillcolor="#99CCFF"];
"174039006" [label="174039006\lEmergency excision of normal appendix", shape=box, peripheries=1, style=filled, fillcolor="#99CCFF"];
"446679008" [label="446679008\lTotal laparoscopic excision of uterus by abdominal approach", shape=box, peripheries=1, style=filled, fillcolor="#99CCFF"];
"361222003" [label="361222003\lWertheim-Meigs abdominal hysterectomy", shape=box, peripheries=1, style=filled, fillcolor="#99CCFF"];
"236891001" [label="236891001\lLaparoscopic radical hysterectomy", shape=box, peripheries=2, style=filled, fillcolor="#CCCCFF"];
"236888001" [label="236888001\lLaparoscopic total hysterectomy", shape=box, peripheries=2, style=filled, fillcolor="#CCCCFF"];
"174045003" [label="174045003\lInterval appendicectomy", shape=box, peripheries=1, style=filled, fillcolor="#99CCFF"];
"18932005" [label="18932005\lRastelli operation in repair of transposition of great vessels", shape=box, peripheries=1, style=filled, fillcolor="#99CCFF"];
"361223008" [label="361223008\lWertheim operation", shape=box, peripheries=1, style=filled, fillcolor="#99CCFF"];
"767611008" [label="767611008\lTotal abdominal hysterectomy using intrafascial technique", shape=box, peripheries=1, style=filled, fillcolor="#99CCFF"];
"1299000" [label="1299000\lExcision of appendiceal stump", shape=box, peripheries=1, style=filled, fillcolor="#99CCFF"];
"49438003" [label="49438003\lAppendicectomy with drainage", shape=box, peripheries=2, style=filled, fillcolor="#CCCCFF"];
"82730006" [label="82730006\lIncidental appendicectomy", shape=box, peripheries=1, style=filled, fillcolor="#99CCFF"];
"235313004" [label="235313004\lNon-emergency appendicectomy", shape=box, peripheries=2, style=filled, fillcolor="#CCCCFF"];
"740515000" [label="740515000\lTotal hysterectomy with left salpingectomy", shape=box, peripheries=2, style=filled, fillcolor="#CCCCFF"];
"116140006" [label="116140006\lTotal hysterectomy", shape=box, peripheries=2, style=filled, fillcolor="#CCCCFF"];
"739673001" [label="739673001\lTotal hysterectomy with left salpingo-oophorectomy", shape=box, peripheries=2, style=filled, fillcolor="#CCCCFF"];
"739672006" [label="739672006\lTotal hysterectomy with right oophorectomy", shape=box, peripheries=2, style=filled, fillcolor="#CCCCFF"];
"739671004" [label="739671004\lTotal hysterectomy with left oophorectomy", shape=box, peripheries=2, style=filled, fillcolor="#CCCCFF"];
"739674007" [label="739674007\lTotal hysterectomy with right salpingo-oophorectomy", shape=box, peripheries=2, style=filled, fillcolor="#CCCCFF"];
"6025007" [label="6025007\lLaparoscopic appendicectomy", shape=box, peripheries=2, style=filled, fillcolor="#CCCCFF"];
"35955002" [label="35955002\lRadical vaginal hysterectomy", shape=box, peripheries=1, style=filled, fillcolor="#99CCFF"];
"307771009" [label="307771009\lRadical abdominal hysterectomy", shape=box, peripheries=1, style=filled, fillcolor="#99CCFF"];
"307581005" [label="307581005\lLaparoscopic interval appendicectomy", shape=box, peripheries=2, style=filled, fillcolor="#CCCCFF"];
"88144003" [label="88144003\lRemoval of ectopic interstitial uterine pregnancy requiring total hysterectomy", shape=box, peripheries=1, style=filled, fillcolor="#99CCFF"];
"116143008" [label="116143008\lTotal abdominal hysterectomy", shape=box, peripheries=2, style=filled, fillcolor="#CCCCFF"];
"446446002" [label="446446002\lTotal abdominal hysterectomy and removal of vaginal cuff", shape=box, peripheries=1, style=filled, fillcolor="#99CCFF"];
"174036004" [label="174036004\lEmergency appendicectomy", shape=box, peripheries=2, style=filled, fillcolor="#CCCCFF"];
"174041007" [label="174041007\lLaparoscopic emergency appendicectomy", shape=box, peripheries=2, style=filled, fillcolor="#CCCCFF"];
"767610009" [label="767610009\lTotal hysterectomy via vaginal approach", shape=box, peripheries=2, style=filled, fillcolor="#CCCCFF"];
}