digraph RF2_MRCM { rankdir=LR; splines=ortho; node [shape=box, peripheries=1, style=filled, fontsize=9, fontname=Helvetica, tooltip=" ", fillcolor=palegreen];

/* *** Model rows *** */
"<< 373873005\nPharmaceutical / biologic product"->"320081000221109\nUnit of presentation size quantity" [arrowhead=open, style=dashed, color=red, tooltip="Pharmaceutical / biologic product -> Unit of presentation size quantity [0..1]"];
"320081000221109\nUnit of presentation size quantity"->"< 260299005\nNumber" [arrowhead=open, style=dashed, color=blue, tooltip="Unit of presentation size quantity -> Number"];
"<< 373873005\nPharmaceutical / biologic product"->"320091000221107\nUnit of presentation size unit" [arrowhead=open, style=dashed, color=red, tooltip="Pharmaceutical / biologic product -> Unit of presentation size unit [0..1]"];
"320091000221107\nUnit of presentation size unit"->"<< 767524001\nUnit of measure" [arrowhead=open, style=dashed, color=blue, tooltip="Unit of presentation size unit -> Unit of measure"];
"<< 373873005\nPharmaceutical / biologic product"->"411116001\nHas manufactured dose form" [arrowhead=open, style=dashed, color=red, tooltip="Pharmaceutical / biologic product -> Has manufactured dose form [0..1]"];
"411116001\nHas manufactured dose form"->"<< 736542009\nPharmaceutical dose form" [arrowhead=open, style=dashed, color=blue, tooltip="Has manufactured dose form -> Pharmaceutical dose form"];
"<< 373873005\nPharmaceutical / biologic product"->"763032000\nHas unit of presentation" [arrowhead=open, style=dashed, color=red, tooltip="Pharmaceutical / biologic product -> Has unit of presentation [0..1]"];
"763032000\nHas unit of presentation"->"<< 732935002\nUnit of presentation" [arrowhead=open, style=dashed, color=blue, tooltip="Has unit of presentation -> Unit of presentation"];
"<< 373873005\nPharmaceutical / biologic product"->"766939001\nPlays role" [arrowhead=open, style=dashed, color=red, tooltip="Pharmaceutical / biologic product -> Plays role [0..*]"];
"766939001\nPlays role"->"<< 766940004\nRole" [arrowhead=open, style=dashed, color=blue, tooltip="Plays role -> Role"];
"<< 373873005\nPharmaceutical / biologic product"->"766952006\nCount of base of active ingredient" [arrowhead=open, style=dashed, color=red, tooltip="Pharmaceutical / biologic product -> Count of base of active ingredient [0..1]"];
"766952006\nCount of base of active ingredient"->"< 260299005\nNumber" [arrowhead=open, style=dashed, color=blue, tooltip="Count of base of active ingredient -> Number"];
"<< 373873005\nPharmaceutical / biologic product"->"766953001\nCount of active ingredient" [arrowhead=open, style=dashed, color=red, tooltip="Pharmaceutical / biologic product -> Count of active ingredient [0..1]"];
"766953001\nCount of active ingredient"->"< 260299005\nNumber" [arrowhead=open, style=dashed, color=blue, tooltip="Count of active ingredient -> Number"];
"<< 373873005\nPharmaceutical / biologic product"->"766954007\nCount of base and modification pair" [arrowhead=open, style=dashed, color=red, tooltip="Pharmaceutical / biologic product -> Count of base and modification pair [0..1]"];
"766954007\nCount of base and modification pair"->"< 260299005\nNumber" [arrowhead=open, style=dashed, color=blue, tooltip="Count of base and modification pair -> Number"];
"<< 373873005\nPharmaceutical / biologic product"->"774158006\nHas product name" [arrowhead=open, style=dashed, color=red, tooltip="Pharmaceutical / biologic product -> Has product name [0..1]"];
"774158006\nHas product name"->"<< 774167006\nProduct name" [arrowhead=open, style=dashed, color=blue, tooltip="Has product name -> Product name"];
"<< 373873005\nPharmaceutical / biologic product"->"774159003\nHas supplier" [arrowhead=open, style=dashed, color=red, tooltip="Pharmaceutical / biologic product -> Has supplier [0..1]"];
"774159003\nHas supplier"->"<< 774164004\nSupplier" [arrowhead=open, style=dashed, color=blue, tooltip="Has supplier -> Supplier"];
"<< 373873005\nPharmaceutical / biologic product"->"860781008\nHas product characteristic" [arrowhead=open, style=dashed, color=red, tooltip="Pharmaceutical / biologic product -> Has product characteristic [0..*]"];
"860781008\nHas product characteristic"->"<< 362981000\nQualifier value" [arrowhead=open, style=dashed, color=blue, tooltip="Has product characteristic -> Qualifier value"];
"<< 373873005\nPharmaceutical / biologic product"->"127489000\nHas active ingredient" [arrowhead=open, color=red, tooltip="Pharmaceutical / biologic product -> Has active ingredient [0..1]"];
"127489000\nHas active ingredient"->"<< 105590001\nSubstance" [arrowhead=open, color=blue, tooltip="Has active ingredient -> Substance"];
"<< 373873005\nPharmaceutical / biologic product"->"732943007\nHas BoSS" [arrowhead=open, color=red, tooltip="Pharmaceutical / biologic product -> Has BoSS [0..1]"];
"732943007\nHas BoSS"->"<< 105590001\nSubstance" [arrowhead=open, color=blue, tooltip="Has BoSS -> Substance"];
"<< 373873005\nPharmaceutical / biologic product"->"732944001\nHas presentation strength numerator value" [arrowhead=open, color=red, tooltip="Pharmaceutical / biologic product -> Has presentation strength numerator value [0..1]"];
"732944001\nHas presentation strength numerator value"->"< 260299005\nNumber" [arrowhead=open, color=blue, tooltip="Has presentation strength numerator value -> Number"];
"<< 373873005\nPharmaceutical / biologic product"->"732945000\nHas presentation strength numerator unit" [arrowhead=open, color=red, tooltip="Pharmaceutical / biologic product -> Has presentation strength numerator unit [0..1]"];
"732945000\nHas presentation strength numerator unit"->"<< 767524001\nUnit of measure" [arrowhead=open, color=blue, tooltip="Has presentation strength numerator unit -> Unit of measure"];
"<< 373873005\nPharmaceutical / biologic product"->"732946004\nHas presentation strength denominator value" [arrowhead=open, color=red, tooltip="Pharmaceutical / biologic product -> Has presentation strength denominator value [0..1]"];
"732946004\nHas presentation strength denominator value"->"< 260299005\nNumber" [arrowhead=open, color=blue, tooltip="Has presentation strength denominator value -> Number"];
"<< 373873005\nPharmaceutical / biologic product"->"732947008\nHas presentation strength denominator unit" [arrowhead=open, color=red, tooltip="Pharmaceutical / biologic product -> Has presentation strength denominator unit [0..1]"];
"732947008\nHas presentation strength denominator unit"->"<< 767524001\nUnit of measure" [arrowhead=open, color=blue, tooltip="Has presentation strength denominator unit -> Unit of measure"];
"<< 373873005\nPharmaceutical / biologic product"->"733722007\nHas concentration strength denominator unit" [arrowhead=open, color=red, tooltip="Pharmaceutical / biologic product -> Has concentration strength denominator unit [0..1]"];
"733722007\nHas concentration strength denominator unit"->"<< 767524001\nUnit of measure" [arrowhead=open, color=blue, tooltip="Has concentration strength denominator unit -> Unit of measure"];
"<< 373873005\nPharmaceutical / biologic product"->"733723002\nHas concentration strength denominator value" [arrowhead=open, color=red, tooltip="Pharmaceutical / biologic product -> Has concentration strength denominator value [0..1]"];
"733723002\nHas concentration strength denominator value"->"< 260299005\nNumber" [arrowhead=open, color=blue, tooltip="Has concentration strength denominator value -> Number"];
"<< 373873005\nPharmaceutical / biologic product"->"733724008\nHas concentration strength numerator value" [arrowhead=open, color=red, tooltip="Pharmaceutical / biologic product -> Has concentration strength numerator value [0..1]"];
"733724008\nHas concentration strength numerator value"->"< 260299005\nNumber" [arrowhead=open, color=blue, tooltip="Has concentration strength numerator value -> Number"];
"<< 373873005\nPharmaceutical / biologic product"->"733725009\nHas concentration strength numerator unit" [arrowhead=open, color=red, tooltip="Pharmaceutical / biologic product -> Has concentration strength numerator unit [0..1]"];
"733725009\nHas concentration strength numerator unit"->"<< 767524001\nUnit of measure" [arrowhead=open, color=blue, tooltip="Has concentration strength numerator unit -> Unit of measure"];
"<< 373873005\nPharmaceutical / biologic product"->"762949000\nHas precise active ingredient" [arrowhead=open, color=red, tooltip="Pharmaceutical / biologic product -> Has precise active ingredient [0..1]"];
"762949000\nHas precise active ingredient"->"<< 105590001\nSubstance" [arrowhead=open, color=blue, tooltip="Has precise active ingredient -> Substance"];
"<< 373873005\nPharmaceutical / biologic product"->"762951001\nHas ingredient" [arrowhead=open, color=red, tooltip="Pharmaceutical / biologic product -> Has ingredient [0..1]"];
"762951001\nHas ingredient"->"<< 105590001\nSubstance" [arrowhead=open, color=blue, tooltip="Has ingredient -> Substance"];
"<< 373873005\nPharmaceutical / biologic product"->"860779006\nHas ingredient characteristic" [arrowhead=open, color=red, tooltip="Pharmaceutical / biologic product -> Has ingredient characteristic [0..*]"];
"860779006\nHas ingredient characteristic"->"<< 362981000\nQualifier value" [arrowhead=open, color=blue, tooltip="Has ingredient characteristic -> Qualifier value"];

/* *** Domain and range/parent domain graph *** */
"<< 373873005\nPharmaceutical / biologic product"->"138875005\nSNOMED CT Concept" [arrowhead=onormal, color=black, tooltip="Pharmaceutical / biologic product is_a SNOMED CT Concept"];
"<< 766940004\nRole"->"<< 362981000\nQualifier value" [arrowhead=onormal, color=black, tooltip="Role is_a Qualifier value"];
"<< 774167006\nProduct name"->"<< 362981000\nQualifier value" [arrowhead=onormal, color=black, tooltip="Product name is_a Qualifier value"];
"<< 736542009\nPharmaceutical dose form"->"<< 362981000\nQualifier value" [arrowhead=onormal, color=black, tooltip="Pharmaceutical dose form is_a Qualifier value"];
"<< 774164004\nSupplier"->"<< 362981000\nQualifier value" [arrowhead=onormal, color=black, tooltip="Supplier is_a Qualifier value"];
"< 260299005\nNumber"->"<< 362981000\nQualifier value" [arrowhead=onormal, color=black, tooltip="Number is_a Qualifier value"];
"<< 732935002\nUnit of presentation"->"<< 767524001\nUnit of measure" [arrowhead=onormal, color=black, tooltip="Unit of presentation is_a Unit of measure"];
"<< 767524001\nUnit of measure"->"<< 362981000\nQualifier value" [arrowhead=onormal, color=black, tooltip="Unit of measure is_a Qualifier value"];
"<< 362981000\nQualifier value"->"138875005\nSNOMED CT Concept" [arrowhead=onormal, color=black, tooltip="Qualifier value is_a SNOMED CT Concept"];
"<< 105590001\nSubstance"->"138875005\nSNOMED CT Concept" [arrowhead=onormal, color=black, tooltip="Substance is_a SNOMED CT Concept"];

/* *** Domain and range classes *** */
"<< 766940004\nRole" [shape=box, peripheries=1, style=filled, fontsize=9, fontcolor=black, fontname=Helvetica, tooltip="<< 766940004 Role\n\nIN RANGE OF:\nPlays role\n\nFROM DOMAIN:\nPharmaceutical / biologic product\n", URL="http://snomed.info/id/766940004", fillcolor=lightblue1];
"<< 774167006\nProduct name" [shape=box, peripheries=1, style=filled, fontsize=9, fontcolor=black, fontname=Helvetica, tooltip="<< 774167006 Product name\nThe authorized product name.\n\nIN RANGE OF:\nHas product name\n\nFROM DOMAIN:\nPharmaceutical / biologic product\n", URL="http://snomed.info/id/774167006", fillcolor=lightblue1];
"<< 105590001\nSubstance" [shape=box, peripheries=1, style=filled, fontsize=9, fontcolor=black, fontname=Helvetica, tooltip="<< 105590001 Substance\n\nIN RANGE OF:\nHas BoSS\nHas active ingredient\nHas ingredient\nHas precise active ingredient\n\nFROM DOMAIN:\nPharmaceutical / biologic product\n", URL="http://snomed.info/id/105590001", fillcolor=lightblue1];
"<< 736542009\nPharmaceutical dose form" [shape=box, peripheries=1, style=filled, fontsize=9, fontcolor=black, fontname=Helvetica, tooltip="<< 736542009 Pharmaceutical dose form\n\nIN RANGE OF:\nHas manufactured dose form\n\nFROM DOMAIN:\nPharmaceutical / biologic product\n", URL="http://snomed.info/id/736542009", fillcolor=lightblue1];
"<< 774164004\nSupplier" [shape=box, peripheries=1, style=filled, fontsize=9, fontcolor=black, fontname=Helvetica, tooltip="<< 774164004 Supplier\nThe holder of the marketing authorization or authorization for supply.\n\nIN RANGE OF:\nHas supplier\n\nFROM DOMAIN:\nPharmaceutical / biologic product\n", URL="http://snomed.info/id/774164004", fillcolor=lightblue1];
"<< 362981000\nQualifier value" [shape=box, peripheries=1, style=filled, fontsize=9, fontcolor=black, fontname=Helvetica, tooltip="<< 362981000 Qualifier value\n\nIN RANGE OF:\nHas ingredient characteristic\nHas product characteristic\n\nFROM DOMAIN:\nPharmaceutical / biologic product\n", URL="http://snomed.info/id/362981000", fillcolor=lightblue1];
"<< 373873005\nPharmaceutical / biologic product" [shape=box, peripheries=1, style=filled, fontsize=9, fontcolor=black, fontname=Helvetica, tooltip="<< 373873005 Pharmaceutical / biologic product\n\nIN DOMAIN OF:\nCount of active ingredient\nCount of base and modification pair\nCount of base of active ingredient\nHas BoSS\nHas active ingredient\nHas concentration strength denominator unit\nHas concentration strength denominator value\nHas concentration strength numerator unit\nHas concentration strength numerator value\nHas ingredient\nHas ingredient characteristic\nHas manufactured dose form\nHas precise active ingredient\nHas presentation strength denominator unit\nHas presentation strength denominator value\nHas presentation strength numerator unit\nHas presentation strength numerator value\nHas product characteristic\nHas product name\nHas supplier\nHas unit of presentation\nPlays role\nUnit of presentation size quantity\nUnit of presentation size unit\n", URL="http://snomed.info/id/373873005", fillcolor=lightpink];
"< 260299005\nNumber" [shape=box, peripheries=1, style=filled, fontsize=9, fontcolor=black, fontname=Helvetica, tooltip="< 260299005 Number\n\nIN RANGE OF:\nCount of active ingredient\nCount of base and modification pair\nCount of base of active ingredient\nHas concentration strength denominator value\nHas concentration strength numerator value\nHas presentation strength denominator value\nHas presentation strength numerator value\nUnit of presentation size quantity\n\nFROM DOMAIN:\nPharmaceutical / biologic product\n", URL="http://snomed.info/id/260299005", fillcolor=lightblue1];
"<< 732935002\nUnit of presentation" [shape=box, peripheries=1, style=filled, fontsize=9, fontcolor=black, fontname=Helvetica, tooltip="<< 732935002 Unit of presentation\n\nIN RANGE OF:\nHas unit of presentation\n\nFROM DOMAIN:\nPharmaceutical / biologic product\n", URL="http://snomed.info/id/732935002", fillcolor=lightblue1];
"<< 767524001\nUnit of measure" [shape=box, peripheries=1, style=filled, fontsize=9, fontcolor=black, fontname=Helvetica, tooltip="<< 767524001 Unit of measure\n\nIN RANGE OF:\nHas concentration strength denominator unit\nHas concentration strength numerator unit\nHas presentation strength denominator unit\nHas presentation strength numerator unit\nUnit of presentation size unit\n\nFROM DOMAIN:\nPharmaceutical / biologic product\n", URL="http://snomed.info/id/767524001", fillcolor=lightblue1];
"900000000000441003\nSNOMED CT Model Component" [style=invis];

/* *** Role hierarchy relationships *** */
"762949000\nHas precise active ingredient"->"127489000\nHas active ingredient" [arrowhead=onormal, color=black, tooltip="Has precise active ingredient is_a Has active ingredient"];
"127489000\nHas active ingredient"->"762951001\nHas ingredient" [arrowhead=onormal, color=black, tooltip="Has active ingredient is_a Has ingredient"];

/* *** Attribute classes *** */
"411116001\nHas manufactured dose form" [shape=box, peripheries=2, style=filled, fontsize=9, fontname=Helvetica, fontcolor=black, tooltip="411116001 Has manufactured dose form\n\nDOMAIN:\nPharmaceutical / biologic product\n\nRANGE:\nPharmaceutical dose form\n", URL="http://snomed.info/id/411116001", fillcolor=lemonchiffon1];
"860781008\nHas product characteristic" [shape=box, peripheries=2, style=filled, fontsize=9, fontname=Helvetica, fontcolor=black, tooltip="860781008 Has product characteristic\nThis attribute represents a characteristic that is applicable to a product.\n\nDOMAIN:\nPharmaceutical / biologic product\n\nRANGE:\nQualifier value\n", URL="http://snomed.info/id/860781008", fillcolor=lemonchiffon1];
"766939001\nPlays role" [shape=box, peripheries=2, style=filled, fontsize=9, fontname=Helvetica, fontcolor=black, tooltip="766939001 Plays role\n\nDOMAIN:\nPharmaceutical / biologic product\n\nRANGE:\nRole\n", URL="http://snomed.info/id/766939001", fillcolor=lemonchiffon1];
"763032000\nHas unit of presentation" [shape=box, peripheries=2, style=filled, fontsize=9, fontname=Helvetica, fontcolor=black, tooltip="763032000 Has unit of presentation\n\nDOMAIN:\nPharmaceutical / biologic product\n\nRANGE:\nUnit of presentation\n", URL="http://snomed.info/id/763032000", fillcolor=lemonchiffon1];
"732946004\nHas presentation strength denominator value" [shape=box, peripheries=2, style=filled, fontsize=9, fontname=Helvetica, fontcolor=black, tooltip="732946004 Has presentation strength denominator value\nThis attribute specifies the denominator value for the presentation strength of a product.\n\nDOMAIN:\nPharmaceutical / biologic product\n\nRANGE:\nNumber\n", URL="http://snomed.info/id/732946004", fillcolor=lemonchiffon1];
"733722007\nHas concentration strength denominator unit" [shape=box, peripheries=2, style=filled, fontsize=9, fontname=Helvetica, fontcolor=black, tooltip="733722007 Has concentration strength denominator unit\nThis attribute specifies the denominator unit for the concentration strength of a product.\n\nDOMAIN:\nPharmaceutical / biologic product\n\nRANGE:\nUnit of measure\n", URL="http://snomed.info/id/733722007", fillcolor=lemonchiffon1];
"733724008\nHas concentration strength numerator value" [shape=box, peripheries=2, style=filled, fontsize=9, fontname=Helvetica, fontcolor=black, tooltip="733724008 Has concentration strength numerator value\nThis attribute specifies the numerator value for the concentration strength of a product.\n\nDOMAIN:\nPharmaceutical / biologic product\n\nRANGE:\nNumber\n", URL="http://snomed.info/id/733724008", fillcolor=lemonchiffon1];
"774158006\nHas product name" [shape=box, peripheries=2, style=filled, fontsize=9, fontname=Helvetica, fontcolor=black, tooltip="774158006 Has product name\nAttribute used to assign the authorized product name.\n\nDOMAIN:\nPharmaceutical / biologic product\n\nRANGE:\nProduct name\n", URL="http://snomed.info/id/774158006", fillcolor=lemonchiffon1];
"774159003\nHas supplier" [shape=box, peripheries=2, style=filled, fontsize=9, fontname=Helvetica, fontcolor=black, tooltip="774159003 Has supplier\nAttribute used to assign the holder of the marketing authorization or authorization for supply.\n\nDOMAIN:\nPharmaceutical / biologic product\n\nRANGE:\nSupplier\n", URL="http://snomed.info/id/774159003", fillcolor=lemonchiffon1];
"762949000\nHas precise active ingredient" [shape=box, peripheries=2, style=filled, fontsize=9, fontname=Helvetica, fontcolor=black, tooltip="762949000 Has precise active ingredient\nThe most specific description of a substance present in the manufactured dose form, before any dilution or transformation. It includes modifiers, such as salts, esters, polymers (e.g. pegylation), and/or solvates (including waters of hydration).\n\nDOMAIN:\nPharmaceutical / biologic product\n\nRANGE:\nSubstance\n", URL="http://snomed.info/id/762949000", fillcolor=lemonchiffon1];
"766954007\nCount of base and modification pair" [shape=box, peripheries=2, style=filled, fontsize=9, fontname=Helvetica, fontcolor=black, tooltip="766954007 Count of base and modification pair\nThis attribute represents the number of different base and modification pairs in a medicinal product. If both bases and their modifications are the same, it is counted as 1 pair. The count is increased when the bases are the same but their modifications are different, for two or more pairs. Any further modification should not be counted as part of the pair.\n\nDOMAIN:\nPharmaceutical / biologic product\n\nRANGE:\nNumber\n", URL="http://snomed.info/id/766954007", fillcolor=lemonchiffon1];
"766952006\nCount of base of active ingredient" [shape=box, peripheries=2, style=filled, fontsize=9, fontname=Helvetica, fontcolor=black, tooltip="766952006 Count of base of active ingredient\nThis attribute represents the number of different non-modified base of active ingredients in a medicinal product.\n\nDOMAIN:\nPharmaceutical / biologic product\n\nRANGE:\nNumber\n", URL="http://snomed.info/id/766952006", fillcolor=lemonchiffon1];
"766953001\nCount of active ingredient" [shape=box, peripheries=2, style=filled, fontsize=9, fontname=Helvetica, fontcolor=black, tooltip="766953001 Count of active ingredient\nThis attribute represents the number of active ingredients or precise active ingredients in a medicinal product. It is simply a count of attribute 'has active ingredient' or 'has precise active ingredient' in a concept definition.\n\nDOMAIN:\nPharmaceutical / biologic product\n\nRANGE:\nNumber\n", URL="http://snomed.info/id/766953001", fillcolor=lemonchiffon1];
"733725009\nHas concentration strength numerator unit" [shape=box, peripheries=2, style=filled, fontsize=9, fontname=Helvetica, fontcolor=black, tooltip="733725009 Has concentration strength numerator unit\nThis attribute specifies the numerator unit for the concentration strength of a product.\n\nDOMAIN:\nPharmaceutical / biologic product\n\nRANGE:\nUnit of measure\n", URL="http://snomed.info/id/733725009", fillcolor=lemonchiffon1];
"732945000\nHas presentation strength numerator unit" [shape=box, peripheries=2, style=filled, fontsize=9, fontname=Helvetica, fontcolor=black, tooltip="732945000 Has presentation strength numerator unit\nThis attribute specifies the numerator unit for the presentation strength of a product.\n\nDOMAIN:\nPharmaceutical / biologic product\n\nRANGE:\nUnit of measure\n", URL="http://snomed.info/id/732945000", fillcolor=lemonchiffon1];
"762951001\nHas ingredient" [shape=box, peripheries=2, style=filled, fontsize=9, fontname=Helvetica, fontcolor=black, tooltip="762951001 Has ingredient\n\nDOMAIN:\nPharmaceutical / biologic product\n\nRANGE:\nSubstance\n", URL="http://snomed.info/id/762951001", fillcolor=lemonchiffon1];
"732943007\nHas BoSS" [shape=box, peripheries=2, style=filled, fontsize=9, fontname=Helvetica, fontcolor=black, tooltip="732943007 Has BoSS\nThis attribute represents an ingredient that is the part of the active ingredient that the strength of a given product is based upon.\n\nDOMAIN:\nPharmaceutical / biologic product\n\nRANGE:\nSubstance\n", URL="http://snomed.info/id/732943007", fillcolor=lemonchiffon1];
"127489000\nHas active ingredient" [shape=box, peripheries=2, style=filled, fontsize=9, fontname=Helvetica, fontcolor=black, tooltip="127489000 Has active ingredient\nThe clinically relevant part or whole of the substance that is intended to have a therapeutic action on or within the body. It excludes esters, salts or other non-covalent derivatives (such as a complex, chelate etc.), but may include secondary modifications.\n\nDOMAIN:\nPharmaceutical / biologic product\n\nRANGE:\nSubstance\n", URL="http://snomed.info/id/127489000", fillcolor=lemonchiffon1];
"732947008\nHas presentation strength denominator unit" [shape=box, peripheries=2, style=filled, fontsize=9, fontname=Helvetica, fontcolor=black, tooltip="732947008 Has presentation strength denominator unit\nThis attribute specifies the denominator unit for the presentation strength of a product.\n\nDOMAIN:\nPharmaceutical / biologic product\n\nRANGE:\nUnit of measure\n", URL="http://snomed.info/id/732947008", fillcolor=lemonchiffon1];
"732944001\nHas presentation strength numerator value" [shape=box, peripheries=2, style=filled, fontsize=9, fontname=Helvetica, fontcolor=black, tooltip="732944001 Has presentation strength numerator value\nThis attribute specifies the numerator value for the presentation strength of a product.\n\nDOMAIN:\nPharmaceutical / biologic product\n\nRANGE:\nNumber\n", URL="http://snomed.info/id/732944001", fillcolor=lemonchiffon1];
"733723002\nHas concentration strength denominator value" [shape=box, peripheries=2, style=filled, fontsize=9, fontname=Helvetica, fontcolor=black, tooltip="733723002 Has concentration strength denominator value\nThis attribute specifies the denominator value for the concentration strength of a product.\n\nDOMAIN:\nPharmaceutical / biologic product\n\nRANGE:\nNumber\n", URL="http://snomed.info/id/733723002", fillcolor=lemonchiffon1];
"860779006\nHas ingredient characteristic" [shape=box, peripheries=2, style=filled, fontsize=9, fontname=Helvetica, fontcolor=black, tooltip="860779006 Has ingredient characteristic\nThis attribute represents a characteristic that is applicable to a particular ingredient contained in a product.\n\nDOMAIN:\nPharmaceutical / biologic product\n\nRANGE:\nQualifier value\n", URL="http://snomed.info/id/860779006", fillcolor=lemonchiffon1];
"320091000221107\nUnit of presentation size unit" [shape=box, peripheries=2, style=filled, fontsize=9, fontname=Helvetica, fontcolor=black, tooltip="320091000221107 Unit of presentation size unit\nThis attribute defines the unit of a unit of presentation size.\n\nDOMAIN:\nPharmaceutical / biologic product\n\nRANGE:\nUnit of measure\n", URL="http://snomed.info/id/320091000221107", fillcolor=lemonchiffon1];
"320081000221109\nUnit of presentation size quantity" [shape=box, peripheries=2, style=filled, fontsize=9, fontname=Helvetica, fontcolor=black, tooltip="320081000221109 Unit of presentation size quantity\nThis attribute-value defines the quantity of a unit of presentation size.\n\nDOMAIN:\nPharmaceutical / biologic product\n\nRANGE:\nNumber\n", URL="http://snomed.info/id/320081000221109", fillcolor=lemonchiffon1];

/* *** Caption *** */
"diagramLabel" [label="Simplified diagram of SNOMED CT\nMRCM Domain and Range constraints|Post-coordination view |Showing domains:\n373873005 Pharmaceutical / biologic product|20210131 International data|Drawn July 04, 2021", shape=record, fontsize=12];

/* *** Key *** */
subgraph cluster_key {fontname=Helvetica; label = "Key"; style=filled; fillcolor="white"; fontsize=12; peripheries=2;
"<< XXXXXXXX\nDefined domain concept" -> "XXXXXXXX\nAttribute name" [arrowhead=open, color=red];
"<< XXXXXXXX\nPrimitive domain concept" -> "XXXXXXXX\nAttribute name"[arrowhead=open, style=dashed, color=red];
"XXXXXXXX\nAttribute name" -> "<< XXXXXXXX\nDomain and\n range concept\n(operators the same)" [arrowhead=open, color=blue];
"XXXXXXXX\nAttribute name" -> "<< XXXXXXXX\nDomain and\n range concept\n(operators differ)" [arrowhead=open, color=blue];
"<< XXXXXXXX\nDomain and\n range concept\n(operators the same)" -> "XXXXXXXX\nAttribute name" [arrowhead=open, color=red];
"<< XXXXXXXX\nDomain and\n range concept\n(operators differ)" -> "XXXXXXXX\nAttribute name" [arrowhead=open, color=red];
"XXXXXXXX\nAttribute name" -> "<< XXXXXXXX\nRange concept" [arrowhead=open, style=dashed, color=blue];
"XXXXXXXX\nAttribute name" -> "Concrete\nrange" [arrowhead=open, style=dashed, color=blue];
"<< XXXXXXXX\nDomain and\n range concept\n(operators the same)" -> "Domain and range\n relationships\n\nNote 1. Operators may differ between\ndomain and range\n\nNote 2. Dashed edge indicates\nattribute ungrouped for this domain in DL" [style=invis];
"<< XXXXXXXX\nDomain and\n range concept\n(operators differ)"  -> "Domain and range\n relationships\n\nNote 1. Operators may differ between\ndomain and range\n\nNote 2. Dashed edge indicates\nattribute ungrouped for this domain in DL" [style=invis];
"<< XXXXXXXX\nRange concept" -> "Domain and range\n relationships\n\nNote 1. Operators may differ between\ndomain and range\n\nNote 2. Dashed edge indicates\nattribute ungrouped for this domain in DL" [style=invis];
"Concrete\nrange" -> "Domain and range\n relationships\n\nNote 1. Operators may differ between\ndomain and range\n\nNote 2. Dashed edge indicates\nattribute ungrouped for this domain in DL" [style=invis];
"<< XXXXXXXX\nConcept referenced in model"->"<< XXXXXXXX\nAnother concept referenced in model" [arrowhead=normal, color=black];
"<< XXXXXXXX\nConcept referenced in model"->"<< XXXXXXXX\nAnother concept referenced in model" [arrowhead=diamond, color=black];
"<< XXXXXXXX\nAnother concept referenced in model"->"XXXXXXXX\nConcept included in diagram but\nnot referenced in concept model" [arrowhead=onormal, color=black];
"XXXXXXXX\nConcept included in diagram but\nnot referenced in concept model"->"Domain and range\nhierarchies\n\nNote: Filled arrows and diamonds\nindicate parent domains" [style=invis];
"XXXXXXXX\nInactive domain,\nrange or attribute"->"XXXXXXXX\nSub-attribute name" [style=invis];
"XXXXXXXX\nSub-attribute name"->"XXXXXXXX\nSuper-attribute name" [arrowhead=onormal, color=black];
"XXXXXXXX\nSuper-attribute name"->"Attribute hierarchies\n(full path to root not shown)\n\nNote: yellow indicates attribute range\ndiffers for different domains" [style=invis];
"<< XXXXXXXX\nDefined domain concept"  [shape=box, peripheries=2, style=filled, fontsize=9, fontcolor=black, fontname=Helvetica, fillcolor=lightpink];
"<< XXXXXXXX\nPrimitive domain concept"  [shape=box, peripheries=1, style=filled, fontsize=9, fontcolor=black, fontname=Helvetica, fillcolor=lightpink];
"<< XXXXXXXX\nRange concept"  [shape=box, peripheries=1, style=filled, fontsize=9, fontcolor=black, fontname=Helvetica, fillcolor=lightblue1];
"Concrete\nrange"  [shape=box, peripheries=1, style=filled, fontsize=9, fontcolor=black, fontname=Helvetica, fillcolor=palegreen, style="diagonals,filled"];
"XXXXXXXX\nAttribute name" [shape=box, peripheries=2, style=filled, fontsize=9, fontname=Helvetica, fillcolor=lemonchiffon1];
"<< XXXXXXXX\nDomain and\n range concept\n(operators the same)" [shape=box, peripheries=2, style=filled, fontsize=9, fontcolor=black, fontname=Helvetica, fillcolor=violet];
"<< XXXXXXXX\nDomain and\n range concept\n(operators differ)" [shape=box, peripheries=1, style=filled, fontsize=9, fontcolor=white, fontname=Helvetica, fillcolor=violet];
"Domain and range\n relationships\n\nNote 1. Operators may differ between\ndomain and range\n\nNote 2. Dashed edge indicates\nattribute ungrouped for this domain in DL" [fontsize=9, style=filled, fillcolor=white, penwidth=0];
"<< XXXXXXXX\nConcept referenced in model" [shape=box, peripheries=1, style=filled, fontsize=9, fontcolor=black, fontname=Helvetica, fillcolor=lightblue1];
"<< XXXXXXXX\nAnother concept referenced in model" [shape=box, peripheries=1, style=filled, fontsize=9, fontcolor=black, fontname=Helvetica, fillcolor=lightblue1];
"XXXXXXXX\nConcept included in diagram but\nnot referenced in concept model" [fontsize=9, fillcolor=palegreen];
"Domain and range\nhierarchies\n\nNote: Filled arrows and diamonds\nindicate parent domains" [fontsize=9, style=filled, fillcolor=white, penwidth=0];
"XXXXXXXX\nInactive domain,\nrange or attribute" [shape=box, peripheries=1, style=filled, fontsize=9, fontname=Helvetica, fillcolor=orange];
"XXXXXXXX\nSub-attribute name" [shape=box, peripheries=2, style=filled, fontsize=9, fontname=Helvetica, fillcolor=yellow];
"XXXXXXXX\nSuper-attribute name" [shape=box, peripheries=2, style=filled, fontsize=9, fontname=Helvetica, fillcolor=lemonchiffon1];
"Attribute hierarchies\n(full path to root not shown)\n\nNote: yellow indicates attribute range\ndiffers for different domains"  [fontsize=9, style=filled, fillcolor=white, penwidth=0];
}}