digraph RF2_MRCM { rankdir=LR; splines=ortho; node [style=filled, fillcolor=white]; bgcolor=gray;
"129125009\nProcedure with explicit context"->"288532009\nContext values for actions" [arrowhead=open, style=dashed, color=blue, fontsize=9, fontname=Helvetica, label="Procedure context"];
"129125009\nProcedure with explicit context"->"410510008\nTemporal context value" [arrowhead=open, style=dashed, color=blue, fontsize=9, fontname=Helvetica, label="Temporal context"];
"129125009\nProcedure with explicit context"->"71388002\nProcedure" [arrowhead=open, style=dashed, color=blue, fontsize=9, fontname=Helvetica, label="Associated procedure"];
"129125009\nProcedure with explicit context"->"363787002\nObservable entity" [arrowhead=open, style=dashed, color=blue, fontsize=9, fontname=Helvetica, label="Associated procedure"];
"129125009\nProcedure with explicit context"->"288532009\nContext values for actions" [arrowhead=open, style=dashed, color=blue, fontsize=9, fontname=Helvetica, label="Procedure context"];
"129125009\nProcedure with explicit context"->"125676002\nPerson" [arrowhead=open, style=dashed, color=blue, fontsize=9, fontname=Helvetica, label="Subject relationship context"];
"129125009\nProcedure with explicit context"->"410510008\nTemporal context value" [arrowhead=open, style=dashed, color=blue, fontsize=9, fontname=Helvetica, label="Temporal context"];
"243796009\nSituation with explicit context"->"125676002\nPerson" [arrowhead=open, style=dashed, color=blue, fontsize=9, fontname=Helvetica, label="Subject relationship context"];
"243796009\nSituation with explicit context"->"410510008\nTemporal context value" [arrowhead=open, style=dashed, color=blue, fontsize=9, fontname=Helvetica, label="Temporal context"];
}