266108008	1	1
240820001	1	1
271558008	1	1
21454007	2	1
90708001	9	1
447017008	2	1
71906005	1	1
37796009	1	1
90560007	1	1
188725004	1	1
195268001	1	1
315296002	1	1
109678002	1	1
81576005	1	1
422588002	1	1
80962007	1	1
312956001	1	2
281050002	1	1
314030005	1	1
274162005	1	1
89322006	1	1
263009006	1	1
771115008	1	1
302964004	1	1
274188008	1	1
40275004	3	1
397430003	1	1
36715001	1	1
64309007	5	1
367649002	1	1
39579001	1	1
28576007	1	1
47821001	1	1
50920009	1	1
128053003	1	1
80967001	1	1
49436004	1	1
262955000	1	1
90070003	2	1
275425008	1	1
60168000	1	1
41291007	3	1
77157004	8	1
74021003	1	1
210571003	3	1
110016007	1	1
239939001	1	1
208394006	2	1
235055003	1	1
813131000000104	1	1
402863005	1	1
815008	1	1
428019004	2	1
64779008	2	1
197456007	1	1
93478000	6	1
17369002	4	1
389026000	1	1
72552008	1	1
10743008	1	1
77628002	1	2
230508004	1	1
18834007	1	1
210702006	1	1
40425004	1	1
50821009	1	1
274204004	1	1
274200008	1	1
95695004	7	1
704213001	1	1
278516003	1	1
165517008	1	1
240460008	1	1
89294002	1	1
125588009	1	1
2591000	1	1
59038002	1	1
18773000	1	1
48277006	1	1
283848003	1	1
5587004	1	1
737254001	1	1
95616002	1	1
14168008	1	1
63297008	1	1
60667009	1	1
314020001	5	1
44897000	1	1
373945007	1	1
399463004	4	1
86014007	1	2
773113008	1	1
66112004	1	1
404684003	962	1
700242002	1	1
91037003	3	1
66857006	1	1
75053002	1	1
210650003	1	1
283843007	1	1
127314000	5	1
361118003	1	1
66383009	1	1
371077002	1	1
231893002	1	1
39400004	1	1
95315005	1	1
70153002	1	1
272379006	2	1
13213009	1	1
68565009	1	1
210732003	1	2
43339004	1	1
359817006	1	1
208341002	1	1
41497008	1	1
14261008	1	1
240523007	1	1
20848007	1	1
111637008	1	1
37155002	2	1
314497004	1	1
81966000	1	2
56905009	1	1
76172008	2	1
6849006	2	1
263061006	1	1
23589004	1	1
266571009	1	1
28651003	2	1
233985008	2	1
60750009	1	1
1482004	1	1
198047009	1	1
60046008	1	1
233959009	1	1
409498004	1	1
866000008	1	1
10679007	1	1
112222000	1	1
84759007	1	1
125615005	1	1
367498001	1	1
767262002	1	2
17226007	1	1
274199005	2	1
268002004	1	1
3135009	1	1
20610004	1	1
81060008	2	1
48880000	1	1
57406009	1	1
47382004	2	1
45261009	1	1
200724002	1	1
73830004	1	1
240008008	1	1
840539006	1	1
283859007	1	1
50705009	2	1
56819008	1	1
40095003	1	1
125648005	3	1
59927004	1	1
16761005	1	1
241977008	1	1
5291005	1	1
275476006	1	1
38959009	1	1
36989005	1	1
360450007	1	1
14893008	3	1
428883008	1	1
161152002	2	1
414173003	1	1
58750007	1	1
283032003	1	1
812721000000109	1	1
111541001	1	1
263128001	1	1
79631006	1	1
67895005	1	1
128045006	3	1
40108008	1	1
125620005	1	1
29753000	1	1
44223004	1	1
13445001	1	1
77489003	1	1
68566005	3	1
52486002	1	1
430984009	2	1
9651007	1	1
295217003	1	1
42945005	3	1
43064006	1	1
105629000	2	1
58214004	1	1
274196003	1	1
74682007	1	1
55004003	1	2
299709002	1	1
34614007	1	1
4557003	1	1
770610006	1	1
268640002	1	1
813231000000107	1	1
18070006	1	1
414531002	1	1
274183004	1	1
394659003	1	1
812761000000101	1	1
709109004	1	1
309465005	5	1
14094001	1	1
414943006	1	2
721537005	1	1
204113001	1	1
77377001	1	1
240475000	1	1
56454009	1	1
403194002	1	1
12463005	1	1
55464009	1	1
88032003	1	2
34000006	1	1
28438004	1	2
57662003	4	1
195951007	1	1
31996006	8	1
191306005	1	1
262952002	1	1
822061000000106	1	1
363039000	1	1
80384002	1	1
35363006	1	1
423488006	1	1
417558002	4	1
75544000	1	1
44782008	1	1
24777009	1	1
10850741000119108	1	1
29980002	1	1
813311000000109	2	1
34124000	1	1
25415003	1	1
368009	1	1
193093009	1	1
64665009	1	1
398102009	2	1
128196005	1	1
63363004	1	1
422426003	2	1
34840004	2	1
37450000	1	1
95856002	3	1
125663008	9	1
4834000	1	1
418915007	1	1
609328004	1	1
6456007	1	1
301813003	1	1
1098111000000101	1	1
36083008	1	1
111693009	1	1
236037000	1	1
283034002	3	1
25569003	1	1
210642007	1	1
9014002	1	1
197983000	1	1
13746004	1	1
262949005	1	1
60713008	1	1
248406004	1	1
34842007	1	1
71388002	10	1
31681005	1	1
274205003	2	1
46635009	1	1
80567007	1	1
396334002	1	1
372087000	5	1
111864006	1	1
269070003	1	2
10392004	1	1
7520000	1	1
126485001	2	1
75258004	2	1
284219006	1	1
310505005	1	1
33449004	1	1
404649002	1	1
17709002	1	1
2776000	1	1
42744004	1	1
2304001	1	1
312912001	1	2
409516001	1	1
396347007	1	1
95545007	1	1
210408006	1	1
828981000000104	1	1
47639008	1	1
22817005	1	1
62909004	1	1
75702008	1	1
262576002	1	2
125649002	8	1
210703001	1	1
64090007	1	1
269062008	1	1
314533000	1	1
262693007	1	2
28189009	1	1
87614000	1	1
371066008	1	1
387800004	1	1
125654006	5	1
302918009	1	1
4106009	1	1
15938005	1	1
13200003	1	1
23511006	1	1
52254009	1	1
68478007	1	1
30832001	1	1
450418003	1	1
29538005	1	2
210720002	2	1
247161000	1	1
262599003	1	1
724940003	1	1
401207004	1	1
17636008	1	1
367527001	3	1
56975005	1	1
283846004	1	1
399114005	1	1
32835006	1	1
210305005	1	1
31928004	2	1
275390005	1	1
43422002	2	1
213282006	1	1
34578006	1	3
77506005	1	1
186535001	1	1
724908002	1	1
417109008	1	1
52448006	2	1
274195004	1	1
81004002	1	1
59568004	1	1
70176004	1	1
283040009	1	1
125668004	2	1
14760008	1	1
76742009	1	1
40956001	1	1
25702006	1	1
208403005	1	1
78370002	2	1
34436003	1	1
1860003	2	1
211548006	1	1
50063009	1	1
302436000	1	1
198130006	2	1
50001009	1	1
266113007	1	1
81639003	1	2
396232000	1	1
85898001	1	1
24948002	1	1
813321000000103	1	1
428151000	2	1
61823004	1	1
34095006	1	1
88374002	1	1
207977001	1	2
54888009	1	1
57207003	1	1
128200000	1	1
230509007	1	1
21698002	1	1
111643005	1	1
40541001	1	1
83901003	1	1
81996005	2	1
67426006	2	1
91489000	1	1
75478009	11	1
314407005	2	1
47398006	1	1
424669003	1	1
57182000	1	1
83227006	1	1
398158001	1	1
91302008	3	1
109989006	1	1
95730003	1	1
192759008	1	1
180300007	1	1
80394007	2	1
70070008	1	1
77252004	1	1
16541001	1	1
274191008	1	1
49723003	1	1
397923000	1	1
396234004	1	1
302866003	2	1
191714002	1	2
74395007	1	2
208322000	1	1
29014003	1	1
233604007	4	1
609446006	1	1
26284000	1	1
37696000	1	1
82271004	42	1
398925009	1	1
242253008	1	1
367403001	1	1
32644009	1	1
27601005	8	1
111609001	2	1
51771007	1	1
193570009	1	1
400097005	1	1
74270009	1	1
813331000000101	1	1
414875008	1	1
2858002	1	1
704236005	1	1
399912005	1	1
231866000	1	1
3199001	1	1
81808003	1	1
6962006	1	1
295830007	1	1
262937009	1	1
59051007	1	1
233765002	1	1
48187004	1	1
48867003	1	1
38742007	1	1
70660007	1	1
183561008	1	1
83966006	1	1
33847006	1	1
235595009	1	1
86196005	1	1
64572001	923	1
184770004	1	1
41446000	2	1
770626007	1	2
86175003	1	1
27836007	1	1
30037006	1	1
824031000000109	1	1
207965006	1	1
64109004	1	1
15628003	2	1
24867002	1	1
87778004	3	1
118601006	1	1
209508007	1	1
14669001	1	1
387712008	1	1
262582004	1	1
93458008	1	1
308742005	1	1
135869000	1	1
44465007	1	1
80756009	1	1
210762009	1	1
61462000	1	1
249389002	1	1
188732008	1	1
36653000	1	1
68267002	1	1
427115009	1	1
59118001	2	1
711645008	1	1
200722003	1	1
29045004	1	2
51178009	1	1
156072005	1	1
87317003	1	1
18084001	1	1
3238004	1	1
67924001	1	1
283041008	1	1
111640008	3	1
424801004	1	1
49882001	2	1
86279000	1	1
233819005	1	1
239938009	1	1
352818000	1	1
109671008	1	1
207974008	1	1
27885002	1	1
274194000	1	1
401314000	1	1
40283005	1	1
427793007	1	1
398665005	1	1
49982000	1	1
57143002	1	1
38362002	1	1
281503004	1	1
125661005	5	1
46799006	1	1
210678002	1	1
70995007	1	1
31541009	1	1
234014009	1	1
446979005	2	1
37372002	1	1
125625000	1	1
314429009	1	2
700372006	1	1
77165001	1	1
426936004	1	1
812501000000108	1	1
78048006	1	1
241955009	1	1
431415002	1	1
308546005	1	1
54048003	1	1
74942003	1	1
11654001	1	1
5552004	2	1
296015009	1	1
237091009	1	1
58320001	1	1
70647001	1	1
72047008	1	1
73765005	1	1
15845006	1	1
288531000119103	1	1
398254007	1	1
447395005	2	1
473460002	1	1
410692006	4	1
9468002	2	1
95859009	2	1
1370007	2	1
283025007	3	1
60897004	1	1
232408005	1	1
210649003	1	1
65363002	3	1
11980003	2	1
410429000	1	1
195889001	1	2
32273002	1	1
444814009	1	1
33910007	1	2
61165007	1	3
266262004	1	1
15474008	3	1
23919004	1	1
24424003	1	1
38086007	1	1
64859006	1	1
60332004	1	1
69896004	1	1
283361008	1	1
766775007	1	1
314201008	1	1
26460006	1	1
74699008	1	1
266579006	1	1
52767006	1	1
400047006	3	1
95858001	1	2
111245009	1	1
274182009	1	1
133961000119102	1	1
80744008	1	1
263030002	1	1
362969004	18	1
306206005	1	1
78768009	1	1
447139008	2	1
207957008	1	1
63650001	1	1
2492009	1	1
95041000119101	1	1
208371005	1	1
40874009	1	1
90465004	1	1
414022008	10	1
125659001	3	1
295124009	1	1
210484005	2	1
225624000	1	1
262971000	3	1
824091000000105	1	1
111407006	1	2
413877007	1	2
812751000000104	1	1
33334006	2	1
125644007	3	1
80423007	1	1
433068007	2	1
401303003	1	1
85777005	1	1
42188001	1	1
210553005	1	1
43116000	1	1
6273006	1	1
813121000000101	1	1
87225004	1	1
103742009	1	1
210611002	1	2
71186008	1	3
125650002	3	1
403607004	1	1
86406008	1	1
386692008	1	1
45369008	1	2
274170000	2	1
720975008	1	1
711168000	2	1
125664002	4	1
42434002	1	2
284223003	1	1
48661000	1	1
65896005	1	1
76902006	1	1
2576002	1	2
70272006	1	1
307497002	1	1
872381000000101	1	1
430887001	1	1
207938004	1	1
125619004	1	1
232006002	1	1
396275006	3	1
385486001	6	1
210417006	1	1
4120002	1	1
314662007	1	1
64766004	1	1
85904008	1	1
118599009	1	1
713425003	1	1
314551004	1	1
296938005	1	1
812431000000103	1	1
185330002	1	1
812741000000102	1	1
271973001	1	1
69430001	1	1
80483009	1	1
32893002	1	1
210604001	1	2
443980004	1	1
45910007	1	1
14366000	1	1
125653000	4	1
234168001	1	1
67801009	1	1
95883001	1	1
85561006	1	1
204878001	1	1
262784001	1	1
276191000000107	1	1
33173003	1	1
91487003	1	1
42343007	1	1
283037009	2	1
271966006	1	1
63305008	1	1
444849002	2	1
210527002	1	1
87513003	3	2
10087007	1	1
50228009	1	1
129166009	1	1
77075001	1	1
48334007	1	1
32798002	1	1
12063002	1	1
129103003	1	1
210339009	6	1
82127005	1	1
186738001	1	1
19684007	1	1
52404001	1	1
371161001	2	1
209565008	1	1
193387007	1	1
42059000	3	1
75229002	1	1
240842000	1	1
274193006	1	1
47864008	1	1
36171008	1	1
6141006	7	1
230456007	1	1
80612004	1	1
4855003	2	1
68982002	1	1
90176007	1	1
22066006	1	1
812491000000102	1	1
87522002	1	1
371162008	2	1
30077003	1	1
29749002	1	1
89138009	1	1
127302008	1	2
87763006	2	1
417425009	1	1
56717001	1	1
3218000	4	1
54404000	1	1
9707006	1	1
95690009	1	1
66590003	1	1
274198002	1	1
26918003	1	1
6383007	1	1
312087002	2	1
699467005	1	1
33629003	1	1
62014003	2	1
44400004	1	1
314661000	1	1
32911000	1	1
283033008	1	1
397573005	2	2
90584004	1	1
309779001	1	1
44264009	1	1
9389005	2	1
302222008	1	1
42458003	2	1
824061000000104	1	1
65636009	1	1
78623009	1	1
72658003	1	1
240037007	12	1
210597009	1	2
398447004	1	1
50793006	3	1
418341009	5	1
15013002	1	1
1847009	1	1
10380004	1	1
127300000	1	2
129165008	1	1
724905004	1	1
1097401000000107	1	1
77949003	2	1
812481000000104	1	1
84017003	1	1
274192001	1	1
371089000	1	1
239783001	1	1
836424002	3	1
60113004	13	1
417020006	1	1
45170000	1	1
17883008	1	1
46152009	1	1
32861005	1	1
297053006	1	1
247081001	1	1
398057008	1	1
71555008	3	1
162213003	1	1
79962008	1	1
30041005	1	1
34801009	1	1
35489007	1	1
129635004	1	1
328383001	1	1
127315004	1	1
4556007	2	1
824071000000106	1	1
27031003	1	1
53627009	1	2
13695006	1	1
20236002	1	1
231995008	1	1
208420009	1	2
392300000	1	1
263129009	1	1
85232009	1	1
78011002	1	1
195967001	1	1
87476004	1	1
54016002	1	1
232086000	1	1
23056005	1	1
14140009	1	1
76571007	1	1
235494005	1	1
231816006	1	2
302215000	2	1
125652005	13	1
19180002	1	1
66760008	2	1
44054006	1	1
230316009	1	1
34663006	1	2
43295006	1	1
813101000000105	1	1
45816000	1	1
416829003	1	1
74400008	1	1
118940003	81	1
307052004	1	1
270492004	1	1
66071002	1	1
247124009	1	1
210344002	1	1
76581006	2	1
310701003	1	1
822091000000100	1	1
21186006	1	1
262581006	4	1
127299008	1	2
44376007	2	1
52072009	1	1
125622002	1	1
307496006	1	1
62752005	1	1
85007004	1	1
210524009	1	1
193901000	1	1
269169002	7	1
33839006	1	1
40070004	1	1
16607004	1	1
342070009	3	1
283858004	1	1
813111000000107	1	1
249366005	1	1
274100004	2	1
233645004	1	1
125645008	3	1
426997005	1	1
62994001	2	1
125626004	1	1
40613008	1	2
30242009	1	1
309773000	1	1
50563003	1	1
68670009	1	2
386732003	1	1
72866009	1	1
43363007	1	1
194005002	1	1
190905008	1	1
38354005	15	1
75441006	1	1
85848002	2	2
68033004	1	1
266257000	2	1
197480006	1	1
190855004	1	1
40468003	1	1
266569009	1	1
54150009	3	1
274187003	1	1
30093007	1	1
38907003	1	1
240131006	1	1
13706005	1	1
212962007	1	1
418409002	1	1
90688005	1	1
29717002	1	1
6020002	1	1
38341003	3	1
274184005	1	1
19265001	1	1
722704008	1	1
73221001	1	2
125621009	1	1
420422005	1	1
58411009	1	1
128241005	4	1
24864009	1	1
24596005	1	1
14189004	1	1
6142004	1	1
302232001	1	1
52405000	2	1
192970008	1	1
314764001	1	1
90739004	1	1
82576008	1	1
247097006	2	1
207949005	1	1
110265006	1	1
231857004	1	1
263029007	1	1
63467002	2	1
37449000	3	1
44882003	1	1
50417007	4	1
28835009	1	1
89627008	1	1
418818005	1	1
109245003	1	1
23387001	1	1
193031009	1	1
75614007	1	1
72366004	1	1
33168009	1	1
95851007	1	1
125660006	3	1
9713002	1	1
271737000	6	1
6132001	1	1
420079008	1	1
281900007	1	1
13645005	2	1
15033003	1	1
73998008	1	1
371043007	1	1
44268007	1	2
263130004	1	1
209557005	1	1
41888000	2	1
31054009	1	1
127040003	2	1
210422006	1	1
90935002	1	1
195060002	1	1
266599000	1	1
417750006	1	1
70704007	1	1
80827001	1	1
39839004	1	1
66931009	1	1
254935002	1	1
111255008	1	1
255024002	1	1
57773001	1	1
429513001	1	1
419603000	1	1
423341008	3	2
128350005	3	1
44808001	10	1
58554001	1	1
267064002	2	1
49388007	2	1
230690007	1	1
69322001	2	1
276177000	1	1
24700007	1	1
709410003	1	1
25924004	1	1
283031005	1	1
50792001	1	1
233961000	1	1
95855003	1	2
58170007	1	1
284188001	1	1
371073003	1	1
40930008	1	1
39021009	1	1
59282003	1	1
56335008	1	1
