248713000
142121000119101
448722002
301433005
426948001
29721000119101
233981004
248718009
21829004
106063007
449184004
123946008
118948005
822988000
359557001
362965005
49601007
19660004
128121009
248494009
248493003
118234003
609624008
473451005
301857004
302292003
248402002
239953001
301139003
128052008
27550009
2704003
63171007
233881003
128482007
312122008
301811001
87628006
233883000
40733004
49483002
55855009
609622007
118946009
298705000
609623002
301810000
128402005
41739008
363169009
363171009
128139000
128998007
301296002
301123005
127337006
413439005
301095005
282728007
262525000
733217006
48125009
128599005
417163006
406123005
399617002
123596001
56819008
249561001
127321000
95529005
27719009
196682000
12274003
131148009
386617003
76712006
53619000
84410009
119292006
29384001
50410009
119291004
61401005
397825006
74474003
386618008
40845000
405539004
788951001
300296006
13200003
64121000
118434000
429040005
37372002
717864006
251052000
301122000
251061000
609410002
415993000
253535002
304914007
46109009
16218291000119100
29322000
127341005
486006
70449006
105597003
230716006
246556002
287731003
81308009
118934005
118940003
23853001
95677002
118235002
299718000
406122000
52674009
371863001
86341008
63102001
128127008
20981007
57035005
128605003
118937003
116312005
363340006
373408007
312601003
142111000119108
29857009
373673007
699697007
102957003
22253000
276435006
301366005
106147001
20915006
448743001
253606002
301099004
105981003
274097009
44241007
250978003
6595006
417094009
70466008
118241009
414086009
371039008
439127006
280871000
428794004
698247007
72654001
40593004
253363004
253273004
251167004
287057009
85828009
414029004
128562005
128403000
233850007
195374003
371158002
250845006
230717002
27624003
128292002
407530004
58184002
247440002
56019007
46956008
10725009
59621000
301432000
253609009
29375001
76257003
447937009
13689005
363028003
9904008
70320004
363035006
78626001
363037003
762228008
276654001
5294002
4554005
297268004
301310005
298364001
118237005
106048009
301186004
426867001
6072007
735499005
737201004
397174009
32110003
609619005
609620004
609621000
248495005
234128000
609625009
609626005
17406005
124734007
248742008
111295005
385442006
248727005
234076002
250171008
301113001
251015000
248723009
58729003
400210000
300848003
300852003
444905003
401050002
371160000
1055001
431421000124103
11131000119108
302893000
371405004
371409005
128536001
312771007
246915008
301905003
766955008
247103004
399858007
29555009
57534004
73757007
247115000
247108008
446655006
307221007
312592009
312594005
128126004
82271004
897601009
128239009
127296001
301766008
299735001
127294003
128238001
128294001
233917008
418341009
472762000
234119001
461440001
59877000
762250009
399982001
400159008
448643005
123657001
76267008
301104003
301105002
56786000
3750006
129565002
128527000
106030000
128526009
45352006
71772004
441739009
309735004
297968009
362970003
128598002
95320005
80659006
373591006
419026008
106077005
714974000
234493006
387778001
106076001
95324001
21112004
10818008
253295000
253272009
116223007
473036007
473023007
69260008
738668004
385486001
234003006
308546005
710864009
392570002
106064001
82832008
118222006
118227000
297971001
301364008
442618008
250906000
102594003
301120008
441742003
251892004
128321003
11263005
366182005
106070007
301126002
414786004
281091000
233928007
310256002
722191003
365584005
785671009
118245000
441773004
365799007
724599009
365585006
271860004
235856003
189197001
300331000
249565005
300332007
300862005
300855001
309524007
235878005
271481007
297960002
363168001
703938007
53312001
39785005
697896007
11399002
251039005
70995007
473010000
426065008
427439005
301140001
95880003
95344007
284005003
249562008
85919009
79787007
282007005
312607004
128069005
47771009
82196007
361136003
301112006
301114007
11849007
29320008
697929007
266249003
83370008
706882009
132721000119104
37657006
300284004
125626004
49011004
312608009
283378004
262793000
262841007
283375001
300286002
307131005
15238002
320934008
125643001
733371004
105615001
262792005
110149000
417746004
416462003
225552003
725155003
74325003
105631009
407494008
271807003
247441003
444827008
399992009
424306000
43591003
108365000
19824006
14189004
10596002
312135004
34014006
49882001
312130009
128937004
106002000
230461009
194732001
301101006
195002007
398995000
195042002
432504007
52448006
191519005
302909007
74732009
111479008
429998004
128071005
734045002
16934004
105969002
128041002
2028007
128561003
238673000
20196005
402664001
22125009
126487009
410747005
422504002
2929001
11164009
1899006
363005004
38164009
430166008
199879009
234141001
399960008
724842007
400042000
363070008
782964007
400006008
32895009
363137000
363185004
461415008
29426003
460603007
461391002
297218007
609521009
276752006
234122004
21522001
82423001
247330004
30473006
74627003
238981002
34881000119105
421895002
840580004
20258000
407529009
724598001
449896008
233977004
234118009
703299009
128056006
234072000
312584000
198609003
724497009
106005003
301174002
248710002
312593004
67683007
118228005
366199006
301149000
247109000
123976001
123947004
16063004
83898004
43121002
19036004
415992005
301097002
84387000
105721009
365275006
421869004
128149002
238761009
413838009
19342008
253695008
234024001
365929007
106167005
443371007
3006004
365931003
419045004
36456004
384821006
363176004
773139006
253511007
15964981000119104
93078006
93305002
204339005
871668002
59494005
768552007
63934006
253516002
89792004
253549006
16750002
427775006
700012005
280134004
280136002
128135006
419003001
363175000
77535002
25114006
312588002
46253008
2477008
95448006
83938003
20721001
301108000
301109008
64557000
363194005
362968007
118658007
42030000
300479008
249230006
300509007
118238000
400202001
95346009
46742003
711168000
276327007
440441004
49260003
44103008
251175005
16797001
