399981008
118240005
366157005
66091009
870575001
57809008
448157006
271652003
64572001
432119003
439129009
414024009
128487001
415531008
415991003
473449006
301098007
118254002
404684003
105612003
822987005
726490008
362975008
363170005
373434004
279001004
138875005
106066004
302293008
301096006
