strict digraph G { rankdir=RL; ranksep=.3; node [shape=box, fontsize=9, fontname=Helvetica, style=filled, fillcolor=white];
"233985008"->"822987005" [arrowhead=onormal];
"233985008"->"67362008" [arrowhead=onormal];
"17079009"->"15555002" [arrowhead=onormal];
"394659003"->"128487001" [arrowhead=onormal];
"394659003"->"414545008" [arrowhead=onormal];
"91357005"->"56265001" [arrowhead=onormal];
"91357005"->"363170005" [arrowhead=onormal];
"89748001"->"15902003" [arrowhead=onormal];
"89748001"->"128487001" [arrowhead=onormal];
"57054005"->"22298006" [arrowhead=onormal];
"57054005"->"128487001" [arrowhead=onormal];
"54329005"->"57054005" [arrowhead=onormal];
"70211005"->"57054005" [arrowhead=onormal];
"70211005"->"301096006" [arrowhead=onormal];
"70211005"->"415991003" [arrowhead=onormal];
"73795002"->"57054005" [arrowhead=onormal];
"73795002"->"301096006" [arrowhead=onormal];
"73795002"->"415991003" [arrowhead=onormal];
"46701001"->"50920009" [arrowhead=onormal];
"46701001"->"128487001" [arrowhead=onormal];
"15555002"->"3238004" [arrowhead=onormal];
"15555002"->"128487001" [arrowhead=onormal];
"233829003"->"73795002" [arrowhead=onormal];
"70422006"->"57054005" [arrowhead=onormal];
"88032003"->"118254002" [arrowhead=onormal];
"88032003"->"266257000" [arrowhead=onormal];
"65340007"->"432119003" [arrowhead=onormal];
"65340007"->"56265001" [arrowhead=onormal];
"48273005"->"302293008" [arrowhead=onormal];
"48273005"->"432119003" [arrowhead=onormal];
"48273005"->"473449006" [arrowhead=onormal];
"433068007"->"67362008" [arrowhead=onormal];
"433068007"->"373434004" [arrowhead=onormal];
"194828000"->"414545008" [arrowhead=onormal];
"194828000"->"301358001" [arrowhead=onormal];
"424802006"->"822987005" [arrowhead=onormal];
"424802006"->"64572001" [arrowhead=onormal];
"67362008"->"26660001" [arrowhead=onormal];
"67362008"->"432119003" [arrowhead=onormal];
"250976004"->"60234000" [arrowhead=onormal];
"194983005"->"60234000" [arrowhead=onormal];
"194984004"->"60573004" [arrowhead=onormal];
"8722008"->"368009" [arrowhead=onormal];
"60234000"->"40445007" [arrowhead=onormal];
"60234000"->"8722008" [arrowhead=onormal];
"67754003"->"362975008" [arrowhead=onormal];
"67754003"->"8722008" [arrowhead=onormal];
"60573004"->"8722008" [arrowhead=onormal];
"30846001"->"118240005" [arrowhead=onormal];
"54687002"->"64572001" [arrowhead=onormal];
"266262004"->"54687002" [arrowhead=onormal];
"266262004"->"65198009" [arrowhead=onormal];
"65198009"->"439129009" [arrowhead=onormal];
"72092001"->"362975008" [arrowhead=onormal];
"439470001"->"64572001" [arrowhead=onormal];
"52089001"->"31996006" [arrowhead=onormal];
"50808002"->"362975008" [arrowhead=onormal];
"81817003"->"47040006" [arrowhead=onormal];
"81817003"->"441574008" [arrowhead=onormal];
"441574008"->"72092001" [arrowhead=onormal];
"17366009"->"870575001" [arrowhead=onormal];
"82608003"->"870575001" [arrowhead=onormal];
"49436004"->"17366009" [arrowhead=onormal];
"195080001"->"49436004" [arrowhead=onormal];
"195080001"->"5370000" [arrowhead=onormal];
"5370000"->"17366009" [arrowhead=onormal];
"70142008"->"870575001" [arrowhead=onormal];
"276796006"->"17366009" [arrowhead=onormal];
"251174009"->"56265001" [arrowhead=onormal];
"371807002"->"194828000" [arrowhead=onormal];
"427213005"->"31996006" [arrowhead=onormal];
"277766008"->"404684003" [arrowhead=onormal];
"301183007"->"56265001" [arrowhead=onormal];
"301183007"->"363170005" [arrowhead=onormal];
"64009001"->"118254002" [arrowhead=onormal];
"64009001"->"266257000" [arrowhead=onormal];
"64009001"->"473449006" [arrowhead=onormal];
"310701003"->"415531008" [arrowhead=onormal];
"310701003"->"31996006" [arrowhead=onormal];
"1201005"->"38341003" [arrowhead=onormal];
"277196008"->"128609009" [arrowhead=onormal];
"72352009"->"13213009" [arrowhead=onormal];
"72352009"->"8722008" [arrowhead=onormal];
"74021003"->"6374002" [arrowhead=onormal];
"249366005"->"118254002" [arrowhead=onormal];
"51551000"->"70153002" [arrowhead=onormal];
"17709002"->"28670008" [arrowhead=onormal];
"48867003"->"106066004" [arrowhead=onormal];
"48867003"->"366157005" [arrowhead=onormal];
"6374002"->"233916004" [arrowhead=onormal];
"92517006"->"53741008" [arrowhead=onormal];
"402867006"->"399981008" [arrowhead=onormal];
"410429000"->"56265001" [arrowhead=onormal];
"71892000"->"85232009" [arrowhead=onormal];
"71932004"->"8186001" [arrowhead=onormal];
"8186001"->"56265001" [arrowhead=onormal];
"85898001"->"57809008" [arrowhead=onormal];
"703119002"->"56265001" [arrowhead=onormal];
"703119002"->"363170005" [arrowhead=onormal];
"64586002"->"118254002" [arrowhead=onormal];
"64586002"->"473449006" [arrowhead=onormal];
"64586002"->"62914000" [arrowhead=onormal];
"64586002"->"726490008" [arrowhead=onormal];
"300920004"->"441574008" [arrowhead=onormal];
"300920004"->"118254002" [arrowhead=onormal];
"300920004"->"473449006" [arrowhead=onormal];
"300920004"->"62914000" [arrowhead=onormal];
"419642000"->"30846001" [arrowhead=onormal];
"419642000"->"118254002" [arrowhead=onormal];
"68478007"->"46085004" [arrowhead=onormal];
"75543006"->"62914000" [arrowhead=onormal];
"75543006"->"118254002" [arrowhead=onormal];
"75543006"->"473449006" [arrowhead=onormal];
"75543006"->"54687002" [arrowhead=onormal];
"71444005"->"62914000" [arrowhead=onormal];
"71444005"->"118254002" [arrowhead=onormal];
"71444005"->"473449006" [arrowhead=onormal];
"71444005"->"65198009" [arrowhead=onormal];
"230690007"->"62914000" [arrowhead=onormal];
"230690007"->"118254002" [arrowhead=onormal];
"62914000"->"64572001" [arrowhead=onormal];
"4851007"->"56265001" [arrowhead=onormal];
"4851007"->"363170005" [arrowhead=onormal];
"27885002"->"233916004" [arrowhead=onormal];
"27885002"->"57809008" [arrowhead=onormal];
"27885002"->"870575001" [arrowhead=onormal];
"44808001"->"56265001" [arrowhead=onormal];
"13213009"->"56265001" [arrowhead=onormal];
"13213009"->"66091009" [arrowhead=onormal];
"21234008"->"726490008" [arrowhead=onormal];
"21234008"->"66091009" [arrowhead=onormal];
"21234008"->"47040006" [arrowhead=onormal];
"67278007"->"368009" [arrowhead=onormal];
"67278007"->"66091009" [arrowhead=onormal];
"42343007"->"84114007" [arrowhead=onormal];
"42343007"->"415991003" [arrowhead=onormal];
"53741008"->"414024009" [arrowhead=onormal];
"53741008"->"72092001" [arrowhead=onormal];
"23687008"->"414024009" [arrowhead=onormal];
"443502000"->"441574008" [arrowhead=onormal];
"443502000"->"53741008" [arrowhead=onormal];
"128053003"->"111293003" [arrowhead=onormal];
"404223003"->"128053003" [arrowhead=onormal];
"404223003"->"302293008" [arrowhead=onormal];
"404223003"->"448157006" [arrowhead=onormal];
"361209006"->"415531008" [arrowhead=onormal];
"361209006"->"400047006" [arrowhead=onormal];
"27637000"->"13213009" [arrowhead=onormal];
"26660001"->"47040006" [arrowhead=onormal];
"399020009"->"85898001" [arrowhead=onormal];
"204296002"->"13213009" [arrowhead=onormal];
"47040006"->"473449006" [arrowhead=onormal];
"271984008"->"368009" [arrowhead=onormal];
"90507008"->"64572001" [arrowhead=onormal];
"233994002"->"47040006" [arrowhead=onormal];
"233994002"->"373434004" [arrowhead=onormal];
"33413000"->"56265001" [arrowhead=onormal];
"24184005"->"366157005" [arrowhead=onormal];
"33806008"->"52089001" [arrowhead=onormal];
"37151006"->"400047006" [arrowhead=onormal];
"37151006"->"301358001" [arrowhead=onormal];
"37151006"->"415531008" [arrowhead=onormal];
"165084003"->"404684003" [arrowhead=onormal];
"300995000"->"194828000" [arrowhead=onormal];
"23913003"->"70153002" [arrowhead=onormal];
"270492004"->"195039008" [arrowhead=onormal];
"238810007"->"415531008" [arrowhead=onormal];
"238810007"->"64572001" [arrowhead=onormal];
"161969004"->"80313002" [arrowhead=onormal];
"59935001"->"88610006" [arrowhead=onormal];
"15902003"->"822987005" [arrowhead=onormal];
"15902003"->"64572001" [arrowhead=onormal];
"39823006"->"441574008" [arrowhead=onormal];
"194849004"->"57809008" [arrowhead=onormal];
"195353004"->"31996006" [arrowhead=onormal];
"93469006"->"822987005" [arrowhead=onormal];
"93469006"->"399981008" [arrowhead=onormal];
"93471006"->"415531008" [arrowhead=onormal];
"93471006"->"399981008" [arrowhead=onormal];
"70153002"->"448157006" [arrowhead=onormal];
"70153002"->"128060009" [arrowhead=onormal];
"70153002"->"822987005" [arrowhead=onormal];
"233916004"->"44808001" [arrowhead=onormal];
"56265001"->"64572001" [arrowhead=onormal];
"84114007"->"56265001" [arrowhead=onormal];
"88610006"->"118240005" [arrowhead=onormal];
"368009"->"56265001" [arrowhead=onormal];
"368009"->"301098007" [arrowhead=onormal];
"40445007"->"368009" [arrowhead=onormal];
"9177003"->"415531008" [arrowhead=onormal];
"9177003"->"31996006" [arrowhead=onormal];
"38341003"->"366157005" [arrowhead=onormal];
"38341003"->"64572001" [arrowhead=onormal];
"233873004"->"85898001" [arrowhead=onormal];
"45227007"->"233873004" [arrowhead=onormal];
"45227007"->"301096006" [arrowhead=onormal];
"45227007"->"415991003" [arrowhead=onormal];
"195506001"->"45007003" [arrowhead=onormal];
"697898008"->"373434004" [arrowhead=onormal];
"191306005"->"427213005" [arrowhead=onormal];
"191306005"->"362975008" [arrowhead=onormal];
"23154005"->"24184005" [arrowhead=onormal];
"195450002"->"448157006" [arrowhead=onormal];
"195450002"->"302293008" [arrowhead=onormal];
"734041006"->"473449006" [arrowhead=onormal];
"734041006"->"822987005" [arrowhead=onormal];
"734041006"->"105612003" [arrowhead=onormal];
"90458007"->"70153002" [arrowhead=onormal];
"721703004"->"90458007" [arrowhead=onormal];
"128609009"->"62914000" [arrowhead=onormal];
"128609009"->"118254002" [arrowhead=onormal];
"128609009"->"432119003" [arrowhead=onormal];
"128609009"->"473449006" [arrowhead=onormal];
"361137007"->"106066004" [arrowhead=onormal];
"414545008"->"56265001" [arrowhead=onormal];
"414545008"->"105612003" [arrowhead=onormal];
"81681009"->"17366009" [arrowhead=onormal];
"81681009"->"63593006" [arrowhead=onormal];
"81681009"->"57809008" [arrowhead=onormal];
"697930002"->"38341003" [arrowhead=onormal];
"63467002"->"6374002" [arrowhead=onormal];
"63467002"->"415991003" [arrowhead=onormal];
"85232009"->"84114007" [arrowhead=onormal];
"85232009"->"301096006" [arrowhead=onormal];
"85232009"->"415991003" [arrowhead=onormal];
"55827005"->"301096006" [arrowhead=onormal];
"55827005"->"415991003" [arrowhead=onormal];
"25488008"->"301096006" [arrowhead=onormal];
"238772004"->"415531008" [arrowhead=onormal];
"238772004"->"64572001" [arrowhead=onormal];
"45007003"->"64572001" [arrowhead=onormal];
"271870002"->"45007003" [arrowhead=onormal];
"78975002"->"70272006" [arrowhead=onormal];
"70272006"->"38341003" [arrowhead=onormal];
"35265002"->"822987005" [arrowhead=onormal];
"35265002"->"105612003" [arrowhead=onormal];
"38921001"->"64572001" [arrowhead=onormal];
"38921001"->"415531008" [arrowhead=onormal];
"23186000"->"37796009" [arrowhead=onormal];
"37796009"->"128187005" [arrowhead=onormal];
"230465000"->"4473006" [arrowhead=onormal];
"4473006"->"37796009" [arrowhead=onormal];
"56097005"->"37796009" [arrowhead=onormal];
"194736003"->"60234000" [arrowhead=onormal];
"194736003"->"48724000" [arrowhead=onormal];
"11851006"->"368009" [arrowhead=onormal];
"409712001"->"11851006" [arrowhead=onormal];
"48724000"->"11851006" [arrowhead=onormal];
"48724000"->"40445007" [arrowhead=onormal];
"79619009"->"11851006" [arrowhead=onormal];
"54016002"->"195039008" [arrowhead=onormal];
"56267009"->"473449006" [arrowhead=onormal];
"56267009"->"230690007" [arrowhead=onormal];
"22298006"->"57809008" [arrowhead=onormal];
"22298006"->"414545008" [arrowhead=onormal];
"414795007"->"57809008" [arrowhead=onormal];
"414795007"->"414545008" [arrowhead=onormal];
"50920009"->"57809008" [arrowhead=onormal];
"50920009"->"363170005" [arrowhead=onormal];
"32916005"->"822987005" [arrowhead=onormal];
"32916005"->"362975008" [arrowhead=onormal];
"71792006"->"56265001" [arrowhead=onormal];
"55275006"->"415531008" [arrowhead=onormal];
"55275006"->"31996006" [arrowhead=onormal];
"373606000"->"473449006" [arrowhead=onormal];
"373606000"->"230690007" [arrowhead=onormal];
"28670008"->"373434004" [arrowhead=onormal];
"28670008"->"448157006" [arrowhead=onormal];
"28670008"->"128060009" [arrowhead=onormal];
"28651003"->"45007003" [arrowhead=onormal];
"21877004"->"247479008" [arrowhead=onormal];
"21877004"->"66091009" [arrowhead=onormal];
"21877004"->"399981008" [arrowhead=onormal];
"301358001"->"279001004" [arrowhead=onormal];
"80313002"->"404684003" [arrowhead=onormal];
"116288000"->"230690007" [arrowhead=onormal];
"282825002"->"49436004" [arrowhead=onormal];
"282825002"->"128487001" [arrowhead=onormal];
"67198005"->"12026006" [arrowhead=onormal];
"67198005"->"6456007" [arrowhead=onormal];
"12026006"->"6285003" [arrowhead=onormal];
"12026006"->"128487001" [arrowhead=onormal];
"195039008"->"233916004" [arrowhead=onormal];
"195039008"->"57809008" [arrowhead=onormal];
"195039008"->"870575001" [arrowhead=onormal];
"83330001"->"66091009" [arrowhead=onormal];
"83330001"->"373434004" [arrowhead=onormal];
"39402007"->"301358001" [arrowhead=onormal];
"39402007"->"64572001" [arrowhead=onormal];
"39402007"->"822987005" [arrowhead=onormal];
"3238004"->"363170005" [arrowhead=onormal];
"127014009"->"473449006" [arrowhead=onormal];
"127014009"->"400047006" [arrowhead=onormal];
"399957001"->"400047006" [arrowhead=onormal];
"399957001"->"473449006" [arrowhead=onormal];
"233958001"->"400047006" [arrowhead=onormal];
"233958001"->"473449006" [arrowhead=onormal];
"400047006"->"64572001" [arrowhead=onormal];
"20696009"->"90507008" [arrowhead=onormal];
"61599003"->"31996006" [arrowhead=onormal];
"61599003"->"90507008" [arrowhead=onormal];
"155441006"->"52089001" [arrowhead=onormal];
"233978009"->"473449006" [arrowhead=onormal];
"233978009"->"302293008" [arrowhead=onormal];
"416377005"->"415531008" [arrowhead=onormal];
"416377005"->"66091009" [arrowhead=onormal];
"34742003"->"822987005" [arrowhead=onormal];
"34742003"->"90507008" [arrowhead=onormal];
"17920008"->"822987005" [arrowhead=onormal];
"17920008"->"111293003" [arrowhead=onormal];
"398254007"->"48194001" [arrowhead=onormal];
"48194001"->"38341003" [arrowhead=onormal];
"4557003"->"194828000" [arrowhead=onormal];
"29717002"->"56265001" [arrowhead=onormal];
"87343002"->"57809008" [arrowhead=onormal];
"87343002"->"23687008" [arrowhead=onormal];
"87343002"->"194828000" [arrowhead=onormal];
"267042006"->"404684003" [arrowhead=onormal];
"59282003"->"54687002" [arrowhead=onormal];
"59282003"->"373434004" [arrowhead=onormal];
"61086009"->"404684003" [arrowhead=onormal];
"195295006"->"473449006" [arrowhead=onormal];
"195295006"->"302293008" [arrowhead=onormal];
"302233006"->"726490008" [arrowhead=onormal];
"302233006"->"399957001" [arrowhead=onormal];
"302233006"->"822987005" [arrowhead=onormal];
"419230002"->"30846001" [arrowhead=onormal];
"419230002"->"822987005" [arrowhead=onormal];
"232035005"->"473449006" [arrowhead=onormal];
"232035005"->"118254002" [arrowhead=onormal];
"79267007"->"37796009" [arrowhead=onormal];
"23685000"->"56265001" [arrowhead=onormal];
"31085000"->"48724000" [arrowhead=onormal];
"31085000"->"23685000" [arrowhead=onormal];
"86466006"->"79619009" [arrowhead=onormal];
"86466006"->"23685000" [arrowhead=onormal];
"59118001"->"6374002" [arrowhead=onormal];
"59118001"->"415991003" [arrowhead=onormal];
"367363000"->"84114007" [arrowhead=onormal];
"367363000"->"415991003" [arrowhead=onormal];
"31992008"->"38341003" [arrowhead=onormal];
"36083008"->"60423000" [arrowhead=onormal];
"233843008"->"22298006" [arrowhead=onormal];
"233823002"->"414795007" [arrowhead=onormal];
"49710005"->"17366009" [arrowhead=onormal];
"49710005"->"48867003" [arrowhead=onormal];
"60423000"->"17366009" [arrowhead=onormal];
"11092001"->"3424008" [arrowhead=onormal];
"248672008"->"31574009" [arrowhead=onormal];
"195382003"->"247479008" [arrowhead=onormal];
"233819005"->"194828000" [arrowhead=onormal];
"56975005"->"93471006" [arrowhead=onormal];
"56975005"->"402867006" [arrowhead=onormal];
"68109007"->"726490008" [arrowhead=onormal];
"66893008"->"56265001" [arrowhead=onormal];
"66893008"->"363170005" [arrowhead=onormal];
"300921000"->"726490008" [arrowhead=onormal];
"300921000"->"399957001" [arrowhead=onormal];
"15258001"->"473449006" [arrowhead=onormal];
"275517008"->"111293003" [arrowhead=onormal];
"63593006"->"29717002" [arrowhead=onormal];
"63593006"->"33413000" [arrowhead=onormal];
"6456007"->"6285003" [arrowhead=onormal];
"271594007"->"128487001" [arrowhead=onormal];
"56218007"->"38341003" [arrowhead=onormal];
"31574009"->"88610006" [arrowhead=onormal];
"6285003"->"366157005" [arrowhead=onormal];
"6285003"->"56265001" [arrowhead=onormal];
"3424008"->"106066004" [arrowhead=onormal];
"3424008"->"366157005" [arrowhead=onormal];
"247479008"->"415531008" [arrowhead=onormal];
"247479008"->"64572001" [arrowhead=onormal];
"400130008"->"473449006" [arrowhead=onormal];
"400130008"->"52089001" [arrowhead=onormal];
"400130008"->"118254002" [arrowhead=onormal];
"86299006"->"67278007" [arrowhead=onormal];
"86299006"->"13213009" [arrowhead=onormal];
"86299006"->"373434004" [arrowhead=onormal];
"86299006"->"47040006" [arrowhead=onormal];
"86299006"->"30288003" [arrowhead=onormal];
"64156001"->"111293003" [arrowhead=onormal];
"64156001"->"61599003" [arrowhead=onormal];
"1748006"->"40198004" [arrowhead=onormal];
"1748006"->"404223003" [arrowhead=onormal];
"40198004"->"302293008" [arrowhead=onormal];
"40198004"->"128053003" [arrowhead=onormal];
"40198004"->"64156001" [arrowhead=onormal];
"40198004"->"448157006" [arrowhead=onormal];
"40283005"->"302293008" [arrowhead=onormal];
"40283005"->"275517008" [arrowhead=onormal];
"40283005"->"64156001" [arrowhead=onormal];
"40283005"->"448157006" [arrowhead=onormal];
"26373009"->"23913003" [arrowhead=onormal];
"26373009"->"75955007" [arrowhead=onormal];
"75955007"->"70153002" [arrowhead=onormal];
"75955007"->"111293003" [arrowhead=onormal];
"281595001"->"111293003" [arrowhead=onormal];
"281595001"->"448157006" [arrowhead=onormal];
"46085004"->"111293003" [arrowhead=onormal];
"46085004"->"448157006" [arrowhead=onormal];
"46085004"->"118254002" [arrowhead=onormal];
"266257000"->"62914000" [arrowhead=onormal];
"266257000"->"128487001" [arrowhead=onormal];
"52698002"->"38341003" [arrowhead=onormal];
"111287006"->"40445007" [arrowhead=onormal];
"233817007"->"53741008" [arrowhead=onormal];
"51070004"->"448157006" [arrowhead=onormal];
"51070004"->"822987005" [arrowhead=onormal];
"51070004"->"128060009" [arrowhead=onormal];
"304026004"->"72866009" [arrowhead=onormal];
"304026004"->"415531008" [arrowhead=onormal];
"72866009"->"128060009" [arrowhead=onormal];
"72866009"->"448157006" [arrowhead=onormal];
"72866009"->"302293008" [arrowhead=onormal];
"275700003"->"72866009" [arrowhead=onormal];
"275700003"->"415531008" [arrowhead=onormal];
"275700003"->"363170005" [arrowhead=onormal];
"128187005"->"301358001" [arrowhead=onormal];
"128187005"->"118254002" [arrowhead=onormal];
"128187005"->"64572001" [arrowhead=onormal];
"31996006"->"363170005" [arrowhead=onormal];
"398665005"->"271594007" [arrowhead=onormal];
"234050002"->"20696009" [arrowhead=onormal];
"234050002"->"366157005" [arrowhead=onormal];
"234050002"->"302293008" [arrowhead=onormal];
"24596005"->"46085004" [arrowhead=onormal];
"71897006"->"404684003" [arrowhead=onormal];
"111293003"->"90507008" [arrowhead=onormal];
"111293003"->"439129009" [arrowhead=onormal];
"128060009"->"271652003" [arrowhead=onormal];
"128060009"->"90507008" [arrowhead=onormal];
"90539001"->"65340007" [arrowhead=onormal];
"90539001"->"415991003" [arrowhead=onormal];
"11157007"->"56265001" [arrowhead=onormal];
"71908006"->"410429000" [arrowhead=onormal];
"111288001"->"25569003" [arrowhead=onormal];
"17338001"->"33413000" [arrowhead=onormal];
"17338001"->"29717002" [arrowhead=onormal];
"30288003"->"415991003" [arrowhead=onormal];
"25569003"->"56265001" [arrowhead=onormal];
"25569003"->"366157005" [arrowhead=onormal];
"74390002"->"56265001" [arrowhead=onormal];
"448157006"->"90507008" [arrowhead=onormal];
"128487001"->"64572001" [arrowhead=onormal];
"432119003"->"64572001" [arrowhead=onormal];
"870575001"->"56265001" [arrowhead=onormal];
"106066004"->"404684003" [arrowhead=onormal];
"366157005"->"404684003" [arrowhead=onormal];
"66091009"->"64572001" [arrowhead=onormal];
"362975008"->"64572001" [arrowhead=onormal];
"64572001"->"404684003" [arrowhead=onormal];
"473449006"->"64572001" [arrowhead=onormal];
"373434004"->"64572001" [arrowhead=onormal];
"415991003"->"56265001" [arrowhead=onormal];
"414024009"->"56265001" [arrowhead=onormal];
"118240005"->"404684003" [arrowhead=onormal];
"822987005"->"404684003" [arrowhead=onormal];
"118254002"->"404684003" [arrowhead=onormal];
"301096006"->"404684003" [arrowhead=onormal];
"302293008"->"404684003" [arrowhead=onormal];
"301098007"->"404684003" [arrowhead=onormal];
"363170005"->"64572001" [arrowhead=onormal];
"105612003"->"64572001" [arrowhead=onormal];
"57809008"->"56265001" [arrowhead=onormal];
"399981008"->"64572001" [arrowhead=onormal];
"279001004"->"404684003" [arrowhead=onormal];
"415531008"->"404684003" [arrowhead=onormal];
"726490008"->"64572001" [arrowhead=onormal];
"439129009"->"64572001" [arrowhead=onormal];
"271652003"->"404684003" [arrowhead=onormal];
"404684003"->"138875005" [arrowhead=onormal];
"399981008" [label="399981008\nNeoplasm and/or hamartoma", shape=box, peripheries=2, style=filled, fillcolor=pink];
"118240005" [label="118240005\nFinding by method", shape=box, peripheries=2, style=filled, fillcolor=pink];
"366157005" [label="366157005\nCardiovascular measurement - finding", shape=box, peripheries=2, style=filled, fillcolor=pink];
"66091009" [label="66091009\nCongenital disease", shape=box, peripheries=2, style=filled, fillcolor=pink];
"870575001" [label="870575001\nAtrial cardiopathy", shape=box, peripheries=2, style=filled, fillcolor=pink];
"57809008" [label="57809008\nMyocardial disease", shape=box, peripheries=2, style=filled, fillcolor=pink];
"448157006" [label="448157006\nAbnormality of systemic vein", shape=box, peripheries=2, style=filled, fillcolor=pink];
"271652003" [label="271652003\nVaricose vein finding", shape=box, peripheries=2, style=filled, fillcolor=pink];
"64572001" [label="64572001\nDisease", shape=box, peripheries=2, style=filled, fillcolor=pink];
"432119003" [label="432119003\nAneurysm", shape=box, peripheries=2, style=filled, fillcolor=pink];
"439129009" [label="439129009\nThrombosis of blood vessel", shape=box, peripheries=2, style=filled, fillcolor=pink];
"414024009" [label="414024009\nDisorder of coronary artery", shape=box, peripheries=2, style=filled, fillcolor=pink];
"128487001" [label="128487001\nAcute disease of cardiovascular system", shape=box, peripheries=2, style=filled, fillcolor=pink];
"415531008" [label="415531008\nSkin AND/OR mucosa finding", shape=box, peripheries=2, style=filled, fillcolor=pink];
"415991003" [label="415991003\nDisorder of cardiac ventricle", shape=box, peripheries=2, style=filled, fillcolor=pink];
"473449006" [label="473449006\nDisease of non-coronary systemic artery", shape=box, peripheries=2, style=filled, fillcolor=pink];
"301098007" [label="301098007\nHeart valve finding", shape=box, peripheries=2, style=filled, fillcolor=pink];
"118254002" [label="118254002\nFinding of head and neck region", shape=box, peripheries=2, style=filled, fillcolor=pink];
"404684003" [label="404684003\nClinical finding", shape=box, peripheries=2, style=filled, fillcolor=pink];
"105612003" [label="105612003\nInjury of internal organ", shape=box, peripheries=2, style=filled, fillcolor=pink];
"822987005" [label="822987005\nFinding of abdominopelvic segment of trunk", shape=box, peripheries=2, style=filled, fillcolor=pink];
"726490008" [label="726490008\nStenosis of artery", shape=box, peripheries=2, style=filled, fillcolor=pink];
"362975008" [label="362975008\nDegenerative disorder", shape=box, peripheries=2, style=filled, fillcolor=pink];
"363170005" [label="363170005\nInflammation of specific body structures or tissue", shape=box, peripheries=2, style=filled, fillcolor=pink];
"373434004" [label="373434004\nDisorder of blood vessels of thorax", shape=box, peripheries=2, style=filled, fillcolor=pink];
"279001004" [label="279001004\nPain finding at anatomical site", shape=box, peripheries=2, style=filled, fillcolor=pink];
"138875005" [label="138875005\nSNOMED CT Concept", shape=box, peripheries=2, style=filled, fillcolor=pink];
"106066004" [label="106066004\nCardiac rhythm AND/OR rate finding", shape=box, peripheries=2, style=filled, fillcolor=pink];
"302293008" [label="302293008\nFinding of limb structure", shape=box, peripheries=2, style=filled, fillcolor=pink];
"301096006" [label="301096006\nFinding of left ventricle", shape=box, peripheries=2, style=filled, fillcolor=pink];
"233985008" [label="233985008\lAbdominal aortic aneurysm", shape=box, peripheries=2, style=filled, fillcolor="#CCCCFF"];
"17079009" [label="17079009\lAcute bacterial pericarditis", shape=box, peripheries=2, style=filled, fillcolor="#CCCCFF"];
"394659003" [label="394659003\lAcute coronary syndrome", shape=box, peripheries=1, style=filled, fillcolor="#99CCFF"];
"91357005" [label="91357005\lAcute endocarditis", shape=box, peripheries=2, style=filled, fillcolor="#CCCCFF"];
"89748001" [label="89748001\lAcute gastric ulcer with haemorrhage", shape=box, peripheries=2, style=filled, fillcolor="#CCCCFF"];
"57054005" [label="57054005\lAcute myocardial infarction", shape=box, peripheries=2, style=filled, fillcolor="#CCCCFF"];
"54329005" [label="54329005\lAcute myocardial infarction of anterior wall", shape=box, peripheries=2, style=filled, fillcolor="#CCCCFF"];
"70211005" [label="70211005\lAcute myocardial infarction of anterolateral wall", shape=box, peripheries=2, style=filled, fillcolor="#CCCCFF"];
"73795002" [label="73795002\lAcute myocardial infarction of inferior wall", shape=box, peripheries=2, style=filled, fillcolor="#CCCCFF"];
"46701001" [label="46701001\lAcute myocarditis", shape=box, peripheries=2, style=filled, fillcolor="#CCCCFF"];
"15555002" [label="15555002\lAcute pericarditis", shape=box, peripheries=2, style=filled, fillcolor="#CCCCFF"];
"233829003" [label="233829003\lAcute Q wave infarction - inferior", shape=box, peripheries=2, style=filled, fillcolor="#CCCCFF"];
"70422006" [label="70422006\lAcute subendocardial infarction", shape=box, peripheries=2, style=filled, fillcolor="#CCCCFF"];
"88032003" [label="88032003\lAmaurosis fugax", shape=box, peripheries=1, style=filled, fillcolor="#99CCFF"];
"65340007" [label="65340007\lAneurysm of heart", shape=box, peripheries=2, style=filled, fillcolor="#CCCCFF"];
"48273005" [label="48273005\lAneurysm of popliteal artery", shape=box, peripheries=2, style=filled, fillcolor="#CCCCFF"];
"433068007" [label="433068007\lAneurysm of thoracic aorta", shape=box, peripheries=2, style=filled, fillcolor="#CCCCFF"];
"194828000" [label="194828000\lAngina pectoris", shape=box, peripheries=1, style=filled, fillcolor="#99CCFF"];
"424802006" [label="424802006\lAngiodysplasia of stomach", shape=box, peripheries=2, style=filled, fillcolor="#CCCCFF"];
"67362008" [label="67362008\lAortic aneurysm", shape=box, peripheries=2, style=filled, fillcolor="#CCCCFF"];
"250976004" [label="250976004\lAortic cusp regurgitation", shape=box, peripheries=2, style=filled, fillcolor="#CCCCFF"];
"194983005" [label="194983005\lAortic incompetence, non-rheumatic", shape=box, peripheries=2, style=filled, fillcolor="#CCCCFF"];
"194984004" [label="194984004\lAortic stenosis, non-rheumatic", shape=box, peripheries=2, style=filled, fillcolor="#CCCCFF"];
"8722008" [label="8722008\lAortic valve disorder", shape=box, peripheries=2, style=filled, fillcolor="#CCCCFF"];
"60234000" [label="60234000\lAortic valve regurgitation", shape=box, peripheries=2, style=filled, fillcolor="#CCCCFF"];
"67754003" [label="67754003\lAortic valve sclerosis", shape=box, peripheries=2, style=filled, fillcolor="#CCCCFF"];
"60573004" [label="60573004\lAortic valve stenosis", shape=box, peripheries=2, style=filled, fillcolor="#CCCCFF"];
"30846001" [label="30846001\lArterial bruit", shape=box, peripheries=2, style=filled, fillcolor="#CCCCFF"];
"54687002" [label="54687002\lArterial embolism", shape=box, peripheries=2, style=filled, fillcolor="#CCCCFF"];
"266262004" [label="266262004\lArterial embolus and thrombosis", shape=box, peripheries=2, style=filled, fillcolor="#CCCCFF"];
"65198009" [label="65198009\lArterial thrombosis", shape=box, peripheries=2, style=filled, fillcolor="#CCCCFF"];
"72092001" [label="72092001\lArteriosclerotic vascular disease", shape=box, peripheries=2, style=filled, fillcolor="#CCCCFF"];
"439470001" [label="439470001\lArteriovenous fistula", shape=box, peripheries=2, style=filled, fillcolor="#CCCCFF"];
"52089001" [label="52089001\lArteritis", shape=box, peripheries=2, style=filled, fillcolor="#CCCCFF"];
"50808002" [label="50808002\lAtheroma of artery", shape=box, peripheries=2, style=filled, fillcolor="#CCCCFF"];
"81817003" [label="81817003\lAtherosclerosis of aorta", shape=box, peripheries=2, style=filled, fillcolor="#CCCCFF"];
"441574008" [label="441574008\lAtherosclerosis of artery", shape=box, peripheries=2, style=filled, fillcolor="#CCCCFF"];
"17366009" [label="17366009\lAtrial arrhythmia", shape=box, peripheries=2, style=filled, fillcolor="#CCCCFF"];
"82608003" [label="82608003\lAtrial dilatation", shape=box, peripheries=2, style=filled, fillcolor="#CCCCFF"];
"49436004" [label="49436004\lAtrial fibrillation", shape=box, peripheries=2, style=filled, fillcolor="#CCCCFF"];
"195080001" [label="195080001\lAtrial fibrillation and flutter", shape=box, peripheries=1, style=filled, fillcolor="#99CCFF"];
"5370000" [label="5370000\lAtrial flutter", shape=box, peripheries=1, style=filled, fillcolor="#99CCFF"];
"70142008" [label="70142008\lAtrial septal defect", shape=box, peripheries=2, style=filled, fillcolor="#CCCCFF"];
"276796006" [label="276796006\lAtrial tachycardia", shape=box, peripheries=1, style=filled, fillcolor="#99CCFF"];
"251174009" [label="251174009\lAtrial trigeminy", shape=box, peripheries=1, style=filled, fillcolor="#99CCFF"];
"371807002" [label="371807002\lAtypical angina", shape=box, peripheries=1, style=filled, fillcolor="#99CCFF"];
"427213005" [label="427213005\lAutoimmune vasculitis", shape=box, peripheries=2, style=filled, fillcolor="#CCCCFF"];
"277766008" [label="277766008\lAwareness of heart beat", shape=box, peripheries=1, style=filled, fillcolor="#99CCFF"];
"301183007" [label="301183007\lBacterial endocarditis", shape=box, peripheries=2, style=filled, fillcolor="#CCCCFF"];
"64009001" [label="64009001\lBasilar artery syndrome", shape=box, peripheries=1, style=filled, fillcolor="#99CCFF"];
"310701003" [label="310701003\lBehcets syndrome", shape=box, peripheries=1, style=filled, fillcolor="#99CCFF"];
"1201005" [label="1201005\lBenign essential hypertension", shape=box, peripheries=1, style=filled, fillcolor="#99CCFF"];
"277196008" [label="277196008\lBerry aneurysm", shape=box, peripheries=2, style=filled, fillcolor="#CCCCFF"];
"72352009" [label="72352009\lBicuspid aortic valve", shape=box, peripheries=2, style=filled, fillcolor="#CCCCFF"];
"74021003" [label="74021003\lBifascicular block", shape=box, peripheries=1, style=filled, fillcolor="#99CCFF"];
"249366005" [label="249366005\lBleeding from nose", shape=box, peripheries=2, style=filled, fillcolor="#CCCCFF"];
"51551000" [label="51551000\lBleeding haemorrhoids", shape=box, peripheries=2, style=filled, fillcolor="#CCCCFF"];
"17709002" [label="17709002\lBleeding oesophageal varices", shape=box, peripheries=2, style=filled, fillcolor="#CCCCFF"];
"48867003" [label="48867003\lBradycardia", shape=box, peripheries=2, style=filled, fillcolor="#CCCCFF"];
"6374002" [label="6374002\lBundle branch block", shape=box, peripheries=1, style=filled, fillcolor="#99CCFF"];
"92517006" [label="92517006\lCalcific coronary arteriosclerosis", shape=box, peripheries=1, style=filled, fillcolor="#99CCFF"];
"402867006" [label="402867006\lCapillary haemangioma", shape=box, peripheries=2, style=filled, fillcolor="#CCCCFF"];
"410429000" [label="410429000\lCardiac arrest", shape=box, peripheries=1, style=filled, fillcolor="#99CCFF"];
"71892000" [label="71892000\lCardiac asthma", shape=box, peripheries=1, style=filled, fillcolor="#99CCFF"];
"71932004" [label="71932004\lCardiac dilatation", shape=box, peripheries=1, style=filled, fillcolor="#99CCFF"];
"8186001" [label="8186001\lCardiomegaly", shape=box, peripheries=2, style=filled, fillcolor="#CCCCFF"];
"85898001" [label="85898001\lCardiomyopathy", shape=box, peripheries=1, style=filled, fillcolor="#99CCFF"];
"703119002" [label="703119002\lCarditis due to rheumatic fever", shape=box, peripheries=2, style=filled, fillcolor="#CCCCFF"];
"64586002" [label="64586002\lCarotid artery stenosis", shape=box, peripheries=2, style=filled, fillcolor="#CCCCFF"];
"300920004" [label="300920004\lCarotid atherosclerosis", shape=box, peripheries=2, style=filled, fillcolor="#CCCCFF"];
"419642000" [label="419642000\lCarotid bruit", shape=box, peripheries=2, style=filled, fillcolor="#CCCCFF"];
"68478007" [label="68478007\lCentral retinal vein occlusion", shape=box, peripheries=2, style=filled, fillcolor="#CCCCFF"];
"75543006" [label="75543006\lCerebral embolism", shape=box, peripheries=2, style=filled, fillcolor="#CCCCFF"];
"71444005" [label="71444005\lCerebral thrombosis", shape=box, peripheries=2, style=filled, fillcolor="#CCCCFF"];
"230690007" [label="230690007\lCerebrovascular accident", shape=box, peripheries=2, style=filled, fillcolor="#CCCCFF"];
"62914000" [label="62914000\lCerebrovascular disease", shape=box, peripheries=2, style=filled, fillcolor="#CCCCFF"];
"4851007" [label="4851007\lChronic endocarditis", shape=box, peripheries=2, style=filled, fillcolor="#CCCCFF"];
"27885002" [label="27885002\lComplete atrioventricular block", shape=box, peripheries=1, style=filled, fillcolor="#99CCFF"];
"44808001" [label="44808001\lConduction disorder of the heart", shape=box, peripheries=1, style=filled, fillcolor="#99CCFF"];
"13213009" [label="13213009\lCongenital heart disease", shape=box, peripheries=2, style=filled, fillcolor="#CCCCFF"];
"21234008" [label="21234008\lCongenital stenosis of aorta", shape=box, peripheries=2, style=filled, fillcolor="#CCCCFF"];
"67278007" [label="67278007\lCongenital stenosis of pulmonary valve", shape=box, peripheries=2, style=filled, fillcolor="#CCCCFF"];
"42343007" [label="42343007\lCongestive heart failure", shape=box, peripheries=1, style=filled, fillcolor="#99CCFF"];
"53741008" [label="53741008\lCoronary arteriosclerosis", shape=box, peripheries=2, style=filled, fillcolor="#CCCCFF"];
"23687008" [label="23687008\lCoronary artery spasm", shape=box, peripheries=1, style=filled, fillcolor="#99CCFF"];
"443502000" [label="443502000\lCoronary atherosclerosis", shape=box, peripheries=2, style=filled, fillcolor="#CCCCFF"];
"128053003" [label="128053003\lDeep venous thrombosis", shape=box, peripheries=2, style=filled, fillcolor="#CCCCFF"];
"404223003" [label="404223003\lDeep venous thrombosis of lower extremity", shape=box, peripheries=2, style=filled, fillcolor="#CCCCFF"];
"361209006" [label="361209006\lDermite ocre of Favre", shape=box, peripheries=1, style=filled, fillcolor="#99CCFF"];
"27637000" [label="27637000\lDextrocardia", shape=box, peripheries=2, style=filled, fillcolor="#CCCCFF"];
"26660001" [label="26660001\lDilatation of aorta", shape=box, peripheries=2, style=filled, fillcolor="#CCCCFF"];
"399020009" [label="399020009\lDilated cardiomyopathy", shape=box, peripheries=1, style=filled, fillcolor="#99CCFF"];
"204296002" [label="204296002\lDiscordant ventriculoarterial connection", shape=box, peripheries=2, style=filled, fillcolor="#CCCCFF"];
"47040006" [label="47040006\lDisorder of aorta", shape=box, peripheries=2, style=filled, fillcolor="#CCCCFF"];
"271984008" [label="271984008\lDisorder of prosthetic cardiac valve", shape=box, peripheries=2, style=filled, fillcolor="#CCCCFF"];
"90507008" [label="90507008\lDisorder of vein", shape=box, peripheries=2, style=filled, fillcolor="#CCCCFF"];
"233994002" [label="233994002\lDissection of thoracic aorta", shape=box, peripheries=2, style=filled, fillcolor="#CCCCFF"];
"33413000" [label="33413000\lEctopic beats", shape=box, peripheries=1, style=filled, fillcolor="#99CCFF"];
"24184005" [label="24184005\lElevated blood pressure", shape=box, peripheries=2, style=filled, fillcolor="#CCCCFF"];
"33806008" [label="33806008\lEndarteritis", shape=box, peripheries=2, style=filled, fillcolor="#CCCCFF"];
"37151006" [label="37151006\lErythromelalgia", shape=box, peripheries=1, style=filled, fillcolor="#99CCFF"];
"165084003" [label="165084003\lExercise tolerance test abnormal", shape=box, peripheries=1, style=filled, fillcolor="#99CCFF"];
"300995000" [label="300995000\lExercise-induced angina", shape=box, peripheries=1, style=filled, fillcolor="#99CCFF"];
"23913003" [label="23913003\lExternal haemorrhoids", shape=box, peripheries=2, style=filled, fillcolor="#CCCCFF"];
"270492004" [label="270492004\lFirst degree atrioventricular block", shape=box, peripheries=1, style=filled, fillcolor="#99CCFF"];
"238810007" [label="238810007\lFlushing", shape=box, peripheries=1, style=filled, fillcolor="#99CCFF"];
"161969004" [label="161969004\lFluttering heart", shape=box, peripheries=1, style=filled, fillcolor="#99CCFF"];
"59935001" [label="59935001\lFunctional heart murmur", shape=box, peripheries=1, style=filled, fillcolor="#99CCFF"];
"15902003" [label="15902003\lGastric ulcer with haemorrhage", shape=box, peripheries=2, style=filled, fillcolor="#CCCCFF"];
"39823006" [label="39823006\lGeneralised atherosclerosis", shape=box, peripheries=1, style=filled, fillcolor="#99CCFF"];
"194849004" [label="194849004\lGeneralised ischaemic myocardial dysfunction", shape=box, peripheries=1, style=filled, fillcolor="#99CCFF"];
"195353004" [label="195353004\lGranulomatosis with polyangiitis", shape=box, peripheries=1, style=filled, fillcolor="#99CCFF"];
"93469006" [label="93469006\lHaemangioma of liver", shape=box, peripheries=2, style=filled, fillcolor="#CCCCFF"];
"93471006" [label="93471006\lHaemangioma of skin", shape=box, peripheries=2, style=filled, fillcolor="#CCCCFF"];
"70153002" [label="70153002\lHaemorrhoids", shape=box, peripheries=2, style=filled, fillcolor="#CCCCFF"];
"233916004" [label="233916004\lHeart block", shape=box, peripheries=1, style=filled, fillcolor="#99CCFF"];
"56265001" [label="56265001\lHeart disease", shape=box, peripheries=2, style=filled, fillcolor="#CCCCFF"];
"84114007" [label="84114007\lHeart failure", shape=box, peripheries=1, style=filled, fillcolor="#99CCFF"];
"88610006" [label="88610006\lHeart murmur", shape=box, peripheries=1, style=filled, fillcolor="#99CCFF"];
"368009" [label="368009\lHeart valve disorder", shape=box, peripheries=2, style=filled, fillcolor="#CCCCFF"];
"40445007" [label="40445007\lHeart valve regurgitation", shape=box, peripheries=2, style=filled, fillcolor="#CCCCFF"];
"9177003" [label="9177003\lHistiocytic vasculitis of skin", shape=box, peripheries=1, style=filled, fillcolor="#99CCFF"];
"38341003" [label="38341003\lHypertensive disorder", shape=box, peripheries=1, style=filled, fillcolor="#99CCFF"];
"233873004" [label="233873004\lHypertrophic cardiomyopathy", shape=box, peripheries=2, style=filled, fillcolor="#CCCCFF"];
"45227007" [label="45227007\lHypertrophic obstructive cardiomyopathy", shape=box, peripheries=1, style=filled, fillcolor="#99CCFF"];
"195506001" [label="195506001\lIdiopathic hypotension", shape=box, peripheries=1, style=filled, fillcolor="#99CCFF"];
"697898008" [label="697898008\lIdiopathic pulmonary arterial hypertension", shape=box, peripheries=1, style=filled, fillcolor="#99CCFF"];
"191306005" [label="191306005\lImmunoglobulin A vasculitis", shape=box, peripheries=1, style=filled, fillcolor="#99CCFF"];
"23154005" [label="23154005\lIncreased diastolic arterial pressure", shape=box, peripheries=2, style=filled, fillcolor="#CCCCFF"];
"195450002" [label="195450002\lInfected varicose ulcer", shape=box, peripheries=2, style=filled, fillcolor="#CCCCFF"];
"734041006" [label="734041006\lInsufficiency of mesenteric artery", shape=box, peripheries=2, style=filled, fillcolor="#CCCCFF"];
"90458007" [label="90458007\lInternal haemorrhoids", shape=box, peripheries=2, style=filled, fillcolor="#CCCCFF"];
"721703004" [label="721703004\lInternal haemorrhoids grade I", shape=box, peripheries=1, style=filled, fillcolor="#99CCFF"];
"128609009" [label="128609009\lIntracranial aneurysm", shape=box, peripheries=2, style=filled, fillcolor="#CCCCFF"];
"361137007" [label="361137007\lIrregular heart beat", shape=box, peripheries=1, style=filled, fillcolor="#99CCFF"];
"414545008" [label="414545008\lIschaemic heart disease", shape=box, peripheries=2, style=filled, fillcolor="#CCCCFF"];
"81681009" [label="81681009\lJunctional premature beats", shape=box, peripheries=1, style=filled, fillcolor="#99CCFF"];
"697930002" [label="697930002\lLabile hypertension due to being in a clinical environment", shape=box, peripheries=1, style=filled, fillcolor="#99CCFF"];
"63467002" [label="63467002\lLeft bundle branch block", shape=box, peripheries=2, style=filled, fillcolor="#CCCCFF"];
"85232009" [label="85232009\lLeft heart failure", shape=box, peripheries=2, style=filled, fillcolor="#CCCCFF"];
"55827005" [label="55827005\lLeft ventricular hypertrophy", shape=box, peripheries=2, style=filled, fillcolor="#CCCCFF"];
"25488008" [label="25488008\lLeft ventricular hypertrophy by electrocardiogram", shape=box, peripheries=2, style=filled, fillcolor="#CCCCFF"];
"238772004" [label="238772004\lLivedo reticularis", shape=box, peripheries=1, style=filled, fillcolor="#99CCFF"];
"45007003" [label="45007003\lLow blood pressure", shape=box, peripheries=1, style=filled, fillcolor="#99CCFF"];
"271870002" [label="271870002\lLow blood pressure reading", shape=box, peripheries=1, style=filled, fillcolor="#99CCFF"];
"78975002" [label="78975002\lMalignant essential hypertension", shape=box, peripheries=2, style=filled, fillcolor="#CCCCFF"];
"70272006" [label="70272006\lMalignant hypertension", shape=box, peripheries=1, style=filled, fillcolor="#99CCFF"];
"35265002" [label="35265002\lMallory-Weiss syndrome", shape=box, peripheries=2, style=filled, fillcolor="#CCCCFF"];
"38921001" [label="38921001\lMeasles with complication", shape=box, peripheries=2, style=filled, fillcolor="#CCCCFF"];
"23186000" [label="23186000\lMenstrual migraine", shape=box, peripheries=1, style=filled, fillcolor="#99CCFF"];
"37796009" [label="37796009\lMigraine", shape=box, peripheries=1, style=filled, fillcolor="#99CCFF"];
"230465000" [label="230465000\lMigraine aura without headache", shape=box, peripheries=1, style=filled, fillcolor="#99CCFF"];
"4473006" [label="4473006\lMigraine with aura", shape=box, peripheries=1, style=filled, fillcolor="#99CCFF"];
"56097005" [label="56097005\lMigraine without aura", shape=box, peripheries=1, style=filled, fillcolor="#99CCFF"];
"194736003" [label="194736003\lMitral and aortic incompetence", shape=box, peripheries=2, style=filled, fillcolor="#CCCCFF"];
"11851006" [label="11851006\lMitral valve disorder", shape=box, peripheries=2, style=filled, fillcolor="#CCCCFF"];
"409712001" [label="409712001\lMitral valve prolapse", shape=box, peripheries=2, style=filled, fillcolor="#CCCCFF"];
"48724000" [label="48724000\lMitral valve regurgitation", shape=box, peripheries=2, style=filled, fillcolor="#CCCCFF"];
"79619009" [label="79619009\lMitral valve stenosis", shape=box, peripheries=2, style=filled, fillcolor="#CCCCFF"];
"54016002" [label="54016002\lMobitz type I incomplete atrioventricular block", shape=box, peripheries=1, style=filled, fillcolor="#99CCFF"];
"56267009" [label="56267009\lMulti-infarct dementia", shape=box, peripheries=2, style=filled, fillcolor="#CCCCFF"];
"22298006" [label="22298006\lMyocardial infarction", shape=box, peripheries=2, style=filled, fillcolor="#CCCCFF"];
"414795007" [label="414795007\lMyocardial ischaemia", shape=box, peripheries=1, style=filled, fillcolor="#99CCFF"];
"50920009" [label="50920009\lMyocarditis", shape=box, peripheries=2, style=filled, fillcolor="#CCCCFF"];
"32916005" [label="32916005\lNephrosclerosis", shape=box, peripheries=2, style=filled, fillcolor="#CCCCFF"];
"71792006" [label="71792006\lNodal rhythm disorder", shape=box, peripheries=1, style=filled, fillcolor="#99CCFF"];
"55275006" [label="55275006\lNodular vasculitis", shape=box, peripheries=1, style=filled, fillcolor="#99CCFF"];
"373606000" [label="373606000\lOcclusive stroke", shape=box, peripheries=2, style=filled, fillcolor="#CCCCFF"];
"28670008" [label="28670008\lOesophageal varices", shape=box, peripheries=2, style=filled, fillcolor="#CCCCFF"];
"28651003" [label="28651003\lOrthostatic hypotension", shape=box, peripheries=1, style=filled, fillcolor="#99CCFF"];
"21877004" [label="21877004\lOsler haemorrhagic telangiectasia syndrome", shape=box, peripheries=1, style=filled, fillcolor="#99CCFF"];
"301358001" [label="301358001\lPain of cardiovascular structure", shape=box, peripheries=2, style=filled, fillcolor="#CCCCFF"];
"80313002" [label="80313002\lPalpitations", shape=box, peripheries=1, style=filled, fillcolor="#99CCFF"];
"116288000" [label="116288000\lParalytic stroke", shape=box, peripheries=1, style=filled, fillcolor="#99CCFF"];
"282825002" [label="282825002\lParoxysmal atrial fibrillation", shape=box, peripheries=1, style=filled, fillcolor="#99CCFF"];
"67198005" [label="67198005\lParoxysmal supraventricular tachycardia", shape=box, peripheries=1, style=filled, fillcolor="#99CCFF"];
"12026006" [label="12026006\lParoxysmal tachycardia", shape=box, peripheries=1, style=filled, fillcolor="#99CCFF"];
"195039008" [label="195039008\lPartial atrioventricular block", shape=box, peripheries=1, style=filled, fillcolor="#99CCFF"];
"83330001" [label="83330001\lPatent ductus arteriosus", shape=box, peripheries=2, style=filled, fillcolor="#CCCCFF"];
"39402007" [label="39402007\lPelvic congestion syndrome", shape=box, peripheries=1, style=filled, fillcolor="#99CCFF"];
"3238004" [label="3238004\lPericarditis", shape=box, peripheries=2, style=filled, fillcolor="#CCCCFF"];
"127014009" [label="127014009\lPeripheral angiopathy due to diabetes mellitus", shape=box, peripheries=2, style=filled, fillcolor="#CCCCFF"];
"399957001" [label="399957001\lPeripheral arterial occlusive disease", shape=box, peripheries=2, style=filled, fillcolor="#CCCCFF"];
"233958001" [label="233958001\lPeripheral ischaemia", shape=box, peripheries=2, style=filled, fillcolor="#CCCCFF"];
"400047006" [label="400047006\lPeripheral vascular disease", shape=box, peripheries=1, style=filled, fillcolor="#99CCFF"];
"20696009" [label="20696009\lPeripheral venous insufficiency", shape=box, peripheries=2, style=filled, fillcolor="#CCCCFF"];
"61599003" [label="61599003\lPhlebitis", shape=box, peripheries=2, style=filled, fillcolor="#CCCCFF"];
"155441006" [label="155441006\lPolyarteritis nodosa", shape=box, peripheries=1, style=filled, fillcolor="#99CCFF"];
"233978009" [label="233978009\lPopliteal entrapment syndrome", shape=box, peripheries=1, style=filled, fillcolor="#99CCFF"];
"416377005" [label="416377005\lPort-wine stain of skin", shape=box, peripheries=1, style=filled, fillcolor="#99CCFF"];
"34742003" [label="34742003\lPortal hypertension", shape=box, peripheries=1, style=filled, fillcolor="#99CCFF"];
"17920008" [label="17920008\lPortal vein thrombosis", shape=box, peripheries=2, style=filled, fillcolor="#CCCCFF"];
"398254007" [label="398254007\lPre-eclampsia", shape=box, peripheries=1, style=filled, fillcolor="#99CCFF"];
"48194001" [label="48194001\lPregnancy-induced hypertension", shape=box, peripheries=1, style=filled, fillcolor="#99CCFF"];
"4557003" [label="4557003\lPreinfarction syndrome", shape=box, peripheries=1, style=filled, fillcolor="#99CCFF"];
"29717002" [label="29717002\lPremature beats", shape=box, peripheries=1, style=filled, fillcolor="#99CCFF"];
"87343002" [label="87343002\lPrinzmetal angina", shape=box, peripheries=1, style=filled, fillcolor="#99CCFF"];
"267042006" [label="267042006\lProminent veins", shape=box, peripheries=1, style=filled, fillcolor="#99CCFF"];
"59282003" [label="59282003\lPulmonary embolism", shape=box, peripheries=2, style=filled, fillcolor="#CCCCFF"];
"61086009" [label="61086009\lPulse irregular", shape=box, peripheries=1, style=filled, fillcolor="#99CCFF"];
"195295006" [label="195295006\lRaynauds disease", shape=box, peripheries=1, style=filled, fillcolor="#99CCFF"];
"302233006" [label="302233006\lRenal artery stenosis", shape=box, peripheries=2, style=filled, fillcolor="#CCCCFF"];
"419230002" [label="419230002\lRenal bruit", shape=box, peripheries=2, style=filled, fillcolor="#CCCCFF"];
"232035005" [label="232035005\lRetinal artery occlusion", shape=box, peripheries=2, style=filled, fillcolor="#CCCCFF"];
"79267007" [label="79267007\lRetinal migraine", shape=box, peripheries=1, style=filled, fillcolor="#99CCFF"];
"23685000" [label="23685000\lRheumatic heart disease", shape=box, peripheries=1, style=filled, fillcolor="#99CCFF"];
"31085000" [label="31085000\lRheumatic mitral regurgitation", shape=box, peripheries=2, style=filled, fillcolor="#CCCCFF"];
"86466006" [label="86466006\lRheumatic mitral stenosis", shape=box, peripheries=2, style=filled, fillcolor="#CCCCFF"];
"59118001" [label="59118001\lRight bundle branch block", shape=box, peripheries=2, style=filled, fillcolor="#CCCCFF"];
"367363000" [label="367363000\lRight ventricular failure", shape=box, peripheries=2, style=filled, fillcolor="#CCCCFF"];
"31992008" [label="31992008\lSecondary hypertension", shape=box, peripheries=1, style=filled, fillcolor="#99CCFF"];
"36083008" [label="36083008\lSick sinus syndrome", shape=box, peripheries=1, style=filled, fillcolor="#99CCFF"];
"233843008" [label="233843008\lSilent myocardial infarction", shape=box, peripheries=1, style=filled, fillcolor="#99CCFF"];
"233823002" [label="233823002\lSilent myocardial ischaemia", shape=box, peripheries=2, style=filled, fillcolor="#CCCCFF"];
"49710005" [label="49710005\lSinus bradycardia", shape=box, peripheries=1, style=filled, fillcolor="#99CCFF"];
"60423000" [label="60423000\lSinus node dysfunction", shape=box, peripheries=1, style=filled, fillcolor="#99CCFF"];
"11092001" [label="11092001\lSinus tachycardia", shape=box, peripheries=1, style=filled, fillcolor="#99CCFF"];
"248672008" [label="248672008\lSoft systolic murmur", shape=box, peripheries=1, style=filled, fillcolor="#99CCFF"];
"195382003" [label="195382003\lSpider naevus", shape=box, peripheries=1, style=filled, fillcolor="#99CCFF"];
"233819005" [label="233819005\lStable angina", shape=box, peripheries=1, style=filled, fillcolor="#99CCFF"];
"56975005" [label="56975005\lStrawberry naevus of skin", shape=box, peripheries=2, style=filled, fillcolor="#CCCCFF"];
"68109007" [label="68109007\lStricture of artery", shape=box, peripheries=2, style=filled, fillcolor="#CCCCFF"];
"66893008" [label="66893008\lSubacute endocarditis", shape=box, peripheries=2, style=filled, fillcolor="#CCCCFF"];
"300921000" [label="300921000\lSubclavian artery stenosis", shape=box, peripheries=2, style=filled, fillcolor="#CCCCFF"];
"15258001" [label="15258001\lSubclavian steal syndrome", shape=box, peripheries=1, style=filled, fillcolor="#99CCFF"];
"275517008" [label="275517008\lSuperficial vein thrombosis", shape=box, peripheries=2, style=filled, fillcolor="#CCCCFF"];
"63593006" [label="63593006\lSupraventricular premature beats", shape=box, peripheries=1, style=filled, fillcolor="#99CCFF"];
"6456007" [label="6456007\lSupraventricular tachycardia", shape=box, peripheries=1, style=filled, fillcolor="#99CCFF"];
"271594007" [label="271594007\lSyncope", shape=box, peripheries=1, style=filled, fillcolor="#99CCFF"];
"56218007" [label="56218007\lSystolic hypertension", shape=box, peripheries=1, style=filled, fillcolor="#99CCFF"];
"31574009" [label="31574009\lSystolic murmur", shape=box, peripheries=1, style=filled, fillcolor="#99CCFF"];
"6285003" [label="6285003\lTachyarrhythmia", shape=box, peripheries=2, style=filled, fillcolor="#CCCCFF"];
"3424008" [label="3424008\lTachycardia", shape=box, peripheries=2, style=filled, fillcolor="#CCCCFF"];
"247479008" [label="247479008\lTelangiectasia disorder", shape=box, peripheries=2, style=filled, fillcolor="#CCCCFF"];
"400130008" [label="400130008\lTemporal arteritis", shape=box, peripheries=2, style=filled, fillcolor="#CCCCFF"];
"86299006" [label="86299006\lTetralogy of Fallot", shape=box, peripheries=2, style=filled, fillcolor="#CCCCFF"];
"64156001" [label="64156001\lThrombophlebitis", shape=box, peripheries=2, style=filled, fillcolor="#CCCCFF"];
"1748006" [label="1748006\lThrombophlebitis of deep femoral vein", shape=box, peripheries=2, style=filled, fillcolor="#CCCCFF"];
"40198004" [label="40198004\lThrombophlebitis of deep veins of lower extremity", shape=box, peripheries=2, style=filled, fillcolor="#CCCCFF"];
"40283005" [label="40283005\lThrombophlebitis of superficial veins of lower extremity", shape=box, peripheries=2, style=filled, fillcolor="#CCCCFF"];
"26373009" [label="26373009\lThrombosed external haemorrhoids", shape=box, peripheries=2, style=filled, fillcolor="#CCCCFF"];
"75955007" [label="75955007\lThrombosed haemorrhoids", shape=box, peripheries=2, style=filled, fillcolor="#CCCCFF"];
"281595001" [label="281595001\lThrombosis of inferior vena cava", shape=box, peripheries=2, style=filled, fillcolor="#CCCCFF"];
"46085004" [label="46085004\lThrombosis of retinal vein", shape=box, peripheries=2, style=filled, fillcolor="#CCCCFF"];
"266257000" [label="266257000\lTransient cerebral ischaemia", shape=box, peripheries=1, style=filled, fillcolor="#99CCFF"];
"52698002" [label="52698002\lTransient hypertension", shape=box, peripheries=1, style=filled, fillcolor="#99CCFF"];
"111287006" [label="111287006\lTricuspid valve regurgitation", shape=box, peripheries=2, style=filled, fillcolor="#CCCCFF"];
"233817007" [label="233817007\lTriple vessel disease of the heart", shape=box, peripheries=1, style=filled, fillcolor="#99CCFF"];
"51070004" [label="51070004\lVaricocele", shape=box, peripheries=2, style=filled, fillcolor="#CCCCFF"];
"304026004" [label="304026004\lVaricose ulcer of lower extremity", shape=box, peripheries=2, style=filled, fillcolor="#CCCCFF"];
"72866009" [label="72866009\lVaricose veins of lower extremity", shape=box, peripheries=2, style=filled, fillcolor="#CCCCFF"];
"275700003" [label="275700003\lVaricose veins of the leg with eczema", shape=box, peripheries=1, style=filled, fillcolor="#99CCFF"];
"128187005" [label="128187005\lVascular headache", shape=box, peripheries=1, style=filled, fillcolor="#99CCFF"];
"31996006" [label="31996006\lVasculitis", shape=box, peripheries=2, style=filled, fillcolor="#CCCCFF"];
"398665005" [label="398665005\lVasovagal syncope", shape=box, peripheries=1, style=filled, fillcolor="#99CCFF"];
"234050002" [label="234050002\lVenous insufficiency of leg", shape=box, peripheries=1, style=filled, fillcolor="#99CCFF"];
"24596005" [label="24596005\lVenous retinal branch occlusion", shape=box, peripheries=2, style=filled, fillcolor="#CCCCFF"];
"71897006" [label="71897006\lVenous stasis", shape=box, peripheries=2, style=filled, fillcolor="#CCCCFF"];
"111293003" [label="111293003\lVenous thrombosis", shape=box, peripheries=2, style=filled, fillcolor="#CCCCFF"];
"128060009" [label="128060009\lVenous varices", shape=box, peripheries=2, style=filled, fillcolor="#CCCCFF"];
"90539001" [label="90539001\lVentricular aneurysm", shape=box, peripheries=2, style=filled, fillcolor="#CCCCFF"];
"11157007" [label="11157007\lVentricular bigeminy", shape=box, peripheries=1, style=filled, fillcolor="#99CCFF"];
"71908006" [label="71908006\lVentricular fibrillation", shape=box, peripheries=1, style=filled, fillcolor="#99CCFF"];
"111288001" [label="111288001\lVentricular flutter", shape=box, peripheries=1, style=filled, fillcolor="#99CCFF"];
"17338001" [label="17338001\lVentricular premature beats", shape=box, peripheries=1, style=filled, fillcolor="#99CCFF"];
"30288003" [label="30288003\lVentricular septal defect", shape=box, peripheries=2, style=filled, fillcolor="#CCCCFF"];
"25569003" [label="25569003\lVentricular tachycardia", shape=box, peripheries=2, style=filled, fillcolor="#CCCCFF"];
"74390002" [label="74390002\lWolff-Parkinson-White pattern", shape=box, peripheries=1, style=filled, fillcolor="#99CCFF"];
}